Datos experimentales/DATOS 26-3-24/ALL0016/A0016CH1.CSV

Memory Length,4000,
Trigger Level,0.000E+00,
Source,CH1,
Vertical Units,V,
Vertical Scale,2.000E-02,
Vertical Position,-1.200E-02,
Horizontal Units,s,
Horizontal Scale,1.000E+00,
Horizontal Position,0.000E+00,
Horizontal Mode,Roll Mode,
Sampling Period,4.000E-03,
Firmware, V1.21,
Waveform Data,
-34,
-33,
-34,
-33,
-34,
-33,
-33,
-34,
-33,
-34,
-35,
-35,
-34,
-34,
-34,
-34,
-34,
-34,
-35,
-33,
-35,
-33,
-33,
-34,
-34,
-34,
-34,
-33,
-34,
-34,
-35,
-34,
-34,
-33,
-34,
-34,
-33,
-35,
-33,
-33,
-33,
-34,
-33,
-34,
-33,
-35,
-33,
-34,
-35,
-34,
-34,
-34,
-34,
-35,
-35,
-33,
-34,
-34,
-33,
-34,
-33,
-34,
-34,
-34,
-33,
-34,
-33,
-33,
-34,
-35,
-33,
-35,
-33,
-34,
-34,
-34,
-35,
-34,
-33,
-33,
-34,
-34,
-33,
-34,
-34,
-34,
-34,
-34,
-33,
-33,
-34,
-33,
-35,
-33,
-35,
-35,
-34,
-33,
-34,
-34,
-33,
-35,
-33,
-33,
-33,
-34,
-34,
-34,
-33,
-33,
-33,
-35,
-34,
-34,
-34,
-35,
-34,
-34,
-34,
-34,
-34,
-33,
-34,
-35,
-35,
-34,
-34,
-34,
-34,
-34,
-34,
-34,
-34,
-33,
-35,
-33,
-34,
-34,
-34,
-34,
-34,
-33,
-35,
-34,
-34,
-34,
-35,
-35,
-35,
-34,
-33,
-33,
-36,
-34,
-34,
-34,
-34,
-33,
-34,
-33,
-34,
-35,
-34,
-34,
-34,
-34,
-34,
-34,
-34,
-34,
-34,
-35,
-34,
-34,
-33,
-35,
-33,
-35,
-34,
-34,
-34,
-35,
-34,
-34,
-35,
-34,
-34,
-33,
-35,
-34,
-34,
-35,
-34,
-34,
-35,
-35,
-35,
-34,
-35,
-34,
-34,
-34,
-34,
-34,
-35,
-35,
-33,
-35,
-34,
-34,
-34,
-34,
-33,
-35,
-34,
-35,
-33,
-35,
-34,
-35,
-34,
-35,
-34,
-34,
-34,
-34,
-34,
-34,
-35,
-34,
-33,
-35,
-34,
-35,
-34,
-35,
-34,
-33,
-34,
-34,
-35,
-35,
-34,
-33,
-34,
-34,
-34,
-35,
-34,
-35,
-33,
-35,
-34,
-34,
-34,
-33,
-35,
-33,
-34,
-35,
-33,
-34,
-34,
-34,
-34,
-34,
-34,
-34,
-34,
-34,
-34,
-34,
-35,
-34,
-34,
-35,
-34,
-35,
-34,
-35,
-35,
-34,
-34,
-34,
-34,
-34,
-34,
-34,
-35,
-34,
-34,
-34,
-34,
-34,
-34,
-34,
-35,
-35,
-35,
-34,
-35,
-35,
-34,
-34,
-34,
-34,
-34,
-33,
-34,
-35,
-35,
-34,
-34,
-35,
-34,
-34,
-34,
-34,
-33,
-35,
-33,
-35,
-34,
-35,
-34,
-34,
-34,
-34,
-34,
-34,
-35,
-34,
-34,
-34,
-35,
-33,
-34,
-34,
-34,
-34,
-34,
-33,
-35,
-35,
-34,
-34,
-35,
-34,
-34,
-35,
-34,
-34,
-34,
-34,
-34,
-34,
-35,
-34,
-35,
-34,
-33,
-35,
-33,
-34,
-35,
-34,
-34,
-34,
-34,
-34,
-34,
-33,
-35,
-34,
-34,
-33,
-34,
-34,
-33,
-34,
-34,
-34,
-35,
-34,
-34,
-34,
-34,
-34,
-34,
-35,
-35,
-34,
-34,
-35,
-33,
-34,
-34,
-35,
-35,
-34,
-34,
-34,
-34,
-35,
-33,
-33,
-34,
-34,
-35,
-34,
-34,
-35,
-35,
-34,
-35,
-34,
-34,
-35,
-34,
-34,
-35,
-34,
-35,
-33,
-34,
-34,
-34,
-34,
-33,
-35,
-34,
-34,
-34,
-34,
-34,
-35,
-34,
-33,
-35,
-34,
-34,
-34,
-34,
-33,
-35,
-34,
-35,
-33,
-35,
-33,
-35,
-33,
-34,
-34,
-33,
-33,
-34,
-35,
-34,
-35,
-34,
-34,
-34,
-34,
-33,
-35,
-34,
-33,
-33,
-35,
-33,
-35,
-34,
-34,
-34,
-34,
-34,
-33,
-34,
-33,
-35,
-34,
-34,
-34,
-34,
-35,
-34,
-34,
-35,
-34,
-34,
-34,
-35,
-34,
-35,
-34,
-34,
-34,
-34,
-35,
-34,
-34,
-33,
-34,
-33,
-34,
-35,
-35,
-33,
-35,
-33,
-35,
-34,
-35,
-35,
-34,
-34,
-34,
-34,
-34,
-35,
-34,
-35,
-34,
-34,
-35,
-35,
-35,
-35,
-34,
-35,
-34,
-34,
-34,
-34,
-34,
-33,
-34,
-34,
-34,
-35,
-35,
-33,
-35,
-34,
-34,
-34,
-35,
-34,
-35,
-33,
-35,
-34,
-35,
-33,
-33,
-34,
-34,
-34,
-34,
-34,
-33,
-35,
-33,
-33,
-34,
-34,
-34,
-35,
-34,
-34,
-34,
-35,
-34,
-33,
-34,
-33,
-35,
-35,
-35,
-35,
-34,
-34,
-34,
-34,
-35,
-34,
-35,
-33,
-34,
-33,
-35,
-33,
-35,
-34,
-34,
-34,
-34,
-34,
-35,
-35,
-34,
-35,
-34,
-34,
-35,
-34,
-35,
-34,
-34,
-35,
-34,
-35,
-34,
-34,
-34,
-34,
-35,
-34,
-34,
-33,
-34,
-34,
-35,
-35,
-35,
-33,
-35,
-34,
-34,
-35,
-35,
-33,
-34,
-34,
-34,
-35,
-33,
-34,
-34,
-34,
-34,
-34,
-34,
-34,
-33,
-34,
-34,
-34,
-33,
-34,
-34,
-34,
-34,
-34,
-35,
-35,
-34,
-35,
-35,
-33,
-34,
-34,
-34,
-34,
-34,
-34,
-35,
-33,
-33,
-33,
-34,
-34,
-34,
-35,
-35,
-34,
-34,
-34,
-35,
-33,
-35,
-34,
-33,
-33,
-34,
-34,
-33,
-34,
-33,
-34,
-33,
-34,
-35,
-34,
-34,
-34,
-34,
-34,
-34,
-35,
-34,
-35,
-34,
-34,
-33,
-34,
-34,
-34,
-34,
-34,
-35,
-35,
-35,
-34,
-34,
-35,
-34,
-34,
-35,
-34,
-35,
-33,
-35,
-33,
-34,
-35,
-35,
-33,
-35,
-34,
-34,
-35,
-34,
-35,
-34,
-34,
-35,
-34,
-35,
-35,
-35,
-34,
-34,
-34,
-34,
-34,
-33,
-34,
-34,
10,
10,
11,
8,
9,
7,
8,
8,
8,
9,
8,
11,
8,
10,
12,
9,
9,
9,
9,
11,
11,
10,
9,
9,
9,
9,
7,
9,
9,
8,
9,
10,
9,
9,
9,
10,
8,
9,
11,
8,
8,
8,
8,
9,
10,
8,
8,
3,
8,
9,
8,
8,
10,
8,
11,
8,
7,
6,
9,
9,
8,
8,
8,
9,
9,
9,
8,
8,
9,
8,
9,
9,
9,
7,
7,
9,
9,
9,
9,
8,
8,
9,
4,
8,
8,
10,
10,
11,
8,
9,
8,
9,
5,
8,
9,
8,
8,
9,
9,
9,
8,
9,
9,
9,
11,
9,
9,
11,
7,
9,
9,
8,
8,
9,
8,
9,
8,
5,
9,
9,
8,
8,
9,
9,
9,
9,
8,
9,
9,
9,
9,
8,
9,
9,
8,
9,
9,
9,
8,
8,
9,
9,
10,
3,
8,
9,
9,
9,
9,
8,
9,
8,
8,
7,
9,
9,
8,
9,
9,
9,
9,
9,
8,
7,
9,
9,
9,
8,
8,
5,
9,
8,
10,
9,
8,
8,
8,
7,
7,
8,
10,
8,
8,
10,
9,
8,
9,
8,
7,
9,
8,
9,
9,
10,
9,
9,
8,
12,
9,
9,
8,
9,
9,
9,
7,
7,
9,
8,
8,
9,
8,
7,
7,
11,
8,
9,
8,
9,
8,
8,
8,
9,
9,
8,
8,
9,
9,
9,
9,
9,
8,
10,
10,
8,
9,
9,
8,
8,
9,
8,
12,
8,
9,
8,
9,
9,
9,
9,
8,
12,
9,
8,
9,
9,
8,
8,
10,
10,
10,
9,
8,
9,
7,
9,
8,
9,
8,
10,
9,
9,
9,
8,
8,
8,
8,
7,
8,
9,
8,
7,
8,
9,
9,
9,
9,
9,
10,
9,
8,
9,
9,
8,
8,
9,
8,
10,
6,
8,
8,
8,
8,
8,
9,
3,
8,
9,
9,
8,
9,
11,
9,
9,
9,
8,
9,
8,
8,
9,
9,
9,
7,
9,
9,
8,
10,
10,
11,
9,
9,
10,
8,
9,
8,
9,
8,
9,
9,
8,
9,
9,
8,
8,
8,
9,
9,
9,
8,
5,
9,
8,
8,
9,
9,
8,
9,
9,
7,
7,
8,
8,
8,
9,
9,
8,
7,
7,
7,
9,
9,
8,
9,
9,
9,
8,
9,
8,
9,
9,
8,
8,
8,
7,
5,
9,
12,
8,
9,
9,
8,
9,
9,
8,
8,
8,
9,
9,
8,
9,
11,
8,
7,
9,
9,
8,
8,
8,
8,
8,
9,
6,
11,
7,
10,
9,
8,
8,
9,
9,
8,
8,
10,
8,
9,
9,
9,
9,
10,
5,
8,
9,
9,
9,
9,
8,
8,
10,
11,
10,
8,
8,
8,
8,
9,
9,
9,
8,
8,
9,
9,
10,
9,
9,
9,
10,
6,
8,
9,
8,
9,
9,
8,
8,
7,
8,
9,
8,
9,
9,
9,
9,
9,
3,
3,
9,
9,
9,
9,
8,
9,
7,
8,
19,
9,
9,
8,
9,
9,
9,
11,
8,
7,
8,
10,
9,
9,
9,
9,
8,
9,
9,
9,
9,
8,
9,
9,
10,
8,
8,
12,
7,
9,
9,
9,
9,
9,
8,
9,
4,
10,
8,
9,
9,
9,
9,
9,
8,
8,
9,
8,
9,
8,
8,
8,
9,
7,
9,
9,
9,
8,
8,
9,
8,
7,
7,
9,
8,
9,
8,
8,
8,
9,
9,
8,
8,
9,
9,
8,
9,
9,
9,
9,
8,
9,
9,
7,
9,
9,
9,
8,
6,
9,
9,
8,
8,
9,
9,
11,
8,
8,
8,
8,
9,
9,
8,
9,
9,
8,
8,
9,
9,
9,
5,
13,
15,
15,
9,
8,
10,
9,
9,
9,
9,
9,
8,
9,
9,
11,
11,
9,
9,
8,
9,
9,
8,
9,
10,
10,
8,
10,
9,
9,
10,
9,
8,
10,
9,
3,
9,
8,
14,
3,
8,
8,
8,
8,
8,
9,
7,
10,
7,
9,
0,
9,
9,
9,
9,
9,
9,
8,
9,
10,
11,
8,
8,
8,
8,
8,
8,
8,
8,
8,
7,
9,
8,
9,
10,
10,
9,
8,
9,
8,
8,
9,
13,
8,
9,
8,
8,
9,
9,
7,
9,
11,
9,
8,
7,
5,
11,
9,
9,
9,
9,
9,
9,
8,
12,
11,
9,
8,
8,
8,
9,
9,
8,
8,
9,
9,
9,
8,
8,
10,
8,
9,
8,
8,
8,
9,
9,
9,
9,
8,
10,
7,
9,
8,
9,
11,
12,
7,
9,
9,
8,
9,
9,
9,
8,
8,
9,
6,
10,
7,
9,
7,
8,
8,
9,
8,
9,
7,
15,
9,
10,
9,
8,
9,
8,
8,
8,
9,
7,
6,
9,
9,
9,
9,
9,
9,
9,
9,
8,
8,
9,
9,
3,
8,
8,
8,
9,
8,
9,
8,
9,
8,
9,
9,
8,
8,
8,
9,
9,
10,
8,
11,
8,
9,
9,
8,
8,
8,
9,
9,
8,
10,
11,
8,
7,
8,
9,
9,
9,
9,
9,
8,
15,
15,
10,
11,
9,
8,
8,
3,
9,
9,
8,
9,
9,
8,
8,
8,
9,
8,
8,
9,
9,
9,
9,
10,
7,
9,
8,
9,
9,
8,
7,
10,
11,
9,
11,
11,
11,
11,
11,
13,
12,
12,
13,
12,
14,
12,
17,
16,
17,
19,
17,
18,
19,
20,
22,
22,
23,
25,
25,
25,
26,
25,
27,
27,
28,
28,
32,
31,
31,
31,
33,
37,
32,
35,
35,
39,
36,
37,
38,
40,
40,
40,
40,
40,
41,
41,
43,
44,
51,
44,
45,
49,
45,
47,
48,
50,
50,
52,
53,
58,
54,
51,
56,
57,
58,
56,
60,
57,
61,
61,
61,
64,
64,
65,
65,
65,
75,
68,
69,
70,
66,
71,
73,
73,
72,
74,
70,
75,
76,
74,
75,
74,
77,
76,
77,
79,
77,
77,
77,
79,
78,
77,
77,
79,
75,
79,
77,
79,
80,
78,
78,
79,
79,
79,
80,
80,
80,
79,
79,
80,
81,
79,
80,
77,
77,
81,
78,
80,
79,
77,
79,
79,
79,
78,
78,
77,
78,
79,
79,
78,
79,
79,
81,
79,
77,
77,
79,
77,
78,
77,
78,
78,
77,
77,
77,
77,
74,
71,
77,
76,
75,
77,
75,
76,
75,
75,
75,
72,
76,
75,
75,
74,
75,
74,
74,
73,
74,
71,
71,
73,
72,
73,
72,
72,
72,
71,
73,
71,
69,
74,
71,
71,
71,
71,
70,
71,
71,
68,
68,
67,
69,
65,
65,
67,
67,
67,
66,
66,
66,
66,
65,
64,
66,
65,
65,
67,
66,
65,
67,
67,
64,
66,
63,
63,
61,
63,
63,
63,
61,
62,
61,
62,
60,
60,
61,
59,
58,
59,
60,
61,
60,
60,
60,
59,
60,
59,
59,
59,
57,
55,
60,
59,
59,
56,
55,
57,
58,
56,
57,
56,
56,
56,
56,
56,
53,
54,
57,
55,
53,
55,
56,
53,
55,
55,
55,
52,
56,
53,
54,
53,
53,
53,
53,
47,
52,
53,
56,
56,
52,
52,
52,
51,
53,
52,
52,
50,
64,
51,
50,
51,
50,
50,
49,
49,
52,
49,
49,
49,
49,
45,
49,
50,
49,
48,
48,
48,
47,
51,
49,
49,
45,
49,
48,
49,
49,
48,
49,
48,
48,
48,
47,
45,
47,
47,
45,
47,
47,
47,
46,
46,
44,
47,
47,
45,
45,
45,
45,
44,
44,
43,
42,
45,
43,
44,
43,
43,
43,
44,
44,
45,
44,
44,
44,
45,
45,
43,
49,
43,
45,
45,
44,
43,
43,
42,
45,
42,
44,
43,
43,
43,
42,
44,
41,
41,
42,
45,
40,
40,
40,
39,
41,
40,
40,
39,
42,
40,
39,
39,
37,
39,
40,
40,
42,
41,
40,
39,
41,
44,
40,
40,
39,
39,
40,
39,
39,
41,
41,
39,
39,
40,
40,
39,
39,
39,
39,
39,
37,
36,
39,
43,
38,
36,
38,
38,
36,
37,
37,
37,
37,
39,
43,
33,
37,
36,
37,
36,
37,
36,
34,
36,
37,
36,
36,
39,
37,
37,
35,
37,
38,
37,
36,
38,
35,
35,
36,
36,
36,
36,
37,
36,
37,
40,
37,
32,
38,
34,
39,
37,
35,
35,
37,
36,
32,
33,
37,
35,
36,
33,
35,
35,
35,
35,
33,
33,
35,
32,
33,
35,
33,
32,
33,
33,
34,
32,
32,
32,
33,
33,
32,
33,
34,
33,
33,
35,
36,
32,
35,
36,
33,
33,
33,
33,
32,
31,
33,
34,
36,
37,
29,
33,
33,
33,
33,
33,
33,
32,
33,
35,
32,
33,
36,
33,
32,
32,
33,
31,
32,
31,
31,
29,
35,
31,
32,
31,
32,
32,
30,
31,
31,
30,
29,
32,
32,
31,
31,
32,
31,
31,
31,
29,
28,
28,
31,
30,
30,
30,
31,
29,
32,
29,
30,
29,
30,
31,
29,
31,
33,
32,
31,
31,
31,
29,
29,
32,
31,
31,
31,
30,
30,
32,
31,
29,
29,
31,
30,
29,
30,
29,
29,
31,
29,
29,
26,
29,
29,
31,
26,
26,
29,
28,
28,
28,
29,
28,
29,
31,
30,
26,
29,
29,
28,
28,
29,
29,
27,
27,
27,
29,
29,
28,
28,
28,
27,
28,
28,
24,
28,
26,
28,
27,
27,
25,
26,
24,
25,
27,
25,
26,
26,
26,
26,
27,
28,
26,
27,
26,
27,
26,
25,
25,
27,
25,
25,
27,
26,
26,
27,
27,
27,
21,
25,
28,
25,
28,
25,
27,
27,
25,
25,
25,
25,
25,
24,
25,
24,
24,
24,
25,
25,
25,
25,
25,
25,
28,
24,
23,
24,
24,
25,
24,
22,
25,
23,
23,
23,
20,
19,
23,
23,
20,
21,
23,
23,
23,
24,
21,
23,
22,
22,
22,
21,
21,
21,
20,
23,
21,
23,
21,
21,
21,
21,
21,
22,
23,
23,
23,
18,
14,
21,
20,
23,
21,
21,
22,
23,
23,
21,
21,
22,
20,
23,
23,
23,
21,
23,
21,
23,
21,
19,
19,
19,
22,
22,
22,
21,
23,
23,
22,
21,
23,
21,
21,
21,
21,
21,
20,
21,
21,
21,
19,
21,
21,
20,
20,
21,
20,
21,
21,
21,
21,
20,
19,
13,
20,
20,
21,
19,
19,
19,
19,
21,
19,
19,
19,
20,
19,
20,
20,
19,
19,
18,
19,
18,
19,
17,
19,
19,
19,
16,
18,
18,
19,
19,
18,
19,
19,
17,
17,
19,
17,
17,
19,
19,
17,
16,
18,
19,
17,
18,
17,
17,
16,
18,
17,
17,
17,
17,
19,
19,
17,
17,
17,
15,
17,
17,
16,
17,
17,
17,
17,
18,
16,
18,
17,
18,
17,
17,
16,
14,
16,
17,
16,
16,
18,
19,
17,
16,
17,
16,
17,
18,
16,
16,
16,
17,
16,
16,
16,
17,
17,
16,
20,
16,
16,
16,
17,
17,
17,
16,
16,
16,
13,
23,
16,
14,
16,
16,
15,
16,
15,
17,
15,
16,
17,
17,
16,
17,
15,
15,
16,
16,
15,
15,
19,
16,
15,
16,
16,
16,
15,
16,
16,
14,
15,
16,
16,
15,
15,
16,
16,
15,
17,
17,
16,
16,
20,
17,
16,
15,
15,
16,
17,
17,
15,
16,
16,
20,
16,
16,
16,
15,
16,
16,
15,
15,
15,
15,
16,
19,
19,
16,
15,
15,
15,
16,
15,
15,
14,
13,
15,
15,
15,
15,
15,
15,
15,
15,
15,
13,
13,
15,
14,
15,
15,
15,
17,
19,
16,
21,
16,
16,
15,
13,
15,
12,
15,
14,
13,
15,
15,
14,
11,
15,
14,
14,
14,
15,
14,
14,
15,
15,
13,
14,
14,
16,
13,
14,
14,
14,
13,
13,
14,
14,
12,
8,
13,
13,
11,
12,
13,
12,
12,
13,
13,
11,
13,
15,
12,
12,
12,
12,
9,
11,
12,
14,
14,
11,
11,
12,
11,
12,
12,
11,
12,
12,
10,
10,
12,
11,
11,
12,
12,
10,
12,
11,
10,
11,
10,
11,
10,
11,
11,
12,
11,
11,
11,
9,
11,
8,
10,
9,
11,
11,
10,
12,
11,
8,
10,
13,
13,
11,
12,
9,
11,
12,
11,
9,
11,
11,
11,
7,
9,
11,
11,
10,
11,
9,
10,
10,
9,
11,
15,
11,
11,
8,
11,
9,
9,
10,
9,
11,
11,
12,
10,
10,
10,
11,
12,
12,
11,
9,
9,
11,
8,
9,
11,
10,
9,
9,
11,
13,
10,
9,
14,
14,
11,
9,
11,
9,
11,
9,
11,
11,
11,
10,
10,
10,
11,
11,
11,
12,
11,
11,
11,
11,
10,
9,
5,
9,
10,
11,
10,
10,
12,
9,
11,
12,
9,
11,
10,
6,
11,
10,
13,
10,
10,
12,
12,
9,
5,
12,
11,
10,
11,
11,
9,
11,
11,
11,
10,
12,
12,
16,
11,
11,
11,
11,
11,
10,
11,
10,
7,
9,
11,
11,
11,
12,
13,
10,
11,
12,
10,
9,
11,
11,
10,
9,
11,
11,
11,
11,
10,
11,
11,
11,
11,
10,
10,
10,
10,
10,
12,
12,
9,
7,
11,
11,
11,
10,
11,
11,
12,
9,
10,
9,
12,
12,
8,
11,
11,
9,
11,
11,
8,
11,
11,
8,
10,
11,
13,
13,
13,
11,
11,
11,
11,
11,
13,
11,
14,
11,
10,
9,
11,
9,
10,
11,
11,
3,
10,
13,
11,
11,
12,
12,
11,
12,
9,
3,
8,
8,
13,
10,
10,
10,
10,
10,
12,
12,
12,
16,
9,
9,
10,
10,
10,
10,
10,
10,
12,
12,
12,
9,
11,
11,
8,
10,
10,
10,
12,
11,
11,
8,
12,
11,
12,
12,
11,
9,
11,
11,
11,
11,
9,
10,
11,
12,
11,
11,
11,
12,
10,
12,
10,
5,
12,
12,
12,
11,
11,
11,
11,
11,
12,
12,
11,
11,
11,
11,
11,
11,
11,
11,
11,
11,
12,
14,
12,
13,
12,
10,
11,
11,
11,
11,
11,
11,
9,
11,
11,
11,
10,
11,
11,
9,
12,
13,
11,
9,
12,
12,
10,
11,
12,
12,
13,
12,
11,
13,
11,
12,
10,
12,
11,
11,
12,
12,
11,
11,
12,
12,
8,
10,
9,
10,
12,
11,
11,
11,
11,
11,
12,
9,
12,
11,
13,
12,
11,
11,
11,
10,
10,
12,
10,
11,
12,
13,
12,
12,
11,
9,
12,
11,
11,
10,
10,
10,
11,
11,
12,
10,
11,
10,
8,
9,
15,
10,
11,
9,
9,
9,
9,
10,
10,
9,
9,
10,
9,
9,
11,
11,
11,
11,
11,
9,
9,
11,
7,
11,
8,
11,
9,
9,
9,
9,
9,
9,
11,
9,
9,
12,
11,
8,
9,
10,
10,
9,
9,
10,
7,
9,
11,
9,
9,
9,
10,
10,
9,
9,
9,
11,
8,
10,
8,
9,
9,
9,
9,
8,
8,
8,
7,
8,
8,
9,
8,
8,
9,
8,
9,
9,
10,
8,
3,
9,
9,
9,
9,
9,
8,
8,
9,
9,
11,
11,
9,
10,
8,
7,
9,
7,
7,
8,
8,
11,
8,
8,
8,
9,
9,
9,
11,
9,
8,
9,
9,
9,
8,
8,
8,
8,
9,
8,
9,
10,
10,
10,
8,
8,
9,
9,
9,
9,
9,
9,
9,
9,
8,
8,
8,
9,
9,
9,
9,
9,
9,
8,
9,
10,
10,
13,
13,
13,
8,
8,
9,
9,
9,
9,
9,
11,
6,
8,
8,
9,
9,
9,
8,
9,
9,
8,
7,
8,
8,
8,
9,
8,
8,
7,
7,
7,
9,
8,
7,
4,
8,
8,
7,
9,
10,
8,
9,
9,
12,
12,
9,
9,
11,
9,
9,
9,
8,
9,
9,
9,
11,
11,
9,
8,
9,
9,
9,
9,
9,
11,
9,
8,
10,
9,
9,
9,
9,
7,
9,
9,
9,
8,
7,
10,
9,
9,
11,
8,
9,
9,
8,
9,
9,
8,
13,
8,
8,
8,
8,
9,
8,
9,
8,
8,
8,
12,
7,
7,
9,
8,
9,
9,
9,
9,
9,
11,
11,
8,
7,
8,
8,
8,
9,
9,
9,
10,
8,
3,
10,
15,
10,
9,
7,
8,
8,
9,
9,
8,
9,
9,
9,
10,
9,
9,
9,
9,
9,
6,
6,
9,
9,
8,
9,
8,
8,
8,
9,
9,
8,
10,
7,
9,
9,
8,
9,
9,
9,
9,
8,
11,
12,
8,
6,
7,
9,
9,
8,
8,
8,
8,
9,
6,
10,
9,
9,
8,
9,
8,
9,
9,
10,
11,
11,
9,
9,
7,
7,
8,
8,
9,
9,
8,
8,
13,
8,
9,
9,
9,
9,
8,
9,
10,
6,
10,
9,
8,
8,
8,
8,
9,
9,
9,
8,
10,
16,
11,
13,
12,
10,
6,
10,
9,
8,
10,
10,
9,
9,
9,
9,
8,
3,
10,
9,
9,
9,
8,
10,
8,
8,
10,
8,
7,
9,
9,
9,
9,
10,
10,
9,
9,
10,
9,
10,
9,
9,
9,
9,
9,
13,
13,
9,
10,
9,
11,
10,
9,
11,
9,
9,
8,
9,
12,
8,
9,
9,
9,
8,
9,
8,
9,
9,
5,
5,
9,
7,
9,
8,
8,
8,
8,
9,
9,
10,
8,
8,
8,
8,
4,
9,
9,
8,
9,
8,
11,
8,
9,
9,
10,
8,
7,
7,
9,
8,
9,
10,
11,
8,
7,
9,
10,
10,
8,
5,
5,
9,
8,
9,
9,
9,
9,
8,
8,
9,
11,
10,
9,
11,
11,
8,
9,
12,
10,
9,
8,
9,
9,
9,
9,
9,
8,
8,
8,
9,
10,
8,
9,
9,
9,
9,
8,
9,
8,
9,
9,
9,
8,
8,
9,
9,
9,
11,
8,
8,
9,
9,
9,
8,
9,
11,
9,
9,
9,
10,
13,
9,
6,
9,
9,
10,
9,
8,
9,
9,
9,
13,
8,
7,
9,
8,
8,
8,
9,
9,
8,
9,
9,
9,
9,
9,
9,
8,
9,
8,
7,
8,
8,
8,
8,
8,
9,
8,
8,
10,
8,
8,
9,
7,
9,
8,
9,
9,
8,
8,
8,
10,
10,
8,
9,
15,
8,
10,
9,
9,
8,
8,
9,
8,
8,
6,
6,
8,
9,
9,
8,
8,
9,
8,
8,
7,
9,
12,
5,
8,
9,
10,
10,
9,
10,
9,
9,
11,
8,
9,
11,
11,
9,
9,
9,
9,
9,
9,
9,
8,
8,
10,
9,
8,
6,
9,
9,
8,
9,
11,
11,
8,
10,
9,
9,
7,
9,
6,
8,
13,
11,
9,
11,
11,
11,
9,
8,
10,
8,
8,
8,
10,
9,
11,
13,
8,
9,
9,
10,
8,
9,
10,
7,
5,
9,
9,
8,
9,
8,
9,
11,
11,
7,
7,
8,
8,
9,
9,
9,
9,
9,
8,
9,
8,
8,
8,
9,
7,
9,
8,
8,
9,
8,
9,
8,
5,
11,
8,
11,
11,
9,
9,
8,
9,
8,
7,
9,
8,
8,
8,
8,
9,
8,
10,
7,
10,
10,
10,
9,
9,
9,
8,
8,
8,
8,
8,
11,
12,
9,
9,
8,
8,
7,
9,
8,
9,
9,
8,
8,
13,
13,
9,
9,
9,
9,
8,
8,
8,
9,
8,
7,
8,
9,
9,
8,
8,
11,
11,
9,
10,
11,
9,
12,
10,
11,
10,
10,
9,
9,
8,
8,
8,
10,
10,
9,
9,
9,
9,
11,
9,
9,
10,
9,
12,
12,
10,
9,
9,
9,
9,
9,
9,
9,
9,
10,
8,
4,
10,
9,
10,
9,
9,
9,
9,
9,
8,
9,
9,
10,
6,
9,
9,
9,
8,
9,
9,
8,
8,
9,
9,
9,
8,
8,
9,
8,
9,
9,
9,
8,
8,
8,
8,
10,
8,
5,
8,
9,
8,
9,
9,
9,
7,
9,
9,
9,
9,
10,
9,
9,
8,
8,
9,
9,
8,
7,
9,
9,
9,
8,
11,
12,
9,
8,
7,
9,
9,
9,
9,
9,
8,
8,
9,
9,
8,
8,
5,
9,
8,
9,
8,
8,
9,
9,
9,
9,
11,
8,
8,
10,
8,
4,
9,
9,
8,
8,
8,
11,
10,
9,
