Datos experimentales/DATOS 26-3-24/ALL0046/A0046CH1.CSV

Memory Length,4000,
Trigger Level,1.600E-03,
Source,CH1,
Vertical Units,V,
Vertical Scale,2.000E-02,
Vertical Position,-1.200E-02,
Horizontal Units,s,
Horizontal Scale,1.000E+00,
Horizontal Position,-8.000E-02,
Horizontal Mode,Roll Mode,
Sampling Period,4.000E-03,
Firmware, V1.21,
Waveform Data,
-113,
-113,
-113,
-113,
-113,
-113,
-113,
-113,
-113,
-113,
-113,
-113,
-113,
-113,
-113,
-113,
-113,
-113,
-113,
-113,
-113,
-113,
-113,
-113,
-113,
-113,
-113,
-113,
-113,
-113,
-113,
-113,
-113,
-113,
-113,
-113,
-113,
-113,
-113,
-113,
-113,
-113,
-113,
-113,
-113,
-113,
-113,
-113,
-113,
-113,
-113,
-113,
-113,
-113,
-113,
-113,
-113,
-113,
-113,
-113,
-113,
-113,
-113,
-113,
-113,
-113,
-113,
-113,
-113,
-113,
-113,
-113,
-113,
-113,
-113,
-113,
-113,
-113,
-113,
-113,
-113,
-113,
-113,
-113,
-113,
-113,
-113,
-113,
-113,
-113,
-113,
-113,
-113,
-113,
-113,
-113,
-113,
-113,
-113,
-113,
-113,
-113,
-113,
-113,
-113,
-113,
-113,
-113,
-113,
-113,
-113,
-113,
-113,
-113,
-113,
-113,
-113,
-113,
-113,
-113,
-113,
-113,
-113,
-113,
-113,
-113,
-113,
-113,
-113,
-113,
-113,
-113,
-113,
-113,
-113,
-113,
-113,
-113,
-113,
-113,
-113,
-113,
-113,
-113,
-113,
-113,
-113,
-113,
-113,
-113,
-113,
-113,
-113,
-113,
-113,
-113,
-113,
-113,
-113,
-113,
-113,
-113,
-113,
-113,
-113,
-113,
-113,
-113,
-113,
-113,
-113,
-113,
-113,
-113,
-113,
-113,
-113,
-113,
-113,
-113,
-113,
-113,
-113,
-113,
-113,
-113,
-113,
-113,
-113,
-113,
-113,
-113,
-113,
-113,
-113,
-113,
-113,
-113,
-113,
-113,
-113,
-113,
-113,
-113,
-113,
-113,
-113,
-113,
-113,
-113,
-35,
-35,
-33,
-34,
-34,
-34,
-33,
-33,
-35,
-35,
-33,
-35,
-34,
-33,
-33,
-34,
-33,
-33,
-34,
-34,
-34,
-34,
-34,
-34,
-34,
-34,
-33,
-33,
-34,
-34,
-34,
-34,
-34,
-33,
-35,
-34,
-33,
-35,
-34,
-34,
-33,
-34,
-34,
-34,
-34,
-34,
-35,
-33,
-34,
-35,
-34,
-35,
-35,
-34,
-35,
-33,
-34,
-34,
-34,
-35,
-33,
-35,
-34,
-33,
-33,
-34,
-35,
-33,
-35,
-34,
-34,
-34,
-33,
-34,
-33,
-34,
-34,
-35,
-34,
-33,
-34,
-33,
-34,
-34,
-34,
-33,
-34,
-35,
-33,
-34,
-34,
-34,
-35,
-34,
-34,
-34,
-33,
-33,
-34,
-34,
-35,
-35,
-35,
-34,
-33,
-34,
-35,
-33,
-34,
-35,
-35,
-33,
-34,
-34,
-34,
-33,
-33,
-34,
-33,
-34,
-35,
-35,
-33,
-33,
-35,
-33,
-35,
-34,
-33,
-33,
-34,
-34,
-34,
-34,
-33,
-34,
-34,
-34,
-34,
-34,
-34,
-34,
-35,
-34,
-34,
-33,
-34,
-35,
-34,
-34,
-34,
-35,
-33,
-33,
-34,
-34,
-34,
-35,
-35,
-34,
-34,
-34,
-34,
-34,
-34,
-34,
-35,
-34,
-33,
-33,
-35,
-34,
-34,
-33,
-34,
-34,
-33,
-34,
-34,
-33,
-33,
-33,
-35,
-35,
-34,
-34,
-34,
-34,
-34,
-34,
-34,
-34,
-33,
-33,
-34,
-33,
-33,
-33,
-33,
-34,
-34,
-34,
-35,
-33,
-34,
-34,
-33,
-34,
-33,
-34,
-34,
-34,
-33,
-34,
-34,
-34,
-33,
-34,
-34,
-35,
-34,
-35,
-33,
-34,
-34,
-35,
-34,
-34,
-34,
-33,
-34,
-33,
-34,
-33,
-33,
-34,
-35,
-34,
-34,
-34,
-34,
-34,
-34,
-33,
-33,
-34,
-34,
-34,
-33,
-34,
-33,
-34,
-35,
-35,
-34,
-33,
-33,
-34,
-34,
-34,
-34,
-34,
-34,
-34,
-33,
-33,
-35,
-35,
-35,
-33,
-34,
-34,
-35,
-33,
-33,
-33,
-34,
-34,
-34,
-34,
-35,
-34,
-35,
-34,
-34,
-33,
-33,
-33,
-34,
-34,
-35,
-34,
-34,
-33,
-35,
-34,
-34,
-34,
-34,
-34,
-35,
-34,
-34,
-34,
-33,
-33,
-34,
-34,
-34,
-33,
-34,
-34,
-34,
-33,
-34,
-33,
-34,
-34,
-34,
-33,
-34,
-33,
-34,
-33,
-34,
-34,
-34,
-34,
-33,
-34,
-34,
-34,
-33,
-35,
-35,
-34,
-34,
-33,
-33,
-35,
-34,
-34,
-33,
-35,
-35,
-33,
-33,
-34,
-34,
-35,
-34,
-34,
-34,
-35,
-34,
-33,
-34,
-34,
-33,
-35,
-34,
-34,
-34,
-33,
-34,
-34,
-34,
-34,
-33,
-34,
-34,
-33,
-34,
-33,
-34,
-34,
-33,
-33,
-34,
-34,
-35,
-35,
-33,
-33,
-35,
-33,
-34,
-34,
-35,
-33,
-34,
-34,
-34,
-33,
-33,
-34,
-34,
-34,
-34,
-35,
-33,
-34,
-34,
-33,
-33,
-34,
-33,
-33,
-34,
-33,
-33,
-33,
-34,
-33,
-34,
-34,
-34,
-33,
-33,
-34,
-34,
-34,
-34,
-34,
-34,
-35,
-33,
-34,
-33,
-34,
-33,
-34,
-34,
-34,
-33,
-35,
-35,
-34,
-35,
-34,
-34,
-34,
-35,
-35,
-34,
-34,
-33,
-34,
-35,
-35,
-34,
-35,
-33,
-34,
-34,
-34,
-34,
-34,
-34,
-34,
-35,
-34,
-34,
-34,
-34,
-34,
-33,
-35,
-34,
-34,
-33,
-33,
-33,
-33,
-33,
-33,
-33,
-33,
-34,
-34,
-34,
-35,
-34,
-33,
-33,
-33,
-34,
-33,
-33,
-35,
-33,
-33,
-34,
-33,
-35,
-34,
-35,
-33,
-33,
-33,
-34,
-34,
-33,
-34,
-33,
-34,
-34,
-34,
-34,
-33,
-34,
-33,
-33,
-34,
-34,
-34,
-34,
-34,
-33,
-33,
-34,
-34,
-34,
-33,
-33,
-34,
-33,
-34,
-34,
-35,
-34,
-35,
-33,
-33,
-34,
-34,
-34,
-34,
-34,
-33,
11,
12,
12,
12,
10,
11,
13,
12,
12,
9,
12,
12,
12,
11,
14,
11,
11,
11,
15,
13,
12,
11,
12,
12,
17,
12,
11,
12,
12,
12,
11,
13,
13,
12,
9,
11,
13,
12,
12,
7,
11,
11,
11,
7,
16,
11,
12,
11,
13,
8,
13,
11,
11,
11,
12,
12,
12,
12,
11,
10,
12,
11,
12,
9,
11,
11,
13,
11,
11,
11,
13,
12,
11,
12,
9,
13,
11,
13,
11,
11,
13,
13,
11,
12,
12,
13,
12,
11,
13,
12,
13,
11,
12,
12,
11,
11,
15,
12,
9,
13,
12,
13,
11,
11,
11,
13,
15,
12,
12,
11,
11,
12,
12,
11,
11,
13,
12,
11,
14,
11,
12,
12,
12,
11,
10,
10,
13,
9,
13,
12,
13,
16,
11,
12,
12,
12,
11,
11,
10,
12,
10,
13,
11,
12,
12,
11,
11,
11,
11,
11,
12,
17,
11,
12,
11,
13,
14,
11,
13,
12,
11,
11,
13,
11,
12,
11,
12,
11,
11,
11,
8,
13,
12,
13,
13,
11,
11,
12,
9,
14,
15,
13,
12,
9,
12,
12,
12,
12,
12,
12,
12,
12,
11,
11,
12,
15,
12,
12,
11,
13,
12,
13,
13,
11,
11,
12,
17,
11,
12,
12,
11,
13,
12,
12,
12,
12,
13,
11,
13,
12,
12,
11,
13,
12,
13,
11,
11,
12,
12,
11,
13,
11,
11,
13,
8,
16,
10,
12,
11,
13,
9,
9,
11,
12,
12,
12,
11,
12,
11,
12,
12,
11,
11,
12,
11,
11,
11,
12,
12,
13,
10,
9,
14,
10,
12,
12,
13,
12,
12,
12,
11,
13,
12,
13,
11,
12,
11,
11,
11,
13,
12,
12,
11,
15,
13,
12,
8,
7,
9,
12,
8,
12,
12,
12,
11,
11,
11,
12,
12,
11,
11,
12,
12,
11,
12,
13,
12,
11,
11,
14,
13,
11,
9,
8,
14,
14,
12,
12,
12,
13,
11,
11,
13,
11,
12,
10,
12,
13,
12,
9,
11,
12,
13,
12,
12,
11,
12,
16,
12,
15,
10,
13,
12,
12,
11,
12,
12,
11,
11,
12,
12,
11,
12,
12,
12,
12,
11,
12,
11,
12,
13,
13,
11,
11,
16,
15,
13,
12,
12,
7,
12,
13,
13,
10,
10,
11,
15,
11,
11,
12,
12,
11,
12,
13,
12,
11,
11,
11,
11,
13,
7,
14,
12,
11,
12,
12,
12,
11,
12,
11,
12,
12,
11,
11,
12,
11,
12,
12,
13,
11,
12,
12,
12,
12,
8,
8,
13,
11,
16,
11,
13,
13,
12,
11,
12,
13,
12,
12,
12,
13,
12,
11,
9,
12,
12,
12,
12,
10,
12,
12,
15,
15,
9,
13,
12,
13,
11,
14,
8,
12,
11,
12,
11,
11,
12,
12,
12,
11,
12,
12,
12,
12,
12,
12,
12,
13,
11,
11,
11,
16,
9,
12,
11,
12,
11,
13,
9,
12,
11,
13,
13,
13,
9,
12,
11,
12,
13,
11,
10,
12,
11,
12,
12,
12,
11,
11,
11,
11,
12,
12,
13,
13,
11,
13,
13,
12,
11,
11,
12,
12,
12,
11,
12,
12,
12,
13,
11,
12,
11,
12,
12,
16,
16,
12,
12,
11,
12,
13,
9,
11,
12,
12,
11,
11,
11,
11,
11,
12,
11,
13,
12,
13,
11,
12,
11,
13,
11,
9,
11,
11,
12,
11,
15,
12,
9,
12,
11,
10,
12,
13,
12,
11,
11,
11,
14,
12,
11,
12,
12,
12,
13,
10,
12,
11,
12,
12,
13,
10,
8,
16,
12,
12,
10,
13,
11,
13,
8,
12,
13,
13,
11,
12,
12,
11,
11,
12,
11,
12,
13,
11,
9,
13,
13,
13,
11,
17,
11,
10,
13,
11,
12,
10,
12,
11,
12,
13,
13,
11,
13,
11,
13,
11,
12,
13,
11,
11,
11,
12,
10,
11,
11,
12,
12,
13,
12,
11,
14,
14,
14,
12,
14,
15,
13,
13,
13,
15,
15,
16,
17,
16,
13,
17,
17,
18,
19,
17,
17,
17,
20,
19,
19,
19,
19,
20,
19,
19,
18,
20,
21,
20,
20,
14,
20,
21,
20,
20,
20,
20,
21,
21,
20,
22,
20,
22,
22,
20,
20,
23,
21,
21,
20,
21,
22,
21,
21,
21,
20,
20,
23,
15,
15,
21,
21,
24,
22,
21,
21,
23,
20,
23,
19,
21,
20,
20,
21,
24,
21,
21,
23,
20,
23,
20,
20,
22,
21,
20,
20,
19,
14,
13,
18,
21,
21,
21,
19,
20,
20,
21,
21,
21,
21,
21,
21,
19,
21,
29,
19,
19,
21,
19,
20,
20,
20,
20,
20,
20,
21,
20,
21,
23,
20,
19,
20,
19,
20,
20,
15,
15,
20,
21,
63,
20,
21,
15,
23,
21,
22,
23,
23,
25,
25,
25,
25,
25,
28,
25,
28,
29,
28,
31,
32,
30,
31,
32,
33,
32,
35,
35,
37,
37,
37,
38,
38,
38,
37,
40,
43,
41,
43,
41,
41,
44,
44,
41,
45,
46,
46,
44,
48,
48,
51,
49,
50,
51,
51,
53,
53,
56,
56,
57,
57,
54,
61,
61,
60,
63,
66,
66,
65,
67,
64,
68,
68,
69,
69,
66,
69,
73,
74,
75,
77,
77,
75,
78,
80,
80,
77,
83,
82,
81,
85,
85,
84,
84,
84,
85,
87,
82,
87,
85,
87,
87,
87,
85,
86,
84,
87,
90,
90,
90,
86,
90,
90,
91,
91,
91,
92,
91,
90,
95,
91,
91,
91,
92,
88,
91,
90,
91,
92,
91,
92,
90,
91,
91,
93,
93,
92,
91,
90,
91,
89,
90,
91,
89,
90,
95,
90,
89,
88,
88,
90,
90,
88,
87,
88,
88,
88,
87,
85,
87,
85,
85,
80,
80,
85,
85,
84,
85,
84,
84,
85,
77,
77,
83,
83,
79,
79,
81,
80,
83,
81,
81,
85,
81,
78,
85,
80,
80,
78,
78,
77,
77,
73,
78,
78,
78,
77,
79,
76,
76,
78,
77,
78,
77,
77,
77,
74,
77,
78,
76,
75,
75,
75,
76,
76,
76,
66,
66,
75,
75,
75,
76,
74,
74,
73,
74,
75,
72,
73,
72,
73,
73,
71,
71,
69,
70,
69,
69,
70,
69,
71,
67,
68,
69,
69,
69,
65,
67,
61,
69,
67,
69,
68,
68,
68,
68,
68,
67,
67,
67,
67,
67,
67,
67,
68,
65,
65,
66,
64,
65,
65,
65,
64,
65,
65,
64,
63,
61,
67,
64,
64,
61,
64,
63,
64,
64,
64,
63,
64,
61,
62,
63,
61,
61,
61,
59,
57,
61,
61,
61,
61,
60,
60,
55,
59,
61,
59,
60,
60,
59,
60,
61,
60,
60,
61,
61,
60,
61,
62,
60,
59,
61,
59,
59,
59,
59,
59,
57,
58,
57,
59,
56,
57,
57,
48,
56,
56,
57,
57,
56,
56,
55,
57,
57,
56,
57,
53,
59,
53,
60,
57,
58,
55,
55,
54,
53,
55,
55,
55,
55,
55,
53,
56,
54,
51,
52,
50,
50,
53,
54,
51,
52,
52,
52,
53,
52,
53,
46,
55,
53,
52,
52,
52,
52,
52,
52,
50,
52,
51,
51,
52,
51,
51,
55,
50,
50,
51,
49,
49,
49,
49,
48,
49,
50,
48,
49,
48,
52,
47,
47,
47,
51,
49,
49,
47,
49,
48,
48,
47,
46,
51,
49,
47,
47,
47,
48,
49,
49,
47,
48,
48,
49,
53,
48,
37,
51,
51,
48,
46,
43,
46,
47,
46,
41,
45,
46,
43,
45,
45,
45,
49,
47,
45,
44,
43,
44,
44,
46,
44,
45,
45,
42,
45,
45,
45,
44,
45,
45,
45,
45,
45,
45,
45,
44,
46,
45,
45,
39,
44,
43,
45,
45,
44,
43,
43,
45,
42,
42,
41,
42,
41,
41,
39,
39,
41,
41,
39,
41,
40,
41,
38,
39,
41,
40,
40,
40,
43,
41,
41,
40,
39,
34,
39,
39,
39,
39,
42,
38,
38,
40,
47,
42,
40,
40,
39,
39,
39,
40,
39,
39,
41,
36,
36,
38,
43,
39,
39,
39,
37,
37,
38,
39,
37,
39,
38,
38,
37,
37,
34,
33,
35,
37,
36,
35,
37,
35,
35,
35,
35,
35,
32,
36,
29,
33,
35,
35,
36,
32,
35,
34,
35,
35,
34,
34,
39,
36,
36,
36,
34,
35,
35,
35,
34,
33,
33,
37,
37,
34,
34,
35,
35,
41,
34,
32,
35,
34,
35,
32,
35,
35,
34,
34,
33,
32,
41,
40,
31,
33,
33,
34,
33,
33,
34,
33,
33,
33,
35,
34,
33,
32,
40,
31,
31,
28,
29,
32,
32,
33,
32,
32,
32,
33,
33,
31,
33,
32,
31,
32,
35,
33,
31,
33,
33,
32,
32,
32,
31,
32,
33,
29,
36,
32,
32,
32,
32,
32,
32,
32,
33,
32,
32,
34,
31,
33,
33,
30,
31,
30,
31,
31,
33,
32,
31,
31,
32,
32,
31,
27,
31,
33,
30,
32,
28,
29,
29,
30,
29,
31,
29,
31,
30,
31,
32,
31,
32,
31,
32,
30,
30,
29,
29,
30,
29,
31,
29,
30,
31,
27,
29,
29,
27,
27,
29,
28,
30,
28,
30,
25,
29,
27,
24,
26,
27,
29,
29,
29,
27,
28,
28,
29,
29,
31,
31,
29,
29,
29,
29,
29,
28,
28,
28,
28,
28,
28,
29,
28,
27,
27,
28,
33,
25,
29,
27,
27,
27,
26,
26,
26,
28,
28,
26,
27,
29,
31,
27,
27,
27,
26,
27,
27,
22,
28,
26,
27,
25,
26,
24,
23,
24,
26,
26,
26,
25,
25,
25,
25,
26,
25,
26,
29,
26,
17,
27,
25,
25,
25,
24,
24,
25,
24,
24,
24,
25,
23,
25,
24,
23,
25,
25,
24,
24,
24,
23,
23,
24,
23,
24,
24,
23,
24,
24,
23,
23,
24,
24,
24,
31,
22,
24,
23,
23,
23,
23,
23,
22,
23,
23,
24,
24,
24,
23,
24,
24,
26,
22,
23,
25,
25,
23,
24,
24,
25,
24,
23,
25,
23,
24,
24,
23,
24,
27,
23,
23,
23,
21,
23,
23,
23,
21,
23,
22,
22,
27,
23,
22,
21,
21,
15,
23,
21,
21,
23,
23,
20,
21,
23,
21,
23,
18,
21,
24,
21,
19,
21,
21,
23,
21,
21,
21,
20,
24,
20,
22,
21,
20,
20,
23,
23,
23,
19,
20,
21,
20,
20,
23,
21,
21,
22,
21,
20,
17,
21,
21,
20,
19,
19,
21,
20,
17,
19,
21,
20,
18,
20,
21,
21,
17,
20,
20,
19,
19,
19,
20,
20,
19,
19,
19,
19,
19,
19,
19,
19,
19,
20,
19,
20,
19,
15,
19,
19,
19,
20,
16,
16,
19,
19,
21,
19,
19,
19,
17,
19,
17,
17,
20,
19,
19,
16,
20,
19,
19,
18,
19,
19,
18,
17,
18,
19,
18,
15,
17,
13,
16,
16,
18,
17,
17,
17,
17,
17,
18,
17,
17,
18,
18,
17,
19,
19,
19,
16,
17,
16,
17,
17,
17,
17,
17,
17,
16,
17,
15,
15,
14,
15,
17,
17,
18,
17,
17,
16,
19,
17,
17,
16,
17,
17,
17,
16,
17,
16,
17,
17,
16,
17,
16,
16,
16,
17,
15,
15,
16,
15,
17,
17,
16,
12,
19,
17,
17,
17,
16,
11,
11,
16,
16,
16,
17,
16,
17,
15,
17,
17,
16,
15,
17,
24,
24,
17,
17,
18,
17,
17,
15,
17,
17,
17,
17,
17,
17,
16,
16,
17,
15,
15,
17,
15,
16,
16,
17,
16,
17,
12,
12,
18,
15,
9,
15,
15,
16,
17,
19,
18,
15,
14,
19,
16,
17,
16,
17,
17,
18,
18,
16,
16,
17,
18,
16,
17,
17,
22,
17,
16,
15,
17,
17,
17,
11,
17,
17,
15,
17,
16,
17,
13,
17,
16,
17,
17,
17,
17,
20,
17,
17,
17,
16,
16,
18,
16,
17,
16,
15,
14,
14,
17,
16,
13,
13,
17,
16,
15,
15,
17,
16,
21,
14,
16,
16,
15,
15,
15,
13,
15,
13,
14,
15,
15,
14,
15,
16,
13,
17,
15,
15,
14,
14,
14,
16,
13,
15,
13,
13,
15,
13,
11,
13,
16,
14,
14,
13,
13,
11,
14,
14,
13,
15,
13,
14,
13,
17,
15,
15,
15,
14,
13,
14,
14,
15,
12,
13,
13,
15,
12,
11,
14,
14,
13,
13,
12,
13,
14,
14,
12,
15,
12,
14,
13,
13,
13,
13,
14,
13,
13,
12,
14,
13,
13,
13,
13,
13,
7,
13,
13,
13,
12,
13,
13,
13,
14,
15,
13,
13,
11,
13,
7,
13,
13,
13,
11,
12,
12,
13,
13,
14,
14,
13,
13,
12,
10,
13,
12,
12,
13,
13,
14,
12,
13,
12,
12,
13,
12,
12,
12,
16,
13,
13,
13,
13,
13,
13,
13,
14,
13,
13,
13,
13,
11,
8,
13,
13,
12,
13,
11,
13,
13,
14,
13,
14,
13,
12,
14,
13,
13,
13,
11,
11,
13,
12,
15,
12,
14,
14,
18,
13,
10,
10,
13,
13,
14,
10,
14,
13,
14,
13,
13,
12,
14,
12,
9,
12,
12,
12,
13,
13,
13,
13,
14,
13,
14,
13,
14,
13,
9,
13,
13,
13,
12,
12,
12,
13,
14,
17,
12,
13,
13,
13,
12,
13,
13,
13,
13,
12,
13,
12,
12,
12,
12,
15,
13,
12,
15,
13,
13,
14,
14,
14,
13,
13,
13,
12,
13,
15,
12,
12,
15,
15,
12,
13,
13,
14,
13,
13,
14,
13,
13,
11,
10,
12,
12,
13,
15,
12,
12,
12,
13,
13,
14,
13,
15,
12,
13,
15,
14,
15,
13,
13,
13,
13,
13,
13,
13,
13,
14,
11,
15,
15,
15,
15,
13,
15,
15,
13,
13,
13,
15,
13,
13,
15,
14,
13,
12,
15,
12,
13,
13,
13,
12,
13,
13,
12,
12,
9,
12,
12,
15,
14,
15,
13,
13,
14,
13,
13,
13,
13,
13,
11,
12,
9,
15,
13,
13,
12,
13,
13,
13,
12,
12,
13,
13,
9,
13,
9,
12,
11,
13,
12,
11,
12,
12,
15,
13,
13,
15,
14,
13,
13,
13,
11,
14,
15,
14,
13,
13,
13,
11,
13,
13,
13,
14,
15,
13,
14,
15,
13,
15,
14,
14,
13,
14,
13,
16,
13,
11,
15,
12,
14,
13,
13,
13,
13,
13,
13,
13,
14,
13,
14,
15,
13,
13,
37,
15,
13,
15,
15,
15,
14,
12,
14,
13,
15,
24,
13,
13,
15,
13,
13,
15,
14,
15,
13,
13,
16,
13,
13,
12,
13,
13,
14,
13,
14,
15,
13,
15,
15,
15,
15,
14,
15,
11,
12,
13,
16,
16,
13,
15,
13,
14,
13,
13,
13,
15,
14,
12,
11,
13,
14,
14,
15,
15,
13,
11,
15,
15,
15,
13,
13,
17,
15,
14,
14,
14,
15,
15,
13,
13,
13,
14,
17,
15,
15,
15,
13,
15,
15,
13,
13,
15,
15,
16,
14,
14,
16,
15,
14,
12,
16,
14,
15,
13,
13,
14,
15,
15,
15,
14,
13,
16,
11,
13,
11,
13,
15,
13,
13,
14,
14,
13,
13,
14,
14,
13,
13,
15,
13,
15,
14,
12,
15,
14,
15,
12,
14,
14,
-5,
12,
11,
11,
15,
13,
16,
14,
15,
14,
15,
14,
14,
13,
13,
15,
11,
11,
12,
14,
13,
13,
10,
13,
14,
13,
13,
13,
11,
12,
11,
13,
11,
11,
11,
13,
11,
12,
12,
13,
13,
13,
11,
15,
12,
12,
9,
13,
13,
12,
13,
13,
13,
13,
13,
12,
17,
14,
12,
15,
13,
13,
13,
13,
15,
12,
13,
14,
14,
13,
14,
14,
13,
15,
10,
13,
13,
13,
12,
13,
14,
14,
13,
12,
12,
13,
13,
19,
11,
13,
13,
13,
11,
13,
11,
13,
13,
13,
13,
15,
13,
13,
10,
12,
13,
14,
13,
13,
12,
13,
14,
13,
13,
12,
13,
13,
17,
12,
13,
13,
13,
11,
13,
11,
11,
12,
12,
12,
13,
12,
15,
7,
11,
12,
12,
11,
12,
11,
9,
12,
12,
13,
10,
11,
7,
13,
11,
12,
12,
11,
11,
12,
11,
11,
11,
11,
11,
13,
12,
15,
12,
12,
13,
11,
12,
12,
12,
11,
11,
12,
9,
12,
7,
12,
12,
11,
13,
11,
13,
11,
12,
12,
12,
10,
13,
13,
13,
7,
13,
13,
13,
11,
11,
12,
12,
11,
11,
11,
11,
12,
12,
13,
11,
12,
11,
12,
11,
12,
11,
12,
12,
12,
13,
13,
8,
12,
13,
12,
13,
12,
12,
13,
12,
11,
11,
13,
13,
12,
12,
14,
12,
12,
11,
11,
12,
13,
11,
12,
12,
12,
13,
13,
12,
11,
12,
11,
14,
11,
11,
12,
29,
18,
11,
11,
13,
8,
12,
6,
13,
13,
13,
12,
12,
11,
10,
13,
11,
11,
11,
10,
12,
10,
11,
11,
10,
13,
11,
11,
12,
11,
10,
10,
13,
11,
11,
11,
10,
12,
13,
11,
17,
13,
11,
12,
13,
12,
13,
13,
12,
12,
15,
11,
17,
14,
12,
12,
11,
13,
12,
12,
10,
10,
11,
12,
13,
13,
11,
12,
12,
12,
11,
6,
11,
13,
18,
18,
12,
13,
13,
12,
13,
12,
12,
12,
12,
13,
12,
13,
13,
13,
12,
12,
15,
13,
13,
11,
11,
12,
12,
12,
14,
12,
12,
12,
12,
11,
10,
13,
15,
13,
15,
12,
9,
13,
13,
11,
11,
12,
9,
12,
11,
13,
12,
13,
12,
12,
13,
13,
12,
12,
12,
11,
11,
13,
13,
12,
10,
10,
12,
12,
11,
12,
11,
11,
12,
11,
11,
11,
9,
9,
10,
10,
12,
11,
12,
11,
13,
11,
13,
9,
9,
10,
23,
9,
11,
9,
12,
12,
12,
11,
12,
11,
14,
12,
12,
11,
13,
9,
13,
11,
12,
12,
12,
12,
13,
11,
11,
11,
11,
11,
11,
13,
12,
11,
5,
12,
12,
13,
12,
11,
17,
17,
12,
12,
13,
17,
12,
12,
8,
11,
12,
13,
12,
12,
11,
11,
11,
12,
11,
11,
9,
13,
10,
12,
11,
11,
13,
11,
9,
9,
11,
12,
12,
9,
11,
10,
12,
12,
12,
12,
11,
12,
12,
11,
12,
11,
11,
19,
10,
11,
11,
13,
12,
11,
12,
12,
12,
11,
10,
11,
11,
10,
10,
11,
13,
11,
10,
14,
12,
12,
12,
13,
12,
12,
11,
8,
12,
10,
9,
12,
11,
13,
11,
12,
10,
-2,
7,
7,
11,
6,
12,
13,
13,
13,
11,
9,
10,
12,
13,
11,
12,
12,
13,
8,
11,
11,
11,
13,
11,
12,
12,
11,
13,
11,
13,
13,
11,
12,
11,
10,
12,
11,
11,
12,
9,
11,
11,
12,
13,
13,
11,
5,
9,
7,
12,
12,
10,
12,
1,
12,
12,
10,
12,
13,
7,
7,
9,
12,
13,
12,
12,
12,
11,
12,
11,
11,
12,
11,
12,
12,
14,
12,
13,
12,
12,
12,
11,
11,
12,
12,
9,
12,
12,
12,
13,
13,
12,
9,
12,
11,
12,
11,
12,
11,
13,
17,
14,
14,
13,
12,
12,
12,
9,
9,
8,
13,
12,
12,
11,
8,
13,
13,
15,
13,
12,
12,
11,
11,
12,
8,
13,
11,
13,
12,
12,
11,
16,
13,
13,
12,
13,
12,
12,
16,
11,
12,
12,
11,
13,
13,
8,
11,
12,
11,
12,
12,
11,
13,
12,
11,
13,
12,
12,
13,
16,
10,
11,
11,
11,
12,
12,
11,
12,
12,
13,
11,
12,
11,
13,
13,
11,
9,
12,
12,
13,
11,
12,
11,
12,
15,
13,
8,
8,
11,
11,
11,
10,
11,
12,
11,
11,
12,
11,
11,
11,
12,
7,
11,
11,
11,
14,
12,
12,
12,
11,
11,
11,
11,
9,
11,
12,
12,
13,
12,
13,
12,
11,
13,
12,
10,
12,
12,
13,
11,
12,
12,
11,
13,
10,
11,
13,
13,
12,
12,
12,
13,
11,
11,
