Datos experimentales/DATOS 26-3-24/ALL0033/A0033CH1.CSV

Memory Length,4000,
Trigger Level,1.600E-03,
Source,CH1,
Vertical Units,V,
Vertical Scale,2.000E-02,
Vertical Position,-1.200E-02,
Horizontal Units,s,
Horizontal Scale,1.000E+00,
Horizontal Position,-5.600E-01,
Horizontal Mode,Roll Mode,
Waveform Last Dot Address,3800,
Sampling Period,4.000E-03,
Firmware, V1.21,
Waveform Data,
13,
13,
13,
12,
13,
13,
13,
13,
12,
13,
19,
12,
14,
16,
11,
8,
12,
12,
13,
13,
15,
13,
13,
13,
13,
12,
13,
13,
12,
13,
13,
13,
13,
13,
13,
13,
13,
13,
13,
11,
12,
13,
13,
10,
12,
12,
11,
9,
12,
11,
13,
12,
12,
13,
12,
13,
13,
13,
13,
11,
12,
15,
14,
11,
12,
11,
12,
12,
13,
15,
12,
12,
13,
13,
12,
12,
13,
16,
12,
12,
14,
12,
12,
12,
12,
13,
13,
12,
13,
12,
13,
12,
11,
12,
13,
11,
13,
13,
12,
12,
15,
16,
9,
12,
11,
10,
10,
11,
14,
11,
11,
9,
12,
13,
11,
13,
15,
13,
9,
11,
13,
14,
12,
12,
11,
14,
13,
13,
13,
11,
12,
11,
13,
11,
12,
12,
12,
13,
12,
12,
12,
13,
13,
12,
13,
11,
11,
12,
9,
9,
12,
12,
11,
7,
11,
13,
13,
12,
13,
13,
13,
11,
11,
12,
13,
12,
11,
13,
12,
12,
13,
13,
11,
11,
11,
13,
13,
12,
11,
13,
13,
12,
12,
11,
12,
12,
12,
12,
13,
12,
11,
14,
13,
13,
13,
13,
13,
13,
11,
13,
13,
13,
10,
12,
12,
11,
14,
16,
13,
12,
5,
11,
12,
11,
11,
13,
13,
11,
14,
13,
12,
10,
11,
13,
12,
10,
7,
7,
13,
9,
11,
9,
12,
13,
15,
12,
9,
9,
12,
11,
11,
12,
12,
13,
11,
12,
12,
11,
7,
11,
13,
12,
13,
13,
11,
12,
12,
12,
12,
11,
13,
13,
12,
10,
13,
11,
11,
6,
13,
12,
13,
12,
12,
12,
11,
12,
13,
11,
13,
13,
13,
12,
12,
13,
13,
13,
14,
12,
13,
15,
12,
12,
12,
11,
12,
13,
11,
12,
12,
12,
13,
11,
12,
13,
10,
10,
12,
13,
13,
12,
12,
13,
12,
11,
13,
12,
11,
11,
11,
13,
12,
13,
13,
13,
12,
12,
13,
13,
13,
11,
13,
13,
12,
17,
13,
11,
13,
15,
12,
11,
11,
13,
12,
12,
12,
12,
13,
12,
13,
12,
7,
10,
13,
13,
13,
11,
11,
11,
9,
12,
13,
10,
13,
12,
13,
10,
11,
13,
12,
14,
14,
12,
12,
10,
12,
12,
12,
14,
13,
12,
11,
12,
12,
12,
13,
11,
11,
12,
12,
12,
12,
13,
14,
11,
13,
14,
14,
13,
12,
11,
13,
11,
12,
12,
12,
12,
12,
12,
12,
12,
12,
12,
13,
11,
13,
13,
13,
12,
12,
13,
12,
13,
13,
12,
13,
11,
13,
13,
13,
13,
13,
12,
13,
13,
13,
13,
13,
12,
14,
12,
12,
13,
21,
13,
13,
15,
15,
12,
12,
13,
13,
11,
13,
14,
13,
14,
12,
12,
13,
13,
12,
13,
13,
11,
5,
6,
10,
10,
10,
11,
11,
14,
9,
13,
10,
10,
11,
10,
15,
13,
13,
13,
13,
10,
12,
12,
12,
13,
13,
12,
12,
13,
13,
12,
13,
11,
13,
11,
13,
11,
12,
12,
12,
14,
13,
12,
13,
12,
13,
11,
13,
13,
11,
11,
12,
12,
12,
11,
9,
12,
13,
11,
13,
12,
13,
14,
13,
13,
13,
13,
13,
13,
12,
15,
13,
12,
15,
11,
12,
12,
12,
12,
12,
12,
12,
12,
12,
13,
13,
13,
13,
13,
11,
13,
13,
15,
11,
11,
13,
12,
12,
12,
13,
11,
13,
13,
10,
10,
13,
13,
11,
6,
12,
12,
13,
11,
13,
12,
12,
9,
9,
12,
10,
12,
13,
13,
13,
12,
13,
11,
14,
13,
12,
12,
13,
11,
12,
13,
13,
15,
12,
11,
11,
13,
13,
16,
12,
12,
11,
12,
12,
12,
13,
12,
12,
11,
12,
13,
13,
14,
14,
12,
13,
12,
12,
12,
12,
11,
11,
12,
12,
13,
12,
12,
12,
13,
13,
12,
13,
13,
13,
11,
12,
15,
12,
12,
12,
12,
12,
11,
12,
13,
12,
11,
13,
12,
13,
12,
12,
12,
12,
11,
11,
12,
12,
11,
12,
12,
11,
12,
12,
13,
13,
12,
13,
13,
13,
13,
12,
12,
11,
13,
13,
13,
9,
9,
11,
15,
16,
15,
13,
12,
11,
13,
13,
10,
11,
12,
12,
12,
16,
12,
11,
11,
12,
11,
12,
13,
20,
9,
13,
12,
15,
15,
10,
11,
14,
15,
11,
9,
12,
12,
11,
11,
15,
13,
13,
14,
13,
13,
14,
12,
11,
13,
15,
13,
13,
13,
12,
12,
13,
12,
13,
13,
13,
15,
13,
13,
13,
13,
12,
13,
13,
15,
11,
11,
13,
14,
11,
12,
12,
11,
12,
13,
12,
12,
13,
12,
13,
12,
13,
12,
13,
13,
12,
13,
14,
12,
12,
12,
13,
12,
5,
15,
10,
11,
12,
13,
13,
12,
13,
13,
13,
11,
13,
12,
13,
12,
11,
11,
13,
12,
13,
12,
12,
11,
12,
11,
11,
12,
13,
13,
18,
11,
11,
12,
13,
13,
13,
11,
12,
12,
12,
12,
12,
12,
13,
13,
13,
12,
13,
13,
13,
9,
12,
12,
11,
13,
12,
12,
13,
12,
7,
16,
12,
12,
13,
13,
14,
12,
12,
12,
14,
12,
12,
11,
13,
12,
12,
12,
12,
12,
12,
12,
13,
12,
12,
11,
13,
12,
9,
9,
13,
14,
10,
16,
13,
7,
13,
11,
12,
13,
13,
13,
13,
12,
12,
11,
12,
13,
12,
12,
12,
12,
9,
12,
14,
14,
11,
13,
11,
12,
13,
12,
11,
16,
12,
13,
12,
13,
12,
13,
12,
12,
12,
13,
10,
14,
12,
13,
12,
13,
13,
11,
13,
12,
9,
9,
13,
13,
12,
6,
14,
15,
10,
14,
13,
11,
13,
14,
14,
11,
12,
13,
13,
13,
13,
13,
12,
13,
13,
13,
13,
13,
14,
11,
12,
13,
12,
9,
12,
12,
13,
13,
11,
13,
13,
13,
12,
13,
13,
12,
12,
13,
13,
12,
12,
12,
13,
13,
13,
13,
11,
13,
13,
10,
13,
12,
12,
13,
12,
12,
12,
12,
12,
12,
11,
11,
13,
12,
13,
11,
12,
13,
11,
9,
13,
13,
12,
12,
12,
12,
9,
15,
9,
9,
10,
12,
13,
12,
12,
13,
12,
11,
13,
13,
7,
7,
11,
9,
9,
9,
11,
11,
14,
12,
9,
10,
11,
9,
11,
13,
12,
8,
13,
11,
11,
12,
13,
11,
11,
13,
13,
13,
12,
13,
12,
12,
13,
13,
12,
13,
12,
12,
13,
13,
13,
12,
13,
12,
13,
12,
13,
13,
12,
12,
13,
11,
9,
12,
11,
12,
11,
12,
12,
11,
11,
12,
13,
13,
12,
13,
13,
12,
12,
13,
13,
12,
12,
12,
12,
13,
12,
13,
12,
12,
13,
13,
11,
12,
12,
16,
13,
13,
14,
16,
13,
12,
12,
12,
12,
13,
12,
12,
12,
12,
12,
12,
13,
14,
13,
11,
13,
12,
12,
12,
13,
13,
12,
13,
13,
12,
13,
11,
11,
11,
12,
13,
12,
5,
12,
8,
9,
9,
12,
9,
13,
13,
13,
5,
-3,
13,
17,
15,
11,
12,
11,
11,
10,
11,
12,
12,
13,
12,
11,
12,
13,
13,
11,
13,
13,
11,
12,
9,
14,
11,
11,
9,
13,
13,
11,
12,
12,
13,
11,
8,
8,
13,
14,
11,
10,
12,
16,
14,
11,
11,
12,
12,
11,
11,
13,
13,
13,
12,
13,
12,
13,
13,
13,
8,
8,
13,
13,
13,
11,
13,
11,
12,
13,
12,
12,
13,
13,
13,
13,
15,
15,
12,
13,
15,
13,
12,
14,
21,
14,
16,
15,
14,
16,
16,
17,
19,
16,
16,
19,
20,
20,
20,
21,
21,
21,
23,
23,
24,
25,
25,
29,
26,
27,
29,
28,
29,
31,
32,
31,
29,
29,
29,
33,
34,
33,
33,
36,
38,
37,
37,
39,
40,
43,
43,
41,
42,
43,
43,
44,
44,
45,
44,
46,
46,
48,
45,
46,
44,
44,
44,
49,
48,
48,
47,
48,
48,
48,
47,
48,
47,
49,
49,
51,
52,
60,
52,
52,
54,
55,
55,
52,
55,
55,
51,
51,
55,
53,
53,
53,
53,
54,
46,
54,
53,
55,
56,
55,
57,
57,
55,
58,
59,
60,
58,
45,
60,
63,
58,
60,
60,
47,
47,
63,
59,
63,
61,
63,
63,
62,
65,
64,
65,
65,
64,
64,
64,
65,
66,
65,
61,
65,
65,
64,
64,
66,
66,
64,
65,
65,
70,
68,
57,
68,
68,
70,
71,
69,
69,
69,
71,
71,
71,
69,
72,
112,
71,
72,
73,
73,
73,
72,
73,
74,
72,
80,
80,
71,
73,
74,
76,
74,
73,
77,
75,
74,
75,
75,
75,
75,
74,
75,
75,
75,
74,
74,
75,
76,
75,
75,
76,
76,
76,
75,
73,
77,
75,
75,
64,
75,
75,
75,
74,
74,
73,
71,
71,
75,
74,
72,
72,
74,
73,
72,
70,
72,
72,
73,
73,
73,
76,
71,
73,
72,
112,
70,
72,
72,
70,
73,
70,
71,
71,
71,
71,
69,
68,
70,
69,
69,
69,
71,
69,
69,
68,
64,
64,
71,
73,
71,
67,
69,
64,
68,
68,
67,
65,
67,
66,
104,
104,
65,
65,
61,
65,
65,
66,
65,
60,
64,
64,
64,
64,
65,
65,
64,
65,
64,
61,
64,
64,
63,
64,
63,
63,
63,
63,
63,
63,
64,
62,
62,
61,
65,
61,
64,
62,
65,
62,
51,
61,
61,
61,
60,
63,
60,
61,
60,
60,
57,
60,
61,
59,
59,
59,
61,
58,
59,
56,
56,
57,
56,
56,
56,
52,
51,
52,
52,
53,
56,
53,
55,
52,
52,
53,
52,
49,
55,
53,
53,
53,
53,
57,
52,
53,
56,
54,
52,
53,
52,
53,
52,
52,
45,
49,
49,
52,
49,
53,
51,
50,
49,
56,
49,
51,
50,
49,
49,
49,
49,
49,
48,
48,
50,
51,
48,
51,
49,
49,
48,
47,
47,
47,
52,
49,
48,
49,
49,
48,
48,
48,
51,
47,
45,
49,
46,
46,
47,
45,
45,
45,
47,
45,
45,
45,
45,
47,
47,
45,
45,
41,
45,
80,
44,
44,
45,
43,
44,
46,
45,
43,
44,
46,
46,
45,
44,
45,
46,
47,
44,
45,
45,
48,
49,
42,
46,
46,
44,
48,
45,
42,
45,
44,
45,
44,
43,
44,
43,
44,
43,
43,
43,
43,
42,
44,
51,
43,
44,
44,
45,
43,
39,
46,
44,
44,
43,
43,
43,
43,
43,
44,
44,
43,
44,
44,
43,
43,
43,
47,
42,
44,
47,
47,
43,
43,
43,
45,
39,
39,
41,
41,
41,
42,
41,
41,
40,
40,
40,
41,
40,
41,
41,
40,
41,
41,
40,
40,
39,
39,
40,
39,
40,
45,
40,
39,
40,
35,
38,
38,
40,
40,
39,
40,
39,
40,
38,
39,
41,
41,
39,
41,
41,
39,
39,
39,
41,
41,
39,
34,
37,
39,
42,
37,
40,
39,
40,
40,
39,
39,
39,
38,
37,
38,
37,
38,
37,
35,
37,
36,
36,
35,
37,
36,
35,
36,
39,
36,
35,
33,
36,
37,
34,
34,
34,
35,
37,
33,
34,
36,
36,
36,
34,
36,
35,
37,
31,
31,
35,
36,
35,
37,
42,
32,
37,
36,
38,
36,
35,
36,
36,
36,
35,
36,
36,
36,
35,
36,
35,
32,
35,
37,
35,
36,
36,
38,
30,
35,
39,
43,
36,
41,
36,
32,
34,
35,
33,
33,
33,
33,
35,
34,
34,
33,
33,
35,
33,
35,
36,
35,
34,
35,
35,
33,
42,
30,
32,
35,
32,
35,
34,
33,
35,
35,
34,
34,
34,
36,
34,
32,
34,
33,
33,
35,
39,
34,
36,
35,
32,
32,
33,
30,
39,
31,
35,
33,
33,
32,
34,
33,
33,
33,
32,
32,
31,
32,
31,
36,
31,
32,
29,
27,
31,
31,
32,
32,
32,
32,
32,
29,
33,
30,
33,
30,
32,
30,
30,
30,
30,
30,
30,
31,
31,
31,
31,
30,
31,
29,
31,
32,
29,
29,
29,
31,
31,
31,
28,
32,
28,
31,
29,
31,
30,
31,
28,
31,
30,
30,
30,
30,
28,
30,
29,
31,
29,
28,
29,
29,
29,
29,
29,
29,
29,
27,
30,
30,
29,
29,
29,
30,
27,
29,
29,
29,
27,
27,
27,
29,
27,
25,
27,
27,
27,
25,
29,
27,
27,
25,
25,
25,
25,
23,
27,
25,
27,
28,
27,
27,
25,
29,
28,
27,
27,
27,
26,
26,
25,
27,
29,
27,
26,
25,
26,
26,
26,
21,
21,
27,
23,
25,
26,
28,
25,
26,
25,
25,
25,
24,
25,
25,
25,
24,
26,
25,
25,
25,
23,
25,
27,
25,
26,
36,
29,
26,
26,
24,
27,
24,
24,
25,
24,
25,
24,
25,
25,
23,
25,
21,
21,
25,
24,
24,
31,
27,
26,
24,
24,
19,
28,
25,
23,
23,
24,
25,
24,
24,
24,
24,
24,
24,
23,
24,
25,
25,
24,
24,
23,
25,
21,
24,
24,
23,
24,
23,
23,
21,
24,
23,
21,
21,
19,
19,
23,
24,
24,
24,
22,
21,
21,
24,
23,
20,
20,
25,
25,
20,
21,
23,
21,
25,
24,
21,
22,
20,
21,
21,
21,
20,
19,
21,
20,
20,
14,
21,
21,
21,
21,
20,
20,
21,
21,
21,
21,
17,
22,
16,
19,
16,
21,
19,
19,
20,
21,
20,
20,
21,
21,
20,
19,
18,
19,
20,
19,
20,
19,
19,
22,
20,
19,
20,
20,
20,
20,
24,
18,
20,
19,
20,
20,
20,
18,
21,
19,
19,
19,
19,
20,
21,
21,
19,
21,
20,
20,
20,
19,
20,
21,
21,
15,
19,
16,
20,
18,
21,
19,
21,
20,
19,
19,
20,
20,
20,
20,
19,
21,
19,
21,
20,
20,
19,
20,
19,
21,
20,
20,
21,
23,
17,
22,
19,
19,
19,
20,
21,
19,
19,
20,
21,
16,
19,
21,
21,
19,
19,
20,
19,
20,
19,
19,
19,
19,
20,
15,
21,
19,
19,
20,
17,
20,
19,
19,
17,
19,
19,
19,
19,
19,
18,
18,
19,
18,
17,
19,
17,
18,
18,
19,
17,
17,
19,
19,
19,
19,
19,
18,
18,
17,
17,
19,
19,
21,
22,
17,
19,
19,
18,
18,
19,
19,
17,
17,
16,
20,
20,
12,
21,
17,
19,
17,
16,
16,
18,
17,
17,
17,
16,
16,
17,
16,
16,
17,
16,
17,
17,
17,
11,
17,
15,
13,
17,
17,
17,
13,
18,
17,
16,
16,
17,
17,
15,
17,
16,
15,
23,
15,
16,
17,
15,
16,
16,
16,
16,
16,
15,
16,
19,
13,
15,
19,
19,
16,
15,
16,
15,
15,
15,
17,
16,
15,
15,
16,
13,
15,
15,
16,
15,
15,
16,
14,
14,
16,
9,
18,
13,
16,
13,
15,
13,
15,
13,
12,
12,
15,
15,
15,
14,
15,
15,
13,
15,
15,
16,
15,
17,
16,
17,
17,
17,
18,
12,
17,
15,
15,
15,
14,
16,
16,
15,
15,
15,
15,
14,
13,
13,
15,
16,
16,
15,
15,
16,
15,
15,
15,
9,
12,
14,
15,
15,
15,
14,
16,
15,
13,
16,
16,
15,
16,
14,
15,
15,
15,
14,
15,
13,
15,
13,
15,
13,
16,
12,
17,
11,
14,
13,
13,
15,
14,
12,
13,
16,
15,
13,
12,
15,
15,
13,
13,
15,
15,
13,
13,
15,
16,
15,
13,
12,
15,
15,
15,
15,
13,
15,
15,
13,
13,
15,
15,
15,
14,
14,
15,
15,
15,
13,
15,
16,
16,
15,
16,
17,
15,
15,
15,
17,
12,
16,
14,
14,
15,
15,
15,
14,
14,
13,
15,
15,
14,
15,
14,
16,
15,
14,
15,
17,
15,
13,
14,
14,
15,
16,
19,
15,
15,
15,
14,
15,
15,
14,
14,
14,
14,
15,
13,
15,
14,
13,
10,
15,
14,
15,
16,
16,
13,
19,
19,
17,
13,
17,
13,
15,
15,
13,
15,
14,
13,
15,
15,
15,
15,
15,
13,
18,
17,
19,
17,
14,
12,
13,
15,
17,
13,
13,
17,
14,
15,
15,
15,
14,
14,
15,
15,
15,
16,
15,
9,
9,
15,
15,
15,
15,
16,
14,
15,
13,
19,
15,
15,
15,
15,
15,
17,
13,
14,
15,
15,
15,
15,
16,
15,
14,
15,
16,
15,
15,
16,
13,
13,
14,
16,
15,
4,
20,
11,
16,
13,
16,
15,
15,
15,
15,
14,
13,
15,
15,
16,
15,
15,
15,
16,
15,
15,
13,
13,
13,
15,
15,
11,
18,
15,
16,
13,
15,
15,
19,
15,
14,
17,
17,
15,
14,
15,
17,
16,
16,
15,
15,
14,
12,
14,
14,
18,
18,
19,
14,
17,
14,
16,
15,
14,
13,
14,
15,
15,
13,
14,
14,
13,
14,
13,
15,
13,
13,
17,
13,
15,
11,
8,
12,
12,
10,
13,
15,
15,
13,
14,
13,
13,
15,
14,
14,
13,
13,
13,
13,
11,
13,
13,
12,
11,
14,
14,
13,
13,
15,
12,
13,
15,
15,
13,
11,
13,
13,
13,
11,
13,
13,
12,
8,
13,
15,
13,
13,
14,
12,
13,
15,
15,
15,
12,
13,
14,
13,
12,
14,
12,
12,
12,
15,
14,
13,
14,
13,
12,
13,
14,
14,
13,
13,
13,
14,
13,
4,
14,
13,
13,
9,
14,
13,
13,
13,
14,
14,
14,
15,
13,
13,
12,
13,
13,
12,
12,
14,
15,
13,
11,
14,
14,
17,
13,
11,
13,
12,
13,
13,
13,
13,
13,
13,
13,
13,
13,
15,
15,
12,
13,
15,
16,
13,
14,
13,
15,
13,
14,
16,
17,
17,
17,
15,
16,
14,
14,
15,
15,
14,
13,
15,
15,
13,
13,
14,
14,
13,
14,
13,
12,
13,
15,
15,
14,
13,
15,
15,
16,
12,
12,
13,
13,
13,
11,
10,
13,
13,
13,
13,
14,
13,
13,
13,
13,
13,
10,
13,
13,
13,
7,
12,
9,
15,
13,
12,
13,
14,
14,
14,
13,
14,
14,
13,
13,
15,
13,
13,
13,
14,
16,
16,
14,
15,
13,
9,
17,
14,
13,
12,
11,
14,
13,
13,
13,
13,
13,
12,
11,
13,
13,
12,
11,
12,
12,
13,
14,
10,
13,
13,
12,
15,
14,
12,
17,
11,
13,
13,
13,
13,
13,
15,
14,
12,
13,
13,
13,
13,
13,
13,
13,
11,
11,
13,
13,
19,
11,
13,
13,
13,
14,
13,
12,
13,
12,
13,
13,
13,
11,
12,
13,
13,
11,
13,
13,
12,
13,
13,
12,
14,
24,
11,
13,
15,
11,
13,
15,
15,
12,
12,
13,
12,
13,
13,
13,
13,
13,
13,
13,
13,
9,
9,
11,
13,
13,
13,
11,
14,
11,
15,
13,
13,
12,
13,
13,
12,
13,
13,
13,
12,
13,
13,
13,
12,
13,
15,
13,
11,
12,
12,
12,
12,
12,
9,
9,
11,
13,
13,
11,
13,
13,
12,
12,
13,
13,
13,
13,
12,
10,
13,
13,
11,
13,
13,
10,
12,
12,
13,
12,
12,
14,
15,
14,
13,
12,
11,
11,
11,
12,
13,
13,
9,
14,
14,
12,
13,
13,
13,
13,
13,
13,
13,
11,
13,
13,
9,
9,
10,
13,
11,
14,
13,
13,
14,
12,
13,
13,
13,
13,
13,
13,
12,
12,
11,
13,
12,
13,
13,
15,
15,
13,
13,
19,
12,
12,
14,
12,
13,
14,
14,
14,
13,
13,
13,
14,
13,
13,
13,
15,
12,
14,
14,
13,
13,
13,
13,
13,
16,
8,
23,
11,
11,
7,
19,
19,
13,
12,
13,
13,
13,
14,
12,
13,
13,
13,
12,
13,
12,
12,
10,
12,
13,
12,
16,
13,
14,
10,
13,
11,
15,
13,
13,
13,
13,
11,
12,
12,
12,
12,
13,
15,
13,
13,
13,
14,
14,
14,
13,
11,
12,
11,
14,
13,
13,
13,
13,
13,
13,
13,
13,
13,
13,
12,
13,
13,
13,
13,
13,
15,
12,
11,
12,
6,
6,
11,
11,
13,
11,
14,
12,
13,
13,
13,
13,
13,
13,
12,
16,
13,
11,
11,
15,
11,
13,
13,
12,
13,
12,
9,
19,
13,
14,
13,
12,
12,
13,
13,
13,
12,
11,
11,
12,
13,
13,
12,
13,
12,
12,
12,
12,
12,
14,
11,
12,
17,
11,
12,
13,
13,
13,
13,
13,
13,
13,
13,
13,
13,
13,
13,
13,
16,
13,
13,
15,
12,
12,
13,
13,
13,
15,
18,
13,
13,
11,
13,
12,
13,
12,
13,
13,
12,
11,
13,
12,
12,
12,
13,
13,
13,
13,
13,
13,
13,
13,
13,
13,
12,
12,
13,
13,
11,
15,
14,
13,
13,
13,
13,
13,
13,
13,
12,
11,
13,
13,
12,
13,
13,
12,
14,
13,
13,
12,
14,
14,
12,
13,
12,
13,
13,
13,
11,
13,
13,
13,
13,
13,
13,
13,
12,
13,
16,
11,
13,
13,
11,
10,
13,
12,
12,
13,
12,
12,
13,
11,
12,
12,
13,
12,
12,
11,
13,
12,
12,
7,
12,
12,
13,
12,
14,
13,
14,
13,
15,
11,
11,
8,
9,
13,
13,
13,
11,
12,
9,
12,
12,
13,
13,
12,
12,
12,
13,
14,
13,
13,
12,
12,
13,
15,
14,
13,
12,
15,
13,
13,
10,
14,
13,
12,
13,
13,
11,
13,
12,
12,
11,
15,
13,
12,
13,
11,
15,
14,
11,
11,
12,
13,
9,
13,
14,
13,
13,
16,
12,
13,
12,
12,
13,
13,
11,
12,
13,
13,
16,
13,
11,
13,
13,
13,
10,
14,
16,
16,
9,
10,
20,
12,
12,
11,
13,
13,
13,
15,
13,
12,
12,
13,
13,
12,
13,
13,
13,
12,
16,
13,
13,
13,
11,
14,
14,
12,
14,
12,
13,
13,
12,
12,
12,
12,
16,
13,
11,
13,
13,
11,
12,
11,
12,
15,
13,
14,
13,
6,
9,
12,
14,
13,
15,
14,
13,
13,
13,
12,
11,
13,
12,
12,
12,
13,
12,
12,
12,
13,
12,
12,
13,
13,
11,
19,
10,
15,
12,
13,
12,
13,
13,
13,
13,
13,
12,
13,
13,
12,
13,
13,
12,
9,
12,
13,
13,
12,
12,
9,
14,
12,
14,
12,
13,
12,
13,
13,
13,
11,
13,
9,
9,
12,
13,
15,
12,
11,
12,
13,
12,
11,
12,
11,
12,
11,
11,
12,
11,
13,
12,
13,
13,
11,
12,
12,
11,
12,
13,
13,
13,
11,
12,
11,
10,
8,
14,
11,
12,
9,
11,
10,
12,
10,
13,
14,
14,
13,
13,
12,
12,
16,
12,
12,
13,
15,
13,
13,
13,
11,
11,
12,
13,
12,
13,
10,
15,
14,
14,
13,
15,
12,
13,
13,
13,
13,
13,
13,
13,
12,
13,
13,
12,
13,
13,
13,
11,
13,
13,
13,
12,
17,
14,
13,
11,
13,
11,
13,
13,
12,
12,
12,
12,
12,
13,
12,
13,
13,
13,
12,
12,
12,
13,
12,
12,
12,
13,
9,
9,
13,
11,
12,
13,
12,
13,
11,
13,
13,
12,
12,
13,
12,
13,
12,
11,
14,
14,
12,
13,
12,
13,
11,
13,
12,
12,
13,
13,
12,
12,
12,
14,
12,
12,
10,
13,
13,
13,
13,
12,
13,
13,
13,
14,
14,
13,
11,
12,
13,
12,
13,
Null,
Null,
Null,
Null,
Null,
Null,
Null,
Null,
Null,
Null,
Null,
Null,
Null,
Null,
Null,
Null,
Null,
Null,
Null,
Null,
Null,
Null,
Null,
Null,
Null,
Null,
Null,
Null,
Null,
Null,
Null,
Null,
Null,
Null,
Null,
Null,
Null,
Null,
Null,
Null,
Null,
Null,
Null,
Null,
Null,
Null,
Null,
Null,
Null,
Null,
Null,
Null,
Null,
Null,
Null,
Null,
Null,
Null,
Null,
Null,
Null,
Null,
Null,
Null,
Null,
Null,
Null,
Null,
Null,
Null,
Null,
Null,
Null,
Null,
Null,
Null,
Null,
Null,
Null,
Null,
Null,
Null,
Null,
Null,
Null,
Null,
Null,
Null,
Null,
Null,
Null,
Null,
Null,
Null,
Null,
Null,
Null,
Null,
Null,
Null,
Null,
Null,
Null,
Null,
Null,
Null,
Null,
Null,
Null,
Null,
Null,
Null,
Null,
Null,
Null,
Null,
Null,
Null,
Null,
Null,
Null,
Null,
Null,
Null,
Null,
Null,
Null,
Null,
Null,
Null,
Null,
Null,
Null,
Null,
Null,
Null,
Null,
Null,
Null,
Null,
Null,
Null,
Null,
Null,
Null,
Null,
Null,
Null,
Null,
Null,
Null,
Null,
Null,
Null,
Null,
Null,
Null,
Null,
Null,
Null,
Null,
Null,
Null,
Null,
Null,
Null,
Null,
Null,
Null,
Null,
Null,
Null,
Null,
Null,
Null,
Null,
Null,
Null,
Null,
Null,
Null,
Null,
Null,
Null,
Null,
Null,
Null,
Null,
Null,
Null,
Null,
Null,
Null,
Null,
Null,
Null,
Null,
Null,
Null,
Null,
