Datos experimentales/DATOS 26-3-24/ALL0048/A0048CH1.CSV

Memory Length,4000,
Trigger Level,1.600E-03,
Source,CH1,
Vertical Units,V,
Vertical Scale,2.000E-02,
Vertical Position,-1.200E-02,
Horizontal Units,s,
Horizontal Scale,1.000E+00,
Horizontal Position,0.000E+00,
Horizontal Mode,Roll Mode,
Sampling Period,4.000E-03,
Firmware, V1.21,
Waveform Data,
12,
10,
11,
12,
12,
5,
16,
11,
12,
11,
11,
12,
12,
13,
11,
13,
12,
12,
11,
13,
12,
13,
12,
12,
11,
12,
13,
13,
12,
11,
10,
10,
12,
14,
6,
9,
8,
16,
13,
11,
11,
13,
13,
12,
12,
12,
13,
12,
12,
13,
12,
12,
13,
11,
12,
12,
12,
12,
12,
11,
12,
10,
12,
13,
10,
8,
14,
10,
14,
11,
11,
12,
12,
13,
12,
11,
11,
12,
13,
12,
12,
12,
12,
12,
13,
11,
12,
12,
13,
14,
12,
13,
10,
9,
11,
11,
11,
13,
9,
13,
11,
12,
11,
9,
11,
13,
13,
11,
11,
14,
14,
15,
12,
11,
12,
13,
12,
11,
12,
12,
11,
12,
13,
13,
13,
10,
12,
12,
11,
13,
9,
11,
12,
13,
10,
11,
11,
13,
11,
12,
12,
10,
13,
12,
11,
12,
12,
11,
12,
12,
12,
12,
12,
12,
12,
11,
12,
13,
11,
13,
12,
11,
11,
11,
11,
13,
12,
12,
12,
9,
13,
12,
12,
12,
12,
13,
13,
12,
12,
14,
12,
11,
11,
15,
12,
13,
12,
12,
12,
12,
8,
12,
9,
18,
13,
10,
11,
16,
12,
11,
12,
12,
12,
12,
7,
12,
13,
12,
12,
11,
12,
14,
11,
9,
13,
13,
13,
11,
13,
10,
13,
10,
9,
17,
16,
9,
12,
12,
12,
12,
13,
11,
13,
11,
12,
13,
13,
12,
12,
12,
12,
12,
12,
12,
13,
13,
12,
12,
11,
13,
12,
11,
17,
9,
13,
8,
8,
11,
13,
12,
12,
12,
12,
15,
12,
12,
13,
11,
12,
12,
12,
12,
12,
13,
13,
12,
12,
12,
12,
11,
15,
11,
11,
9,
10,
14,
11,
12,
12,
13,
13,
12,
11,
13,
12,
12,
12,
12,
14,
12,
12,
11,
11,
13,
13,
12,
11,
11,
12,
12,
12,
12,
13,
14,
14,
11,
13,
11,
11,
12,
12,
12,
12,
12,
11,
11,
13,
12,
13,
11,
11,
12,
13,
12,
12,
13,
13,
12,
11,
12,
9,
12,
10,
12,
5,
5,
10,
11,
11,
11,
11,
16,
12,
12,
12,
12,
11,
11,
7,
11,
12,
11,
11,
12,
13,
16,
12,
12,
12,
13,
13,
12,
13,
15,
11,
11,
11,
11,
5,
10,
15,
11,
13,
11,
12,
13,
14,
13,
12,
12,
11,
11,
12,
13,
12,
12,
12,
13,
11,
11,
9,
12,
12,
11,
12,
11,
13,
12,
13,
13,
12,
9,
17,
14,
10,
12,
12,
11,
12,
13,
12,
12,
11,
12,
13,
13,
12,
13,
15,
13,
13,
13,
11,
11,
11,
15,
12,
13,
14,
9,
11,
12,
7,
7,
15,
9,
9,
11,
11,
13,
12,
13,
12,
12,
11,
9,
9,
11,
12,
11,
13,
13,
12,
13,
12,
13,
12,
12,
11,
11,
11,
12,
13,
13,
7,
16,
11,
11,
13,
11,
12,
13,
12,
12,
5,
12,
12,
13,
13,
12,
11,
15,
11,
12,
11,
12,
12,
12,
11,
12,
12,
10,
13,
12,
12,
9,
11,
11,
13,
13,
13,
11,
12,
12,
13,
10,
11,
11,
13,
12,
12,
11,
12,
12,
12,
11,
11,
12,
12,
9,
11,
9,
15,
11,
12,
10,
9,
9,
13,
12,
11,
11,
11,
13,
12,
12,
13,
12,
12,
11,
11,
12,
12,
10,
12,
13,
11,
13,
13,
11,
12,
11,
13,
13,
9,
13,
11,
8,
15,
15,
11,
13,
12,
13,
13,
11,
13,
13,
11,
11,
11,
12,
12,
12,
11,
12,
12,
12,
12,
11,
11,
12,
13,
12,
11,
12,
12,
11,
13,
13,
13,
10,
14,
11,
11,
11,
9,
13,
12,
12,
13,
10,
12,
11,
12,
11,
12,
12,
12,
12,
14,
12,
11,
12,
12,
13,
12,
11,
13,
12,
12,
12,
11,
11,
15,
9,
10,
13,
13,
12,
12,
6,
13,
11,
11,
11,
12,
11,
17,
12,
11,
12,
11,
13,
13,
5,
11,
13,
13,
13,
11,
12,
10,
14,
12,
13,
11,
13,
11,
8,
12,
12,
9,
12,
11,
13,
13,
11,
11,
11,
12,
11,
11,
12,
12,
11,
13,
12,
11,
13,
12,
12,
13,
11,
11,
11,
13,
13,
8,
8,
14,
10,
12,
11,
12,
12,
12,
12,
11,
12,
11,
13,
13,
13,
12,
12,
12,
15,
12,
11,
12,
11,
13,
12,
14,
14,
13,
13,
9,
14,
14,
10,
13,
10,
12,
11,
12,
12,
11,
11,
12,
12,
11,
12,
11,
14,
11,
13,
12,
13,
12,
11,
11,
13,
13,
12,
11,
12,
12,
7,
16,
13,
11,
13,
11,
12,
12,
13,
12,
11,
12,
11,
12,
13,
13,
11,
13,
12,
12,
12,
11,
12,
12,
12,
13,
11,
11,
13,
10,
13,
10,
11,
11,
12,
13,
11,
12,
12,
13,
12,
11,
12,
12,
12,
11,
9,
12,
12,
11,
12,
13,
11,
9,
12,
12,
11,
12,
9,
13,
11,
11,
12,
13,
15,
12,
14,
11,
11,
13,
14,
12,
11,
11,
11,
11,
12,
12,
13,
12,
9,
10,
12,
12,
11,
12,
13,
13,
13,
11,
11,
13,
11,
12,
11,
12,
12,
15,
9,
13,
13,
13,
12,
11,
13,
12,
12,
10,
11,
12,
12,
12,
12,
11,
13,
13,
12,
12,
12,
12,
13,
12,
11,
16,
13,
13,
12,
7,
7,
16,
10,
11,
13,
10,
12,
12,
12,
13,
11,
12,
11,
13,
13,
13,
11,
11,
11,
12,
12,
11,
11,
11,
13,
12,
11,
10,
10,
13,
13,
11,
12,
16,
13,
10,
10,
13,
12,
12,
13,
13,
13,
13,
11,
11,
13,
12,
13,
12,
12,
13,
13,
12,
11,
11,
12,
13,
11,
14,
13,
14,
11,
10,
8,
11,
11,
13,
13,
12,
13,
12,
11,
12,
13,
11,
12,
13,
13,
10,
12,
13,
13,
12,
12,
11,
13,
13,
12,
11,
13,
12,
12,
12,
11,
11,
15,
11,
12,
11,
13,
12,
12,
11,
12,
12,
12,
11,
12,
12,
11,
11,
11,
13,
12,
11,
12,
13,
12,
12,
12,
11,
11,
11,
11,
11,
13,
12,
12,
11,
12,
13,
12,
12,
11,
12,
12,
12,
12,
12,
12,
13,
12,
13,
12,
11,
12,
12,
11,
11,
11,
12,
12,
13,
13,
12,
13,
12,
12,
12,
13,
12,
11,
11,
12,
13,
15,
13,
13,
12,
16,
13,
13,
13,
16,
16,
10,
10,
16,
16,
18,
16,
18,
17,
20,
16,
21,
20,
20,
17,
17,
14,
19,
20,
21,
20,
20,
23,
21,
20,
21,
21,
24,
24,
23,
23,
21,
23,
22,
22,
22,
23,
22,
23,
21,
23,
23,
21,
21,
19,
25,
24,
24,
24,
24,
24,
23,
24,
24,
24,
24,
25,
25,
22,
23,
23,
25,
24,
24,
24,
25,
24,
26,
23,
25,
25,
25,
20,
24,
26,
24,
23,
24,
24,
29,
26,
25,
20,
25,
25,
24,
21,
23,
24,
25,
25,
24,
24,
24,
21,
25,
21,
21,
24,
25,
21,
23,
25,
24,
21,
26,
24,
24,
21,
22,
21,
23,
23,
21,
19,
23,
21,
21,
22,
23,
15,
21,
24,
23,
24,
24,
21,
21,
17,
21,
20,
21,
20,
17,
21,
23,
25,
19,
19,
19,
22,
20,
22,
21,
20,
23,
21,
21,
20,
22,
21,
20,
20,
20,
21,
21,
24,
21,
21,
21,
21,
21,
21,
19,
21,
21,
21,
21,
23,
21,
24,
21,
21,
22,
21,
21,
23,
21,
22,
22,
21,
14,
28,
23,
21,
24,
24,
19,
21,
21,
23,
22,
21,
21,
21,
19,
21,
21,
20,
23,
20,
20,
20,
21,
21,
20,
21,
21,
19,
20,
20,
19,
21,
13,
20,
23,
21,
21,
20,
21,
20,
20,
20,
20,
19,
19,
15,
19,
19,
19,
18,
19,
17,
21,
19,
19,
17,
19,
20,
19,
19,
19,
20,
21,
17,
17,
17,
19,
19,
20,
18,
16,
21,
18,
20,
19,
19,
19,
25,
20,
19,
19,
19,
19,
17,
14,
17,
17,
20,
19,
18,
17,
19,
19,
17,
17,
14,
21,
17,
19,
17,
18,
19,
17,
19,
18,
17,
17,
19,
19,
19,
19,
16,
18,
18,
19,
18,
17,
17,
17,
23,
18,
18,
18,
25,
19,
16,
13,
15,
17,
17,
19,
17,
18,
17,
17,
17,
17,
17,
17,
16,
13,
16,
19,
16,
16,
17,
17,
17,
17,
17,
19,
18,
17,
16,
15,
19,
16,
17,
21,
16,
19,
17,
17,
17,
17,
16,
19,
16,
17,
17,
13,
18,
16,
13,
15,
17,
16,
16,
15,
17,
16,
16,
16,
15,
16,
15,
16,
16,
19,
17,
17,
16,
17,
16,
17,
9,
16,
16,
16,
17,
10,
13,
25,
15,
15,
13,
13,
15,
16,
13,
15,
16,
13,
15,
15,
15,
16,
14,
14,
15,
14,
16,
16,
15,
13,
15,
15,
15,
15,
14,
16,
15,
15,
13,
15,
15,
13,
13,
14,
15,
15,
14,
14,
13,
15,
14,
14,
15,
14,
16,
14,
17,
15,
15,
13,
15,
13,
22,
13,
15,
15,
14,
13,
14,
13,
14,
17,
15,
13,
15,
15,
13,
14,
14,
15,
15,
13,
15,
15,
15,
15,
9,
11,
16,
15,
15,
12,
12,
16,
13,
15,
13,
13,
14,
15,
16,
15,
15,
16,
15,
14,
14,
15,
15,
15,
15,
15,
15,
15,
13,
15,
15,
9,
16,
16,
14,
15,
15,
14,
15,
16,
16,
14,
16,
15,
17,
15,
15,
15,
15,
16,
15,
15,
14,
16,
13,
15,
16,
16,
17,
16,
15,
15,
15,
17,
17,
15,
15,
16,
15,
17,
15,
15,
15,
16,
16,
16,
14,
14,
15,
13,
17,
17,
15,
17,
16,
16,
19,
17,
18,
18,
19,
21,
21,
20,
15,
21,
21,
21,
21,
23,
25,
25,
25,
25,
27,
27,
27,
28,
29,
29,
30,
27,
29,
31,
32,
31,
31,
31,
33,
33,
35,
34,
35,
35,
37,
34,
34,
37,
41,
40,
40,
43,
42,
42,
45,
45,
47,
47,
49,
49,
49,
52,
53,
51,
52,
53,
54,
54,
56,
55,
58,
59,
57,
59,
60,
57,
64,
63,
65,
66,
68,
68,
65,
68,
71,
72,
73,
69,
74,
73,
78,
76,
77,
80,
80,
79,
79,
77,
81,
81,
83,
81,
81,
83,
85,
83,
84,
81,
81,
83,
85,
83,
85,
85,
84,
87,
85,
87,
88,
87,
85,
83,
83,
83,
89,
87,
88,
86,
87,
85,
84,
87,
87,
85,
87,
85,
85,
85,
85,
86,
87,
85,
87,
85,
85,
81,
87,
84,
84,
84,
84,
84,
84,
88,
84,
84,
85,
85,
83,
81,
85,
83,
83,
83,
83,
83,
80,
81,
82,
80,
83,
82,
80,
80,
80,
80,
80,
79,
79,
80,
80,
79,
77,
80,
79,
82,
81,
79,
79,
77,
77,
77,
77,
77,
77,
77,
77,
75,
77,
71,
81,
77,
76,
76,
75,
75,
75,
73,
77,
76,
75,
76,
72,
74,
73,
73,
78,
74,
73,
73,
74,
74,
73,
72,
72,
72,
73,
69,
71,
71,
75,
67,
77,
77,
72,
71,
69,
72,
72,
72,
70,
67,
71,
69,
69,
69,
69,
67,
67,
64,
67,
68,
67,
67,
66,
67,
67,
67,
65,
67,
67,
67,
67,
65,
65,
67,
65,
64,
65,
61,
65,
65,
63,
64,
65,
65,
63,
68,
60,
61,
62,
61,
60,
63,
62,
62,
61,
61,
65,
65,
61,
61,
56,
65,
63,
61,
60,
61,
61,
61,
59,
60,
61,
61,
59,
64,
58,
60,
56,
58,
56,
59,
58,
57,
57,
61,
61,
57,
57,
59,
55,
55,
58,
58,
57,
59,
57,
58,
59,
57,
57,
56,
56,
56,
55,
56,
55,
57,
57,
57,
50,
56,
55,
53,
53,
55,
54,
56,
56,
53,
55,
53,
55,
53,
57,
55,
53,
55,
55,
52,
53,
53,
54,
52,
52,
53,
52,
52,
52,
50,
50,
50,
51,
52,
50,
49,
51,
51,
51,
49,
50,
49,
49,
49,
46,
46,
53,
48,
48,
48,
46,
49,
48,
48,
49,
49,
50,
49,
47,
47,
49,
45,
47,
47,
47,
48,
49,
48,
49,
48,
47,
42,
47,
47,
48,
46,
47,
46,
49,
47,
46,
46,
46,
46,
45,
45,
45,
45,
44,
45,
44,
46,
44,
44,
45,
45,
44,
44,
45,
44,
45,
45,
45,
44,
44,
46,
41,
45,
47,
45,
45,
45,
43,
45,
45,
45,
45,
45,
44,
44,
44,
43,
48,
45,
43,
41,
40,
43,
42,
42,
43,
42,
42,
42,
46,
39,
41,
39,
39,
40,
41,
41,
42,
42,
41,
41,
43,
39,
40,
41,
40,
40,
42,
39,
39,
40,
40,
51,
37,
40,
40,
41,
40,
40,
41,
41,
41,
40,
41,
44,
44,
40,
47,
39,
39,
39,
39,
38,
39,
43,
38,
38,
39,
40,
40,
36,
37,
38,
37,
37,
36,
36,
36,
37,
37,
45,
37,
37,
33,
33,
35,
35,
37,
36,
36,
36,
38,
35,
35,
34,
37,
37,
39,
39,
33,
36,
37,
35,
37,
41,
37,
37,
36,
37,
33,
37,
37,
33,
32,
36,
36,
38,
36,
35,
37,
35,
34,
35,
40,
33,
33,
35,
36,
35,
34,
33,
33,
33,
35,
33,
34,
35,
33,
33,
33,
35,
33,
32,
33,
34,
35,
35,
32,
32,
33,
33,
34,
33,
33,
35,
33,
33,
33,
34,
32,
28,
32,
35,
33,
33,
31,
33,
33,
32,
33,
33,
32,
35,
33,
33,
33,
33,
31,
31,
32,
33,
33,
33,
33,
32,
32,
33,
32,
32,
31,
32,
29,
33,
31,
34,
34,
32,
31,
32,
31,
33,
33,
31,
31,
32,
33,
25,
33,
32,
32,
20,
31,
31,
31,
29,
31,
29,
31,
29,
30,
29,
30,
29,
29,
28,
30,
30,
29,
30,
29,
30,
32,
29,
29,
29,
29,
29,
31,
29,
29,
31,
29,
32,
31,
29,
28,
31,
29,
30,
31,
31,
29,
30,
27,
29,
28,
29,
29,
29,
29,
29,
28,
30,
28,
28,
30,
28,
27,
30,
29,
27,
28,
28,
29,
28,
27,
28,
29,
28,
28,
27,
27,
27,
28,
27,
28,
27,
29,
27,
27,
25,
26,
26,
27,
26,
27,
24,
29,
25,
28,
26,
28,
25,
24,
25,
26,
26,
27,
25,
27,
26,
25,
24,
26,
23,
27,
27,
26,
27,
17,
17,
23,
15,
20,
25,
26,
27,
26,
26,
26,
36,
24,
25,
25,
25,
25,
25,
25,
26,
26,
27,
25,
24,
25,
25,
27,
27,
24,
24,
24,
25,
24,
25,
25,
27,
25,
24,
25,
25,
24,
26,
26,
23,
24,
23,
25,
24,
25,
26,
24,
24,
25,
24,
24,
25,
27,
23,
23,
23,
25,
24,
25,
17,
25,
24,
24,
24,
24,
25,
22,
24,
19,
19,
26,
25,
21,
21,
23,
23,
23,
22,
23,
24,
21,
21,
23,
23,
23,
23,
23,
21,
21,
21,
20,
23,
23,
24,
21,
23,
23,
23,
20,
21,
21,
19,
21,
22,
20,
22,
23,
23,
21,
21,
21,
23,
22,
22,
21,
21,
20,
19,
17,
21,
21,
21,
20,
20,
20,
21,
19,
21,
19,
18,
19,
21,
19,
21,
19,
21,
20,
20,
20,
18,
20,
20,
19,
21,
22,
19,
20,
21,
21,
22,
20,
18,
21,
21,
20,
20,
18,
20,
21,
19,
22,
19,
23,
20,
19,
19,
19,
20,
19,
19,
18,
21,
20,
20,
17,
23,
20,
20,
21,
19,
19,
19,
17,
20,
19,
20,
18,
21,
18,
19,
19,
21,
19,
17,
17,
19,
19,
20,
17,
20,
19,
19,
19,
19,
19,
19,
20,
20,
20,
19,
21,
21,
19,
19,
23,
20,
23,
20,
19,
19,
20,
20,
20,
17,
15,
21,
19,
11,
19,
20,
21,
20,
19,
21,
19,
19,
17,
17,
19,
20,
21,
21,
21,
20,
20,
19,
19,
20,
18,
18,
17,
23,
19,
18,
17,
13,
19,
19,
17,
19,
19,
19,
18,
19,
19,
14,
19,
20,
16,
17,
17,
19,
21,
19,
17,
17,
16,
15,
15,
16,
15,
18,
16,
17,
17,
17,
19,
18,
16,
16,
16,
16,
16,
17,
17,
15,
15,
16,
16,
16,
15,
15,
16,
17,
16,
16,
15,
18,
15,
16,
13,
16,
16,
15,
15,
16,
16,
19,
14,
14,
15,
17,
16,
16,
16,
16,
16,
16,
13,
15,
13,
15,
15,
15,
15,
16,
16,
16,
14,
15,
16,
15,
13,
14,
14,
15,
15,
13,
14,
14,
15,
15,
13,
15,
15,
15,
15,
13,
13,
15,
13,
15,
11,
11,
14,
15,
13,
15,
14,
14,
9,
14,
15,
15,
14,
12,
19,
19,
12,
13,
14,
15,
14,
15,
11,
13,
14,
13,
15,
15,
19,
19,
15,
13,
13,
14,
14,
13,
15,
13,
13,
14,
15,
15,
15,
15,
13,
8,
15,
16,
15,
15,
17,
14,
15,
14,
15,
14,
14,
14,
16,
15,
13,
15,
17,
14,
14,
13,
13,
13,
15,
15,
15,
13,
15,
13,
13,
15,
13,
9,
12,
14,
15,
16,
14,
15,
15,
15,
14,
14,
13,
16,
13,
14,
7,
12,
12,
16,
15,
13,
13,
14,
16,
16,
13,
13,
14,
11,
13,
14,
17,
14,
5,
13,
13,
13,
12,
12,
15,
15,
13,
15,
11,
16,
14,
15,
16,
13,
13,
13,
13,
13,
13,
9,
15,
15,
17,
14,
14,
13,
16,
13,
13,
14,
14,
15,
15,
16,
13,
13,
13,
14,
13,
13,
16,
11,
13,
15,
15,
15,
14,
16,
13,
14,
13,
13,
10,
15,
12,
13,
12,
13,
13,
15,
14,
15,
15,
15,
14,
15,
14,
15,
14,
16,
12,
17,
17,
12,
13,
16,
14,
15,
15,
14,
15,
15,
16,
17,
14,
14,
14,
10,
15,
15,
15,
16,
16,
15,
15,
15,
16,
15,
15,
15,
15,
16,
16,
10,
14,
13,
15,
15,
15,
14,
16,
14,
16,
15,
15,
15,
13,
15,
17,
14,
13,
13,
14,
13,
14,
13,
14,
8,
8,
15,
15,
15,
14,
11,
12,
16,
15,
15,
13,
15,
14,
14,
14,
14,
14,
15,
13,
13,
16,
16,
13,
13,
13,
13,
13,
13,
10,
13,
12,
15,
19,
13,
11,
15,
12,
12,
11,
13,
13,
13,
11,
12,
12,
12,
11,
12,
12,
11,
9,
12,
12,
12,
14,
13,
13,
13,
13,
14,
13,
13,
13,
15,
13,
12,
11,
12,
12,
13,
13,
13,
13,
14,
11,
13,
12,
13,
13,
12,
8,
11,
13,
11,
11,
11,
13,
12,
12,
13,
12,
12,
17,
13,
11,
10,
12,
13,
12,
12,
12,
13,
13,
12,
12,
12,
13,
12,
12,
13,
15,
13,
13,
13,
13,
12,
12,
13,
13,
12,
12,
13,
13,
13,
13,
13,
13,
13,
13,
13,
11,
9,
15,
12,
10,
15,
13,
13,
11,
16,
16,
13,
13,
13,
13,
13,
14,
13,
13,
13,
13,
13,
15,
13,
15,
13,
13,
13,
13,
14,
12,
13,
12,
13,
13,
13,
13,
13,
13,
17,
13,
13,
13,
13,
11,
13,
14,
13,
12,
15,
13,
12,
12,
13,
24,
24,
11,
11,
13,
13,
15,
13,
13,
13,
12,
13,
11,
12,
12,
12,
12,
13,
13,
13,
12,
13,
11,
14,
12,
13,
12,
13,
13,
14,
12,
13,
9,
11,
9,
12,
13,
13,
13,
13,
13,
13,
13,
14,
12,
14,
13,
7,
2,
14,
13,
13,
12,
13,
15,
13,
13,
12,
12,
13,
16,
13,
12,
14,
13,
12,
12,
12,
13,
12,
12,
13,
13,
14,
13,
13,
13,
13,
13,
13,
13,
13,
14,
13,
12,
11,
12,
12,
12,
11,
11,
11,
6,
10,
13,
13,
12,
12,
11,
12,
12,
12,
13,
13,
13,
12,
13,
7,
11,
12,
14,
13,
12,
15,
15,
13,
12,
12,
13,
13,
12,
7,
9,
11,
11,
13,
13,
12,
12,
12,
13,
13,
11,
54,
13,
12,
13,
9,
11,
12,
14,
13,
13,
13,
13,
14,
13,
13,
12,
14,
13,
12,
9,
12,
14,
14,
13,
12,
13,
12,
13,
13,
9,
12,
14,
14,
10,
3,
13,
15,
13,
13,
13,
15,
12,
13,
12,
12,
13,
11,
13,
12,
5,
13,
13,
13,
13,
13,
13,
13,
12,
13,
13,
13,
13,
12,
12,
13,
11,
13,
12,
12,
12,
12,
14,
12,
13,
11,
13,
13,
17,
13,
12,
16,
12,
12,
13,
13,
13,
13,
13,
13,
15,
12,
12,
12,
11,
13,
13,
13,
15,
12,
13,
12,
13,
12,
11,
13,
13,
13,
12,
13,
13,
22,
12,
13,
12,
13,
12,
11,
12,
12,
14,
13,
13,
14,
14,
13,
12,
14,
15,
13,
13,
12,
12,
13,
13,
11,
12,
13,
14,
12,
13,
16,
16,
15,
13,
12,
13,
12,
13,
11,
13,
12,
11,
12,
11,
13,
13,
13,
0,
16,
11,
13,
12,
14,
13,
13,
14,
12,
14,
14,
13,
13,
18,
9,
11,
13,
13,
11,
13,
13,
13,
12,
13,
13,
14,
13,
14,
11,
12,
13,
12,
11,
12,
10,
12,
12,
13,
12,
12,
12,
9,
13,
11,
12,
11,
13,
12,
12,
14,
13,
14,
13,
13,
14,
13,
13,
13,
13,
12,
15,
12,
13,
13,
13,
12,
11,
11,
13,
14,
12,
14,
14,
15,
14,
13,
13,
15,
13,
13,
13,
11,
13,
13,
12,
13,
13,
13,
19,
9,
13,
13,
12,
12,
13,
10,
12,
14,
14,
13,
12,
14,
16,
8,
11,
11,
12,
11,
12,
11,
12,
12,
12,
14,
13,
15,
16,
14,
19,
10,
13,
12,
14,
10,
13,
13,
14,
13,
13,
12,
7,
13,
13,
13,
11,
12,
12,
11,
12,
12,
12,
13,
13,
12,
12,
14,
13,
13,
16,
10,
12,
13,
13,
13,
13,
13,
14,
13,
12,
14,
13,
12,
11,
5,
15,
14,
12,
12,
13,
13,
13,
11,
13,
12,
13,
11,
11,
13,
15,
18,
15,
13,
13,
13,
13,
12,
13,
15,
14,
13,
12,
14,
13,
13,
13,
13,
10,
13,
13,
12,
12,
13,
13,
12,
13,
13,
13,
13,
12,
12,
11,
11,
12,
13,
12,
12,
12,
12,
14,
13,
13,
13,
15,
14,
11,
11,
13,
12,
13,
13,
13,
12,
13,
11,
5,
12,
13,
13,
13,
9,
9,
15,
23,
13,
13,
11,
11,
14,
13,
12,
13,
14,
10,
13,
13,
12,
14,
13,
14,
13,
12,
13,
13,
13,
13,
11,
13,
13,
15,
12,
16,
15,
13,
13,
11,
11,
13,
12,
12,
13,
12,
12,
13,
13,
13,
14,
12,
13,
13,
11,
12,
13,
13,
13,
13,
12,
14,
15,
13,
13,
12,
12,
12,
12,
11,
13,
11,
13,
12,
12,
11,
12,
14,
14,
11,
14,
15,
16,
13,
12,
11,
12,
12,
13,
10,
13,
15,
15,
13,
13,
14,
14,
12,
13,
12,
12,
13,
13,
12,
12,
12,
13,
10,
11,
13,
10,
13,
13,
13,
12,
13,
13,
11,
12,
12,
15,
13,
13,
13,
16,
12,
12,
13,
13,
12,
12,
11,
13,
14,
14,
11,
12,
12,
12,
15,
13,
10,
12,
12,
12,
11,
11,
12,
13,
11,
11,
12,
13,
13,
9,
11,
14,
13,
14,
13,
13,
12,
12,
13,
13,
12,
13,
11,
14,
11,
13,
14,
12,
12,
13,
13,
14,
13,
13,
12,
13,
13,
13,
12,
15,
13,
11,
11,
12,
12,
13,
16,
12,
12,
11,
12,
10,
13,
9,
9,
12,
13,
12,
13,
11,
12,
13,
13,
11,
12,
13,
13,
12,
11,
8,
15,
11,
12,
12,
15,
11,
11,
13,
13,
13,
12,
14,
10,
11,
10,
11,
11,
12,
11,
11,
13,
12,
12,
12,
13,
15,
12,
13,
13,
5,
12,
12,
14,
13,
13,
13,
13,
13,
12,
14,
13,
12,
11,
12,
12,
14,
13,
13,
13,
12,
12,
12,
13,
13,
13,
12,
13,
12,
12,
9,
16,
8,
13,
3,
3,
13,
14,
12,
13,
12,
15,
15,
13,
14,
15,
17,
15,
13,
13,
8,
11,
19,
12,
13,
15,
7,
11,
13,
13,
13,
15,
