Datos experimentales/DATOS 26-3-24/ALL0020/A0020CH1.CSV

Memory Length,4000,
Trigger Level,0.000E+00,
Source,CH1,
Vertical Units,V,
Vertical Scale,2.000E-02,
Vertical Position,-1.200E-02,
Horizontal Units,s,
Horizontal Scale,1.000E+00,
Horizontal Position,0.000E+00,
Horizontal Mode,Roll Mode,
Sampling Period,4.000E-03,
Firmware, V1.21,
Waveform Data,
8,
8,
13,
9,
8,
9,
8,
8,
9,
9,
7,
7,
8,
9,
8,
3,
10,
8,
8,
8,
9,
8,
9,
7,
8,
8,
10,
11,
8,
9,
8,
8,
9,
9,
9,
8,
8,
10,
10,
10,
5,
8,
8,
8,
9,
9,
10,
8,
9,
9,
10,
7,
9,
9,
9,
8,
9,
8,
7,
9,
9,
9,
9,
9,
10,
8,
8,
12,
8,
9,
7,
9,
8,
8,
8,
9,
8,
9,
11,
12,
12,
9,
10,
13,
8,
9,
7,
8,
8,
9,
9,
9,
8,
9,
9,
9,
9,
8,
9,
8,
7,
8,
9,
8,
9,
7,
9,
9,
8,
8,
9,
9,
9,
8,
8,
5,
8,
8,
8,
8,
9,
9,
9,
9,
9,
8,
8,
12,
8,
7,
8,
8,
3,
8,
9,
7,
7,
9,
7,
7,
7,
8,
11,
9,
5,
9,
8,
9,
8,
8,
8,
9,
9,
8,
10,
9,
7,
8,
8,
9,
8,
9,
8,
10,
10,
8,
9,
8,
8,
9,
8,
8,
9,
8,
8,
9,
8,
8,
8,
9,
10,
8,
9,
9,
9,
9,
9,
8,
10,
7,
9,
7,
7,
4,
9,
9,
10,
8,
8,
8,
7,
9,
8,
7,
8,
8,
8,
9,
7,
8,
8,
8,
8,
7,
9,
8,
8,
9,
8,
8,
8,
8,
9,
8,
8,
7,
16,
8,
8,
9,
9,
8,
7,
7,
9,
8,
8,
8,
8,
9,
9,
7,
9,
7,
9,
9,
7,
7,
8,
9,
9,
8,
8,
7,
8,
9,
8,
9,
11,
9,
8,
8,
9,
8,
7,
8,
11,
9,
9,
9,
12,
8,
8,
7,
8,
8,
7,
10,
7,
8,
9,
8,
8,
8,
9,
8,
7,
9,
13,
13,
9,
8,
9,
8,
7,
8,
8,
8,
8,
7,
8,
7,
9,
9,
8,
9,
8,
9,
8,
9,
9,
9,
9,
9,
12,
8,
8,
8,
8,
8,
9,
9,
8,
8,
8,
8,
8,
14,
9,
8,
8,
3,
8,
8,
9,
7,
9,
9,
9,
7,
8,
9,
8,
8,
8,
9,
9,
9,
9,
9,
8,
9,
12,
9,
8,
9,
9,
8,
8,
10,
9,
9,
8,
9,
8,
8,
9,
8,
9,
9,
8,
8,
8,
8,
8,
7,
8,
9,
8,
9,
8,
8,
8,
8,
9,
8,
9,
9,
7,
8,
8,
7,
4,
8,
9,
9,
8,
8,
9,
7,
7,
13,
9,
8,
9,
7,
8,
8,
9,
7,
9,
9,
10,
9,
9,
11,
8,
7,
9,
8,
8,
8,
9,
8,
9,
9,
8,
9,
9,
8,
9,
9,
9,
7,
8,
9,
7,
6,
8,
9,
9,
8,
8,
9,
7,
11,
8,
8,
7,
10,
16,
10,
12,
10,
8,
8,
8,
9,
8,
9,
9,
7,
13,
8,
7,
8,
8,
9,
10,
10,
8,
9,
9,
9,
8,
9,
5,
11,
8,
8,
9,
8,
8,
8,
9,
9,
6,
11,
9,
13,
7,
8,
8,
7,
7,
8,
8,
8,
6,
9,
8,
8,
8,
8,
9,
9,
9,
8,
8,
9,
9,
9,
9,
8,
9,
7,
9,
8,
8,
5,
9,
9,
9,
7,
6,
6,
9,
8,
9,
9,
9,
9,
8,
8,
8,
9,
8,
9,
8,
8,
9,
9,
9,
9,
9,
9,
9,
7,
5,
9,
9,
9,
8,
8,
8,
8,
11,
8,
8,
8,
7,
8,
7,
8,
8,
7,
9,
9,
9,
8,
9,
9,
10,
9,
9,
9,
8,
8,
8,
9,
9,
9,
8,
9,
8,
4,
8,
8,
11,
9,
9,
9,
9,
11,
8,
8,
8,
8,
8,
8,
8,
5,
9,
8,
8,
8,
8,
9,
9,
8,
9,
8,
9,
4,
9,
9,
9,
9,
9,
8,
9,
8,
8,
8,
8,
8,
10,
11,
9,
8,
7,
9,
9,
8,
9,
9,
9,
6,
9,
9,
8,
8,
8,
9,
9,
8,
8,
7,
8,
7,
7,
7,
8,
8,
11,
8,
8,
9,
9,
10,
9,
7,
7,
8,
8,
9,
9,
7,
8,
8,
8,
9,
7,
9,
10,
8,
8,
9,
8,
8,
8,
7,
9,
8,
8,
9,
8,
9,
9,
8,
8,
10,
10,
8,
8,
8,
9,
8,
9,
8,
9,
9,
9,
8,
8,
9,
9,
9,
8,
9,
9,
7,
7,
9,
9,
8,
8,
9,
9,
9,
9,
9,
9,
9,
8,
7,
8,
9,
8,
9,
8,
9,
9,
9,
8,
5,
8,
12,
7,
8,
8,
7,
8,
8,
7,
8,
8,
8,
11,
9,
7,
8,
8,
9,
9,
8,
9,
8,
8,
8,
5,
5,
8,
10,
8,
10,
8,
8,
7,
9,
8,
8,
8,
9,
7,
7,
8,
9,
9,
8,
9,
10,
10,
9,
7,
8,
11,
8,
9,
9,
7,
8,
10,
9,
9,
7,
8,
9,
7,
10,
9,
7,
7,
7,
8,
8,
9,
9,
10,
8,
7,
9,
8,
7,
8,
9,
9,
9,
8,
9,
8,
9,
8,
7,
10,
9,
10,
8,
9,
9,
7,
7,
9,
8,
9,
7,
10,
8,
8,
7,
8,
8,
8,
8,
9,
9,
9,
8,
11,
5,
8,
8,
10,
8,
8,
9,
8,
7,
7,
9,
10,
9,
8,
8,
9,
9,
8,
8,
9,
9,
8,
9,
6,
6,
9,
8,
9,
8,
8,
9,
10,
9,
8,
9,
11,
7,
8,
8,
9,
8,
9,
9,
8,
8,
9,
9,
9,
10,
9,
9,
8,
8,
8,
10,
8,
8,
8,
10,
9,
8,
9,
9,
11,
9,
9,
9,
9,
8,
8,
9,
9,
9,
12,
8,
10,
8,
9,
8,
8,
10,
8,
8,
7,
8,
12,
9,
9,
9,
9,
8,
8,
9,
9,
9,
9,
8,
8,
10,
9,
8,
9,
8,
9,
8,
8,
8,
8,
9,
9,
13,
8,
9,
8,
8,
9,
8,
8,
8,
8,
11,
11,
9,
8,
7,
9,
8,
7,
10,
10,
9,
9,
8,
11,
15,
15,
9,
12,
8,
8,
8,
8,
9,
8,
9,
9,
9,
6,
7,
7,
8,
8,
8,
8,
8,
9,
8,
9,
9,
8,
13,
9,
8,
8,
9,
10,
8,
8,
8,
8,
11,
8,
8,
12,
9,
9,
9,
9,
11,
8,
8,
9,
10,
9,
8,
9,
8,
7,
8,
8,
8,
8,
9,
9,
8,
8,
8,
9,
7,
9,
9,
9,
8,
9,
9,
9,
8,
8,
9,
8,
7,
12,
7,
9,
8,
11,
9,
8,
8,
8,
8,
8,
10,
10,
8,
8,
9,
8,
9,
9,
8,
8,
9,
9,
9,
8,
8,
9,
11,
9,
9,
8,
8,
8,
9,
9,
9,
9,
6,
5,
9,
9,
9,
8,
9,
7,
9,
8,
9,
5,
5,
6,
9,
9,
9,
8,
8,
8,
12,
8,
8,
8,
8,
9,
9,
9,
7,
9,
8,
9,
8,
8,
9,
9,
10,
9,
7,
8,
8,
10,
8,
9,
8,
9,
8,
9,
8,
9,
11,
7,
9,
8,
8,
8,
8,
7,
9,
9,
9,
9,
8,
13,
8,
14,
9,
8,
8,
8,
9,
9,
9,
9,
9,
12,
8,
13,
8,
9,
8,
8,
8,
8,
8,
8,
10,
8,
8,
9,
8,
8,
9,
8,
9,
8,
8,
8,
9,
9,
8,
7,
8,
8,
9,
11,
7,
7,
8,
8,
5,
5,
7,
9,
6,
8,
9,
9,
9,
8,
9,
9,
10,
7,
7,
7,
8,
8,
9,
9,
8,
8,
9,
8,
9,
8,
7,
9,
9,
8,
9,
8,
9,
8,
9,
8,
8,
5,
8,
6,
9,
9,
9,
9,
8,
12,
9,
9,
7,
8,
8,
9,
10,
7,
8,
8,
8,
8,
9,
9,
9,
9,
9,
8,
9,
13,
8,
12,
9,
8,
8,
8,
8,
9,
8,
8,
8,
11,
9,
8,
8,
8,
10,
7,
9,
9,
7,
8,
8,
7,
13,
6,
8,
8,
8,
8,
9,
9,
9,
8,
8,
9,
10,
8,
8,
7,
9,
8,
8,
8,
7,
9,
9,
9,
8,
9,
8,
8,
7,
9,
8,
8,
9,
8,
8,
9,
8,
8,
8,
3,
9,
8,
9,
8,
8,
7,
9,
9,
8,
7,
11,
11,
8,
7,
8,
9,
8,
10,
8,
9,
7,
9,
9,
9,
9,
9,
10,
9,
8,
10,
9,
8,
8,
9,
8,
9,
11,
8,
9,
9,
9,
7,
8,
8,
9,
9,
9,
8,
5,
9,
7,
8,
8,
8,
8,
8,
9,
8,
9,
8,
7,
11,
9,
11,
8,
8,
9,
8,
8,
8,
8,
9,
10,
7,
8,
10,
8,
8,
8,
8,
8,
8,
8,
8,
9,
8,
7,
5,
9,
8,
9,
8,
8,
9,
11,
11,
8,
8,
4,
8,
9,
9,
8,
7,
8,
9,
8,
9,
11,
11,
6,
9,
10,
8,
8,
10,
8,
9,
8,
9,
8,
9,
7,
7,
9,
9,
9,
9,
11,
8,
9,
8,
7,
8,
12,
9,
5,
8,
8,
8,
9,
8,
8,
8,
9,
8,
8,
8,
7,
7,
7,
9,
9,
8,
8,
9,
8,
9,
8,
9,
8,
9,
9,
9,
7,
7,
7,
7,
9,
4,
8,
8,
9,
10,
9,
8,
8,
12,
9,
9,
8,
8,
8,
9,
9,
7,
5,
9,
9,
8,
8,
8,
8,
9,
9,
7,
8,
8,
9,
9,
8,
9,
9,
5,
14,
4,
9,
8,
8,
4,
8,
12,
8,
8,
9,
9,
8,
7,
8,
9,
8,
11,
11,
9,
8,
9,
10,
9,
8,
8,
9,
8,
8,
8,
11,
9,
9,
8,
11,
10,
10,
5,
8,
8,
8,
9,
10,
8,
8,
9,
8,
8,
8,
9,
9,
8,
8,
7,
9,
9,
9,
8,
10,
9,
8,
8,
9,
9,
10,
9,
9,
10,
11,
11,
11,
11,
15,
14,
14,
15,
15,
15,
15,
16,
16,
17,
19,
21,
19,
19,
20,
21,
21,
23,
23,
28,
25,
25,
27,
27,
28,
28,
28,
30,
31,
31,
31,
31,
33,
33,
33,
34,
39,
32,
38,
37,
38,
39,
39,
40,
41,
41,
42,
44,
44,
45,
45,
47,
47,
48,
48,
48,
49,
51,
51,
51,
55,
55,
55,
57,
56,
58,
59,
60,
61,
61,
59,
63,
64,
64,
63,
66,
56,
68,
69,
71,
71,
70,
71,
71,
72,
72,
73,
73,
73,
71,
75,
77,
71,
75,
75,
80,
77,
77,
77,
80,
80,
78,
78,
79,
78,
80,
76,
78,
77,
80,
79,
79,
80,
76,
80,
80,
79,
80,
77,
80,
80,
80,
80,
79,
81,
78,
80,
77,
79,
79,
77,
80,
79,
81,
80,
80,
76,
77,
80,
80,
79,
77,
77,
78,
77,
79,
78,
78,
78,
77,
76,
77,
77,
77,
75,
79,
76,
76,
76,
77,
77,
77,
76,
76,
76,
76,
74,
75,
75,
76,
72,
74,
74,
75,
75,
73,
73,
73,
72,
73,
74,
73,
73,
73,
73,
73,
71,
71,
73,
74,
77,
71,
72,
73,
70,
68,
70,
69,
67,
67,
68,
67,
68,
68,
69,
66,
69,
66,
67,
66,
67,
68,
65,
65,
65,
65,
67,
65,
65,
65,
64,
65,
64,
64,
63,
64,
63,
63,
67,
63,
63,
62,
69,
63,
63,
61,
64,
62,
63,
60,
65,
62,
62,
61,
61,
60,
59,
63,
55,
61,
61,
57,
59,
60,
59,
60,
60,
58,
59,
57,
58,
59,
59,
58,
57,
59,
59,
55,
57,
56,
56,
57,
59,
60,
57,
58,
56,
60,
56,
56,
56,
57,
57,
56,
56,
58,
52,
55,
55,
56,
55,
55,
53,
55,
55,
55,
53,
55,
50,
50,
54,
49,
53,
51,
53,
50,
56,
53,
53,
57,
53,
49,
52,
52,
46,
52,
52,
52,
47,
51,
50,
49,
49,
49,
52,
48,
48,
49,
47,
51,
48,
49,
51,
50,
49,
49,
49,
49,
48,
51,
49,
49,
52,
51,
49,
48,
49,
52,
48,
48,
48,
46,
48,
47,
47,
47,
47,
45,
46,
46,
46,
45,
48,
41,
44,
45,
47,
46,
46,
45,
45,
48,
41,
44,
44,
41,
45,
45,
45,
45,
48,
48,
41,
41,
45,
44,
45,
45,
45,
45,
45,
43,
45,
44,
44,
43,
43,
43,
43,
43,
42,
39,
43,
43,
42,
45,
41,
41,
41,
41,
40,
40,
41,
41,
40,
42,
43,
41,
39,
40,
45,
41,
41,
42,
42,
41,
40,
40,
42,
40,
39,
40,
38,
41,
40,
41,
39,
39,
40,
36,
36,
39,
38,
37,
38,
39,
39,
39,
38,
39,
37,
37,
36,
38,
38,
35,
38,
37,
35,
42,
37,
37,
34,
37,
37,
37,
37,
33,
33,
35,
37,
37,
37,
37,
37,
36,
35,
35,
34,
33,
35,
35,
36,
35,
37,
33,
36,
35,
35,
32,
35,
33,
33,
32,
32,
33,
33,
35,
36,
28,
33,
34,
37,
33,
32,
32,
33,
33,
33,
32,
32,
32,
31,
32,
32,
31,
31,
29,
27,
28,
23,
30,
29,
29,
29,
30,
31,
31,
32,
31,
30,
31,
31,
31,
31,
33,
35,
35,
33,
31,
31,
31,
31,
32,
31,
32,
35,
33,
32,
32,
33,
33,
32,
32,
32,
29,
29,
32,
31,
29,
29,
31,
31,
29,
31,
29,
31,
31,
29,
29,
27,
29,
30,
31,
31,
27,
27,
30,
30,
29,
29,
29,
29,
29,
30,
28,
28,
29,
31,
28,
28,
29,
29,
26,
26,
30,
29,
27,
27,
26,
29,
27,
29,
29,
28,
28,
29,
29,
29,
29,
27,
27,
28,
26,
32,
30,
29,
28,
29,
29,
29,
28,
29,
29,
30,
28,
29,
30,
29,
29,
28,
29,
31,
29,
25,
29,
29,
28,
30,
29,
29,
28,
28,
29,
28,
28,
28,
27,
24,
29,
29,
29,
27,
24,
24,
28,
29,
27,
27,
25,
26,
26,
27,
26,
26,
26,
27,
25,
26,
26,
26,
25,
24,
23,
25,
26,
24,
25,
25,
21,
26,
24,
25,
22,
25,
24,
25,
23,
25,
24,
25,
24,
23,
23,
25,
23,
23,
23,
25,
23,
24,
21,
24,
23,
25,
22,
25,
25,
23,
22,
25,
23,
21,
21,
25,
25,
24,
24,
24,
22,
23,
23,
23,
24,
22,
23,
23,
23,
24,
23,
23,
25,
20,
24,
20,
20,
23,
23,
23,
24,
22,
22,
24,
22,
23,
21,
23,
22,
25,
25,
19,
23,
21,
22,
21,
21,
21,
16,
24,
22,
22,
21,
25,
20,
20,
22,
21,
24,
21,
21,
16,
23,
21,
22,
22,
23,
23,
23,
23,
55,
21,
21,
21,
22,
21,
22,
25,
13,
24,
24,
23,
21,
21,
17,
14,
21,
21,
20,
22,
24,
24,
21,
21,
11,
19,
19,
20,
19,
23,
20,
21,
19,
19,
23,
20,
20,
19,
19,
19,
17,
19,
19,
19,
20,
19,
19,
19,
19,
18,
14,
17,
19,
20,
17,
19,
17,
19,
19,
17,
17,
15,
15,
16,
17,
18,
17,
16,
15,
21,
17,
19,
19,
17,
17,
16,
17,
18,
16,
16,
17,
17,
17,
16,
17,
16,
16,
15,
16,
17,
15,
16,
19,
17,
17,
15,
16,
17,
16,
16,
16,
15,
15,
16,
15,
14,
16,
11,
16,
15,
16,
15,
16,
16,
15,
15,
15,
16,
16,
15,
16,
16,
15,
13,
15,
15,
15,
12,
16,
16,
16,
16,
14,
15,
15,
16,
15,
15,
15,
16,
15,
15,
15,
15,
15,
17,
17,
10,
15,
16,
16,
13,
10,
16,
15,
15,
16,
14,
15,
15,
16,
15,
15,
15,
15,
13,
15,
13,
14,
15,
15,
13,
15,
15,
15,
14,
15,
15,
15,
15,
15,
16,
14,
14,
15,
13,
8,
8,
15,
18,
13,
14,
15,
13,
15,
16,
16,
14,
15,
14,
15,
15,
14,
14,
17,
15,
9,
15,
16,
16,
15,
15,
16,
16,
15,
15,
15,
17,
16,
15,
16,
15,
14,
15,
16,
15,
16,
15,
16,
16,
16,
15,
16,
15,
16,
13,
15,
16,
16,
16,
16,
16,
19,
17,
17,
12,
17,
15,
16,
15,
14,
16,
15,
16,
17,
15,
17,
17,
17,
15,
16,
16,
17,
16,
17,
16,
16,
15,
13,
17,
15,
15,
17,
17,
17,
14,
15,
16,
15,
17,
16,
15,
13,
13,
14,
16,
14,
20,
20,
15,
14,
15,
14,
13,
13,
14,
13,
13,
13,
9,
15,
12,
24,
24,
11,
8,
13,
11,
9,
12,
11,
13,
12,
11,
11,
14,
14,
11,
10,
11,
11,
9,
12,
12,
7,
10,
11,
9,
9,
10,
10,
9,
11,
10,
9,
10,
9,
10,
9,
10,
9,
9,
10,
12,
12,
10,
10,
10,
13,
14,
11,
9,
8,
10,
9,
9,
11,
7,
9,
11,
11,
9,
13,
10,
9,
5,
7,
9,
9,
10,
9,
9,
9,
9,
9,
9,
9,
11,
9,
9,
10,
9,
9,
9,
9,
11,
12,
9,
8,
8,
5,
11,
9,
8,
9,
11,
11,
8,
9,
11,
9,
10,
9,
9,
9,
13,
12,
8,
9,
11,
11,
10,
9,
9,
9,
9,
9,
9,
8,
9,
9,
9,
8,
9,
8,
8,
11,
14,
9,
9,
8,
8,
9,
9,
8,
8,
10,
9,
11,
11,
9,
9,
11,
11,
8,
8,
12,
10,
9,
10,
8,
7,
10,
9,
9,
10,
8,
8,
8,
9,
8,
8,
8,
9,
11,
7,
10,
8,
8,
8,
8,
9,
9,
8,
9,
9,
9,
9,
8,
7,
9,
9,
8,
7,
7,
9,
12,
10,
10,
10,
10,
9,
8,
9,
9,
9,
10,
9,
9,
9,
9,
9,
9,
8,
8,
8,
14,
8,
7,
4,
8,
9,
9,
11,
8,
9,
8,
8,
8,
8,
8,
8,
9,
9,
9,
9,
6,
11,
9,
10,
9,
9,
9,
10,
8,
9,
10,
10,
9,
9,
9,
10,
9,
8,
7,
7,
9,
11,
8,
10,
12,
9,
9,
9,
5,
9,
9,
9,
8,
9,
9,
8,
7,
9,
9,
9,
9,
9,
11,
8,
7,
10,
11,
9,
10,
9,
10,
10,
9,
9,
10,
8,
9,
9,
9,
9,
9,
8,
12,
3,
8,
8,
8,
11,
8,
8,
9,
9,
9,
9,
8,
9,
9,
10,
8,
8,
8,
9,
7,
8,
8,
9,
9,
8,
9,
9,
9,
9,
9,
8,
9,
9,
9,
8,
9,
8,
9,
7,
5,
6,
9,
11,
9,
9,
9,
9,
9,
9,
9,
9,
7,
9,
9,
9,
8,
9,
8,
8,
5,
9,
8,
9,
8,
9,
8,
9,
8,
9,
8,
9,
9,
7,
9,
7,
7,
7,
9,
9,
8,
9,
10,
11,
9,
9,
8,
7,
9,
9,
9,
8,
7,
9,
9,
9,
10,
9,
9,
7,
2,
8,
11,
8,
8,
7,
9,
9,
9,
9,
9,
9,
8,
9,
9,
9,
9,
11,
11,
9,
5,
9,
10,
10,
8,
9,
8,
8,
8,
8,
9,
9,
9,
9,
9,
8,
9,
9,
7,
9,
5,
8,
9,
9,
8,
8,
8,
8,
8,
11,
12,
8,
8,
8,
8,
9,
9,
9,
9,
9,
5,
9,
8,
9,
9,
13,
8,
9,
8,
8,
7,
7,
9,
8,
8,
8,
9,
8,
10,
8,
9,
11,
16,
11,
9,
9,
9,
9,
9,
9,
9,
8,
8,
9,
11,
10,
9,
9,
7,
13,
9,
8,
9,
9,
9,
8,
9,
7,
9,
9,
8,
8,
9,
9,
9,
9,
9,
9,
8,
7,
11,
11,
8,
8,
9,
8,
9,
8,
8,
9,
9,
9,
11,
9,
8,
8,
10,
8,
8,
9,
7,
13,
9,
8,
5,
5,
9,
8,
9,
8,
8,
8,
8,
11,
9,
9,
10,
8,
8,
8,
9,
12,
9,
9,
11,
13,
9,
10,
9,
9,
9,
10,
9,
9,
9,
8,
8,
8,
9,
8,
9,
12,
11,
9,
8,
13,
9,
8,
9,
9,
8,
8,
8,
9,
9,
9,
7,
7,
8,
8,
10,
8,
3,
8,
8,
8,
8,
9,
9,
9,
9,
9,
12,
8,
9,
9,
9,
10,
10,
8,
10,
8,
10,
9,
9,
9,
15,
8,
9,
9,
7,
9,
9,
8,
9,
11,
8,
8,
9,
7,
8,
8,
6,
9,
8,
8,
7,
7,
8,
8,
8,
9,
9,
9,
9,
10,
8,
8,
9,
9,
9,
9,
8,
11,
9,
8,
8,
9,
12,
8,
9,
9,
9,
9,
9,
9,
10,
10,
9,
8,
10,
9,
11,
8,
3,
8,
9,
5,
9,
9,
8,
8,
9,
10,
8,
8,
8,
8,
9,
9,
10,
11,
11,
8,
2,
11,
9,
9,
8,
9,
9,
8,
9,
9,
9,
9,
9,
9,
8,
9,
9,
10,
5,
11,
3,
9,
9,
7,
10,
11,
9,
9,
10,
9,
11,
9,
9,
9,
10,
9,
10,
9,
10,
8,
9,
9,
8,
7,
9,
8,
8,
9,
8,
9,
9,
8,
9,
10,
10,
9,
9,
8,
12,
7,
9,
8,
9,
10,
9,
8,
8,
8,
8,
9,
9,
8,
8,
10,
10,
11,
8,
11,
11,
8,
10,
9,
9,
9,
9,
9,
10,
8,
10,
9,
9,
8,
9,
9,
8,
7,
3,
9,
10,
10,
11,
14,
9,
9,
9,
9,
9,
8,
8,
9,
9,
8,
9,
9,
8,
9,
9,
9,
9,
9,
11,
7,
7,
8,
8,
6,
9,
9,
10,
7,
8,
9,
9,
12,
9,
9,
9,
9,
8,
8,
8,
10,
11,
17,
8,
8,
8,
8,
8,
11,
12,
9,
9,
9,
10,
10,
9,
5,
9,
9,
9,
10,
3,
6,
3,
9,
9,
13,
11,
9,
9,
9,
9,
9,
7,
8,
9,
9,
10,
8,
9,
8,
8,
12,
3,
9,
9,
10,
8,
9,
10,
8,
9,
10,
9,
11,
9,
9,
9,
9,
9,
10,
7,
6,
9,
7,
7,
10,
10,
9,
9,
9,
9,
9,
9,
11,
9,
9,
9,
9,
12,
8,
7,
13,
1,
9,
8,
9,
9,
9,
9,
9,
9,
8,
9,
8,
7,
9,
9,
9,
9,
8,
8,
10,
9,
8,
9,
8,
7,
9,
9,
8,
8,
7,
9,
9,
7,
8,
10,
8,
10,
9,
5,
7,
9,
11,
9,
9,
9,
8,
10,
10,
10,
9,
9,
8,
9,
9,
9,
9,
9,
8,
9,
9,
9,
9,
7,
7,
9,
11,
9,
8,
9,
9,
8,
8,
9,
9,
9,
9,
11,
11,
8,
7,
11,
5,
12,
9,
11,
9,
8,
9,
9,
9,
8,
8,
9,
9,
8,
8,
8,
8,
8,
8,
7,
9,
17,
8,
8,
7,
8,
9,
8,
8,
9,
8,
8,
8,
8,
8,
9,
11,
11,
9,
7,
9,
10,
5,
8,
8,
8,
9,
9,
9,
10,
9,
9,
9,
9,
11,
9,
9,
9,
8,
8,
8,
9,
10,
6,
9,
9,
9,
8,
9,
9,
9,
9,
9,
9,
8,
8,
9,
9,
7,
8,
8,
9,
9,
8,
8,
10,
7,
7,
8,
8,
7,
7,
9,
8,
8,
8,
8,
8,
9,
8,
8,
9,
10,
5,
8,
9,
9,
8,
9,
8,
7,
7,
8,
8,
9,
8,
9,
8,
9,
10,
10,
8,
9,
5,
8,
8,
7,
8,
7,
9,
9,
10,
9,
10,
9,
10,
11,
15,
8,
8,
9,
6,
11,
9,
9,
7,
9,
9,
11,
8,
9,
8,
8,
9,
10,
8,
10,
9,
9,
8,
9,
5,
8,
11,
10,
7,
10,
9,
9,
9,
8,
8,
9,
8,
8,
7,
11,
10,
-1,
8,
7,
8,
8,
10,
10,
20,
7,
8,
7,
7,
8,
8,
8,
10,
7,
8,
9,
12,
12,
8,
8,
7,
8,
8,
9,
8,
5,
8,
9,
7,
8,
9,
9,
9,
9,
9,
8,
10,
9,
9,
9,
9,
11,
10,
9,
9,
11,
0,
9,
9,
8,
8,
9,
10,
9,
8,
7,
9,
8,
9,
9,
8,
9,
9,
9,
8,
10,
11,
4,
9,
9,
8,
8,
8,
8,
8,
8,
9,
9,
8,
9,
9,
9,
9,
8,
8,
8,
7,
9,
9,
9,
8,
11,
8,
8,
8,
10,
10,
9,
9,
8,
9,
8,
9,
9,
8,
9,
12,
12,
9,
9,
9,
8,
8,
8,
8,
9,
9,
9,
8,
9,
8,
9,
8,
9,
8,
9,
9,
12,
3,
9,
