Datos experimentales/DATOS 26-3-24/ALL0040/A0040CH1.CSV

Memory Length,4000,
Trigger Level,1.600E-03,
Source,CH1,
Vertical Units,V,
Vertical Scale,2.000E-02,
Vertical Position,-1.200E-02,
Horizontal Units,s,
Horizontal Scale,1.000E+00,
Horizontal Position,0.000E+00,
Horizontal Mode,Roll Mode,
Waveform Last Dot Address,3340,
Sampling Period,4.000E-03,
Firmware, V1.21,
Waveform Data,
12,
12,
12,
15,
11,
11,
12,
13,
13,
13,
12,
13,
11,
13,
12,
12,
12,
13,
12,
12,
13,
13,
11,
13,
12,
14,
13,
13,
11,
11,
13,
18,
18,
13,
11,
13,
12,
13,
13,
13,
12,
12,
13,
13,
12,
12,
13,
13,
11,
12,
13,
13,
12,
9,
12,
13,
13,
13,
13,
13,
13,
11,
12,
13,
13,
13,
11,
12,
12,
13,
12,
12,
12,
13,
12,
12,
13,
13,
12,
12,
13,
15,
12,
11,
11,
13,
11,
13,
11,
12,
12,
13,
12,
13,
13,
11,
11,
12,
13,
12,
12,
12,
13,
12,
13,
11,
14,
13,
9,
13,
13,
13,
13,
13,
12,
13,
12,
12,
13,
13,
13,
12,
13,
13,
13,
11,
12,
13,
12,
13,
9,
13,
11,
12,
11,
11,
12,
13,
12,
12,
11,
14,
12,
13,
12,
13,
13,
14,
13,
13,
12,
12,
12,
12,
12,
13,
12,
16,
10,
13,
16,
16,
9,
12,
11,
13,
12,
12,
14,
13,
12,
13,
13,
13,
13,
12,
12,
12,
13,
12,
12,
13,
15,
12,
13,
12,
12,
12,
3,
14,
12,
13,
12,
13,
13,
12,
16,
11,
12,
13,
12,
12,
12,
11,
13,
13,
11,
12,
13,
13,
15,
13,
13,
11,
11,
13,
12,
14,
13,
13,
13,
11,
13,
13,
14,
12,
13,
13,
13,
13,
13,
17,
12,
11,
11,
13,
13,
12,
11,
13,
13,
13,
9,
9,
13,
12,
12,
13,
13,
13,
11,
12,
13,
13,
13,
12,
10,
13,
14,
12,
12,
12,
12,
13,
13,
13,
13,
12,
9,
18,
10,
13,
12,
13,
13,
11,
13,
12,
13,
13,
13,
12,
12,
11,
12,
12,
13,
13,
13,
11,
16,
12,
11,
11,
17,
15,
12,
11,
12,
13,
12,
13,
12,
13,
12,
11,
11,
12,
13,
13,
12,
12,
13,
13,
11,
9,
12,
15,
17,
17,
11,
11,
12,
12,
13,
11,
13,
13,
13,
11,
12,
12,
12,
12,
13,
10,
12,
12,
12,
13,
12,
15,
16,
11,
11,
15,
13,
13,
13,
13,
13,
13,
12,
12,
12,
12,
12,
12,
12,
13,
13,
12,
13,
15,
13,
13,
12,
15,
12,
13,
13,
7,
17,
12,
13,
11,
13,
12,
12,
12,
12,
12,
12,
12,
12,
12,
12,
14,
11,
12,
12,
12,
12,
12,
13,
11,
11,
12,
12,
22,
12,
15,
13,
12,
13,
12,
13,
12,
13,
13,
13,
13,
13,
12,
12,
13,
12,
12,
13,
12,
13,
12,
13,
13,
10,
14,
12,
11,
13,
12,
13,
13,
12,
12,
12,
12,
12,
11,
12,
13,
13,
12,
11,
13,
13,
12,
12,
12,
13,
13,
12,
9,
15,
13,
12,
12,
8,
12,
13,
13,
16,
13,
13,
13,
12,
12,
12,
12,
12,
12,
12,
12,
13,
13,
13,
13,
12,
13,
12,
16,
10,
13,
13,
13,
15,
10,
14,
12,
12,
12,
13,
13,
12,
13,
13,
13,
12,
12,
13,
12,
11,
11,
13,
12,
13,
11,
13,
12,
12,
12,
12,
11,
13,
13,
13,
12,
12,
11,
12,
13,
12,
11,
13,
12,
12,
13,
12,
12,
13,
13,
11,
15,
11,
14,
11,
10,
12,
10,
13,
13,
13,
13,
13,
13,
13,
12,
15,
9,
12,
11,
13,
13,
11,
14,
14,
13,
12,
17,
11,
13,
11,
13,
12,
10,
13,
11,
13,
13,
13,
12,
13,
12,
12,
12,
12,
12,
13,
13,
13,
13,
13,
12,
12,
13,
11,
9,
12,
15,
15,
11,
11,
13,
13,
13,
12,
12,
12,
13,
13,
12,
11,
12,
13,
12,
12,
13,
13,
13,
12,
11,
13,
12,
17,
11,
12,
13,
10,
13,
13,
13,
12,
13,
12,
9,
12,
12,
13,
12,
14,
12,
13,
13,
13,
13,
12,
9,
12,
13,
12,
11,
13,
12,
13,
15,
12,
12,
12,
13,
12,
11,
11,
14,
11,
12,
11,
13,
14,
13,
13,
13,
13,
12,
12,
12,
13,
11,
13,
12,
15,
15,
13,
8,
8,
12,
13,
11,
13,
12,
13,
13,
12,
11,
15,
5,
14,
14,
13,
13,
13,
11,
13,
14,
15,
15,
13,
14,
17,
14,
14,
15,
13,
17,
16,
13,
15,
15,
17,
16,
17,
16,
17,
17,
16,
16,
16,
14,
16,
15,
16,
17,
16,
16,
16,
18,
18,
17,
16,
17,
17,
16,
17,
23,
17,
18,
16,
16,
16,
13,
13,
17,
17,
17,
18,
17,
17,
20,
13,
15,
16,
16,
16,
16,
17,
17,
17,
17,
17,
17,
19,
19,
19,
17,
23,
18,
18,
12,
19,
17,
19,
16,
16,
18,
21,
17,
17,
16,
17,
17,
23,
14,
19,
17,
19,
16,
19,
17,
19,
17,
17,
19,
19,
19,
17,
16,
19,
17,
17,
19,
17,
16,
17,
19,
18,
18,
17,
16,
16,
17,
17,
19,
17,
20,
17,
17,
19,
19,
19,
17,
15,
17,
13,
17,
19,
17,
18,
18,
17,
16,
16,
16,
16,
16,
18,
17,
17,
17,
17,
16,
18,
14,
11,
16,
17,
17,
16,
16,
17,
17,
17,
16,
17,
16,
17,
21,
17,
16,
16,
16,
16,
17,
15,
17,
16,
16,
16,
15,
16,
14,
17,
17,
17,
17,
15,
17,
15,
15,
17,
15,
17,
16,
16,
16,
16,
15,
16,
16,
15,
17,
17,
15,
17,
17,
16,
17,
17,
16,
16,
15,
17,
17,
17,
16,
16,
15,
17,
15,
16,
16,
11,
11,
16,
16,
16,
16,
16,
17,
15,
16,
13,
15,
16,
17,
16,
16,
16,
16,
15,
16,
17,
19,
16,
15,
18,
17,
19,
17,
17,
19,
20,
19,
19,
20,
15,
24,
17,
23,
23,
23,
20,
20,
25,
26,
25,
25,
27,
27,
29,
29,
29,
29,
31,
31,
31,
31,
32,
30,
31,
35,
34,
36,
36,
35,
36,
37,
38,
40,
40,
40,
44,
43,
44,
47,
44,
45,
48,
47,
48,
49,
53,
53,
51,
52,
53,
52,
53,
56,
53,
56,
56,
56,
57,
60,
60,
59,
62,
64,
64,
65,
67,
69,
69,
69,
72,
73,
73,
73,
75,
73,
76,
75,
76,
78,
78,
78,
80,
80,
78,
80,
81,
81,
83,
83,
83,
81,
83,
80,
83,
84,
82,
84,
85,
86,
91,
91,
85,
85,
87,
86,
85,
86,
87,
87,
86,
87,
86,
85,
85,
88,
83,
88,
85,
85,
86,
88,
79,
88,
87,
87,
91,
91,
87,
86,
85,
87,
77,
85,
84,
86,
87,
87,
85,
85,
85,
88,
85,
85,
84,
88,
87,
84,
85,
83,
83,
83,
83,
85,
85,
84,
81,
82,
82,
81,
81,
83,
82,
82,
81,
82,
78,
78,
80,
80,
81,
80,
80,
77,
79,
80,
79,
79,
78,
75,
77,
77,
76,
77,
77,
77,
75,
79,
77,
77,
76,
77,
74,
76,
76,
77,
77,
76,
74,
75,
73,
71,
73,
72,
72,
73,
70,
70,
75,
73,
72,
73,
72,
71,
70,
71,
72,
74,
72,
74,
72,
72,
72,
72,
70,
69,
69,
68,
65,
69,
67,
69,
68,
68,
68,
68,
67,
68,
65,
67,
68,
67,
68,
65,
67,
67,
67,
66,
66,
68,
64,
65,
64,
66,
62,
65,
61,
61,
61,
64,
62,
62,
64,
63,
61,
63,
61,
64,
62,
63,
63,
61,
62,
61,
61,
63,
59,
61,
56,
60,
63,
62,
61,
60,
59,
64,
60,
61,
61,
61,
59,
61,
60,
59,
59,
59,
59,
58,
58,
57,
59,
59,
55,
59,
57,
58,
53,
57,
59,
59,
57,
60,
57,
59,
59,
58,
59,
59,
56,
56,
55,
56,
57,
56,
57,
59,
57,
55,
55,
55,
55,
55,
56,
51,
56,
55,
56,
55,
55,
55,
55,
55,
56,
52,
55,
55,
55,
53,
53,
59,
57,
54,
49,
55,
55,
53,
53,
55,
53,
52,
52,
51,
52,
52,
54,
53,
52,
52,
52,
51,
50,
52,
51,
51,
51,
51,
47,
53,
52,
49,
51,
51,
51,
50,
49,
51,
51,
51,
51,
51,
52,
50,
48,
52,
49,
49,
51,
49,
49,
49,
49,
49,
48,
48,
44,
47,
47,
48,
47,
47,
50,
48,
47,
48,
48,
48,
47,
48,
43,
48,
48,
47,
47,
45,
46,
45,
75,
48,
46,
47,
46,
47,
48,
47,
47,
47,
47,
47,
51,
46,
46,
43,
43,
45,
46,
47,
46,
45,
47,
47,
44,
44,
43,
41,
44,
45,
39,
43,
43,
44,
45,
44,
44,
45,
43,
44,
43,
48,
43,
43,
42,
37,
46,
40,
31,
44,
44,
40,
44,
42,
44,
46,
43,
43,
43,
44,
43,
45,
39,
40,
40,
42,
41,
42,
41,
43,
41,
41,
41,
40,
40,
40,
40,
40,
38,
39,
39,
39,
41,
37,
38,
38,
40,
39,
39,
39,
39,
31,
40,
39,
40,
38,
39,
39,
39,
39,
39,
39,
39,
36,
36,
39,
39,
35,
37,
38,
38,
40,
39,
39,
39,
39,
39,
39,
39,
38,
39,
37,
40,
35,
38,
38,
38,
37,
35,
36,
37,
37,
36,
37,
34,
34,
36,
33,
37,
37,
35,
36,
33,
34,
36,
36,
35,
36,
34,
37,
33,
36,
34,
32,
32,
35,
35,
34,
34,
36,
35,
36,
31,
36,
35,
36,
34,
35,
35,
35,
35,
35,
35,
34,
36,
35,
35,
38,
34,
33,
33,
37,
36,
33,
35,
35,
35,
34,
35,
35,
34,
34,
35,
34,
35,
34,
33,
39,
39,
33,
37,
35,
33,
33,
35,
30,
33,
33,
35,
33,
32,
34,
34,
33,
33,
28,
32,
32,
31,
32,
32,
32,
32,
32,
39,
39,
39,
32,
31,
32,
27,
31,
33,
32,
34,
32,
34,
32,
30,
32,
32,
32,
33,
33,
32,
33,
32,
37,
32,
30,
31,
31,
29,
29,
31,
31,
32,
32,
36,
31,
32,
29,
33,
31,
30,
31,
32,
32,
28,
31,
31,
31,
31,
31,
31,
32,
27,
28,
29,
31,
31,
31,
31,
30,
30,
29,
30,
29,
31,
27,
29,
24,
28,
28,
31,
29,
29,
29,
29,
28,
29,
28,
29,
29,
31,
29,
29,
29,
29,
26,
27,
28,
27,
27,
28,
28,
28,
29,
28,
27,
28,
28,
31,
24,
28,
29,
29,
28,
27,
29,
27,
30,
27,
28,
28,
28,
26,
34,
26,
28,
29,
30,
31,
28,
30,
27,
28,
28,
28,
27,
27,
27,
21,
29,
29,
27,
28,
23,
26,
27,
27,
28,
28,
27,
26,
25,
25,
29,
28,
27,
25,
27,
27,
27,
23,
23,
23,
27,
25,
25,
25,
25,
24,
23,
25,
23,
24,
26,
25,
25,
26,
25,
25,
25,
27,
25,
24,
24,
28,
23,
24,
28,
28,
25,
25,
24,
24,
25,
25,
21,
25,
25,
24,
25,
23,
24,
24,
25,
23,
24,
24,
24,
25,
24,
24,
25,
23,
24,
23,
21,
25,
22,
22,
24,
24,
24,
24,
21,
25,
24,
25,
24,
25,
24,
23,
23,
23,
24,
24,
23,
24,
25,
24,
24,
24,
24,
24,
25,
25,
25,
25,
25,
23,
24,
24,
24,
23,
24,
24,
21,
24,
23,
24,
24,
24,
25,
26,
24,
23,
24,
23,
24,
23,
25,
23,
23,
21,
21,
25,
21,
20,
24,
21,
21,
21,
23,
23,
22,
23,
23,
23,
19,
21,
20,
23,
16,
24,
24,
24,
23,
23,
23,
22,
22,
22,
23,
21,
21,
24,
20,
20,
24,
21,
23,
21,
20,
22,
23,
21,
21,
21,
20,
21,
20,
19,
19,
19,
20,
19,
18,
21,
20,
20,
20,
20,
20,
20,
20,
19,
21,
20,
17,
20,
19,
20,
21,
20,
20,
20,
20,
20,
19,
20,
20,
14,
12,
21,
27,
13,
21,
20,
20,
17,
20,
19,
20,
19,
19,
20,
22,
21,
20,
19,
19,
19,
19,
19,
19,
20,
19,
19,
16,
6,
18,
19,
17,
19,
16,
16,
19,
19,
19,
20,
19,
19,
17,
19,
19,
19,
18,
19,
19,
19,
16,
23,
17,
19,
18,
19,
19,
18,
19,
19,
17,
19,
17,
19,
15,
15,
21,
19,
20,
17,
19,
15,
19,
19,
17,
17,
19,
17,
19,
19,
20,
19,
18,
19,
19,
17,
18,
17,
20,
19,
17,
18,
19,
19,
17,
19,
19,
19,
19,
17,
19,
19,
19,
16,
16,
16,
16,
19,
17,
19,
17,
15,
18,
16,
18,
19,
18,
17,
17,
20,
20,
17,
17,
23,
19,
17,
13,
16,
17,
17,
17,
16,
20,
20,
19,
18,
17,
19,
16,
19,
17,
22,
17,
17,
18,
17,
18,
18,
20,
17,
16,
19,
18,
19,
17,
15,
14,
16,
17,
16,
20,
19,
15,
17,
17,
17,
17,
17,
18,
19,
17,
12,
13,
16,
17,
17,
17,
17,
19,
18,
16,
17,
17,
16,
17,
17,
16,
22,
19,
15,
16,
16,
17,
18,
16,
16,
17,
17,
17,
16,
14,
16,
18,
17,
18,
18,
17,
17,
16,
15,
16,
17,
16,
17,
16,
12,
17,
17,
17,
16,
17,
16,
20,
17,
17,
17,
15,
15,
16,
17,
18,
19,
19,
21,
16,
13,
14,
16,
16,
15,
16,
16,
17,
15,
15,
16,
16,
15,
15,
15,
16,
16,
17,
16,
17,
16,
17,
13,
16,
16,
17,
17,
17,
13,
18,
16,
16,
16,
16,
15,
15,
12,
15,
17,
16,
16,
16,
15,
12,
13,
15,
16,
17,
16,
15,
21,
16,
16,
15,
17,
17,
15,
16,
19,
12,
15,
16,
16,
16,
16,
17,
15,
15,
15,
14,
14,
17,
16,
16,
19,
17,
16,
16,
14,
15,
16,
17,
17,
16,
15,
19,
16,
18,
16,
22,
17,
15,
11,
15,
15,
14,
14,
13,
14,
15,
11,
13,
16,
16,
21,
19,
3,
15,
15,
15,
15,
15,
14,
15,
14,
16,
13,
16,
15,
17,
13,
16,
15,
16,
15,
13,
13,
13,
15,
15,
15,
13,
15,
15,
16,
16,
15,
15,
13,
14,
14,
13,
14,
13,
14,
15,
16,
15,
13,
15,
15,
16,
14,
14,
15,
13,
15,
15,
13,
15,
13,
13,
13,
13,
13,
14,
14,
14,
14,
15,
14,
13,
13,
13,
13,
13,
13,
13,
15,
16,
13,
13,
12,
14,
13,
13,
13,
13,
15,
15,
13,
13,
11,
15,
13,
13,
14,
13,
13,
14,
12,
14,
13,
14,
13,
13,
13,
12,
14,
14,
13,
13,
13,
14,
13,
11,
13,
13,
13,
13,
13,
14,
16,
12,
14,
14,
13,
13,
12,
11,
12,
13,
13,
13,
13,
15,
14,
15,
15,
15,
15,
14,
14,
15,
14,
13,
15,
13,
13,
13,
15,
13,
14,
14,
16,
14,
15,
11,
13,
13,
13,
13,
14,
12,
19,
13,
13,
13,
10,
13,
13,
12,
15,
13,
15,
14,
14,
14,
14,
11,
11,
15,
15,
17,
12,
7,
13,
13,
13,
13,
13,
13,
14,
13,
13,
13,
16,
15,
16,
12,
15,
15,
14,
14,
14,
13,
17,
13,
13,
13,
13,
15,
14,
7,
15,
14,
15,
13,
13,
12,
15,
13,
14,
13,
12,
12,
13,
12,
13,
24,
16,
17,
12,
8,
12,
12,
14,
15,
15,
15,
13,
15,
16,
12,
14,
14,
15,
13,
16,
14,
13,
13,
13,
13,
17,
14,
15,
13,
14,
13,
13,
13,
12,
13,
13,
15,
15,
13,
15,
12,
13,
13,
11,
11,
11,
13,
15,
13,
13,
13,
13,
13,
14,
11,
15,
13,
15,
13,
15,
13,
11,
15,
13,
15,
15,
13,
14,
13,
15,
14,
15,
14,
12,
15,
16,
14,
12,
12,
14,
13,
14,
11,
14,
13,
22,
15,
13,
10,
11,
13,
14,
12,
12,
13,
12,
12,
13,
11,
14,
13,
11,
13,
20,
12,
12,
13,
13,
13,
13,
17,
13,
13,
13,
14,
14,
13,
12,
9,
14,
13,
13,
13,
13,
16,
13,
13,
12,
13,
13,
12,
13,
13,
17,
13,
13,
13,
15,
17,
12,
13,
13,
13,
13,
13,
13,
13,
11,
11,
9,
16,
16,
15,
13,
14,
15,
13,
14,
14,
13,
13,
11,
14,
14,
15,
15,
14,
13,
14,
15,
13,
13,
13,
13,
13,
14,
14,
15,
13,
15,
13,
12,
13,
13,
13,
13,
13,
10,
13,
12,
12,
13,
13,
13,
19,
11,
13,
12,
13,
13,
13,
13,
14,
13,
12,
13,
13,
13,
13,
13,
13,
13,
12,
14,
12,
12,
13,
13,
12,
13,
13,
13,
11,
14,
11,
15,
15,
12,
13,
13,
14,
13,
13,
14,
14,
13,
15,
13,
13,
13,
13,
13,
13,
15,
13,
14,
12,
13,
13,
13,
11,
13,
14,
15,
15,
13,
13,
15,
14,
13,
12,
13,
13,
13,
15,
13,
13,
13,
16,
12,
13,
12,
13,
13,
13,
13,
12,
13,
13,
13,
13,
13,
13,
15,
9,
12,
13,
13,
21,
8,
8,
13,
14,
13,
13,
13,
9,
9,
12,
11,
9,
13,
15,
15,
15,
13,
13,
21,
13,
16,
13,
15,
13,
15,
15,
14,
13,
13,
13,
15,
13,
13,
12,
15,
13,
13,
12,
15,
11,
12,
14,
13,
13,
13,
14,
12,
13,
13,
16,
12,
14,
13,
14,
16,
9,
9,
13,
13,
12,
13,
13,
15,
12,
13,
13,
14,
14,
13,
12,
13,
13,
13,
12,
13,
13,
12,
18,
13,
13,
13,
10,
14,
12,
12,
15,
14,
15,
13,
13,
13,
15,
13,
13,
16,
15,
16,
16,
16,
17,
16,
14,
13,
13,
13,
13,
13,
13,
13,
14,
13,
14,
14,
13,
15,
13,
15,
13,
15,
13,
13,
14,
13,
13,
13,
12,
15,
12,
12,
11,
12,
13,
13,
13,
13,
13,
12,
14,
13,
13,
13,
13,
13,
15,
13,
13,
15,
13,
13,
14,
12,
13,
13,
13,
13,
13,
13,
12,
13,
10,
13,
12,
13,
13,
14,
13,
12,
13,
13,
12,
12,
13,
13,
12,
11,
13,
13,
13,
13,
12,
13,
12,
13,
13,
12,
14,
13,
13,
13,
15,
15,
13,
13,
13,
13,
14,
13,
13,
13,
12,
14,
16,
12,
13,
15,
15,
13,
15,
13,
13,
13,
13,
13,
13,
13,
13,
11,
15,
8,
15,
11,
15,
14,
13,
14,
13,
13,
13,
13,
13,
11,
11,
13,
13,
11,
12,
12,
15,
13,
13,
13,
14,
14,
13,
13,
14,
14,
13,
11,
15,
14,
14,
15,
13,
15,
15,
13,
13,
13,
13,
12,
15,
13,
10,
12,
14,
15,
15,
13,
13,
13,
13,
13,
13,
15,
14,
13,
13,
11,
13,
11,
17,
13,
13,
13,
13,
12,
13,
13,
12,
15,
12,
10,
10,
13,
11,
15,
15,
13,
13,
13,
16,
8,
12,
16,
13,
13,
13,
10,
11,
15,
15,
11,
13,
13,
13,
13,
14,
13,
13,
14,
12,
11,
15,
13,
13,
14,
13,
13,
16,
13,
13,
14,
13,
13,
14,
9,
12,
4,
13,
15,
15,
12,
13,
12,
13,
12,
15,
11,
13,
9,
12,
13,
18,
11,
11,
12,
15,
12,
12,
13,
14,
13,
13,
14,
13,
13,
13,
15,
15,
13,
11,
13,
11,
11,
13,
13,
13,
13,
10,
12,
10,
13,
13,
11,
14,
13,
15,
13,
13,
13,
12,
16,
13,
13,
13,
13,
13,
13,
10,
13,
13,
13,
13,
14,
13,
17,
13,
13,
13,
12,
12,
13,
15,
11,
13,
14,
14,
15,
13,
14,
15,
15,
13,
13,
14,
15,
15,
19,
15,
13,
13,
14,
15,
11,
13,
13,
15,
15,
15,
14,
16,
13,
11,
14,
14,
13,
13,
12,
13,
13,
15,
13,
13,
13,
15,
13,
14,
13,
15,
14,
13,
13,
13,
13,
13,
13,
13,
14,
13,
12,
13,
15,
11,
13,
12,
14,
13,
13,
13,
13,
13,
13,
13,
13,
12,
14,
9,
12,
12,
13,
13,
12,
13,
13,
13,
13,
12,
13,
13,
10,
13,
11,
11,
12,
11,
14,
13,
13,
12,
13,
15,
13,
13,
9,
14,
13,
17,
9,
13,
13,
12,
12,
13,
13,
13,
13,
13,
12,
15,
14,
15,
16,
13,
12,
15,
13,
13,
14,
14,
13,
13,
12,
14,
19,
15,
12,
17,
13,
15,
13,
13,
13,
15,
13,
13,
Null,
Null,
Null,
Null,
Null,
Null,
Null,
Null,
Null,
Null,
Null,
Null,
Null,
Null,
Null,
Null,
Null,
Null,
Null,
Null,
Null,
Null,
Null,
Null,
Null,
Null,
Null,
Null,
Null,
Null,
Null,
Null,
Null,
Null,
Null,
Null,
Null,
Null,
Null,
Null,
Null,
Null,
Null,
Null,
Null,
Null,
Null,
Null,
Null,
Null,
Null,
Null,
Null,
Null,
Null,
Null,
Null,
Null,
Null,
Null,
Null,
Null,
Null,
Null,
Null,
Null,
Null,
Null,
Null,
Null,
Null,
Null,
Null,
Null,
Null,
Null,
Null,
Null,
Null,
Null,
Null,
Null,
Null,
Null,
Null,
Null,
Null,
Null,
Null,
Null,
Null,
Null,
Null,
Null,
Null,
Null,
Null,
Null,
Null,
Null,
Null,
Null,
Null,
Null,
Null,
Null,
Null,
Null,
Null,
Null,
Null,
Null,
Null,
Null,
Null,
Null,
Null,
Null,
Null,
Null,
Null,
Null,
Null,
Null,
Null,
Null,
Null,
Null,
Null,
Null,
Null,
Null,
Null,
Null,
Null,
Null,
Null,
Null,
Null,
Null,
Null,
Null,
Null,
Null,
Null,
Null,
Null,
Null,
Null,
Null,
Null,
Null,
Null,
Null,
Null,
Null,
Null,
Null,
Null,
Null,
Null,
Null,
Null,
Null,
Null,
Null,
Null,
Null,
Null,
Null,
Null,
Null,
Null,
Null,
Null,
Null,
Null,
Null,
Null,
Null,
Null,
Null,
Null,
Null,
Null,
Null,
Null,
Null,
Null,
Null,
Null,
Null,
Null,
Null,
Null,
Null,
Null,
Null,
Null,
Null,
Null,
Null,
Null,
Null,
Null,
Null,
Null,
Null,
Null,
Null,
Null,
Null,
Null,
Null,
Null,
Null,
Null,
Null,
Null,
Null,
Null,
Null,
Null,
Null,
Null,
Null,
Null,
Null,
Null,
Null,
Null,
Null,
Null,
Null,
Null,
Null,
Null,
Null,
Null,
Null,
Null,
Null,
Null,
Null,
Null,
Null,
Null,
Null,
Null,
Null,
Null,
Null,
Null,
Null,
Null,
Null,
Null,
Null,
Null,
Null,
Null,
Null,
Null,
Null,
Null,
Null,
Null,
Null,
Null,
Null,
Null,
Null,
Null,
Null,
Null,
Null,
Null,
Null,
Null,
Null,
Null,
Null,
Null,
Null,
Null,
Null,
Null,
Null,
Null,
Null,
Null,
Null,
Null,
Null,
Null,
Null,
Null,
Null,
Null,
Null,
Null,
Null,
Null,
Null,
Null,
Null,
Null,
Null,
Null,
Null,
Null,
Null,
Null,
Null,
Null,
Null,
Null,
Null,
Null,
Null,
Null,
Null,
Null,
Null,
Null,
Null,
Null,
Null,
Null,
Null,
Null,
Null,
Null,
Null,
Null,
Null,
Null,
Null,
Null,
Null,
Null,
Null,
Null,
Null,
Null,
Null,
Null,
Null,
Null,
Null,
Null,
Null,
Null,
Null,
Null,
Null,
Null,
Null,
Null,
Null,
Null,
Null,
Null,
Null,
Null,
Null,
Null,
Null,
Null,
Null,
Null,
Null,
Null,
Null,
Null,
Null,
Null,
Null,
Null,
Null,
Null,
Null,
Null,
Null,
Null,
Null,
Null,
Null,
Null,
Null,
Null,
Null,
Null,
Null,
Null,
Null,
Null,
Null,
Null,
Null,
Null,
Null,
Null,
Null,
Null,
Null,
Null,
Null,
Null,
Null,
Null,
Null,
Null,
Null,
Null,
Null,
Null,
Null,
Null,
Null,
Null,
Null,
Null,
Null,
Null,
Null,
Null,
Null,
Null,
Null,
Null,
Null,
Null,
Null,
Null,
Null,
Null,
Null,
Null,
Null,
Null,
Null,
Null,
Null,
Null,
Null,
Null,
Null,
Null,
Null,
Null,
Null,
Null,
Null,
Null,
Null,
Null,
Null,
Null,
Null,
Null,
Null,
Null,
Null,
Null,
Null,
Null,
Null,
Null,
Null,
Null,
Null,
Null,
Null,
Null,
Null,
Null,
Null,
Null,
Null,
Null,
Null,
Null,
Null,
Null,
Null,
Null,
Null,
Null,
Null,
Null,
Null,
Null,
Null,
Null,
Null,
Null,
Null,
Null,
Null,
Null,
Null,
Null,
Null,
Null,
Null,
Null,
Null,
Null,
Null,
Null,
Null,
Null,
Null,
Null,
Null,
Null,
Null,
Null,
Null,
Null,
Null,
Null,
Null,
Null,
Null,
Null,
Null,
Null,
Null,
Null,
Null,
Null,
Null,
Null,
Null,
Null,
Null,
Null,
Null,
Null,
Null,
Null,
Null,
Null,
Null,
Null,
Null,
Null,
Null,
Null,
Null,
Null,
Null,
Null,
Null,
Null,
Null,
Null,
Null,
Null,
Null,
Null,
Null,
Null,
Null,
Null,
Null,
Null,
Null,
Null,
Null,
Null,
Null,
Null,
Null,
Null,
Null,
Null,
Null,
Null,
Null,
Null,
Null,
Null,
Null,
Null,
Null,
Null,
Null,
Null,
Null,
Null,
Null,
Null,
Null,
Null,
Null,
Null,
Null,
Null,
Null,
Null,
Null,
Null,
Null,
Null,
Null,
Null,
Null,
Null,
Null,
Null,
Null,
Null,
Null,
Null,
Null,
Null,
Null,
Null,
Null,
Null,
Null,
Null,
Null,
Null,
Null,
Null,
Null,
Null,
Null,
Null,
Null,
Null,
Null,
Null,
Null,
Null,
Null,
Null,
Null,
Null,
Null,
Null,
Null,
Null,
Null,
Null,
Null,
Null,
Null,
Null,
Null,
Null,
Null,
Null,
Null,
Null,
Null,
