Datos experimentales/DATOS 26-3-24/ALL0018/A0018CH1.CSV

Memory Length,4000,
Trigger Level,0.000E+00,
Source,CH1,
Vertical Units,V,
Vertical Scale,2.000E-02,
Vertical Position,-1.200E-02,
Horizontal Units,s,
Horizontal Scale,1.000E+00,
Horizontal Position,0.000E+00,
Horizontal Mode,Roll Mode,
Sampling Period,4.000E-03,
Firmware, V1.21,
Waveform Data,
15,
9,
8,
8,
9,
10,
7,
8,
8,
12,
9,
7,
8,
8,
9,
8,
9,
8,
9,
6,
9,
8,
4,
9,
8,
6,
6,
9,
8,
9,
4,
9,
9,
8,
8,
9,
10,
8,
9,
8,
8,
8,
7,
4,
9,
8,
7,
8,
6,
9,
8,
7,
9,
9,
8,
8,
9,
9,
2,
8,
8,
8,
9,
7,
9,
9,
9,
5,
8,
10,
8,
8,
9,
8,
7,
9,
9,
8,
8,
9,
9,
8,
8,
9,
8,
8,
8,
9,
8,
7,
9,
7,
9,
9,
8,
8,
8,
12,
9,
7,
9,
9,
7,
8,
8,
8,
8,
6,
9,
9,
8,
9,
9,
9,
7,
8,
10,
4,
4,
4,
9,
9,
8,
8,
9,
8,
7,
6,
7,
8,
8,
10,
10,
8,
9,
8,
10,
8,
9,
8,
6,
8,
9,
9,
8,
8,
11,
8,
8,
8,
9,
8,
9,
9,
8,
8,
13,
12,
8,
8,
9,
9,
9,
8,
9,
8,
9,
7,
9,
9,
8,
9,
9,
7,
9,
8,
9,
8,
9,
9,
9,
9,
9,
8,
3,
3,
8,
9,
9,
9,
9,
8,
11,
7,
7,
7,
7,
8,
8,
8,
7,
9,
9,
9,
8,
8,
9,
8,
8,
9,
8,
8,
9,
8,
8,
8,
7,
9,
9,
9,
6,
8,
8,
7,
7,
8,
8,
8,
8,
9,
9,
8,
8,
8,
7,
8,
10,
10,
8,
9,
8,
7,
9,
9,
11,
7,
7,
8,
8,
8,
8,
8,
13,
9,
8,
8,
9,
8,
9,
8,
9,
9,
7,
9,
9,
8,
7,
9,
8,
8,
8,
10,
9,
8,
9,
9,
8,
8,
8,
11,
7,
8,
9,
8,
7,
8,
7,
8,
9,
8,
8,
8,
12,
8,
8,
9,
9,
9,
9,
6,
8,
9,
8,
8,
8,
8,
9,
7,
9,
10,
6,
8,
9,
9,
8,
8,
12,
12,
7,
11,
13,
9,
7,
8,
9,
8,
8,
8,
9,
8,
8,
8,
9,
9,
8,
8,
8,
10,
8,
7,
8,
8,
8,
8,
8,
9,
8,
9,
9,
11,
8,
9,
9,
8,
8,
9,
9,
8,
8,
5,
9,
8,
8,
8,
7,
9,
8,
9,
7,
9,
9,
9,
8,
9,
9,
8,
9,
8,
10,
8,
9,
9,
8,
8,
9,
9,
8,
7,
13,
9,
8,
9,
10,
11,
9,
8,
8,
11,
5,
9,
8,
9,
9,
9,
9,
9,
8,
8,
5,
9,
9,
8,
9,
9,
8,
9,
8,
11,
7,
8,
9,
7,
10,
10,
8,
9,
7,
8,
8,
9,
9,
8,
8,
8,
9,
9,
9,
9,
8,
9,
8,
9,
9,
11,
9,
10,
3,
9,
8,
8,
8,
9,
8,
9,
8,
6,
8,
4,
9,
9,
8,
9,
9,
9,
12,
8,
9,
8,
8,
8,
8,
9,
9,
9,
9,
10,
8,
8,
8,
9,
8,
8,
9,
7,
10,
9,
8,
9,
8,
9,
9,
8,
8,
9,
7,
10,
9,
8,
8,
8,
9,
8,
7,
7,
8,
10,
12,
8,
8,
9,
9,
8,
8,
10,
8,
9,
9,
9,
9,
8,
8,
9,
9,
8,
7,
9,
8,
5,
8,
9,
9,
7,
9,
7,
9,
9,
8,
9,
8,
9,
9,
8,
8,
8,
5,
9,
8,
8,
6,
8,
9,
8,
4,
9,
9,
8,
8,
8,
9,
8,
8,
9,
7,
9,
7,
6,
9,
7,
9,
8,
8,
8,
13,
8,
8,
8,
9,
9,
9,
8,
8,
8,
9,
8,
8,
9,
8,
8,
8,
9,
8,
9,
8,
8,
9,
8,
8,
8,
8,
8,
9,
8,
11,
9,
9,
8,
9,
10,
8,
7,
7,
12,
8,
11,
8,
8,
9,
8,
7,
8,
7,
13,
8,
7,
7,
8,
8,
9,
9,
9,
9,
12,
10,
9,
8,
9,
8,
8,
8,
10,
8,
8,
9,
8,
9,
9,
8,
8,
9,
7,
7,
8,
9,
9,
9,
9,
9,
8,
9,
8,
11,
7,
15,
7,
7,
9,
8,
8,
8,
9,
8,
7,
8,
9,
9,
8,
8,
9,
9,
9,
8,
11,
8,
8,
9,
9,
8,
7,
8,
10,
7,
7,
9,
8,
8,
9,
8,
8,
8,
8,
9,
7,
9,
11,
11,
9,
9,
9,
8,
7,
7,
9,
9,
9,
9,
9,
9,
9,
8,
8,
9,
7,
8,
9,
8,
7,
9,
9,
4,
8,
8,
8,
8,
9,
12,
8,
8,
9,
8,
7,
12,
9,
8,
9,
9,
8,
8,
9,
9,
10,
7,
7,
8,
8,
8,
9,
8,
11,
11,
9,
8,
8,
9,
9,
8,
9,
8,
9,
6,
9,
8,
8,
8,
7,
9,
9,
7,
9,
8,
9,
9,
9,
9,
8,
11,
11,
9,
9,
7,
7,
8,
9,
8,
9,
8,
7,
8,
9,
9,
9,
13,
10,
9,
8,
9,
9,
9,
8,
11,
8,
11,
8,
8,
8,
8,
8,
9,
8,
7,
10,
11,
8,
7,
8,
8,
8,
9,
9,
8,
9,
6,
9,
9,
9,
8,
9,
8,
8,
8,
6,
11,
8,
8,
9,
8,
8,
8,
10,
12,
2,
8,
8,
8,
9,
8,
9,
8,
11,
10,
3,
8,
8,
8,
9,
11,
8,
8,
8,
8,
7,
8,
8,
8,
8,
9,
9,
8,
9,
6,
6,
9,
8,
9,
7,
8,
9,
8,
9,
8,
6,
8,
6,
9,
9,
7,
8,
8,
9,
8,
4,
8,
8,
9,
6,
9,
8,
8,
9,
9,
8,
8,
12,
8,
9,
9,
8,
4,
9,
7,
7,
7,
9,
9,
8,
7,
9,
8,
8,
9,
8,
8,
9,
9,
9,
8,
9,
8,
8,
9,
17,
9,
8,
8,
8,
8,
8,
8,
8,
8,
7,
7,
8,
9,
9,
7,
9,
8,
8,
8,
9,
8,
8,
8,
8,
9,
8,
8,
8,
7,
8,
9,
9,
9,
8,
8,
8,
8,
8,
11,
9,
8,
8,
9,
7,
8,
9,
9,
9,
18,
8,
8,
8,
8,
8,
9,
9,
13,
10,
3,
8,
9,
9,
9,
9,
9,
8,
8,
9,
8,
9,
9,
8,
7,
7,
7,
9,
8,
11,
8,
11,
8,
9,
9,
9,
9,
8,
7,
8,
8,
7,
9,
9,
8,
7,
2,
8,
9,
7,
6,
9,
8,
8,
7,
9,
9,
8,
8,
9,
8,
9,
10,
9,
9,
8,
8,
7,
7,
11,
8,
13,
8,
8,
8,
9,
8,
10,
8,
9,
9,
9,
9,
11,
9,
8,
9,
9,
9,
8,
8,
6,
8,
9,
9,
9,
9,
8,
9,
7,
8,
8,
9,
8,
8,
11,
9,
9,
9,
9,
5,
9,
8,
9,
9,
8,
9,
8,
9,
8,
7,
7,
5,
8,
8,
8,
5,
7,
8,
8,
11,
8,
10,
9,
8,
8,
9,
9,
8,
8,
8,
8,
7,
5,
9,
7,
8,
8,
8,
9,
8,
8,
8,
8,
9,
7,
5,
9,
9,
7,
9,
8,
8,
7,
7,
8,
8,
9,
11,
6,
8,
9,
8,
9,
8,
8,
8,
9,
9,
9,
8,
7,
8,
8,
7,
6,
7,
9,
6,
6,
8,
8,
9,
7,
9,
9,
9,
11,
9,
9,
9,
8,
8,
8,
8,
9,
10,
8,
9,
8,
10,
9,
8,
8,
9,
8,
9,
9,
8,
9,
9,
8,
10,
10,
9,
8,
9,
9,
9,
9,
9,
9,
8,
9,
7,
10,
9,
9,
8,
3,
8,
11,
10,
10,
11,
8,
9,
9,
9,
8,
9,
9,
10,
8,
9,
9,
9,
9,
9,
8,
8,
11,
8,
8,
7,
7,
7,
9,
8,
9,
9,
9,
8,
9,
8,
8,
7,
9,
8,
9,
7,
9,
11,
9,
8,
8,
10,
8,
9,
9,
9,
8,
8,
6,
4,
9,
9,
9,
9,
7,
9,
9,
9,
9,
8,
9,
10,
9,
9,
9,
10,
9,
9,
9,
9,
9,
10,
9,
6,
13,
11,
13,
9,
9,
9,
8,
8,
9,
7,
9,
9,
4,
11,
8,
3,
8,
7,
9,
8,
9,
8,
9,
9,
9,
8,
8,
8,
7,
9,
9,
9,
10,
9,
9,
9,
8,
8,
9,
10,
9,
8,
9,
12,
9,
9,
8,
9,
8,
8,
8,
8,
9,
8,
8,
9,
7,
8,
8,
9,
8,
9,
8,
8,
8,
8,
8,
9,
8,
7,
6,
10,
7,
4,
8,
9,
6,
6,
9,
8,
7,
8,
8,
7,
11,
8,
9,
8,
9,
11,
8,
8,
9,
9,
12,
8,
9,
9,
10,
9,
10,
9,
9,
8,
9,
9,
9,
8,
8,
8,
9,
9,
7,
8,
9,
8,
9,
8,
9,
8,
8,
8,
8,
8,
8,
8,
7,
8,
9,
9,
8,
9,
9,
9,
8,
8,
9,
9,
7,
7,
3,
8,
11,
9,
10,
9,
8,
9,
8,
8,
9,
9,
10,
8,
10,
9,
5,
7,
7,
9,
9,
5,
5,
8,
9,
7,
5,
13,
9,
7,
8,
8,
9,
8,
8,
8,
8,
9,
9,
7,
8,
7,
9,
10,
9,
9,
9,
9,
8,
8,
9,
9,
8,
7,
5,
9,
9,
10,
9,
9,
8,
9,
9,
9,
9,
9,
9,
8,
11,
9,
9,
8,
8,
9,
9,
8,
7,
9,
9,
9,
8,
8,
8,
8,
9,
8,
9,
8,
9,
8,
8,
9,
9,
9,
7,
8,
5,
7,
2,
9,
9,
8,
6,
7,
9,
8,
8,
8,
7,
9,
4,
8,
9,
9,
8,
8,
9,
9,
8,
10,
10,
9,
10,
9,
5,
12,
12,
13,
13,
13,
14,
16,
15,
17,
17,
18,
20,
20,
19,
20,
25,
21,
22,
24,
26,
24,
25,
29,
29,
27,
29,
25,
28,
29,
31,
31,
32,
32,
33,
33,
35,
35,
37,
37,
39,
33,
40,
41,
41,
38,
43,
43,
43,
44,
45,
46,
47,
50,
50,
49,
48,
49,
51,
53,
53,
55,
56,
56,
58,
56,
53,
60,
60,
61,
60,
63,
63,
64,
67,
66,
66,
64,
69,
69,
68,
68,
65,
69,
73,
73,
72,
74,
72,
75,
73,
75,
75,
75,
76,
76,
76,
76,
75,
75,
77,
76,
76,
77,
77,
77,
76,
77,
77,
77,
77,
79,
80,
76,
76,
77,
78,
78,
76,
77,
78,
79,
79,
78,
78,
77,
76,
78,
77,
75,
77,
77,
78,
80,
78,
74,
74,
77,
77,
76,
76,
78,
77,
76,
77,
77,
77,
75,
77,
79,
79,
76,
76,
78,
75,
75,
73,
72,
75,
74,
73,
74,
74,
77,
77,
72,
69,
73,
72,
74,
73,
73,
73,
72,
72,
71,
71,
72,
72,
72,
71,
71,
71,
69,
70,
70,
71,
70,
70,
69,
67,
67,
64,
70,
71,
69,
69,
69,
69,
67,
68,
68,
68,
69,
64,
64,
67,
66,
69,
65,
66,
65,
65,
66,
66,
65,
65,
66,
65,
65,
64,
65,
63,
65,
66,
64,
64,
64,
61,
61,
63,
61,
67,
67,
61,
62,
60,
61,
61,
61,
61,
59,
61,
61,
60,
61,
60,
60,
59,
60,
61,
59,
60,
57,
60,
58,
59,
59,
59,
58,
59,
59,
58,
57,
57,
57,
57,
56,
57,
56,
55,
55,
55,
55,
53,
53,
53,
56,
55,
55,
53,
55,
55,
53,
55,
57,
56,
55,
55,
55,
52,
53,
51,
52,
52,
53,
53,
53,
52,
51,
52,
52,
52,
50,
89,
52,
51,
52,
53,
50,
51,
51,
50,
52,
51,
51,
51,
53,
51,
49,
52,
51,
51,
50,
49,
50,
49,
49,
49,
48,
48,
47,
49,
49,
49,
48,
49,
49,
48,
47,
48,
48,
48,
49,
49,
48,
46,
40,
48,
47,
47,
44,
48,
47,
47,
47,
47,
45,
45,
47,
48,
46,
47,
45,
48,
45,
47,
44,
44,
46,
43,
47,
47,
45,
44,
45,
44,
44,
44,
43,
44,
44,
44,
42,
45,
43,
43,
44,
44,
45,
41,
42,
44,
42,
44,
43,
43,
40,
43,
41,
41,
39,
40,
43,
43,
42,
42,
42,
42,
42,
42,
43,
41,
43,
43,
41,
40,
41,
43,
44,
41,
39,
40,
43,
40,
37,
40,
40,
39,
39,
38,
40,
39,
38,
39,
36,
37,
38,
40,
41,
37,
37,
37,
37,
41,
38,
37,
39,
39,
38,
38,
37,
36,
33,
36,
36,
37,
39,
37,
39,
38,
37,
38,
37,
37,
39,
39,
37,
39,
37,
37,
35,
36,
35,
35,
37,
36,
34,
35,
37,
34,
36,
34,
34,
34,
35,
35,
35,
35,
35,
33,
32,
35,
34,
33,
37,
39,
39,
32,
35,
33,
33,
32,
35,
33,
33,
34,
33,
36,
33,
34,
34,
34,
34,
32,
35,
32,
33,
33,
29,
32,
32,
36,
33,
33,
33,
32,
33,
32,
27,
32,
25,
32,
30,
37,
29,
33,
31,
32,
32,
32,
31,
31,
31,
31,
30,
29,
31,
31,
30,
29,
31,
29,
29,
27,
30,
31,
30,
30,
31,
29,
29,
27,
33,
30,
30,
30,
30,
30,
29,
31,
33,
29,
30,
31,
32,
28,
29,
31,
29,
29,
31,
30,
32,
29,
30,
30,
31,
30,
30,
28,
30,
32,
7,
29,
29,
33,
29,
21,
29,
29,
31,
29,
31,
29,
29,
29,
29,
29,
29,
28,
28,
29,
31,
28,
28,
28,
27,
28,
29,
27,
27,
27,
28,
28,
27,
28,
27,
27,
28,
26,
26,
27,
31,
32,
27,
28,
28,
30,
27,
27,
27,
29,
27,
27,
28,
27,
27,
24,
27,
27,
26,
26,
25,
29,
29,
25,
28,
25,
25,
27,
26,
27,
27,
27,
26,
26,
25,
25,
24,
25,
24,
27,
25,
25,
26,
28,
23,
23,
24,
27,
25,
25,
24,
24,
26,
26,
27,
23,
26,
24,
24,
24,
25,
24,
24,
24,
24,
24,
25,
24,
26,
23,
23,
23,
23,
24,
22,
23,
21,
23,
23,
21,
22,
21,
16,
23,
23,
22,
21,
21,
21,
19,
23,
21,
21,
20,
21,
20,
21,
21,
21,
20,
21,
21,
21,
21,
21,
21,
21,
21,
20,
19,
13,
21,
23,
21,
21,
21,
21,
23,
19,
20,
22,
21,
21,
23,
21,
23,
21,
21,
24,
24,
19,
19,
20,
21,
23,
23,
23,
21,
21,
22,
24,
21,
21,
21,
23,
22,
23,
20,
21,
23,
20,
24,
21,
20,
21,
23,
21,
21,
20,
23,
23,
21,
15,
17,
19,
19,
19,
21,
19,
19,
19,
19,
18,
19,
19,
19,
19,
17,
18,
15,
17,
20,
23,
17,
17,
19,
17,
17,
17,
19,
17,
17,
16,
22,
16,
17,
16,
16,
16,
18,
17,
18,
20,
17,
17,
18,
19,
19,
17,
17,
17,
16,
16,
16,
16,
17,
16,
16,
18,
18,
18,
20,
16,
17,
19,
16,
16,
17,
17,
17,
16,
16,
17,
17,
16,
17,
17,
17,
16,
19,
19,
16,
17,
17,
19,
16,
16,
17,
16,
23,
17,
16,
18,
14,
14,
17,
19,
16,
17,
15,
17,
19,
17,
20,
17,
19,
19,
19,
16,
17,
16,
17,
17,
17,
15,
16,
15,
17,
15,
16,
16,
16,
16,
18,
17,
16,
15,
16,
17,
14,
13,
16,
17,
16,
14,
15,
16,
14,
14,
12,
16,
17,
16,
17,
18,
16,
15,
16,
16,
16,
15,
16,
16,
15,
15,
16,
15,
15,
15,
17,
15,
16,
15,
17,
17,
17,
15,
17,
16,
14,
14,
16,
17,
21,
15,
16,
16,
15,
16,
16,
15,
15,
15,
16,
16,
13,
15,
17,
15,
14,
15,
15,
16,
16,
15,
15,
15,
16,
16,
13,
16,
15,
16,
14,
15,
16,
15,
15,
15,
15,
15,
15,
15,
16,
17,
15,
15,
14,
15,
15,
14,
14,
13,
17,
14,
15,
13,
16,
16,
14,
15,
13,
16,
13,
15,
14,
15,
15,
15,
14,
15,
15,
16,
13,
12,
15,
14,
13,
14,
14,
14,
13,
13,
15,
16,
15,
14,
14,
15,
13,
15,
15,
15,
14,
15,
15,
15,
13,
14,
13,
11,
13,
13,
13,
12,
11,
13,
12,
13,
13,
13,
13,
11,
9,
12,
13,
13,
13,
13,
5,
12,
12,
12,
12,
11,
12,
12,
12,
9,
5,
9,
11,
9,
11,
12,
12,
11,
11,
12,
11,
9,
11,
11,
11,
12,
11,
10,
10,
9,
9,
11,
11,
12,
10,
11,
10,
11,
10,
11,
9,
11,
10,
9,
10,
10,
9,
11,
9,
9,
10,
13,
9,
9,
10,
11,
9,
11,
11,
10,
10,
11,
11,
11,
13,
9,
9,
10,
9,
10,
11,
11,
10,
11,
11,
12,
12,
13,
11,
13,
11,
9,
9,
9,
10,
11,
10,
11,
12,
9,
9,
11,
9,
8,
11,
9,
9,
11,
11,
9,
9,
12,
11,
11,
11,
11,
9,
19,
8,
9,
10,
9,
10,
11,
10,
11,
10,
11,
11,
9,
11,
10,
11,
15,
11,
11,
11,
11,
12,
12,
11,
11,
10,
10,
13,
10,
10,
10,
11,
12,
10,
10,
11,
11,
13,
10,
11,
7,
7,
9,
9,
11,
12,
11,
10,
11,
11,
11,
11,
10,
10,
9,
9,
11,
11,
10,
12,
10,
12,
11,
11,
11,
11,
10,
13,
13,
12,
10,
6,
11,
11,
12,
8,
11,
11,
11,
9,
11,
11,
16,
16,
11,
12,
12,
12,
11,
11,
11,
9,
6,
11,
12,
10,
10,
7,
11,
11,
13,
10,
11,
10,
10,
11,
11,
11,
12,
13,
13,
9,
11,
9,
12,
12,
11,
11,
11,
12,
11,
9,
11,
13,
13,
21,
11,
12,
11,
13,
15,
11,
11,
9,
14,
11,
11,
13,
14,
12,
12,
11,
12,
11,
13,
11,
12,
11,
12,
12,
13,
9,
11,
12,
12,
15,
12,
11,
12,
13,
11,
13,
11,
13,
10,
12,
9,
12,
12,
12,
11,
13,
15,
11,
12,
13,
12,
12,
12,
11,
11,
10,
10,
12,
8,
8,
11,
11,
10,
7,
10,
11,
9,
10,
9,
11,
11,
11,
12,
11,
11,
12,
11,
12,
12,
13,
11,
11,
13,
13,
13,
11,
11,
11,
12,
13,
11,
12,
11,
11,
11,
12,
13,
13,
12,
11,
13,
10,
12,
13,
12,
13,
12,
11,
12,
15,
10,
13,
11,
12,
12,
12,
8,
10,
5,
18,
12,
11,
11,
12,
8,
8,
9,
10,
10,
10,
10,
11,
10,
11,
11,
10,
10,
11,
11,
12,
10,
9,
9,
9,
9,
9,
11,
9,
9,
10,
10,
10,
6,
9,
9,
9,
9,
9,
10,
8,
7,
9,
9,
9,
8,
9,
6,
9,
9,
9,
9,
9,
9,
9,
9,
9,
10,
9,
8,
13,
9,
9,
9,
9,
9,
9,
9,
9,
9,
9,
9,
8,
8,
8,
12,
9,
9,
9,
10,
11,
10,
10,
9,
9,
9,
10,
14,
11,
11,
9,
13,
9,
8,
8,
10,
8,
9,
9,
9,
9,
9,
10,
12,
9,
10,
9,
8,
8,
9,
8,
7,
7,
9,
9,
8,
8,
6,
3,
7,
8,
8,
8,
8,
9,
8,
9,
8,
9,
8,
7,
7,
8,
5,
8,
8,
8,
9,
8,
9,
8,
9,
8,
9,
9,
9,
9,
10,
8,
15,
15,
9,
9,
9,
12,
11,
9,
9,
8,
8,
8,
3,
9,
9,
9,
9,
9,
8,
9,
9,
11,
9,
9,
9,
8,
1,
8,
8,
9,
7,
9,
9,
9,
9,
9,
8,
9,
7,
7,
9,
8,
8,
9,
9,
9,
7,
6,
9,
8,
8,
9,
9,
9,
9,
9,
8,
7,
9,
9,
8,
9,
8,
13,
11,
10,
9,
8,
12,
6,
9,
8,
8,
20,
8,
8,
9,
8,
8,
9,
7,
9,
9,
9,
11,
6,
6,
8,
9,
12,
8,
9,
9,
9,
8,
8,
7,
14,
9,
10,
10,
8,
9,
9,
9,
10,
8,
10,
10,
11,
12,
9,
9,
9,
9,
9,
9,
9,
9,
8,
8,
9,
10,
8,
5,
9,
9,
9,
9,
8,
9,
8,
9,
9,
9,
9,
8,
7,
10,
9,
9,
11,
10,
8,
8,
10,
9,
8,
9,
9,
9,
9,
9,
11,
8,
9,
9,
10,
10,
9,
8,
9,
9,
10,
8,
3,
8,
9,
6,
8,
9,
9,
8,
8,
9,
8,
8,
9,
11,
6,
9,
9,
9,
9,
9,
8,
8,
9,
8,
9,
8,
8,
7,
15,
8,
9,
8,
8,
8,
8,
9,
9,
9,
7,
9,
9,
11,
4,
9,
9,
9,
10,
9,
9,
9,
8,
9,
9,
11,
9,
7,
9,
8,
9,
8,
9,
8,
8,
8,
8,
8,
9,
9,
10,
12,
9,
9,
11,
9,
9,
7,
7,
9,
9,
9,
7,
10,
9,
5,
7,
8,
8,
9,
9,
9,
9,
8,
8,
8,
8,
8,
7,
1,
8,
9,
8,
5,
8,
9,
8,
8,
8,
9,
8,
7,
11,
9,
8,
8,
9,
8,
8,
8,
8,
8,
9,
8,
9,
9,
9,
7,
2,
8,
8,
8,
8,
7,
9,
9,
11,
9,
10,
8,
9,
7,
9,
9,
8,
9,
9,
9,
9,
9,
9,
9,
8,
10,
9,
10,
14,
9,
10,
9,
9,
8,
10,
9,
9,
8,
8,
9,
9,
9,
9,
8,
9,
6,
8,
8,
9,
9,
9,
9,
9,
9,
11,
10,
7,
5,
8,
11,
9,
7,
7,
9,
9,
9,
9,
7,
7,
8,
8,
9,
11,
11,
8,
9,
8,
10,
9,
9,
9,
9,
11,
9,
9,
6,
9,
9,
15,
9,
9,
9,
14,
9,
9,
9,
8,
9,
9,
8,
9,
8,
8,
8,
10,
9,
9,
9,
8,
8,
9,
9,
8,
11,
15,
7,
8,
8,
7,
9,
8,
8,
8,
8,
9,
8,
9,
8,
6,
8,
8,
9,
7,
8,
9,
8,
8,
7,
7,
5,
8,
10,
11,
8,
8,
7,
8,
9,
9,
8,
8,
8,
9,
9,
8,
10,
13,
8,
7,
9,
11,
8,
8,
9,
8,
9,
8,
8,
8,
11,
9,
8,
11,
9,
9,
9,
8,
7,
8,
8,
7,
7,
11,
12,
9,
9,
15,
10,
9,
10,
9,
9,
8,
9,
8,
8,
7,
7,
8,
8,
9,
9,
9,
9,
9,
11,
9,
9,
9,
7,
7,
9,
9,
11,
8,
7,
9,
9,
9,
7,
9,
8,
9,
11,
11,
8,
9,
8,
9,
8,
8,
8,
8,
8,
9,
8,
1,
8,
8,
8,
7,
9,
9,
8,
7,
8,
8,
9,
8,
8,
8,
7,
13,
10,
10,
9,
8,
9,
9,
9,
11,
9,
8,
9,
11,
7,
8,
11,
11,
9,
9,
9,
9,
10,
9,
9,
9,
8,
9,
11,
8,
9,
8,
8,
8,
9,
8,
9,
7,
9,
9,
8,
5,
4,
9,
10,
9,
9,
9,
9,
9,
9,
9,
11,
9,
9,
10,
9,
7,
9,
9,
9,
10,
9,
9,
11,
9,
9,
10,
8,
8,
9,
8,
13,
13,
8,
8,
8,
9,
9,
9,
8,
9,
10,
8,
9,
9,
8,
9,
8,
8,
9,
12,
7,
11,
9,
9,
9,
10,
9,
11,
9,
9,
7,
9,
9,
9,
11,
8,
9,
9,
8,
10,
9,
5,
8,
7,
8,
8,
8,
8,
9,
8,
9,
8,
8,
6,
16,
4,
7,
9,
9,
8,
8,
8,
10,
9,
8,
8,
8,
8,
9,
8,
7,
8,
8,
9,
9,
9,
8,
7,
8,
9,
8,
7,
11,
8,
9,
8,
8,
7,
9,
9,
9,
6,
8,
9,
9,
10,
5,
9,
9,
7,
8,
9,
9,
9,
8,
9,
9,
9,
10,
5,
11,
9,
9,
9,
8,
9,
8,
8,
9,
9,
8,
8,
8,
8,
5,
7,
9,
11,
9,
8,
8,
8,
9,
9,
9,
9,
8,
8,
9,
11,
8,
8,
9,
8,
8,
8,
9,
8,
8,
8,
9,
7,
8,
10,
7,
5,
8,
8,
8,
8,
9,
8,
8,
7,
8,
9,
10,
4,
8,
8,
9,
8,
8,
9,
8,
8,
10,
9,
8,
7,
9,
7,
8,
7,
8,
9,
8,
8,
9,
9,
9,
8,
8,
7,
8,
3,
9,
11,
8,
9,
9,
9,
9,
9,
8,
9,
9,
9,
9,
9,
9,
8,
8,
9,
8,
8,
9,
9,
7,
8,
9,
7,
4,
7,
8,
9,
8,
8,
8,
8,
9,
9,
