Datos experimentales/DATOS 26-3-24/ALL0042/A0042CH1.CSV

Memory Length,4000,
Trigger Level,1.600E-03,
Source,CH1,
Vertical Units,V,
Vertical Scale,2.000E-02,
Vertical Position,-1.200E-02,
Horizontal Units,s,
Horizontal Scale,1.000E+00,
Horizontal Position,0.000E+00,
Horizontal Mode,Roll Mode,
Waveform Last Dot Address,3500,
Sampling Period,4.000E-03,
Firmware, V1.21,
Waveform Data,
12,
12,
9,
11,
11,
11,
13,
12,
12,
12,
12,
12,
11,
12,
13,
12,
9,
8,
11,
11,
12,
11,
8,
12,
12,
12,
13,
11,
11,
12,
13,
11,
11,
11,
12,
13,
11,
12,
12,
10,
11,
12,
13,
11,
7,
7,
13,
13,
11,
13,
11,
12,
12,
13,
12,
13,
12,
11,
11,
13,
11,
11,
11,
11,
12,
11,
11,
11,
12,
12,
12,
12,
14,
9,
12,
12,
12,
12,
13,
12,
12,
12,
11,
11,
12,
9,
12,
11,
13,
12,
11,
16,
12,
12,
11,
9,
11,
11,
12,
11,
11,
13,
11,
13,
11,
11,
13,
12,
11,
10,
10,
12,
11,
12,
12,
13,
11,
12,
12,
11,
15,
9,
11,
11,
12,
12,
11,
11,
5,
11,
11,
13,
12,
11,
11,
11,
11,
12,
12,
13,
12,
15,
12,
11,
12,
4,
11,
10,
12,
12,
12,
11,
13,
6,
11,
12,
13,
12,
11,
11,
12,
11,
11,
12,
13,
12,
12,
13,
13,
12,
11,
12,
13,
11,
12,
12,
12,
11,
12,
12,
11,
13,
11,
12,
12,
15,
13,
13,
12,
11,
16,
12,
11,
12,
10,
9,
13,
11,
13,
11,
11,
11,
12,
12,
12,
11,
11,
12,
12,
12,
11,
12,
12,
14,
14,
13,
11,
10,
11,
12,
13,
10,
11,
10,
12,
11,
13,
13,
11,
11,
12,
13,
12,
11,
13,
12,
12,
11,
10,
12,
12,
5,
9,
13,
13,
13,
12,
12,
11,
14,
11,
12,
13,
13,
12,
12,
12,
11,
12,
13,
12,
9,
12,
13,
12,
11,
11,
9,
12,
12,
11,
12,
11,
11,
9,
12,
12,
11,
12,
12,
11,
12,
11,
12,
13,
14,
9,
11,
7,
17,
11,
11,
11,
13,
12,
13,
12,
12,
11,
13,
13,
12,
13,
13,
12,
12,
11,
12,
12,
13,
12,
11,
11,
13,
10,
11,
10,
12,
12,
12,
12,
11,
11,
11,
11,
11,
12,
11,
12,
12,
10,
10,
11,
12,
11,
11,
10,
12,
11,
8,
9,
11,
12,
11,
11,
12,
12,
11,
12,
11,
12,
12,
12,
12,
13,
10,
11,
11,
12,
12,
11,
9,
11,
11,
10,
9,
13,
12,
12,
15,
15,
11,
11,
11,
12,
11,
11,
13,
12,
12,
11,
12,
12,
12,
12,
13,
11,
12,
11,
14,
14,
13,
11,
12,
12,
12,
12,
12,
11,
13,
12,
12,
11,
12,
12,
11,
12,
12,
12,
17,
17,
12,
13,
12,
11,
13,
11,
13,
11,
12,
15,
11,
13,
13,
12,
12,
11,
11,
13,
12,
11,
12,
12,
13,
13,
12,
12,
13,
12,
13,
12,
12,
12,
11,
11,
12,
11,
11,
12,
12,
11,
11,
9,
13,
11,
11,
12,
12,
16,
13,
11,
9,
9,
13,
9,
11,
12,
11,
12,
11,
11,
13,
12,
10,
11,
11,
13,
12,
11,
12,
11,
12,
11,
11,
13,
12,
9,
11,
11,
11,
11,
13,
13,
11,
11,
12,
13,
10,
13,
11,
13,
11,
11,
12,
12,
12,
12,
12,
13,
11,
8,
11,
10,
10,
11,
11,
13,
10,
12,
12,
12,
12,
12,
14,
12,
12,
10,
12,
12,
12,
15,
12,
12,
11,
9,
14,
9,
8,
13,
12,
11,
11,
12,
11,
12,
13,
12,
12,
8,
12,
11,
13,
12,
12,
12,
12,
11,
13,
11,
21,
9,
11,
15,
10,
12,
13,
11,
11,
11,
13,
13,
11,
12,
12,
13,
12,
11,
12,
13,
14,
14,
11,
13,
11,
8,
13,
12,
13,
12,
12,
12,
12,
13,
13,
11,
12,
11,
12,
12,
12,
12,
9,
12,
12,
13,
11,
12,
12,
13,
11,
16,
11,
10,
12,
12,
12,
12,
11,
11,
13,
13,
11,
12,
10,
12,
11,
12,
12,
13,
13,
12,
10,
13,
13,
12,
7,
12,
11,
12,
12,
13,
12,
12,
11,
13,
13,
13,
12,
12,
12,
11,
11,
12,
11,
13,
12,
11,
16,
12,
12,
11,
10,
11,
10,
12,
13,
12,
13,
12,
12,
12,
11,
11,
12,
11,
12,
15,
12,
12,
13,
12,
9,
12,
13,
12,
14,
14,
11,
12,
11,
12,
12,
12,
13,
11,
11,
12,
13,
12,
12,
12,
11,
12,
11,
13,
12,
13,
10,
11,
11,
13,
14,
14,
11,
13,
9,
12,
12,
12,
12,
11,
12,
11,
13,
12,
12,
12,
12,
12,
15,
12,
11,
13,
7,
15,
11,
12,
12,
13,
13,
13,
11,
11,
12,
12,
11,
12,
11,
12,
12,
11,
12,
12,
9,
9,
11,
11,
7,
17,
10,
13,
11,
13,
12,
15,
15,
11,
12,
12,
11,
11,
13,
10,
11,
11,
11,
12,
15,
15,
13,
11,
13,
15,
9,
13,
11,
12,
12,
13,
11,
12,
12,
12,
11,
12,
11,
12,
13,
11,
11,
12,
12,
12,
13,
13,
11,
9,
9,
14,
12,
11,
11,
11,
12,
12,
12,
12,
13,
13,
11,
12,
13,
13,
12,
12,
11,
12,
12,
12,
12,
12,
12,
16,
15,
12,
12,
12,
11,
12,
12,
9,
12,
12,
12,
12,
12,
12,
8,
12,
11,
12,
11,
11,
13,
12,
13,
17,
17,
14,
11,
13,
12,
12,
12,
11,
11,
12,
11,
11,
13,
13,
13,
11,
12,
12,
11,
11,
15,
7,
10,
12,
12,
11,
12,
12,
15,
12,
12,
13,
13,
15,
9,
13,
9,
15,
14,
14,
14,
15,
13,
15,
16,
16,
15,
14,
16,
14,
17,
16,
17,
17,
16,
18,
18,
17,
16,
19,
16,
17,
17,
14,
16,
16,
19,
19,
17,
19,
17,
18,
19,
19,
20,
16,
19,
20,
19,
20,
20,
19,
16,
20,
19,
18,
18,
20,
16,
20,
17,
21,
21,
19,
19,
19,
17,
19,
19,
18,
20,
20,
16,
21,
18,
21,
20,
20,
19,
19,
18,
19,
19,
17,
18,
19,
19,
17,
19,
19,
19,
19,
18,
17,
20,
17,
17,
19,
17,
20,
19,
19,
19,
19,
18,
22,
19,
18,
17,
19,
19,
19,
19,
14,
19,
17,
17,
20,
19,
19,
17,
17,
16,
18,
17,
18,
17,
17,
19,
17,
17,
18,
19,
18,
19,
17,
17,
15,
17,
23,
17,
18,
19,
17,
17,
16,
19,
17,
17,
19,
18,
17,
16,
18,
19,
17,
17,
17,
17,
19,
20,
18,
11,
17,
17,
19,
16,
16,
16,
15,
15,
18,
17,
17,
19,
18,
17,
18,
17,
17,
16,
17,
17,
18,
18,
17,
16,
23,
13,
17,
16,
17,
16,
18,
17,
17,
17,
17,
17,
19,
17,
18,
21,
21,
20,
21,
19,
21,
23,
19,
19,
22,
24,
23,
26,
24,
27,
28,
28,
28,
28,
27,
29,
31,
31,
31,
33,
39,
33,
36,
40,
33,
38,
37,
39,
38,
39,
39,
42,
39,
42,
41,
44,
43,
43,
42,
39,
47,
46,
45,
48,
48,
50,
50,
51,
51,
51,
53,
54,
56,
53,
57,
57,
60,
60,
61,
62,
63,
63,
64,
66,
68,
64,
70,
69,
72,
71,
71,
72,
73,
76,
75,
80,
79,
80,
77,
82,
79,
79,
82,
80,
80,
82,
83,
84,
84,
83,
84,
85,
86,
88,
87,
87,
87,
87,
87,
85,
85,
88,
87,
88,
89,
86,
85,
85,
90,
88,
88,
88,
89,
88,
89,
88,
88,
85,
91,
85,
81,
88,
88,
88,
88,
84,
87,
86,
85,
87,
88,
88,
86,
87,
92,
89,
87,
87,
87,
89,
87,
88,
87,
85,
87,
85,
85,
84,
78,
84,
84,
85,
85,
85,
85,
85,
87,
84,
83,
84,
81,
83,
89,
77,
77,
83,
83,
83,
80,
82,
80,
81,
78,
74,
80,
80,
77,
77,
77,
81,
80,
78,
80,
79,
79,
77,
78,
77,
77,
75,
75,
75,
76,
77,
76,
77,
73,
77,
77,
77,
76,
75,
73,
72,
72,
73,
75,
72,
72,
71,
71,
72,
70,
71,
71,
71,
72,
75,
75,
70,
69,
69,
69,
70,
70,
71,
70,
67,
70,
69,
67,
67,
65,
67,
68,
72,
69,
65,
67,
64,
65,
67,
63,
66,
65,
65,
65,
68,
66,
63,
66,
64,
66,
65,
65,
66,
65,
65,
65,
65,
65,
65,
64,
63,
63,
65,
63,
60,
62,
63,
60,
60,
57,
59,
57,
61,
61,
62,
62,
62,
59,
62,
62,
63,
63,
61,
61,
60,
61,
59,
59,
59,
59,
53,
59,
59,
59,
55,
55,
62,
57,
60,
56,
57,
57,
59,
55,
57,
57,
56,
57,
57,
55,
56,
57,
52,
58,
56,
57,
57,
54,
57,
56,
58,
56,
56,
55,
54,
56,
53,
55,
51,
55,
54,
53,
55,
53,
54,
53,
53,
53,
52,
53,
60,
55,
53,
53,
53,
54,
52,
53,
53,
53,
53,
56,
53,
49,
56,
53,
55,
51,
52,
52,
50,
52,
51,
51,
52,
52,
52,
52,
61,
51,
52,
51,
51,
49,
51,
51,
51,
49,
48,
51,
51,
51,
53,
51,
53,
51,
51,
51,
49,
51,
51,
49,
52,
49,
51,
48,
46,
45,
49,
51,
50,
50,
47,
47,
49,
49,
49,
48,
48,
47,
45,
47,
47,
48,
47,
46,
45,
45,
46,
46,
49,
47,
46,
45,
44,
45,
45,
47,
45,
47,
45,
45,
45,
45,
53,
45,
47,
45,
47,
48,
47,
46,
44,
45,
45,
47,
44,
45,
43,
45,
43,
38,
44,
43,
43,
43,
42,
42,
43,
44,
41,
42,
43,
41,
41,
43,
41,
41,
41,
42,
39,
39,
41,
40,
41,
41,
40,
40,
38,
41,
41,
41,
39,
40,
40,
41,
40,
41,
41,
41,
40,
41,
39,
43,
40,
42,
39,
40,
40,
41,
36,
39,
39,
41,
39,
39,
39,
39,
39,
39,
37,
39,
39,
36,
39,
38,
40,
33,
37,
40,
34,
36,
37,
36,
36,
36,
36,
37,
36,
37,
36,
36,
35,
48,
39,
15,
37,
39,
38,
38,
37,
34,
37,
37,
37,
39,
35,
41,
36,
37,
36,
37,
37,
36,
36,
37,
38,
37,
35,
35,
36,
38,
38,
35,
36,
34,
34,
36,
35,
36,
33,
35,
32,
38,
34,
38,
34,
35,
35,
35,
33,
30,
33,
35,
35,
33,
39,
34,
37,
36,
14,
35,
35,
35,
33,
35,
33,
35,
35,
34,
40,
35,
34,
30,
35,
34,
33,
33,
33,
34,
32,
34,
35,
35,
33,
33,
34,
37,
36,
35,
35,
35,
33,
34,
33,
33,
33,
32,
35,
33,
33,
32,
33,
35,
35,
32,
33,
34,
33,
32,
33,
32,
32,
31,
29,
26,
31,
27,
27,
31,
31,
29,
34,
31,
31,
32,
30,
30,
37,
33,
32,
32,
33,
30,
30,
31,
32,
31,
30,
31,
31,
31,
35,
33,
29,
29,
31,
33,
29,
29,
30,
30,
31,
28,
31,
30,
32,
29,
29,
30,
29,
32,
31,
27,
29,
32,
31,
31,
31,
31,
32,
29,
30,
30,
30,
29,
29,
29,
29,
31,
29,
28,
30,
28,
31,
29,
29,
28,
29,
28,
29,
27,
27,
28,
27,
31,
27,
28,
27,
27,
27,
28,
27,
27,
24,
28,
26,
26,
26,
27,
28,
26,
29,
29,
26,
28,
26,
26,
24,
27,
25,
27,
25,
27,
25,
26,
27,
27,
27,
20,
27,
25,
27,
25,
25,
25,
27,
27,
25,
24,
24,
25,
25,
27,
24,
26,
25,
26,
25,
26,
27,
25,
25,
25,
24,
24,
25,
25,
24,
25,
25,
28,
23,
24,
25,
26,
26,
25,
25,
25,
25,
25,
24,
25,
25,
24,
24,
24,
21,
25,
25,
24,
24,
24,
24,
27,
24,
23,
25,
23,
26,
24,
24,
26,
23,
23,
24,
22,
24,
24,
23,
23,
24,
23,
23,
24,
21,
22,
21,
21,
23,
21,
23,
21,
23,
21,
23,
21,
20,
22,
21,
24,
24,
21,
20,
19,
21,
21,
21,
23,
21,
21,
21,
20,
19,
25,
25,
21,
21,
22,
21,
22,
21,
21,
20,
21,
21,
23,
19,
17,
17,
21,
21,
20,
19,
21,
20,
20,
21,
21,
21,
22,
21,
16,
16,
19,
20,
20,
19,
21,
20,
21,
20,
23,
23,
19,
20,
16,
16,
17,
20,
21,
20,
20,
21,
19,
19,
20,
20,
17,
25,
25,
21,
21,
21,
19,
20,
19,
21,
21,
20,
21,
21,
19,
20,
20,
21,
20,
21,
20,
21,
20,
20,
21,
20,
20,
19,
19,
19,
19,
21,
19,
20,
20,
20,
19,
20,
20,
19,
19,
23,
18,
18,
23,
19,
23,
19,
21,
20,
17,
20,
21,
20,
16,
16,
20,
15,
17,
19,
19,
20,
19,
19,
16,
19,
19,
18,
19,
17,
19,
21,
18,
18,
18,
17,
18,
19,
18,
17,
19,
18,
19,
19,
19,
19,
19,
19,
19,
20,
19,
18,
18,
16,
19,
18,
21,
19,
11,
15,
17,
17,
18,
17,
19,
18,
17,
18,
16,
17,
20,
19,
17,
15,
15,
18,
17,
18,
16,
17,
17,
17,
17,
17,
16,
16,
9,
17,
17,
17,
16,
16,
17,
16,
16,
17,
18,
16,
19,
13,
16,
16,
15,
16,
16,
15,
16,
15,
15,
16,
16,
16,
15,
16,
17,
19,
15,
15,
15,
15,
17,
15,
16,
16,
14,
21,
16,
15,
16,
16,
16,
14,
14,
17,
15,
16,
13,
13,
14,
10,
17,
10,
14,
15,
14,
14,
18,
16,
14,
15,
16,
15,
16,
19,
16,
13,
17,
14,
15,
15,
17,
16,
16,
13,
11,
15,
15,
15,
15,
17,
16,
15,
15,
15,
15,
16,
16,
16,
17,
16,
17,
16,
19,
14,
16,
15,
14,
14,
16,
15,
13,
15,
14,
16,
13,
15,
19,
14,
15,
16,
16,
15,
16,
15,
15,
15,
15,
14,
15,
13,
8,
13,
13,
14,
16,
15,
15,
15,
16,
16,
14,
14,
15,
14,
17,
17,
16,
14,
14,
14,
14,
14,
15,
14,
13,
15,
14,
13,
14,
13,
15,
13,
13,
15,
15,
17,
15,
15,
15,
15,
15,
19,
14,
15,
16,
14,
14,
14,
14,
16,
15,
15,
11,
15,
15,
15,
14,
13,
15,
15,
16,
14,
14,
13,
15,
16,
14,
15,
11,
13,
15,
17,
14,
14,
13,
13,
13,
13,
15,
14,
13,
13,
13,
13,
13,
13,
14,
15,
15,
15,
15,
14,
16,
15,
15,
15,
12,
17,
15,
16,
14,
15,
15,
13,
15,
15,
15,
15,
15,
13,
15,
16,
15,
17,
15,
14,
15,
15,
15,
14,
14,
16,
16,
15,
19,
15,
14,
14,
15,
15,
16,
15,
15,
15,
15,
13,
14,
16,
12,
14,
14,
16,
15,
14,
15,
14,
15,
15,
15,
12,
14,
20,
17,
14,
14,
13,
15,
14,
16,
16,
14,
14,
14,
15,
19,
14,
13,
14,
14,
15,
16,
15,
15,
15,
13,
13,
13,
15,
16,
15,
14,
14,
13,
14,
13,
8,
13,
14,
14,
13,
13,
11,
11,
12,
13,
15,
13,
15,
13,
14,
13,
15,
16,
13,
7,
7,
13,
12,
14,
12,
11,
13,
13,
14,
13,
14,
12,
12,
15,
15,
12,
13,
13,
13,
14,
12,
14,
14,
17,
14,
13,
13,
13,
13,
13,
14,
13,
14,
14,
14,
14,
14,
13,
13,
15,
14,
13,
13,
14,
13,
13,
14,
15,
13,
13,
16,
14,
15,
14,
13,
15,
15,
13,
13,
12,
14,
14,
14,
14,
13,
13,
11,
13,
9,
9,
12,
13,
15,
13,
12,
12,
13,
12,
13,
13,
13,
13,
15,
15,
12,
13,
14,
13,
13,
13,
13,
13,
13,
9,
12,
13,
11,
13,
15,
11,
11,
13,
13,
12,
12,
12,
14,
16,
15,
10,
12,
12,
12,
12,
13,
14,
13,
13,
13,
15,
18,
13,
13,
14,
14,
13,
12,
12,
13,
12,
13,
13,
15,
13,
13,
13,
10,
13,
12,
13,
13,
13,
13,
13,
17,
12,
13,
12,
13,
13,
9,
13,
12,
10,
15,
15,
13,
13,
13,
13,
13,
12,
17,
16,
13,
13,
13,
13,
15,
15,
12,
13,
13,
13,
12,
12,
14,
15,
12,
12,
13,
13,
13,
13,
13,
13,
13,
11,
12,
13,
14,
13,
13,
13,
13,
13,
13,
15,
12,
12,
13,
12,
13,
13,
8,
12,
11,
12,
12,
12,
13,
15,
13,
13,
15,
12,
11,
13,
11,
11,
12,
12,
13,
13,
12,
13,
13,
13,
20,
14,
13,
15,
13,
13,
14,
14,
12,
13,
13,
13,
12,
12,
15,
13,
9,
12,
13,
12,
13,
12,
11,
12,
12,
11,
11,
12,
13,
11,
9,
13,
13,
9,
13,
13,
13,
12,
12,
11,
11,
12,
12,
11,
6,
12,
11,
12,
11,
12,
12,
15,
12,
11,
11,
13,
11,
12,
14,
11,
11,
15,
12,
11,
13,
16,
11,
11,
11,
5,
11,
11,
9,
11,
11,
12,
11,
11,
11,
11,
13,
13,
14,
16,
12,
12,
13,
13,
13,
13,
12,
12,
12,
13,
15,
13,
13,
13,
13,
12,
11,
13,
13,
12,
10,
13,
13,
13,
12,
13,
10,
13,
13,
10,
13,
13,
12,
12,
11,
13,
12,
11,
12,
12,
10,
10,
14,
10,
13,
9,
11,
13,
13,
13,
12,
12,
12,
9,
13,
9,
9,
13,
12,
12,
11,
11,
13,
13,
12,
11,
12,
13,
14,
14,
14,
8,
12,
12,
11,
13,
12,
12,
11,
13,
13,
12,
12,
15,
12,
12,
12,
12,
13,
12,
12,
12,
11,
12,
9,
11,
10,
9,
11,
12,
12,
12,
12,
11,
12,
11,
11,
17,
12,
13,
12,
13,
11,
11,
11,
11,
12,
12,
11,
10,
13,
13,
12,
13,
12,
11,
12,
11,
11,
12,
12,
13,
13,
12,
11,
11,
10,
10,
13,
12,
11,
11,
11,
12,
12,
11,
11,
12,
11,
14,
11,
11,
11,
11,
11,
11,
12,
9,
11,
12,
12,
11,
11,
13,
11,
11,
12,
9,
11,
11,
11,
11,
12,
10,
11,
18,
13,
13,
14,
13,
12,
12,
13,
12,
12,
12,
12,
12,
13,
13,
11,
5,
11,
11,
10,
11,
13,
11,
11,
11,
13,
12,
12,
11,
12,
17,
11,
8,
12,
12,
13,
11,
11,
11,
11,
12,
12,
12,
9,
15,
13,
11,
11,
11,
11,
12,
11,
11,
11,
12,
12,
11,
12,
17,
11,
11,
13,
12,
12,
12,
12,
12,
11,
12,
12,
12,
13,
11,
12,
12,
12,
12,
12,
13,
13,
12,
6,
11,
9,
16,
9,
12,
7,
12,
10,
8,
12,
12,
12,
13,
10,
11,
15,
11,
12,
14,
12,
11,
13,
13,
13,
14,
14,
15,
13,
13,
15,
13,
5,
11,
4,
12,
13,
11,
7,
12,
13,
13,
13,
10,
13,
13,
13,
10,
14,
12,
12,
13,
13,
12,
14,
13,
13,
13,
15,
12,
9,
10,
13,
12,
11,
11,
15,
12,
12,
13,
13,
12,
12,
13,
12,
13,
10,
12,
12,
12,
13,
13,
11,
13,
13,
12,
12,
9,
13,
13,
13,
11,
11,
12,
12,
10,
10,
12,
12,
16,
13,
13,
13,
12,
12,
11,
13,
13,
12,
11,
12,
13,
13,
13,
13,
14,
13,
11,
12,
13,
11,
13,
10,
13,
12,
12,
12,
9,
11,
9,
11,
11,
11,
13,
12,
12,
11,
13,
13,
12,
13,
11,
11,
13,
13,
11,
11,
11,
11,
12,
12,
12,
11,
11,
8,
12,
12,
13,
13,
11,
12,
11,
13,
13,
11,
13,
12,
13,
12,
13,
13,
13,
11,
13,
12,
13,
13,
12,
13,
12,
11,
12,
13,
11,
11,
13,
13,
11,
12,
12,
13,
13,
13,
11,
12,
11,
13,
10,
10,
13,
13,
11,
12,
12,
13,
11,
12,
11,
11,
13,
12,
11,
11,
12,
11,
11,
11,
12,
12,
13,
13,
13,
12,
13,
12,
15,
14,
12,
12,
12,
13,
12,
11,
11,
11,
11,
12,
12,
7,
9,
9,
13,
13,
11,
11,
11,
13,
11,
13,
11,
13,
13,
11,
15,
11,
11,
11,
13,
12,
13,
11,
11,
13,
13,
12,
17,
9,
11,
12,
11,
11,
12,
11,
12,
11,
11,
11,
12,
12,
13,
15,
12,
11,
11,
12,
12,
14,
13,
13,
22,
14,
13,
7,
12,
12,
15,
12,
12,
11,
13,
14,
12,
13,
11,
12,
10,
11,
14,
13,
14,
13,
13,
12,
12,
13,
13,
12,
15,
12,
11,
11,
11,
11,
12,
12,
10,
11,
12,
12,
13,
13,
10,
13,
15,
13,
11,
13,
11,
12,
13,
12,
12,
11,
12,
10,
12,
12,
12,
12,
12,
13,
12,
13,
11,
11,
11,
11,
12,
12,
13,
5,
7,
6,
12,
12,
13,
12,
12,
13,
13,
12,
11,
10,
11,
8,
11,
11,
11,
11,
13,
14,
9,
11,
11,
12,
11,
11,
7,
17,
13,
13,
11,
11,
11,
10,
11,
11,
11,
12,
15,
11,
13,
9,
13,
14,
12,
10,
12,
13,
12,
12,
11,
13,
12,
12,
17,
10,
11,
12,
11,
12,
11,
11,
12,
12,
12,
11,
11,
11,
12,
10,
13,
14,
13,
12,
12,
12,
14,
12,
13,
13,
13,
12,
15,
13,
13,
12,
13,
13,
13,
12,
13,
13,
12,
12,
12,
12,
9,
14,
12,
13,
Null,
Null,
Null,
Null,
Null,
Null,
Null,
Null,
Null,
Null,
Null,
Null,
Null,
Null,
Null,
Null,
Null,
Null,
Null,
Null,
Null,
Null,
Null,
Null,
Null,
Null,
Null,
Null,
Null,
Null,
Null,
Null,
Null,
Null,
Null,
Null,
Null,
Null,
Null,
Null,
Null,
Null,
Null,
Null,
Null,
Null,
Null,
Null,
Null,
Null,
Null,
Null,
Null,
Null,
Null,
Null,
Null,
Null,
Null,
Null,
Null,
Null,
Null,
Null,
Null,
Null,
Null,
Null,
Null,
Null,
Null,
Null,
Null,
Null,
Null,
Null,
Null,
Null,
Null,
Null,
Null,
Null,
Null,
Null,
Null,
Null,
Null,
Null,
Null,
Null,
Null,
Null,
Null,
Null,
Null,
Null,
Null,
Null,
Null,
Null,
Null,
Null,
Null,
Null,
Null,
Null,
Null,
Null,
Null,
Null,
Null,
Null,
Null,
Null,
Null,
Null,
Null,
Null,
Null,
Null,
Null,
Null,
Null,
Null,
Null,
Null,
Null,
Null,
Null,
Null,
Null,
Null,
Null,
Null,
Null,
Null,
Null,
Null,
Null,
Null,
Null,
Null,
Null,
Null,
Null,
Null,
Null,
Null,
Null,
Null,
Null,
Null,
Null,
Null,
Null,
Null,
Null,
Null,
Null,
Null,
Null,
Null,
Null,
Null,
Null,
Null,
Null,
Null,
Null,
Null,
Null,
Null,
Null,
Null,
Null,
Null,
Null,
Null,
Null,
Null,
Null,
Null,
Null,
Null,
Null,
Null,
Null,
Null,
Null,
Null,
Null,
Null,
Null,
Null,
Null,
Null,
Null,
Null,
Null,
Null,
Null,
Null,
Null,
Null,
Null,
Null,
Null,
Null,
Null,
Null,
Null,
Null,
Null,
Null,
Null,
Null,
Null,
Null,
Null,
Null,
Null,
Null,
Null,
Null,
Null,
Null,
Null,
Null,
Null,
Null,
Null,
Null,
Null,
Null,
Null,
Null,
Null,
Null,
Null,
Null,
Null,
Null,
Null,
Null,
Null,
Null,
Null,
Null,
Null,
Null,
Null,
Null,
Null,
Null,
Null,
Null,
Null,
Null,
Null,
Null,
Null,
Null,
Null,
Null,
Null,
Null,
Null,
Null,
Null,
Null,
Null,
Null,
Null,
Null,
Null,
Null,
Null,
Null,
Null,
Null,
Null,
Null,
Null,
Null,
Null,
Null,
Null,
Null,
Null,
Null,
Null,
Null,
Null,
Null,
Null,
Null,
Null,
Null,
Null,
Null,
Null,
Null,
Null,
Null,
Null,
Null,
Null,
Null,
Null,
Null,
Null,
Null,
Null,
Null,
Null,
Null,
Null,
Null,
Null,
Null,
Null,
Null,
Null,
Null,
Null,
Null,
Null,
Null,
Null,
Null,
Null,
Null,
Null,
Null,
Null,
Null,
Null,
Null,
Null,
Null,
Null,
Null,
Null,
Null,
Null,
Null,
Null,
Null,
Null,
Null,
Null,
Null,
Null,
Null,
Null,
Null,
Null,
Null,
Null,
Null,
Null,
Null,
Null,
Null,
Null,
Null,
Null,
Null,
Null,
Null,
Null,
Null,
Null,
Null,
Null,
Null,
Null,
Null,
Null,
Null,
Null,
Null,
Null,
Null,
Null,
Null,
Null,
Null,
Null,
Null,
Null,
Null,
Null,
Null,
Null,
Null,
Null,
Null,
Null,
Null,
Null,
Null,
Null,
Null,
Null,
Null,
Null,
Null,
Null,
Null,
Null,
Null,
Null,
Null,
Null,
Null,
Null,
Null,
Null,
Null,
Null,
Null,
Null,
Null,
Null,
Null,
Null,
Null,
Null,
Null,
Null,
Null,
Null,
Null,
Null,
Null,
Null,
Null,
Null,
Null,
Null,
Null,
Null,
Null,
Null,
Null,
Null,
Null,
Null,
Null,
Null,
Null,
Null,
Null,
Null,
Null,
Null,
Null,
Null,
Null,
Null,
Null,
Null,
Null,
Null,
Null,
Null,
Null,
Null,
Null,
Null,
Null,
Null,
Null,
Null,
Null,
Null,
Null,
Null,
Null,
Null,
Null,
Null,
Null,
Null,
Null,
Null,
Null,
Null,
Null,
Null,
Null,
Null,
Null,
Null,
Null,
Null,
Null,
Null,
Null,
