Datos experimentales/DATOS 26-3-24/ALL0045/A0045CH1.CSV

Memory Length,4000,
Trigger Level,1.600E-03,
Source,CH1,
Vertical Units,V,
Vertical Scale,2.000E-02,
Vertical Position,-1.200E-02,
Horizontal Units,s,
Horizontal Scale,1.000E+00,
Horizontal Position,0.000E+00,
Horizontal Mode,Roll Mode,
Waveform Last Dot Address,3790,
Sampling Period,4.000E-03,
Firmware, V1.21,
Waveform Data,
18,
18,
13,
11,
11,
11,
11,
11,
11,
12,
13,
8,
12,
12,
11,
12,
11,
11,
11,
11,
12,
11,
11,
11,
12,
11,
11,
12,
12,
12,
10,
10,
10,
11,
8,
13,
11,
15,
12,
9,
11,
12,
11,
5,
12,
12,
12,
11,
11,
11,
15,
13,
12,
10,
11,
14,
11,
10,
10,
11,
13,
8,
12,
11,
10,
11,
12,
12,
12,
11,
11,
11,
12,
12,
13,
12,
11,
13,
12,
11,
9,
12,
10,
8,
8,
7,
11,
12,
12,
12,
11,
11,
13,
12,
11,
11,
12,
12,
11,
11,
13,
11,
15,
11,
12,
13,
8,
12,
12,
11,
11,
11,
11,
12,
11,
13,
10,
12,
12,
13,
11,
10,
13,
13,
12,
9,
12,
12,
10,
12,
11,
12,
12,
11,
12,
11,
11,
12,
12,
11,
9,
12,
12,
11,
12,
11,
11,
14,
12,
12,
8,
14,
11,
12,
11,
12,
13,
11,
9,
12,
11,
12,
12,
12,
11,
13,
12,
12,
9,
12,
11,
12,
9,
12,
15,
15,
11,
11,
12,
12,
12,
11,
11,
12,
11,
12,
12,
11,
11,
13,
12,
11,
14,
11,
11,
12,
7,
12,
11,
11,
11,
11,
11,
13,
12,
10,
12,
13,
11,
12,
11,
11,
11,
10,
10,
13,
11,
13,
10,
17,
11,
15,
11,
13,
11,
12,
11,
11,
12,
12,
11,
13,
11,
11,
12,
12,
12,
11,
9,
13,
13,
11,
5,
9,
11,
13,
10,
11,
13,
11,
12,
11,
12,
12,
12,
11,
14,
12,
12,
12,
12,
12,
12,
9,
12,
12,
13,
15,
10,
11,
12,
11,
13,
13,
12,
12,
13,
11,
12,
12,
10,
12,
12,
12,
12,
12,
12,
12,
11,
12,
13,
13,
13,
12,
11,
12,
13,
11,
12,
12,
12,
13,
12,
11,
11,
11,
12,
11,
11,
11,
13,
11,
13,
12,
17,
10,
13,
12,
12,
11,
12,
12,
11,
12,
11,
11,
11,
11,
12,
13,
12,
12,
12,
11,
11,
11,
20,
15,
12,
9,
13,
12,
12,
12,
12,
12,
12,
11,
11,
11,
12,
11,
12,
12,
11,
12,
12,
12,
5,
13,
11,
10,
12,
11,
11,
12,
11,
12,
12,
11,
11,
12,
12,
11,
12,
11,
11,
10,
12,
11,
12,
13,
12,
12,
11,
13,
11,
12,
12,
11,
12,
12,
10,
11,
13,
13,
13,
11,
12,
12,
13,
13,
11,
5,
9,
7,
12,
13,
13,
12,
12,
11,
11,
13,
11,
11,
13,
12,
11,
11,
13,
12,
8,
8,
12,
11,
5,
15,
12,
13,
13,
10,
13,
11,
11,
12,
12,
11,
12,
11,
11,
13,
12,
12,
11,
10,
13,
11,
22,
22,
14,
9,
11,
12,
12,
11,
11,
10,
13,
12,
12,
11,
11,
12,
12,
11,
13,
13,
11,
11,
11,
11,
11,
9,
9,
9,
11,
12,
11,
12,
12,
11,
12,
11,
11,
11,
12,
11,
11,
12,
12,
11,
11,
11,
12,
11,
20,
14,
10,
12,
11,
11,
12,
11,
9,
12,
11,
12,
12,
12,
12,
12,
12,
12,
11,
11,
11,
11,
11,
12,
11,
11,
11,
11,
12,
12,
12,
11,
11,
13,
11,
11,
9,
12,
12,
11,
12,
12,
11,
8,
13,
13,
12,
11,
8,
12,
10,
12,
11,
11,
11,
11,
11,
11,
11,
11,
11,
12,
11,
12,
11,
12,
11,
13,
12,
11,
15,
15,
10,
11,
12,
11,
12,
12,
11,
6,
12,
11,
11,
12,
12,
11,
12,
11,
12,
10,
12,
13,
11,
5,
11,
11,
12,
12,
11,
12,
9,
11,
12,
10,
11,
11,
13,
12,
11,
12,
11,
11,
13,
10,
10,
2,
13,
9,
11,
12,
12,
13,
12,
13,
13,
12,
10,
12,
14,
10,
12,
12,
13,
11,
12,
13,
11,
11,
16,
14,
10,
10,
11,
12,
12,
11,
11,
12,
12,
11,
11,
12,
13,
12,
12,
11,
12,
19,
9,
11,
12,
9,
13,
13,
11,
12,
13,
12,
11,
11,
13,
12,
11,
11,
12,
11,
9,
9,
12,
11,
12,
11,
11,
12,
9,
11,
12,
11,
11,
12,
12,
11,
12,
10,
11,
12,
12,
12,
11,
12,
11,
9,
9,
9,
12,
12,
6,
10,
11,
13,
11,
12,
13,
12,
11,
11,
11,
11,
11,
10,
11,
11,
13,
13,
12,
11,
14,
11,
12,
9,
9,
12,
13,
11,
13,
11,
12,
13,
12,
11,
12,
12,
12,
12,
4,
12,
12,
13,
11,
11,
10,
9,
12,
11,
15,
13,
13,
11,
9,
11,
11,
12,
11,
12,
12,
13,
11,
12,
12,
12,
11,
11,
15,
11,
13,
12,
11,
4,
8,
12,
13,
13,
13,
11,
12,
11,
13,
12,
11,
11,
11,
12,
11,
11,
11,
12,
12,
12,
12,
12,
12,
11,
12,
13,
11,
12,
12,
12,
12,
12,
10,
12,
12,
11,
10,
12,
11,
12,
12,
12,
12,
10,
10,
11,
11,
9,
14,
12,
8,
12,
12,
12,
11,
11,
12,
11,
11,
12,
11,
12,
11,
12,
11,
11,
9,
11,
12,
13,
11,
11,
13,
11,
11,
12,
12,
11,
13,
12,
11,
11,
15,
12,
12,
12,
11,
11,
12,
14,
11,
11,
9,
14,
12,
11,
11,
11,
13,
12,
11,
12,
12,
15,
11,
12,
12,
11,
12,
11,
11,
13,
11,
11,
11,
15,
9,
12,
12,
10,
13,
10,
12,
12,
11,
11,
12,
11,
12,
11,
11,
12,
12,
12,
12,
12,
12,
11,
11,
12,
11,
11,
11,
11,
11,
10,
13,
11,
12,
12,
11,
11,
13,
13,
12,
13,
9,
12,
11,
12,
9,
11,
12,
12,
12,
11,
12,
12,
13,
10,
11,
12,
12,
12,
12,
12,
13,
13,
10,
11,
12,
12,
8,
9,
10,
11,
12,
11,
12,
11,
14,
14,
12,
12,
12,
12,
11,
12,
9,
13,
11,
15,
11,
10,
10,
11,
14,
13,
11,
12,
11,
12,
12,
11,
12,
13,
12,
12,
12,
9,
11,
12,
11,
12,
15,
12,
15,
11,
11,
13,
13,
11,
12,
12,
13,
10,
12,
12,
12,
11,
11,
11,
11,
11,
11,
11,
13,
11,
9,
12,
12,
13,
8,
9,
12,
12,
12,
12,
10,
11,
13,
13,
11,
11,
11,
12,
10,
12,
13,
11,
11,
11,
13,
11,
7,
13,
11,
12,
11,
12,
12,
11,
14,
12,
12,
13,
11,
12,
12,
12,
12,
13,
12,
12,
13,
12,
14,
14,
13,
14,
11,
12,
10,
12,
11,
12,
11,
11,
11,
11,
11,
10,
11,
12,
15,
11,
14,
12,
12,
7,
12,
9,
10,
12,
12,
12,
11,
11,
14,
11,
12,
11,
12,
11,
12,
10,
12,
12,
12,
11,
11,
8,
16,
11,
11,
12,
12,
13,
12,
13,
12,
12,
12,
11,
11,
12,
10,
11,
12,
12,
16,
11,
11,
15,
15,
11,
14,
10,
12,
12,
12,
12,
12,
10,
12,
11,
12,
11,
11,
11,
13,
12,
14,
11,
12,
12,
9,
11,
8,
11,
12,
12,
12,
12,
12,
11,
13,
12,
12,
13,
12,
10,
17,
12,
12,
13,
13,
13,
13,
13,
14,
15,
16,
16,
16,
21,
14,
14,
14,
17,
17,
17,
19,
19,
20,
19,
19,
20,
19,
20,
20,
20,
20,
28,
23,
20,
21,
21,
22,
21,
21,
21,
23,
23,
21,
21,
23,
24,
22,
23,
23,
24,
22,
23,
23,
23,
23,
23,
23,
23,
24,
24,
23,
23,
23,
25,
24,
23,
23,
21,
24,
24,
24,
23,
23,
24,
23,
15,
23,
22,
23,
23,
24,
21,
23,
23,
23,
22,
24,
24,
24,
24,
23,
24,
24,
25,
23,
24,
24,
23,
24,
23,
22,
26,
21,
22,
20,
21,
23,
23,
20,
20,
23,
23,
24,
23,
23,
23,
23,
23,
24,
23,
20,
21,
24,
24,
23,
21,
23,
26,
23,
23,
24,
26,
21,
18,
20,
25,
23,
23,
23,
23,
23,
21,
24,
36,
21,
21,
23,
22,
22,
21,
21,
21,
23,
20,
23,
22,
19,
21,
21,
22,
23,
22,
20,
22,
22,
22,
19,
21,
19,
23,
19,
21,
20,
20,
21,
23,
21,
21,
23,
23,
23,
21,
22,
21,
22,
21,
23,
23,
23,
25,
25,
25,
31,
23,
29,
25,
26,
27,
28,
28,
28,
25,
29,
31,
31,
31,
32,
32,
33,
33,
33,
36,
36,
37,
37,
39,
40,
40,
41,
39,
41,
41,
48,
44,
45,
45,
47,
47,
46,
47,
49,
49,
51,
48,
51,
51,
56,
51,
48,
55,
56,
56,
55,
58,
60,
60,
63,
63,
59,
63,
71,
64,
67,
67,
69,
69,
71,
71,
71,
72,
75,
74,
77,
78,
78,
79,
80,
79,
82,
79,
81,
81,
81,
83,
84,
99,
84,
84,
84,
86,
82,
85,
83,
87,
89,
89,
89,
87,
88,
89,
88,
88,
89,
85,
89,
89,
91,
89,
89,
91,
89,
88,
89,
91,
89,
91,
92,
90,
91,
89,
89,
89,
89,
89,
89,
88,
88,
88,
88,
88,
87,
88,
85,
88,
85,
88,
88,
87,
88,
87,
87,
85,
87,
85,
87,
84,
84,
89,
85,
85,
84,
86,
85,
85,
85,
85,
84,
84,
81,
83,
82,
79,
82,
82,
81,
83,
83,
82,
81,
79,
81,
81,
79,
85,
81,
80,
80,
83,
81,
81,
79,
79,
79,
79,
80,
79,
79,
77,
79,
79,
72,
77,
80,
79,
78,
77,
78,
117,
77,
78,
78,
76,
77,
77,
76,
77,
78,
77,
76,
76,
76,
75,
75,
76,
75,
75,
75,
75,
77,
71,
73,
73,
73,
73,
73,
72,
73,
73,
73,
72,
72,
72,
75,
72,
72,
52,
72,
61,
70,
69,
72,
67,
69,
69,
69,
69,
71,
69,
68,
64,
69,
67,
69,
68,
68,
67,
69,
67,
67,
67,
64,
69,
66,
70,
65,
65,
64,
65,
57,
65,
63,
63,
64,
64,
64,
63,
62,
70,
60,
64,
65,
65,
60,
63,
63,
62,
63,
62,
61,
62,
61,
61,
63,
63,
61,
60,
63,
61,
61,
58,
59,
58,
59,
59,
61,
59,
59,
61,
62,
59,
60,
60,
58,
58,
57,
59,
58,
59,
57,
56,
57,
51,
55,
55,
56,
56,
55,
57,
55,
55,
56,
56,
56,
53,
56,
55,
55,
56,
56,
56,
55,
53,
55,
55,
56,
53,
52,
53,
51,
55,
59,
53,
53,
53,
53,
51,
52,
53,
52,
51,
52,
51,
55,
49,
52,
51,
49,
49,
48,
52,
51,
50,
49,
49,
50,
49,
49,
51,
51,
45,
45,
48,
49,
49,
46,
50,
50,
48,
49,
49,
49,
47,
49,
49,
52,
51,
49,
49,
49,
49,
47,
47,
48,
47,
46,
46,
46,
46,
49,
43,
45,
45,
46,
45,
45,
44,
45,
44,
45,
44,
45,
45,
47,
45,
45,
44,
46,
45,
45,
44,
45,
47,
45,
45,
45,
45,
47,
44,
46,
45,
44,
44,
45,
44,
37,
44,
41,
43,
43,
42,
42,
45,
42,
41,
41,
43,
43,
43,
41,
42,
41,
41,
41,
40,
40,
35,
40,
42,
40,
42,
41,
41,
41,
42,
40,
40,
43,
43,
42,
40,
44,
41,
40,
42,
43,
41,
43,
42,
48,
48,
41,
41,
37,
40,
35,
39,
40,
42,
42,
40,
40,
43,
41,
41,
39,
40,
39,
40,
39,
43,
39,
39,
39,
40,
37,
45,
40,
40,
39,
39,
39,
38,
37,
33,
36,
35,
39,
39,
39,
37,
37,
39,
41,
37,
38,
36,
39,
39,
37,
31,
35,
39,
40,
39,
39,
38,
42,
38,
39,
37,
38,
39,
37,
40,
38,
38,
36,
36,
35,
35,
36,
35,
37,
41,
37,
35,
40,
33,
37,
36,
33,
33,
36,
36,
35,
34,
36,
48,
32,
33,
35,
41,
36,
33,
35,
35,
35,
36,
32,
36,
35,
36,
32,
36,
35,
40,
37,
33,
33,
34,
33,
35,
33,
35,
35,
34,
35,
36,
35,
35,
35,
33,
33,
33,
33,
36,
34,
35,
33,
29,
35,
35,
33,
36,
39,
33,
33,
32,
35,
33,
32,
33,
32,
32,
33,
32,
34,
31,
37,
35,
35,
31,
33,
32,
33,
32,
33,
33,
31,
33,
31,
33,
32,
34,
34,
32,
32,
33,
31,
33,
31,
32,
30,
33,
32,
32,
31,
31,
31,
29,
31,
32,
31,
33,
31,
33,
33,
32,
32,
32,
32,
32,
31,
35,
31,
29,
31,
32,
33,
31,
26,
30,
31,
31,
31,
30,
30,
35,
32,
32,
29,
31,
29,
32,
32,
30,
30,
36,
29,
29,
35,
25,
30,
29,
29,
29,
29,
26,
29,
29,
29,
29,
29,
27,
25,
25,
28,
28,
28,
28,
28,
29,
29,
28,
29,
29,
29,
28,
28,
30,
28,
28,
27,
27,
28,
28,
25,
25,
29,
29,
27,
28,
27,
31,
25,
25,
26,
28,
27,
28,
27,
24,
28,
28,
31,
28,
27,
21,
24,
26,
27,
28,
25,
27,
25,
27,
28,
28,
28,
27,
27,
26,
27,
29,
28,
23,
27,
26,
27,
25,
25,
25,
29,
25,
24,
25,
29,
25,
24,
24,
25,
24,
26,
25,
25,
25,
24,
23,
23,
24,
23,
23,
25,
26,
25,
25,
23,
23,
24,
24,
23,
24,
24,
25,
25,
25,
24,
25,
22,
23,
23,
24,
24,
24,
22,
23,
24,
23,
23,
27,
21,
21,
23,
24,
24,
21,
21,
24,
24,
24,
23,
22,
23,
19,
25,
24,
21,
22,
24,
23,
23,
22,
22,
23,
24,
23,
24,
24,
24,
23,
24,
25,
21,
21,
21,
23,
24,
24,
21,
23,
24,
21,
23,
23,
21,
20,
24,
23,
23,
23,
23,
23,
22,
21,
26,
21,
17,
28,
23,
23,
20,
21,
21,
22,
19,
23,
21,
21,
21,
21,
20,
20,
21,
19,
19,
19,
21,
19,
21,
23,
19,
19,
20,
23,
21,
16,
23,
21,
20,
20,
20,
17,
19,
21,
19,
19,
22,
20,
20,
21,
17,
18,
18,
18,
19,
19,
19,
17,
20,
19,
20,
19,
19,
18,
17,
19,
17,
17,
20,
20,
18,
19,
19,
19,
17,
20,
19,
21,
20,
15,
15,
17,
20,
19,
17,
20,
18,
17,
19,
17,
17,
16,
16,
17,
17,
16,
17,
19,
17,
20,
17,
17,
16,
17,
18,
21,
17,
25,
19,
15,
15,
17,
16,
17,
21,
15,
16,
16,
17,
21,
18,
17,
20,
17,
17,
16,
17,
16,
17,
17,
17,
17,
17,
17,
17,
16,
13,
18,
18,
17,
17,
17,
19,
17,
17,
16,
17,
17,
20,
18,
16,
21,
21,
17,
17,
16,
18,
18,
17,
16,
17,
19,
17,
16,
14,
14,
15,
20,
17,
17,
16,
19,
18,
17,
17,
17,
18,
19,
18,
18,
16,
18,
17,
18,
16,
17,
17,
17,
17,
17,
17,
16,
15,
15,
19,
15,
17,
17,
17,
16,
17,
18,
17,
17,
16,
17,
15,
17,
16,
16,
17,
17,
15,
15,
16,
16,
18,
16,
15,
15,
16,
16,
15,
15,
15,
15,
16,
17,
17,
16,
16,
15,
16,
16,
13,
15,
17,
17,
17,
16,
15,
15,
15,
15,
17,
15,
16,
16,
17,
15,
16,
16,
15,
16,
16,
16,
16,
16,
15,
16,
16,
15,
14,
16,
12,
12,
16,
16,
16,
16,
1,
12,
13,
17,
16,
15,
15,
14,
19,
19,
9,
13,
15,
15,
15,
16,
15,
16,
13,
15,
14,
13,
13,
13,
16,
14,
14,
13,
15,
15,
14,
15,
15,
15,
14,
11,
15,
15,
15,
15,
15,
17,
13,
13,
14,
14,
15,
14,
12,
14,
13,
12,
12,
12,
15,
13,
13,
13,
15,
12,
14,
13,
14,
9,
12,
17,
17,
12,
13,
13,
13,
13,
15,
13,
15,
13,
15,
15,
17,
13,
13,
13,
13,
16,
12,
13,
14,
13,
13,
16,
14,
13,
14,
15,
15,
8,
15,
13,
13,
13,
13,
15,
13,
13,
14,
14,
13,
13,
13,
13,
11,
13,
14,
13,
13,
13,
10,
13,
12,
13,
13,
15,
15,
12,
10,
12,
14,
13,
15,
13,
13,
12,
13,
15,
14,
15,
13,
15,
15,
15,
13,
15,
13,
13,
13,
13,
12,
13,
16,
15,
15,
15,
15,
16,
15,
12,
13,
13,
13,
13,
13,
13,
12,
13,
14,
14,
11,
15,
13,
12,
13,
13,
15,
14,
13,
13,
13,
13,
12,
12,
12,
15,
12,
14,
13,
12,
15,
16,
13,
13,
13,
14,
13,
13,
10,
11,
11,
12,
13,
14,
13,
13,
13,
14,
13,
14,
12,
12,
14,
13,
14,
16,
14,
14,
13,
14,
15,
13,
12,
13,
17,
17,
15,
13,
15,
14,
12,
12,
12,
12,
13,
12,
15,
15,
13,
13,
13,
13,
14,
11,
10,
14,
13,
12,
13,
13,
13,
13,
13,
12,
13,
13,
10,
13,
12,
12,
14,
13,
13,
13,
14,
11,
13,
13,
13,
13,
13,
15,
13,
14,
13,
13,
10,
13,
13,
14,
14,
11,
5,
5,
12,
12,
17,
13,
13,
4,
13,
12,
13,
10,
14,
13,
9,
9,
16,
13,
12,
12,
11,
13,
11,
11,
11,
13,
11,
12,
12,
11,
10,
11,
12,
13,
11,
12,
12,
11,
11,
11,
13,
12,
12,
15,
11,
11,
13,
15,
9,
11,
12,
13,
11,
11,
12,
10,
10,
8,
10,
10,
11,
10,
11,
12,
13,
12,
11,
11,
12,
11,
11,
9,
11,
11,
11,
12,
11,
11,
10,
11,
11,
12,
11,
11,
11,
14,
14,
11,
11,
12,
9,
11,
12,
12,
12,
9,
11,
13,
11,
13,
14,
14,
11,
12,
13,
12,
12,
11,
12,
11,
10,
12,
13,
11,
11,
11,
10,
12,
11,
13,
12,
12,
13,
13,
11,
11,
13,
12,
12,
11,
13,
12,
12,
13,
12,
13,
6,
13,
12,
14,
12,
10,
10,
14,
13,
13,
13,
13,
12,
12,
13,
11,
12,
12,
12,
12,
13,
11,
11,
12,
11,
12,
12,
12,
13,
11,
12,
12,
11,
11,
14,
12,
12,
14,
10,
12,
12,
11,
10,
12,
13,
9,
12,
11,
15,
12,
12,
12,
10,
11,
12,
11,
13,
11,
11,
10,
12,
12,
15,
13,
13,
13,
12,
15,
12,
12,
12,
9,
12,
12,
11,
12,
11,
14,
14,
12,
12,
11,
9,
12,
11,
13,
12,
9,
10,
12,
11,
11,
11,
12,
12,
12,
11,
13,
12,
12,
11,
12,
10,
8,
13,
9,
9,
11,
11,
13,
11,
11,
11,
11,
11,
11,
12,
14,
10,
12,
12,
12,
12,
12,
11,
12,
12,
11,
15,
12,
12,
10,
12,
12,
14,
11,
11,
11,
12,
13,
11,
11,
13,
13,
13,
15,
13,
13,
10,
10,
13,
13,
13,
14,
9,
13,
18,
12,
4,
7,
11,
13,
11,
12,
12,
12,
11,
12,
12,
13,
9,
12,
13,
15,
13,
12,
12,
12,
12,
13,
12,
12,
12,
13,
12,
11,
13,
11,
11,
12,
12,
12,
11,
12,
13,
12,
12,
11,
13,
13,
12,
12,
13,
12,
11,
11,
16,
11,
13,
9,
12,
10,
14,
12,
12,
12,
15,
12,
11,
13,
12,
12,
11,
14,
12,
9,
13,
12,
8,
13,
11,
12,
12,
12,
11,
11,
11,
11,
12,
12,
11,
12,
12,
13,
11,
13,
10,
12,
11,
11,
11,
12,
12,
9,
14,
11,
12,
13,
13,
12,
11,
11,
13,
13,
12,
13,
11,
11,
14,
12,
9,
14,
11,
13,
13,
11,
12,
12,
12,
11,
11,
12,
13,
12,
10,
13,
13,
13,
12,
12,
13,
13,
13,
13,
13,
12,
12,
12,
13,
15,
12,
13,
12,
13,
13,
13,
11,
11,
12,
12,
13,
5,
10,
12,
12,
12,
13,
13,
15,
12,
13,
12,
12,
11,
13,
11,
9,
11,
11,
12,
12,
12,
10,
13,
13,
13,
12,
12,
11,
22,
12,
10,
11,
12,
12,
13,
11,
12,
13,
13,
11,
12,
12,
9,
9,
11,
12,
8,
11,
12,
11,
13,
12,
12,
16,
11,
11,
7,
13,
12,
13,
9,
12,
11,
12,
12,
12,
12,
9,
13,
12,
17,
13,
13,
12,
11,
12,
12,
12,
11,
11,
12,
11,
13,
12,
13,
13,
12,
11,
9,
12,
13,
14,
13,
13,
13,
12,
13,
18,
12,
11,
12,
13,
13,
13,
12,
12,
16,
13,
12,
12,
12,
16,
13,
11,
13,
11,
11,
12,
13,
13,
11,
13,
13,
13,
13,
13,
13,
14,
10,
11,
12,
12,
12,
12,
7,
9,
13,
13,
13,
13,
13,
14,
12,
12,
13,
11,
12,
12,
11,
12,
13,
13,
12,
13,
13,
12,
13,
12,
12,
12,
12,
13,
11,
13,
13,
13,
11,
16,
11,
13,
11,
11,
13,
12,
11,
11,
12,
12,
11,
11,
12,
11,
13,
9,
12,
11,
13,
11,
12,
12,
13,
12,
11,
11,
13,
15,
12,
13,
12,
12,
11,
17,
12,
12,
10,
12,
12,
12,
15,
15,
13,
13,
12,
13,
12,
9,
12,
13,
12,
13,
14,
11,
9,
9,
10,
13,
11,
11,
12,
11,
13,
13,
12,
11,
12,
12,
17,
17,
14,
12,
12,
12,
13,
10,
12,
12,
11,
12,
12,
12,
8,
8,
10,
11,
11,
11,
11,
12,
12,
12,
10,
12,
12,
10,
10,
13,
13,
13,
11,
11,
12,
13,
12,
12,
11,
11,
12,
12,
12,
13,
12,
13,
12,
11,
11,
13,
12,
12,
10,
12,
15,
10,
10,
15,
11,
13,
12,
11,
12,
13,
11,
12,
11,
11,
11,
9,
9,
11,
11,
11,
16,
11,
12,
11,
12,
13,
12,
11,
12,
13,
11,
11,
11,
13,
11,
12,
12,
12,
12,
12,
11,
13,
13,
10,
10,
13,
11,
13,
12,
12,
11,
12,
12,
12,
11,
12,
11,
9,
9,
11,
11,
13,
14,
11,
12,
11,
11,
13,
12,
11,
12,
15,
15,
12,
12,
13,
15,
11,
12,
12,
12,
12,
13,
9,
11,
13,
13,
11,
12,
12,
9,
12,
12,
12,
12,
13,
14,
13,
9,
9,
11,
12,
11,
12,
11,
12,
11,
10,
13,
12,
11,
9,
11,
14,
14,
12,
12,
12,
13,
11,
12,
11,
12,
11,
17,
12,
12,
10,
13,
16,
16,
12,
1,
11,
4,
12,
13,
11,
3,
12,
13,
13,
12,
13,
13,
11,
13,
12,
6,
12,
11,
12,
12,
7,
1,
13,
13,
12,
12,
11,
11,
12,
12,
11,
12,
12,
11,
15,
11,
13,
12,
12,
12,
11,
9,
12,
11,
12,
11,
12,
12,
14,
12,
12,
13,
13,
12,
13,
11,
8,
11,
12,
13,
12,
10,
11,
14,
11,
12,
12,
12,
12,
12,
13,
11,
11,
11,
11,
13,
12,
11,
13,
11,
11,
12,
11,
11,
11,
11,
11,
13,
12,
9,
13,
11,
8,
12,
11,
10,
13,
13,
12,
12,
12,
11,
15,
14,
13,
17,
11,
10,
12,
12,
12,
11,
12,
12,
11,
11,
Null,
Null,
Null,
Null,
Null,
Null,
Null,
Null,
Null,
Null,
Null,
Null,
Null,
Null,
Null,
Null,
Null,
Null,
Null,
Null,
Null,
Null,
Null,
Null,
Null,
Null,
Null,
Null,
Null,
Null,
Null,
Null,
Null,
Null,
Null,
Null,
Null,
Null,
Null,
Null,
Null,
Null,
Null,
Null,
Null,
Null,
Null,
Null,
Null,
Null,
Null,
Null,
Null,
Null,
Null,
Null,
Null,
Null,
Null,
Null,
Null,
Null,
Null,
Null,
Null,
Null,
Null,
Null,
Null,
Null,
Null,
Null,
Null,
Null,
Null,
Null,
Null,
Null,
Null,
Null,
Null,
Null,
Null,
Null,
Null,
Null,
Null,
Null,
Null,
Null,
Null,
Null,
Null,
Null,
Null,
Null,
Null,
Null,
Null,
Null,
Null,
Null,
Null,
Null,
Null,
Null,
Null,
Null,
Null,
Null,
Null,
Null,
Null,
Null,
Null,
Null,
Null,
Null,
Null,
Null,
Null,
Null,
Null,
Null,
Null,
Null,
Null,
Null,
Null,
Null,
Null,
Null,
Null,
Null,
Null,
Null,
Null,
Null,
Null,
Null,
Null,
Null,
Null,
Null,
Null,
Null,
Null,
Null,
Null,
Null,
Null,
Null,
Null,
Null,
Null,
Null,
Null,
Null,
Null,
Null,
Null,
Null,
Null,
Null,
Null,
Null,
Null,
Null,
Null,
Null,
Null,
Null,
Null,
Null,
Null,
Null,
Null,
Null,
Null,
Null,
Null,
Null,
Null,
Null,
Null,
Null,
Null,
Null,
Null,
Null,
Null,
Null,
Null,
Null,
Null,
Null,
Null,
Null,
Null,
Null,
Null,
Null,
Null,
Null,
Null,
Null,
Null,
Null,
Null,
Null,
