Datos experimentales/DATOS 26-3-24/ALL0043/A0043CH1.CSV

Memory Length,4000,
Trigger Level,1.600E-03,
Source,CH1,
Vertical Units,V,
Vertical Scale,2.000E-02,
Vertical Position,-1.200E-02,
Horizontal Units,s,
Horizontal Scale,1.000E+00,
Horizontal Position,0.000E+00,
Horizontal Mode,Roll Mode,
Waveform Last Dot Address,3960,
Sampling Period,4.000E-03,
Firmware, V1.21,
Waveform Data,
11,
11,
11,
11,
11,
11,
9,
9,
9,
11,
13,
12,
11,
11,
11,
12,
12,
9,
9,
12,
12,
13,
11,
11,
12,
14,
11,
11,
13,
12,
11,
11,
12,
13,
11,
11,
12,
11,
12,
9,
13,
11,
10,
12,
12,
12,
12,
10,
12,
13,
12,
11,
13,
11,
13,
11,
15,
15,
12,
13,
12,
12,
11,
11,
10,
12,
11,
12,
11,
11,
11,
15,
10,
12,
11,
11,
11,
12,
12,
11,
10,
11,
8,
8,
15,
14,
11,
12,
11,
11,
12,
12,
11,
12,
12,
8,
8,
12,
11,
11,
11,
11,
11,
9,
12,
13,
11,
13,
8,
8,
14,
11,
10,
12,
12,
13,
13,
11,
11,
11,
11,
12,
12,
12,
11,
12,
11,
13,
12,
11,
11,
11,
12,
12,
5,
5,
11,
11,
13,
11,
12,
11,
11,
11,
12,
12,
12,
12,
12,
13,
12,
12,
12,
12,
12,
12,
12,
12,
13,
13,
13,
11,
10,
13,
9,
13,
14,
11,
12,
11,
12,
11,
11,
11,
12,
12,
12,
12,
11,
12,
12,
12,
11,
11,
11,
12,
12,
13,
9,
12,
10,
13,
12,
11,
11,
15,
13,
11,
12,
11,
11,
12,
9,
12,
12,
12,
12,
11,
11,
11,
11,
22,
12,
12,
13,
12,
14,
11,
12,
13,
11,
11,
11,
11,
12,
11,
11,
12,
12,
12,
9,
11,
17,
9,
11,
10,
11,
13,
13,
13,
9,
12,
11,
12,
9,
11,
11,
11,
11,
12,
11,
12,
12,
11,
12,
13,
11,
11,
15,
12,
11,
11,
11,
10,
11,
11,
12,
12,
11,
12,
11,
11,
13,
12,
12,
12,
12,
11,
11,
11,
13,
11,
11,
13,
11,
11,
8,
17,
11,
11,
11,
12,
12,
13,
11,
11,
11,
12,
12,
12,
12,
12,
11,
15,
15,
13,
12,
11,
9,
13,
13,
13,
12,
13,
12,
11,
13,
13,
13,
13,
12,
11,
12,
13,
12,
10,
11,
12,
12,
11,
11,
11,
11,
12,
11,
14,
10,
11,
13,
15,
9,
12,
12,
12,
12,
12,
11,
11,
9,
12,
13,
12,
12,
14,
13,
12,
12,
11,
12,
12,
8,
11,
12,
10,
12,
12,
9,
15,
13,
13,
13,
12,
11,
12,
11,
11,
12,
12,
12,
12,
11,
12,
12,
12,
12,
11,
12,
11,
14,
9,
13,
9,
12,
9,
13,
13,
11,
11,
12,
12,
12,
11,
11,
12,
12,
11,
8,
12,
12,
13,
13,
11,
11,
14,
12,
11,
11,
13,
11,
11,
13,
13,
12,
11,
11,
12,
12,
9,
10,
12,
11,
12,
12,
13,
13,
11,
11,
11,
12,
11,
12,
11,
11,
13,
13,
11,
10,
10,
13,
12,
13,
13,
11,
10,
12,
14,
11,
11,
11,
11,
11,
11,
11,
11,
12,
12,
10,
12,
11,
14,
16,
11,
6,
6,
12,
13,
13,
11,
10,
11,
11,
11,
12,
11,
12,
12,
9,
9,
12,
12,
7,
11,
11,
11,
10,
12,
11,
12,
12,
12,
12,
11,
11,
11,
14,
12,
11,
12,
13,
12,
13,
11,
12,
12,
12,
12,
13,
11,
14,
17,
10,
13,
12,
13,
12,
6,
6,
11,
11,
13,
12,
11,
12,
13,
12,
11,
11,
13,
12,
12,
13,
12,
12,
8,
9,
8,
13,
12,
13,
11,
12,
12,
12,
11,
12,
12,
11,
13,
11,
11,
12,
13,
11,
12,
12,
12,
13,
12,
12,
12,
5,
11,
16,
13,
12,
11,
12,
12,
12,
5,
11,
11,
13,
11,
11,
11,
11,
11,
12,
11,
13,
13,
13,
9,
13,
13,
9,
11,
13,
9,
10,
12,
11,
12,
12,
12,
9,
11,
11,
11,
11,
12,
12,
12,
12,
12,
12,
12,
12,
11,
12,
9,
12,
8,
12,
9,
13,
11,
12,
12,
12,
10,
10,
11,
12,
12,
11,
11,
12,
17,
12,
12,
10,
12,
12,
12,
11,
12,
11,
11,
14,
13,
11,
14,
11,
13,
12,
11,
11,
12,
15,
12,
12,
11,
11,
12,
12,
11,
11,
12,
11,
11,
17,
12,
12,
11,
14,
16,
10,
13,
11,
12,
13,
11,
11,
8,
11,
11,
13,
11,
12,
12,
13,
11,
11,
12,
13,
12,
12,
12,
11,
12,
11,
9,
9,
11,
12,
12,
13,
11,
12,
12,
11,
12,
12,
12,
12,
11,
11,
12,
13,
11,
11,
12,
12,
11,
6,
11,
12,
12,
12,
12,
12,
12,
11,
12,
13,
13,
13,
12,
11,
12,
11,
11,
11,
13,
11,
16,
9,
13,
9,
9,
20,
12,
12,
12,
13,
12,
13,
11,
11,
12,
11,
11,
11,
11,
10,
11,
11,
14,
13,
12,
11,
13,
11,
11,
12,
12,
12,
14,
11,
12,
11,
13,
11,
11,
12,
11,
11,
11,
11,
12,
11,
12,
12,
11,
12,
8,
12,
12,
12,
7,
15,
11,
11,
10,
12,
12,
14,
12,
11,
10,
13,
13,
11,
11,
11,
11,
12,
14,
11,
12,
11,
11,
9,
12,
12,
10,
10,
10,
10,
13,
12,
11,
11,
11,
12,
13,
11,
11,
11,
13,
11,
11,
8,
11,
11,
13,
12,
12,
12,
15,
12,
13,
11,
14,
14,
11,
16,
11,
12,
11,
12,
11,
12,
12,
12,
11,
12,
12,
12,
12,
11,
12,
12,
14,
10,
9,
12,
14,
9,
8,
10,
10,
12,
11,
12,
11,
12,
12,
14,
11,
12,
11,
13,
11,
11,
13,
13,
11,
13,
11,
11,
11,
8,
11,
13,
11,
9,
11,
11,
10,
11,
12,
10,
13,
11,
12,
8,
11,
12,
11,
11,
11,
11,
12,
11,
13,
13,
11,
9,
11,
12,
12,
9,
9,
9,
10,
12,
13,
12,
12,
10,
9,
13,
12,
11,
11,
12,
14,
14,
12,
13,
12,
12,
13,
12,
12,
10,
19,
11,
11,
12,
12,
10,
11,
11,
13,
11,
11,
11,
12,
12,
12,
12,
12,
12,
11,
12,
11,
12,
12,
12,
13,
8,
10,
12,
10,
15,
15,
10,
11,
11,
11,
11,
12,
10,
12,
11,
11,
11,
12,
10,
10,
9,
9,
14,
11,
12,
10,
9,
13,
11,
11,
13,
11,
11,
12,
12,
12,
12,
8,
11,
11,
11,
11,
12,
11,
13,
11,
11,
12,
11,
8,
12,
11,
11,
13,
11,
12,
12,
11,
11,
11,
11,
11,
11,
12,
12,
11,
12,
11,
12,
15,
11,
10,
10,
11,
11,
13,
10,
13,
11,
11,
11,
12,
12,
11,
12,
12,
12,
13,
11,
12,
12,
12,
11,
13,
11,
12,
11,
11,
11,
12,
12,
9,
11,
12,
11,
11,
13,
12,
11,
11,
11,
12,
12,
12,
11,
11,
13,
12,
12,
12,
12,
12,
12,
13,
11,
11,
11,
5,
10,
12,
13,
11,
11,
12,
12,
11,
13,
12,
12,
12,
11,
11,
12,
10,
11,
10,
12,
9,
12,
17,
9,
12,
12,
5,
13,
11,
12,
11,
12,
12,
12,
15,
13,
12,
11,
11,
11,
12,
12,
13,
11,
10,
13,
12,
13,
12,
11,
12,
11,
11,
13,
14,
15,
14,
14,
15,
16,
16,
15,
15,
13,
17,
17,
16,
17,
16,
18,
17,
18,
19,
23,
18,
19,
20,
18,
17,
17,
17,
19,
19,
17,
14,
19,
18,
15,
21,
21,
19,
19,
19,
21,
20,
19,
21,
17,
24,
25,
21,
20,
25,
18,
19,
20,
20,
19,
20,
19,
20,
20,
21,
20,
19,
21,
24,
17,
19,
19,
22,
21,
22,
17,
23,
19,
21,
20,
19,
21,
19,
19,
19,
23,
20,
20,
20,
21,
20,
21,
23,
20,
22,
21,
20,
21,
21,
21,
21,
20,
21,
19,
21,
20,
21,
21,
21,
19,
20,
20,
18,
19,
18,
19,
20,
20,
20,
20,
20,
20,
21,
17,
17,
19,
20,
19,
19,
20,
20,
21,
21,
20,
19,
19,
19,
20,
20,
15,
18,
20,
18,
19,
20,
20,
18,
20,
19,
17,
19,
17,
17,
25,
19,
17,
21,
19,
19,
17,
19,
19,
20,
18,
23,
23,
19,
19,
19,
18,
18,
15,
18,
18,
19,
17,
18,
17,
18,
18,
17,
19,
21,
20,
17,
17,
17,
16,
17,
12,
16,
18,
18,
17,
14,
15,
23,
16,
17,
17,
17,
17,
17,
20,
17,
17,
19,
17,
15,
19,
17,
17,
16,
15,
18,
17,
17,
19,
19,
19,
20,
17,
17,
17,
17,
15,
19,
18,
13,
16,
17,
18,
19,
19,
15,
19,
17,
17,
16,
17,
17,
16,
16,
17,
16,
16,
16,
16,
16,
19,
16,
16,
16,
10,
16,
16,
15,
17,
16,
16,
15,
17,
17,
16,
20,
19,
15,
19,
15,
14,
16,
19,
17,
17,
13,
17,
16,
16,
16,
16,
17,
11,
16,
16,
15,
15,
15,
15,
19,
17,
16,
16,
15,
15,
15,
17,
15,
16,
16,
15,
15,
16,
15,
16,
16,
14,
15,
11,
15,
9,
15,
16,
16,
16,
14,
15,
17,
16,
16,
14,
16,
16,
17,
17,
16,
17,
17,
19,
16,
15,
15,
15,
16,
16,
17,
15,
15,
16,
22,
16,
16,
14,
15,
16,
16,
16,
15,
15,
15,
15,
15,
15,
11,
14,
14,
14,
13,
16,
15,
14,
15,
14,
14,
16,
15,
15,
11,
14,
14,
15,
15,
15,
15,
13,
16,
15,
13,
15,
15,
13,
16,
16,
15,
15,
15,
15,
14,
15,
15,
13,
17,
16,
14,
21,
21,
17,
15,
13,
14,
15,
16,
13,
15,
15,
16,
16,
16,
15,
15,
17,
15,
15,
12,
15,
14,
15,
16,
16,
15,
14,
15,
15,
20,
13,
15,
15,
12,
14,
15,
14,
14,
15,
15,
13,
15,
15,
15,
16,
14,
16,
19,
15,
15,
14,
15,
16,
17,
16,
17,
17,
17,
21,
19,
18,
19,
19,
21,
21,
21,
22,
23,
22,
22,
23,
23,
25,
21,
24,
24,
26,
27,
29,
27,
29,
28,
29,
29,
31,
31,
32,
34,
33,
36,
35,
34,
35,
37,
37,
39,
39,
39,
40,
43,
41,
41,
45,
45,
45,
45,
49,
47,
48,
49,
49,
52,
51,
51,
51,
51,
53,
65,
56,
56,
56,
61,
61,
61,
61,
63,
63,
64,
64,
69,
66,
70,
68,
72,
71,
72,
73,
71,
75,
76,
76,
75,
77,
77,
76,
80,
81,
80,
80,
80,
81,
81,
81,
83,
83,
81,
83,
84,
83,
83,
80,
85,
84,
85,
84,
84,
85,
85,
85,
85,
87,
84,
91,
83,
88,
85,
87,
85,
85,
84,
84,
84,
84,
85,
81,
85,
88,
86,
84,
85,
85,
84,
85,
85,
85,
85,
82,
86,
83,
84,
86,
84,
83,
85,
83,
81,
84,
84,
80,
83,
83,
81,
84,
83,
81,
79,
82,
81,
82,
80,
77,
77,
81,
80,
80,
81,
81,
80,
80,
79,
79,
79,
81,
79,
80,
80,
80,
80,
77,
79,
79,
77,
77,
76,
77,
77,
77,
77,
76,
76,
88,
76,
76,
76,
79,
76,
76,
80,
76,
76,
73,
73,
73,
69,
73,
74,
73,
75,
75,
73,
72,
74,
71,
73,
73,
71,
71,
71,
72,
73,
72,
71,
70,
71,
72,
75,
71,
69,
71,
71,
69,
69,
69,
69,
68,
67,
69,
68,
67,
75,
65,
66,
68,
68,
65,
67,
67,
67,
70,
66,
66,
67,
67,
65,
64,
66,
66,
64,
65,
64,
63,
65,
63,
63,
63,
62,
65,
55,
61,
63,
63,
63,
65,
63,
63,
61,
60,
62,
62,
63,
59,
61,
60,
60,
60,
61,
60,
59,
60,
57,
55,
59,
58,
60,
57,
58,
60,
58,
58,
57,
59,
57,
56,
56,
57,
57,
57,
57,
56,
57,
54,
54,
56,
56,
58,
56,
56,
56,
57,
54,
57,
56,
53,
56,
56,
56,
53,
52,
53,
53,
53,
53,
53,
52,
51,
53,
53,
53,
49,
49,
52,
53,
51,
51,
53,
51,
48,
52,
51,
53,
52,
51,
52,
52,
52,
51,
52,
53,
51,
50,
49,
50,
43,
51,
50,
50,
51,
51,
51,
52,
48,
48,
48,
49,
44,
48,
48,
47,
49,
48,
48,
45,
52,
48,
48,
48,
47,
49,
48,
46,
48,
49,
49,
47,
47,
48,
49,
48,
48,
45,
49,
47,
47,
51,
47,
47,
48,
48,
46,
52,
47,
47,
44,
43,
43,
43,
43,
41,
43,
44,
44,
44,
44,
45,
43,
43,
44,
44,
39,
43,
43,
45,
45,
44,
44,
44,
44,
45,
43,
42,
44,
44,
46,
43,
43,
44,
44,
43,
43,
43,
44,
39,
41,
43,
43,
42,
41,
41,
41,
43,
41,
40,
44,
44,
42,
35,
36,
39,
40,
41,
40,
41,
40,
41,
40,
40,
40,
41,
41,
40,
43,
36,
42,
40,
42,
40,
39,
39,
39,
40,
40,
40,
40,
41,
41,
41,
41,
40,
41,
41,
41,
41,
39,
39,
39,
35,
39,
39,
39,
40,
37,
38,
40,
38,
37,
37,
38,
38,
39,
37,
37,
37,
40,
37,
39,
38,
37,
37,
39,
37,
39,
39,
38,
36,
37,
37,
39,
38,
39,
39,
38,
37,
38,
38,
38,
38,
37,
37,
38,
38,
40,
39,
37,
37,
39,
37,
37,
37,
38,
38,
38,
36,
37,
43,
37,
40,
36,
36,
36,
37,
32,
33,
35,
35,
35,
37,
36,
36,
30,
37,
32,
34,
32,
33,
34,
34,
34,
36,
36,
33,
34,
33,
29,
33,
35,
32,
34,
35,
35,
36,
36,
33,
34,
33,
35,
32,
31,
33,
34,
35,
34,
33,
31,
34,
34,
34,
33,
35,
35,
33,
28,
31,
33,
33,
33,
33,
35,
33,
33,
32,
33,
33,
35,
32,
29,
30,
32,
33,
33,
33,
32,
32,
29,
33,
32,
33,
33,
34,
37,
29,
32,
31,
32,
32,
31,
31,
31,
35,
31,
31,
32,
32,
32,
33,
31,
27,
31,
31,
29,
29,
32,
32,
30,
31,
31,
32,
32,
46,
31,
29,
31,
31,
31,
31,
31,
31,
31,
30,
28,
31,
32,
29,
31,
29,
31,
31,
31,
31,
30,
31,
29,
31,
31,
31,
30,
29,
31,
31,
30,
29,
29,
30,
29,
29,
28,
29,
28,
28,
29,
29,
28,
28,
28,
30,
30,
27,
27,
27,
28,
27,
29,
25,
28,
33,
28,
27,
25,
26,
26,
32,
29,
27,
25,
27,
26,
25,
27,
28,
25,
32,
42,
26,
26,
29,
25,
27,
25,
27,
25,
26,
20,
30,
28,
25,
25,
20,
20,
24,
26,
25,
25,
26,
27,
27,
26,
29,
24,
26,
25,
25,
25,
28,
27,
27,
26,
26,
23,
24,
25,
29,
28,
26,
26,
26,
24,
27,
26,
27,
23,
25,
26,
28,
27,
17,
21,
26,
27,
27,
25,
24,
25,
24,
25,
27,
25,
25,
25,
25,
30,
19,
24,
24,
21,
24,
24,
24,
25,
21,
25,
22,
23,
21,
21,
21,
23,
23,
23,
22,
21,
22,
21,
23,
22,
21,
21,
15,
20,
21,
23,
23,
21,
21,
21,
23,
22,
23,
23,
22,
23,
21,
21,
21,
20,
20,
21,
21,
20,
21,
21,
20,
21,
21,
22,
14,
23,
24,
22,
22,
21,
21,
21,
21,
22,
22,
21,
21,
23,
22,
19,
23,
21,
21,
21,
21,
23,
21,
22,
21,
21,
19,
20,
14,
16,
21,
21,
21,
20,
21,
23,
21,
21,
21,
20,
21,
21,
21,
24,
20,
20,
21,
21,
20,
21,
20,
21,
23,
21,
21,
21,
21,
25,
20,
18,
21,
20,
20,
20,
20,
20,
19,
25,
20,
20,
19,
19,
20,
20,
17,
19,
19,
21,
19,
19,
19,
19,
20,
17,
19,
19,
21,
20,
22,
19,
19,
19,
16,
21,
19,
20,
20,
19,
19,
19,
21,
20,
21,
20,
20,
21,
19,
17,
19,
17,
17,
20,
19,
22,
19,
19,
17,
17,
17,
22,
18,
19,
17,
20,
19,
17,
17,
11,
16,
17,
18,
18,
17,
20,
16,
19,
17,
18,
17,
18,
18,
9,
17,
17,
17,
17,
17,
15,
15,
17,
18,
17,
15,
16,
20,
13,
16,
13,
19,
20,
15,
18,
18,
17,
18,
17,
18,
16,
17,
18,
15,
15,
17,
17,
16,
16,
14,
16,
17,
16,
16,
16,
16,
7,
17,
17,
16,
17,
17,
17,
15,
16,
15,
15,
16,
17,
17,
16,
16,
16,
17,
15,
15,
15,
16,
14,
15,
15,
16,
13,
15,
16,
16,
15,
15,
15,
15,
15,
15,
15,
15,
16,
17,
14,
15,
15,
16,
15,
16,
14,
15,
15,
14,
16,
15,
15,
13,
15,
13,
20,
12,
14,
15,
17,
17,
16,
16,
20,
16,
15,
16,
16,
14,
17,
17,
17,
16,
15,
15,
15,
17,
17,
15,
16,
15,
15,
15,
15,
16,
16,
15,
13,
14,
15,
15,
15,
15,
15,
11,
14,
14,
12,
14,
14,
14,
14,
16,
14,
15,
15,
15,
15,
14,
13,
13,
13,
14,
16,
14,
15,
12,
14,
14,
17,
14,
15,
15,
15,
15,
17,
13,
5,
15,
15,
16,
14,
14,
14,
15,
14,
16,
16,
14,
13,
13,
13,
15,
14,
15,
15,
15,
13,
15,
15,
15,
15,
16,
15,
12,
13,
14,
13,
15,
13,
13,
16,
15,
15,
15,
13,
13,
13,
11,
15,
14,
15,
15,
14,
14,
14,
15,
15,
16,
15,
14,
16,
14,
15,
15,
14,
15,
15,
15,
15,
15,
15,
15,
13,
15,
15,
16,
15,
19,
15,
15,
13,
13,
14,
14,
12,
21,
16,
16,
16,
15,
14,
15,
15,
15,
15,
15,
15,
19,
19,
13,
15,
15,
17,
14,
16,
15,
15,
15,
15,
15,
15,
15,
16,
15,
15,
16,
17,
15,
15,
14,
15,
16,
15,
15,
15,
15,
15,
15,
15,
15,
13,
13,
14,
15,
13,
14,
11,
9,
19,
19,
16,
14,
15,
14,
18,
15,
15,
14,
13,
13,
15,
13,
12,
13,
13,
13,
13,
16,
19,
14,
13,
14,
13,
16,
13,
17,
13,
13,
14,
14,
13,
16,
12,
12,
13,
14,
13,
13,
13,
14,
13,
13,
13,
13,
13,
16,
17,
15,
14,
12,
15,
13,
13,
13,
12,
14,
11,
11,
10,
12,
12,
13,
13,
12,
7,
12,
13,
13,
13,
13,
12,
12,
19,
13,
13,
14,
13,
15,
10,
13,
13,
11,
11,
13,
14,
14,
9,
13,
11,
13,
13,
12,
13,
13,
13,
15,
13,
13,
7,
7,
13,
12,
12,
13,
13,
13,
12,
12,
13,
15,
13,
12,
12,
11,
11,
12,
11,
12,
12,
13,
12,
14,
14,
14,
15,
15,
15,
15,
14,
14,
12,
13,
13,
13,
13,
13,
13,
13,
17,
13,
15,
15,
14,
13,
13,
15,
13,
12,
11,
12,
12,
12,
12,
12,
11,
11,
13,
12,
13,
12,
13,
13,
14,
12,
13,
13,
9,
10,
10,
9,
8,
13,
13,
13,
12,
12,
12,
12,
12,
13,
13,
10,
10,
13,
13,
13,
12,
13,
13,
13,
13,
12,
13,
13,
13,
19,
19,
9,
10,
11,
12,
14,
12,
11,
13,
13,
13,
12,
12,
16,
16,
14,
13,
13,
13,
12,
11,
13,
13,
13,
13,
13,
13,
11,
14,
14,
13,
13,
12,
12,
13,
13,
12,
12,
10,
13,
12,
15,
9,
12,
11,
11,
12,
12,
12,
11,
12,
12,
14,
13,
13,
14,
13,
14,
14,
12,
13,
12,
12,
13,
13,
13,
12,
13,
9,
12,
13,
13,
13,
13,
12,
11,
14,
12,
12,
12,
14,
11,
11,
11,
11,
31,
31,
12,
14,
12,
11,
11,
12,
12,
12,
8,
12,
14,
12,
13,
13,
12,
13,
13,
13,
12,
11,
13,
13,
12,
12,
13,
11,
12,
12,
7,
7,
13,
13,
13,
11,
12,
12,
14,
13,
12,
13,
12,
11,
11,
11,
5,
11,
12,
13,
13,
13,
10,
13,
14,
13,
13,
13,
13,
13,
12,
13,
13,
8,
12,
13,
13,
14,
13,
11,
13,
12,
10,
10,
12,
13,
14,
13,
12,
11,
11,
12,
12,
13,
8,
12,
14,
14,
15,
15,
12,
10,
12,
11,
11,
12,
13,
13,
9,
12,
12,
13,
11,
13,
11,
12,
11,
13,
14,
13,
13,
12,
15,
13,
13,
11,
12,
13,
15,
12,
11,
15,
10,
12,
12,
13,
10,
11,
11,
13,
12,
11,
11,
11,
15,
11,
11,
13,
13,
12,
13,
12,
12,
12,
12,
13,
12,
12,
13,
14,
12,
11,
13,
12,
13,
12,
11,
11,
12,
14,
13,
12,
8,
14,
13,
13,
12,
13,
11,
12,
12,
12,
12,
11,
13,
13,
17,
11,
13,
13,
12,
12,
11,
13,
12,
12,
12,
11,
11,
11,
11,
11,
11,
11,
12,
11,
12,
11,
11,
12,
11,
11,
11,
4,
11,
11,
11,
13,
11,
13,
12,
12,
12,
11,
12,
13,
11,
9,
8,
15,
11,
12,
11,
11,
11,
13,
13,
11,
12,
12,
13,
7,
11,
11,
11,
11,
11,
12,
13,
11,
11,
11,
11,
14,
12,
12,
13,
11,
13,
11,
12,
7,
11,
12,
13,
12,
12,
12,
16,
11,
14,
12,
12,
12,
12,
15,
11,
12,
11,
12,
12,
13,
12,
12,
3,
15,
16,
14,
9,
11,
11,
9,
13,
15,
15,
13,
12,
12,
8,
11,
12,
11,
11,
13,
11,
11,
12,
12,
12,
11,
10,
12,
16,
11,
13,
12,
11,
11,
12,
11,
12,
11,
11,
13,
8,
12,
21,
9,
10,
12,
10,
13,
12,
12,
12,
11,
11,
12,
10,
12,
12,
15,
13,
12,
11,
12,
15,
12,
11,
11,
12,
12,
12,
16,
11,
9,
13,
11,
12,
12,
11,
13,
11,
11,
12,
11,
11,
10,
11,
11,
13,
11,
13,
11,
12,
11,
12,
12,
7,
9,
9,
10,
15,
7,
13,
12,
12,
12,
9,
12,
12,
12,
10,
13,
13,
14,
15,
13,
11,
12,
12,
12,
12,
13,
12,
11,
12,
12,
12,
12,
13,
12,
12,
10,
11,
12,
11,
11,
11,
12,
17,
17,
12,
13,
8,
11,
12,
11,
13,
11,
11,
13,
12,
12,
11,
11,
12,
11,
7,
11,
11,
12,
13,
11,
11,
11,
14,
12,
12,
11,
12,
13,
13,
12,
12,
12,
13,
12,
12,
11,
13,
12,
13,
9,
11,
13,
13,
13,
11,
12,
11,
13,
11,
13,
12,
12,
11,
11,
10,
10,
13,
15,
13,
12,
11,
12,
12,
13,
11,
8,
12,
13,
8,
8,
13,
13,
11,
12,
11,
11,
11,
12,
11,
11,
11,
11,
8,
8,
13,
11,
11,
12,
12,
11,
7,
12,
11,
13,
11,
12,
9,
9,
11,
11,
11,
12,
11,
11,
13,
12,
12,
11,
11,
13,
7,
7,
9,
11,
11,
12,
13,
13,
13,
12,
12,
12,
11,
13,
11,
11,
12,
12,
12,
13,
12,
12,
14,
12,
12,
12,
12,
14,
13,
12,
14,
14,
13,
12,
12,
12,
11,
17,
12,
13,
11,
12,
11,
12,
13,
13,
11,
12,
12,
13,
13,
10,
12,
11,
11,
12,
9,
17,
13,
13,
13,
17,
9,
11,
13,
12,
12,
11,
13,
11,
12,
19,
19,
12,
12,
11,
11,
12,
13,
13,
13,
12,
11,
11,
11,
13,
13,
11,
11,
10,
12,
11,
12,
11,
5,
12,
10,
13,
12,
9,
9,
11,
10,
12,
12,
13,
14,
11,
14,
13,
12,
14,
13,
12,
15,
13,
13,
12,
12,
12,
12,
12,
13,
11,
13,
10,
13,
13,
12,
13,
13,
15,
12,
15,
11,
12,
12,
13,
11,
14,
12,
11,
10,
13,
13,
12,
11,
12,
12,
13,
11,
15,
12,
10,
9,
17,
11,
13,
13,
12,
12,
11,
11,
12,
12,
9,
11,
12,
11,
13,
13,
14,
14,
11,
11,
13,
12,
12,
12,
12,
11,
13,
10,
15,
13,
12,
12,
12,
12,
11,
15,
11,
12,
11,
11,
13,
9,
8,
11,
11,
12,
12,
12,
12,
11,
12,
11,
11,
10,
13,
9,
13,
9,
12,
13,
11,
11,
12,
14,
12,
11,
11,
11,
12,
17,
Null,
Null,
Null,
Null,
Null,
Null,
Null,
Null,
Null,
Null,
Null,
Null,
Null,
Null,
Null,
Null,
Null,
Null,
Null,
Null,
Null,
Null,
Null,
Null,
Null,
Null,
Null,
Null,
Null,
Null,
Null,
Null,
Null,
Null,
Null,
Null,
Null,
Null,
Null,
Null,
