Datos experimentales/DATOS 26-3-24/ALL0006/A0006CH1.CSV

Memory Length,4000,
Trigger Level,0.000E+00,
Source,CH1,
Vertical Units,V,
Vertical Scale,2.000E-02,
Vertical Position,-1.200E-02,
Horizontal Units,s,
Horizontal Scale,1.000E+00,
Horizontal Position,0.000E+00,
Horizontal Mode,Roll Mode,
Sampling Period,4.000E-03,
Firmware, V1.21,
Waveform Data,
11,
11,
11,
10,
10,
7,
11,
10,
11,
10,
10,
11,
11,
11,
9,
10,
10,
10,
7,
11,
11,
10,
9,
11,
11,
11,
11,
12,
11,
11,
11,
9,
11,
10,
10,
13,
9,
10,
15,
7,
7,
12,
12,
11,
12,
11,
11,
10,
11,
9,
10,
12,
11,
9,
9,
11,
10,
13,
11,
10,
11,
11,
11,
10,
10,
10,
11,
11,
9,
11,
10,
8,
10,
9,
11,
9,
11,
10,
10,
11,
11,
11,
11,
9,
9,
12,
11,
9,
12,
12,
9,
10,
5,
12,
12,
11,
10,
10,
10,
10,
11,
11,
10,
10,
10,
10,
11,
11,
11,
8,
10,
11,
10,
9,
13,
11,
8,
10,
4,
12,
10,
10,
9,
11,
10,
9,
9,
9,
10,
9,
11,
13,
11,
11,
11,
10,
13,
11,
11,
10,
9,
11,
12,
9,
13,
11,
11,
12,
11,
11,
11,
11,
11,
11,
11,
11,
9,
9,
11,
11,
10,
11,
11,
11,
11,
11,
11,
9,
9,
11,
8,
11,
11,
11,
12,
10,
10,
10,
11,
10,
11,
10,
8,
13,
13,
11,
11,
6,
12,
11,
11,
11,
11,
11,
11,
11,
7,
9,
11,
11,
9,
12,
11,
10,
10,
8,
10,
10,
11,
9,
12,
9,
11,
11,
11,
11,
12,
12,
12,
11,
11,
9,
9,
9,
9,
9,
9,
11,
11,
9,
7,
7,
10,
10,
11,
8,
10,
11,
11,
9,
10,
10,
11,
11,
8,
11,
11,
11,
11,
9,
11,
10,
11,
10,
9,
10,
11,
13,
11,
11,
11,
11,
11,
9,
12,
12,
11,
10,
12,
11,
11,
10,
10,
11,
11,
12,
11,
11,
9,
13,
12,
11,
11,
12,
11,
10,
10,
10,
11,
10,
10,
11,
5,
9,
11,
11,
11,
9,
11,
11,
10,
9,
11,
12,
8,
8,
10,
11,
10,
9,
9,
11,
10,
10,
10,
10,
10,
11,
11,
11,
10,
10,
8,
2,
3,
12,
12,
10,
11,
11,
10,
13,
10,
11,
9,
11,
12,
4,
5,
18,
9,
9,
11,
11,
11,
11,
8,
11,
12,
11,
9,
11,
9,
11,
10,
13,
13,
11,
11,
11,
10,
7,
11,
11,
12,
11,
7,
10,
11,
8,
8,
12,
12,
9,
11,
11,
11,
10,
11,
13,
10,
10,
9,
9,
12,
9,
11,
11,
9,
9,
12,
11,
12,
10,
12,
11,
11,
11,
11,
12,
11,
11,
11,
11,
10,
11,
12,
11,
12,
12,
12,
11,
10,
9,
10,
10,
10,
11,
11,
10,
11,
11,
11,
10,
10,
11,
11,
11,
9,
11,
11,
12,
10,
12,
10,
12,
11,
11,
11,
11,
11,
11,
9,
9,
11,
10,
10,
10,
8,
11,
10,
11,
8,
8,
10,
11,
10,
11,
13,
11,
10,
8,
11,
11,
10,
10,
10,
10,
11,
9,
12,
11,
8,
11,
12,
10,
11,
7,
11,
8,
11,
11,
11,
11,
9,
10,
12,
12,
10,
11,
10,
9,
10,
11,
11,
10,
9,
11,
11,
10,
11,
11,
12,
11,
10,
7,
11,
11,
11,
10,
11,
9,
9,
12,
11,
10,
11,
11,
10,
7,
11,
11,
9,
11,
10,
12,
9,
8,
11,
9,
11,
7,
10,
10,
11,
9,
11,
11,
11,
10,
9,
11,
10,
10,
10,
11,
10,
11,
10,
9,
11,
10,
10,
12,
8,
11,
10,
12,
9,
9,
11,
9,
10,
11,
11,
11,
9,
11,
12,
10,
11,
11,
10,
12,
11,
11,
11,
9,
9,
15,
11,
12,
9,
11,
12,
11,
11,
9,
12,
10,
11,
9,
9,
9,
11,
11,
9,
9,
11,
10,
11,
12,
9,
11,
11,
7,
7,
14,
8,
16,
12,
11,
11,
11,
11,
11,
12,
6,
11,
11,
11,
10,
10,
11,
10,
9,
11,
12,
11,
11,
9,
13,
11,
11,
11,
9,
9,
11,
11,
11,
11,
11,
11,
10,
10,
9,
13,
10,
10,
9,
9,
13,
11,
8,
8,
11,
10,
9,
10,
11,
10,
11,
11,
11,
11,
12,
8,
10,
11,
9,
10,
11,
10,
11,
12,
1,
11,
11,
10,
11,
9,
10,
10,
10,
9,
11,
11,
11,
7,
11,
11,
11,
11,
10,
9,
9,
10,
9,
9,
10,
11,
12,
11,
10,
10,
12,
11,
11,
11,
6,
11,
9,
11,
9,
12,
11,
11,
9,
9,
12,
10,
11,
9,
13,
10,
10,
11,
11,
11,
10,
11,
9,
12,
11,
11,
11,
10,
11,
11,
11,
7,
9,
12,
10,
11,
11,
11,
10,
10,
10,
12,
10,
11,
10,
12,
10,
11,
13,
9,
8,
10,
10,
13,
11,
11,
11,
11,
10,
10,
10,
11,
10,
10,
11,
12,
12,
11,
11,
10,
12,
9,
12,
11,
11,
11,
12,
8,
11,
10,
10,
11,
9,
9,
11,
10,
10,
9,
5,
12,
11,
11,
6,
11,
11,
9,
8,
10,
10,
11,
9,
8,
11,
10,
10,
9,
11,
11,
11,
9,
11,
9,
11,
9,
13,
9,
11,
11,
9,
8,
11,
11,
10,
10,
11,
11,
10,
13,
11,
11,
8,
12,
9,
10,
9,
13,
10,
10,
11,
11,
11,
7,
10,
9,
11,
10,
10,
10,
11,
11,
11,
9,
10,
9,
13,
11,
11,
9,
9,
8,
9,
9,
8,
11,
11,
11,
9,
12,
9,
11,
10,
10,
12,
11,
12,
8,
9,
11,
11,
9,
11,
11,
11,
13,
13,
7,
11,
12,
17,
10,
10,
11,
11,
13,
11,
11,
11,
11,
15,
13,
9,
9,
11,
11,
10,
12,
12,
9,
11,
9,
4,
9,
12,
11,
11,
11,
10,
10,
12,
11,
10,
11,
11,
11,
10,
10,
9,
13,
10,
10,
12,
11,
11,
10,
11,
9,
9,
11,
11,
11,
11,
9,
10,
11,
10,
13,
10,
9,
9,
11,
11,
15,
11,
10,
10,
10,
10,
10,
9,
9,
10,
11,
8,
8,
10,
9,
11,
11,
12,
12,
12,
15,
9,
11,
10,
14,
11,
11,
10,
11,
9,
11,
10,
10,
9,
9,
11,
11,
12,
10,
11,
11,
12,
11,
9,
9,
10,
9,
9,
11,
11,
9,
11,
11,
11,
9,
11,
9,
11,
11,
13,
8,
11,
10,
13,
11,
11,
10,
11,
13,
12,
12,
9,
12,
11,
9,
11,
11,
9,
9,
10,
11,
7,
12,
11,
11,
9,
10,
13,
10,
10,
5,
11,
13,
10,
9,
8,
10,
10,
10,
11,
11,
10,
10,
13,
9,
11,
10,
12,
9,
11,
11,
9,
9,
10,
11,
9,
13,
11,
10,
11,
11,
9,
11,
10,
11,
11,
12,
9,
11,
13,
13,
10,
10,
9,
12,
9,
10,
10,
10,
10,
12,
10,
10,
9,
10,
12,
10,
10,
11,
11,
9,
9,
9,
9,
11,
13,
10,
11,
10,
11,
11,
10,
10,
11,
7,
9,
11,
9,
11,
8,
8,
10,
11,
11,
10,
11,
11,
10,
11,
10,
10,
11,
9,
9,
11,
11,
11,
11,
10,
9,
7,
11,
10,
12,
9,
11,
11,
11,
9,
7,
11,
11,
11,
11,
11,
11,
10,
9,
12,
12,
11,
11,
12,
12,
11,
8,
12,
11,
10,
10,
8,
10,
11,
11,
11,
14,
10,
9,
12,
9,
9,
10,
9,
11,
11,
11,
11,
10,
11,
11,
11,
11,
11,
13,
11,
11,
10,
9,
10,
11,
11,
10,
10,
9,
10,
11,
9,
10,
11,
10,
11,
10,
11,
12,
11,
16,
11,
11,
11,
11,
10,
9,
11,
11,
10,
9,
11,
11,
16,
11,
11,
12,
11,
11,
11,
10,
8,
10,
9,
10,
10,
11,
8,
11,
10,
11,
11,
11,
9,
10,
10,
11,
10,
9,
10,
9,
12,
11,
12,
10,
10,
11,
13,
12,
11,
11,
11,
10,
10,
11,
12,
10,
11,
11,
11,
10,
13,
11,
11,
12,
10,
12,
10,
10,
11,
11,
5,
11,
11,
9,
11,
9,
8,
9,
11,
10,
11,
9,
12,
9,
11,
8,
8,
10,
9,
12,
11,
10,
11,
10,
11,
11,
11,
11,
11,
12,
12,
11,
10,
12,
7,
11,
10,
9,
12,
11,
11,
11,
11,
10,
11,
11,
10,
11,
11,
9,
13,
11,
11,
12,
12,
11,
11,
11,
11,
11,
11,
11,
11,
9,
12,
10,
9,
10,
9,
11,
9,
1,
1,
11,
10,
11,
9,
9,
11,
11,
11,
10,
9,
12,
9,
9,
11,
11,
11,
10,
11,
11,
10,
9,
10,
9,
11,
12,
7,
10,
10,
10,
9,
11,
10,
10,
12,
8,
10,
10,
10,
17,
10,
10,
11,
10,
9,
10,
11,
11,
10,
12,
11,
11,
12,
10,
11,
11,
12,
10,
10,
9,
10,
10,
10,
9,
11,
8,
11,
11,
10,
8,
10,
11,
11,
11,
0,
11,
10,
11,
8,
11,
10,
9,
11,
10,
12,
9,
9,
10,
11,
11,
11,
11,
20,
17,
10,
11,
12,
11,
8,
8,
8,
10,
10,
9,
10,
9,
9,
16,
11,
13,
8,
8,
13,
13,
10,
10,
11,
12,
10,
11,
11,
11,
4,
10,
10,
11,
11,
11,
11,
11,
10,
9,
11,
11,
12,
10,
11,
11,
10,
9,
9,
10,
11,
11,
9,
11,
11,
11,
10,
15,
10,
11,
9,
11,
11,
11,
8,
6,
11,
10,
11,
13,
11,
10,
11,
11,
10,
10,
11,
10,
11,
11,
10,
10,
11,
9,
11,
11,
12,
12,
10,
10,
10,
9,
12,
12,
10,
9,
11,
10,
13,
9,
9,
10,
9,
12,
8,
8,
10,
10,
12,
11,
10,
11,
10,
11,
10,
10,
11,
11,
10,
9,
10,
10,
10,
11,
11,
11,
8,
9,
11,
10,
12,
11,
11,
9,
12,
12,
11,
11,
11,
11,
13,
13,
13,
13,
13,
13,
14,
13,
13,
16,
15,
15,
19,
17,
19,
18,
19,
20,
20,
22,
21,
23,
23,
23,
24,
24,
25,
25,
26,
23,
28,
27,
28,
28,
28,
31,
31,
34,
34,
32,
31,
33,
33,
33,
35,
36,
35,
39,
39,
39,
39,
41,
41,
41,
44,
43,
43,
45,
45,
45,
50,
49,
51,
49,
53,
53,
53,
54,
53,
55,
55,
57,
56,
56,
59,
60,
59,
62,
62,
64,
64,
65,
69,
67,
67,
68,
67,
69,
69,
69,
69,
71,
71,
73,
73,
72,
73,
77,
74,
75,
75,
76,
71,
76,
76,
77,
74,
74,
75,
74,
78,
77,
77,
77,
79,
78,
77,
77,
79,
78,
82,
82,
79,
80,
80,
80,
80,
80,
79,
79,
81,
79,
79,
79,
79,
79,
79,
77,
78,
75,
79,
78,
77,
78,
77,
77,
75,
77,
77,
77,
77,
76,
73,
77,
76,
78,
61,
76,
75,
77,
75,
75,
77,
77,
74,
77,
76,
75,
75,
77,
74,
74,
74,
74,
75,
73,
73,
73,
77,
72,
72,
73,
72,
71,
72,
73,
72,
71,
72,
72,
71,
71,
71,
73,
71,
69,
70,
71,
72,
72,
70,
69,
69,
69,
71,
71,
67,
68,
68,
68,
69,
67,
67,
68,
67,
68,
69,
68,
68,
68,
67,
65,
67,
68,
66,
65,
64,
67,
65,
64,
64,
63,
63,
63,
64,
61,
65,
62,
64,
61,
62,
61,
63,
64,
62,
62,
62,
62,
62,
63,
62,
63,
63,
61,
62,
61,
62,
60,
61,
60,
61,
61,
60,
59,
61,
55,
58,
57,
58,
57,
59,
57,
56,
56,
59,
59,
56,
57,
55,
57,
57,
58,
60,
60,
57,
56,
57,
56,
56,
55,
56,
56,
56,
55,
52,
51,
57,
53,
53,
53,
55,
53,
53,
53,
53,
51,
52,
53,
53,
53,
52,
53,
51,
52,
53,
52,
52,
51,
53,
53,
52,
52,
51,
55,
53,
51,
51,
50,
51,
51,
51,
47,
50,
49,
48,
51,
48,
48,
45,
49,
48,
49,
45,
49,
49,
45,
47,
48,
45,
46,
48,
46,
49,
49,
49,
48,
48,
46,
46,
90,
47,
47,
47,
47,
46,
47,
52,
46,
45,
46,
45,
45,
45,
45,
45,
47,
46,
44,
45,
46,
43,
45,
43,
44,
43,
42,
42,
42,
43,
43,
43,
42,
40,
41,
43,
42,
43,
42,
43,
43,
43,
41,
43,
43,
41,
41,
42,
43,
42,
42,
43,
44,
44,
44,
42,
44,
46,
42,
41,
43,
41,
41,
41,
45,
40,
41,
42,
42,
39,
41,
40,
40,
39,
39,
40,
40,
36,
39,
41,
39,
36,
39,
39,
37,
39,
39,
39,
37,
40,
39,
36,
40,
37,
35,
39,
39,
37,
38,
45,
39,
39,
38,
40,
39,
38,
40,
40,
39,
37,
37,
39,
40,
36,
38,
38,
36,
39,
35,
37,
36,
36,
37,
37,
37,
38,
34,
34,
37,
33,
35,
34,
37,
36,
33,
31,
36,
35,
35,
35,
37,
37,
38,
37,
35,
35,
33,
30,
35,
35,
37,
36,
36,
36,
35,
36,
33,
38,
37,
36,
37,
36,
36,
36,
37,
37,
37,
35,
35,
39,
34,
37,
36,
35,
37,
35,
33,
35,
36,
36,
36,
34,
32,
36,
34,
33,
32,
33,
34,
33,
33,
36,
33,
32,
32,
31,
32,
34,
33,
35,
35,
33,
33,
33,
31,
36,
33,
32,
32,
33,
35,
33,
32,
33,
33,
33,
34,
32,
35,
31,
33,
33,
33,
33,
32,
33,
40,
33,
33,
29,
35,
33,
32,
34,
33,
33,
33,
33,
32,
32,
32,
32,
32,
31,
33,
31,
31,
29,
32,
32,
31,
31,
30,
31,
31,
30,
29,
30,
31,
31,
31,
27,
31,
31,
29,
30,
29,
28,
31,
32,
31,
32,
29,
32,
33,
35,
31,
30,
30,
31,
31,
31,
31,
31,
31,
31,
31,
30,
29,
31,
29,
29,
29,
29,
29,
31,
31,
30,
29,
29,
29,
33,
30,
29,
25,
25,
31,
29,
29,
26,
29,
28,
29,
28,
29,
28,
28,
29,
28,
28,
29,
27,
28,
25,
27,
27,
27,
28,
27,
28,
29,
26,
26,
27,
27,
26,
27,
28,
27,
28,
27,
25,
27,
27,
26,
9,
24,
24,
24,
25,
25,
26,
25,
20,
25,
26,
26,
23,
29,
27,
25,
25,
27,
25,
21,
25,
26,
25,
24,
25,
24,
27,
24,
26,
26,
26,
25,
25,
25,
28,
25,
26,
26,
23,
25,
25,
25,
27,
26,
26,
24,
24,
26,
24,
24,
24,
25,
25,
25,
24,
25,
24,
24,
24,
23,
21,
24,
23,
24,
24,
24,
24,
24,
23,
25,
23,
23,
25,
23,
20,
24,
21,
25,
23,
22,
21,
24,
23,
21,
23,
23,
23,
21,
21,
21,
21,
22,
21,
21,
21,
20,
16,
21,
19,
19,
22,
19,
21,
21,
31,
21,
20,
20,
17,
20,
20,
19,
19,
21,
17,
21,
19,
21,
21,
20,
17,
21,
19,
20,
20,
20,
20,
20,
19,
18,
23,
19,
18,
20,
19,
19,
19,
19,
19,
20,
20,
20,
19,
20,
16,
18,
20,
19,
19,
18,
21,
19,
17,
21,
18,
18,
19,
20,
20,
19,
19,
20,
19,
20,
19,
17,
19,
19,
21,
21,
21,
19,
20,
19,
19,
19,
18,
19,
18,
18,
18,
18,
18,
21,
20,
18,
19,
23,
20,
18,
19,
19,
19,
17,
19,
19,
17,
17,
20,
19,
16,
14,
21,
19,
16,
19,
19,
18,
18,
25,
20,
19,
14,
14,
20,
18,
17,
17,
19,
18,
19,
17,
19,
17,
19,
17,
16,
16,
16,
19,
17,
16,
18,
17,
18,
16,
17,
17,
17,
17,
19,
19,
18,
17,
17,
16,
16,
17,
17,
17,
16,
17,
16,
16,
16,
16,
18,
18,
17,
17,
16,
17,
16,
17,
16,
18,
16,
17,
17,
16,
13,
18,
16,
15,
17,
16,
16,
16,
15,
16,
16,
16,
16,
15,
15,
15,
15,
16,
16,
16,
15,
13,
11,
20,
15,
17,
17,
15,
13,
16,
16,
15,
16,
13,
16,
16,
16,
15,
15,
17,
15,
14,
14,
14,
20,
16,
15,
15,
15,
15,
15,
15,
15,
15,
16,
15,
17,
17,
15,
10,
15,
16,
15,
17,
15,
13,
15,
14,
15,
14,
15,
15,
15,
14,
15,
15,
15,
13,
15,
12,
14,
15,
14,
13,
13,
15,
13,
16,
15,
14,
13,
15,
13,
13,
14,
14,
8,
13,
13,
15,
14,
13,
13,
14,
13,
14,
12,
13,
14,
13,
14,
15,
15,
13,
15,
17,
10,
15,
13,
16,
15,
12,
15,
14,
13,
13,
13,
15,
15,
13,
15,
13,
13,
14,
13,
15,
14,
13,
13,
13,
16,
13,
14,
13,
12,
16,
14,
15,
13,
12,
11,
14,
13,
11,
14,
14,
14,
14,
13,
14,
13,
14,
15,
15,
13,
13,
13,
15,
13,
13,
13,
13,
15,
13,
14,
12,
15,
13,
15,
13,
13,
14,
13,
15,
15,
15,
13,
14,
15,
15,
13,
13,
14,
13,
13,
13,
13,
13,
15,
15,
14,
13,
14,
13,
13,
13,
19,
16,
13,
13,
13,
13,
13,
12,
14,
14,
15,
13,
15,
13,
13,
15,
14,
16,
14,
14,
14,
13,
13,
13,
13,
16,
13,
11,
14,
13,
12,
15,
13,
14,
9,
9,
13,
14,
13,
17,
14,
13,
13,
14,
15,
14,
13,
15,
13,
15,
15,
13,
13,
14,
13,
13,
13,
19,
13,
15,
12,
14,
13,
13,
13,
15,
13,
13,
12,
13,
15,
13,
13,
12,
13,
14,
13,
15,
15,
9,
15,
13,
13,
13,
13,
12,
13,
13,
12,
15,
15,
17,
17,
16,
13,
13,
13,
14,
13,
12,
13,
13,
13,
12,
13,
12,
12,
4,
16,
18,
14,
14,
15,
13,
14,
13,
14,
13,
13,
13,
13,
13,
12,
7,
13,
13,
13,
15,
9,
12,
13,
13,
12,
19,
19,
14,
16,
13,
14,
13,
13,
13,
14,
13,
12,
13,
14,
13,
13,
9,
9,
15,
15,
13,
13,
13,
12,
16,
11,
12,
13,
13,
11,
12,
13,
13,
13,
12,
12,
13,
13,
15,
12,
13,
12,
12,
13,
12,
12,
12,
11,
10,
12,
12,
10,
12,
7,
12,
13,
12,
12,
12,
15,
15,
13,
11,
12,
12,
12,
12,
13,
12,
11,
12,
13,
12,
10,
10,
11,
11,
11,
11,
12,
10,
13,
10,
18,
12,
11,
12,
12,
12,
12,
10,
13,
12,
13,
13,
12,
14,
13,
13,
12,
13,
12,
12,
11,
9,
13,
12,
12,
11,
11,
11,
11,
12,
9,
11,
11,
11,
11,
13,
12,
13,
11,
8,
13,
12,
11,
12,
12,
12,
11,
13,
13,
12,
11,
12,
10,
13,
9,
12,
12,
11,
8,
11,
11,
11,
13,
11,
13,
12,
13,
12,
12,
11,
13,
12,
12,
12,
12,
12,
11,
12,
14,
13,
12,
11,
12,
12,
11,
11,
13,
9,
15,
11,
11,
13,
9,
12,
13,
12,
13,
12,
12,
12,
10,
11,
13,
12,
12,
11,
13,
12,
12,
13,
12,
10,
11,
12,
10,
11,
13,
11,
11,
11,
9,
9,
11,
8,
11,
11,
11,
11,
11,
10,
11,
4,
12,
11,
11,
12,
12,
12,
12,
13,
12,
12,
11,
12,
9,
9,
11,
12,
10,
10,
12,
13,
11,
13,
13,
11,
11,
13,
11,
12,
7,
11,
11,
11,
11,
13,
11,
11,
11,
11,
11,
17,
11,
12,
11,
15,
15,
12,
11,
11,
12,
12,
12,
12,
9,
12,
12,
12,
13,
12,
12,
13,
11,
11,
14,
11,
13,
11,
12,
13,
11,
12,
11,
9,
9,
11,
11,
11,
11,
10,
10,
10,
11,
12,
8,
16,
11,
11,
9,
9,
11,
11,
11,
11,
11,
11,
11,
11,
9,
12,
10,
11,
9,
9,
11,
11,
11,
8,
11,
11,
11,
11,
9,
4,
13,
12,
12,
12,
11,
9,
20,
11,
11,
12,
9,
12,
12,
12,
13,
11,
12,
12,
12,
8,
12,
11,
10,
10,
12,
12,
12,
9,
8,
12,
11,
12,
12,
9,
11,
12,
11,
11,
12,
12,
13,
9,
11,
12,
11,
12,
12,
11,
12,
9,
12,
11,
9,
12,
8,
15,
11,
10,
11,
11,
11,
12,
12,
16,
11,
12,
11,
9,
11,
10,
12,
12,
11,
11,
12,
11,
14,
11,
12,
11,
11,
12,
9,
12,
11,
8,
11,
11,
11,
11,
11,
11,
12,
10,
11,
11,
12,
10,
13,
9,
11,
12,
9,
8,
11,
11,
11,
8,
5,
11,
9,
11,
11,
10,
10,
10,
6,
11,
11,
10,
11,
10,
10,
12,
11,
10,
12,
10,
11,
10,
12,
12,
12,
11,
12,
11,
11,
11,
10,
11,
12,
12,
13,
13,
13,
9,
9,
13,
12,
11,
11,
11,
13,
11,
11,
11,
12,
11,
11,
12,
11,
11,
9,
12,
11,
12,
11,
16,
10,
16,
11,
11,
9,
11,
11,
11,
11,
11,
11,
12,
12,
13,
9,
11,
11,
11,
13,
11,
12,
11,
12,
12,
12,
12,
10,
11,
7,
11,
11,
10,
11,
11,
11,
16,
16,
10,
13,
11,
15,
13,
12,
12,
11,
9,
9,
12,
9,
11,
11,
11,
11,
10,
11,
11,
11,
11,
12,
11,
10,
11,
10,
11,
9,
9,
10,
12,
11,
11,
11,
11,
12,
11,
11,
9,
11,
11,
11,
11,
11,
12,
10,
11,
11,
10,
13,
12,
12,
12,
10,
9,
9,
11,
11,
11,
10,
12,
11,
10,
12,
11,
10,
11,
11,
13,
13,
9,
11,
11,
11,
12,
9,
10,
11,
11,
12,
10,
10,
11,
10,
11,
11,
9,
10,
11,
9,
10,
13,
12,
11,
9,
10,
11,
10,
9,
11,
11,
9,
11,
11,
12,
10,
11,
11,
11,
9,
11,
11,
10,
8,
8,
12,
11,
9,
9,
11,
10,
11,
12,
10,
11,
11,
12,
11,
11,
12,
12,
5,
11,
12,
12,
13,
11,
10,
12,
13,
11,
11,
11,
11,
12,
12,
11,
12,
8,
12,
11,
11,
13,
10,
11,
11,
11,
10,
12,
11,
12,
9,
4,
11,
12,
11,
11,
11,
11,
12,
12,
11,
11,
10,
13,
11,
8,
10,
11,
11,
11,
9,
12,
9,
9,
10,
11,
12,
12,
11,
10,
11,
9,
11,
10,
11,
9,
9,
13,
11,
11,
10,
11,
10,
11,
11,
13,
10,
11,
9,
13,
11,
11,
11,
9,
9,
9,
11,
10,
7,
10,
9,
10,
10,
11,
12,
13,
12,
11,
11,
11,
10,
12,
9,
11,
12,
11,
11,
11,
10,
10,
10,
11,
11,
10,
8,
10,
11,
11,
11,
11,
10,
10,
10,
7,
13,
11,
11,
9,
9,
8,
11,
12,
10,
11,
6,
11,
11,
12,
11,
11,
10,
10,
11,
10,
11,
13,
13,
10,
9,
9,
12,
10,
9,
6,
6,
10,
11,
11,
7,
12,
17,
9,
28,
12,
11,
11,
11,
11,
10,
10,
10,
12,
17,
13,
11,
11,
9,
11,
9,
11,
9,
9,
12,
12,
11,
11,
11,
10,
10,
10,
11,
12,
9,
12,
11,
11,
10,
10,
9,
10,
11,
9,
11,
9,
11,
11,
10,
13,
11,
10,
10,
9,
11,
11,
9,
10,
10,
7,
9,
11,
8,
11,
11,
10,
11,
9,
9,
10,
11,
11,
11,
10,
11,
9,
10,
11,
12,
11,
11,
11,
9,
11,
13,
13,
12,
12,
10,
12,
9,
11,
12,
8,
11,
11,
11,
12,
10,
10,
11,
8,
12,
10,
10,
11,
11,
12,
13,
10,
11,
11,
11,
10,
11,
8,
9,
11,
11,
12,
11,
10,
11,
10,
12,
11,
11,
11,
11,
11,
10,
11,
9,
11,
11,
10,
11,
11,
8,
10,
10,
10,
10,
10,
11,
11,
7,
12,
12,
11,
12,
11,
14,
11,
11,
5,
9,
8,
11,
9,
10,
9,
12,
11,
10,
11,
11,
9,
9,
7,
12,
10,
9,
11,
11,
11,
10,
9,
11,
11,
9,
10,
10,
10,
9,
12,
11,
11,
11,
11,
11,
11,
10,
11,
14,
12,
12,
12,
11,
11,
12,
12,
11,
11,
11,
13,
8,
10,
11,
11,
13,
13,
14,
10,
12,
11,
12,
10,
11,
11,
11,
11,
10,
10,
11,
11,
11,
11,
11,
9,
11,
11,
11,
12,
9,
10,
10,
10,
10,
10,
10,
11,
12,
10,
11,
9,
11,
7,
10,
11,
10,
9,
11,
11,
11,
12,
12,
11,
11,
10,
12,
10,
11,
12,
10,
15,
