Datos experimentales/DATOS 26-3-24/ALL0015/A0015CH1.CSV

Memory Length,4000,
Trigger Level,0.000E+00,
Source,CH1,
Vertical Units,V,
Vertical Scale,2.000E-02,
Vertical Position,-1.200E-02,
Horizontal Units,s,
Horizontal Scale,1.000E+00,
Horizontal Position,0.000E+00,
Horizontal Mode,Roll Mode,
Sampling Period,4.000E-03,
Firmware, V1.21,
Waveform Data,
8,
9,
8,
8,
9,
8,
7,
9,
8,
11,
8,
8,
8,
8,
10,
9,
8,
8,
8,
9,
9,
8,
9,
9,
9,
9,
7,
8,
9,
9,
7,
9,
8,
8,
9,
8,
8,
9,
7,
8,
8,
8,
8,
7,
8,
8,
6,
7,
13,
8,
9,
9,
8,
9,
9,
8,
12,
9,
8,
8,
8,
8,
8,
8,
7,
9,
7,
7,
8,
9,
9,
13,
9,
9,
8,
9,
9,
9,
8,
7,
9,
9,
8,
8,
8,
8,
8,
12,
8,
9,
8,
9,
8,
9,
8,
8,
9,
9,
9,
9,
8,
11,
9,
10,
8,
9,
8,
9,
9,
11,
11,
9,
8,
9,
9,
9,
11,
9,
9,
9,
9,
9,
13,
11,
11,
9,
9,
8,
9,
9,
8,
9,
11,
8,
6,
9,
9,
8,
8,
8,
9,
9,
10,
8,
9,
9,
9,
8,
8,
8,
10,
10,
8,
8,
8,
9,
10,
7,
8,
8,
9,
9,
8,
9,
10,
10,
8,
9,
7,
9,
8,
8,
8,
9,
5,
9,
8,
9,
8,
10,
10,
10,
9,
8,
8,
8,
9,
8,
8,
8,
9,
7,
8,
9,
8,
8,
8,
7,
9,
8,
10,
9,
8,
9,
8,
9,
8,
8,
8,
11,
11,
9,
8,
8,
9,
9,
7,
8,
8,
9,
5,
9,
9,
9,
9,
8,
9,
8,
7,
3,
9,
9,
9,
9,
8,
8,
8,
9,
11,
11,
8,
7,
9,
8,
9,
10,
11,
8,
10,
5,
8,
9,
9,
9,
7,
9,
9,
9,
8,
8,
9,
9,
8,
9,
9,
9,
7,
7,
9,
8,
8,
9,
9,
8,
8,
9,
9,
9,
9,
15,
15,
8,
9,
8,
9,
8,
8,
10,
8,
9,
9,
8,
9,
8,
8,
9,
8,
5,
9,
9,
8,
8,
8,
8,
8,
8,
7,
11,
7,
8,
9,
8,
8,
10,
7,
8,
10,
3,
8,
8,
9,
10,
8,
8,
9,
8,
8,
9,
10,
9,
8,
9,
9,
8,
7,
8,
8,
9,
15,
15,
8,
3,
8,
5,
9,
11,
11,
10,
12,
8,
9,
8,
8,
8,
9,
7,
9,
8,
8,
9,
9,
8,
7,
9,
8,
12,
9,
9,
9,
9,
9,
10,
8,
7,
9,
8,
9,
7,
3,
9,
8,
8,
9,
9,
8,
7,
9,
8,
8,
9,
8,
8,
8,
9,
7,
8,
9,
9,
9,
7,
8,
8,
8,
7,
6,
8,
5,
10,
9,
8,
9,
8,
8,
8,
9,
9,
8,
9,
8,
8,
8,
7,
8,
8,
13,
6,
6,
8,
9,
9,
8,
9,
9,
9,
7,
11,
7,
7,
9,
7,
8,
8,
8,
7,
9,
9,
8,
8,
7,
8,
8,
8,
9,
8,
7,
7,
9,
9,
9,
8,
8,
9,
8,
10,
8,
7,
8,
8,
8,
9,
7,
8,
9,
8,
8,
7,
9,
9,
9,
8,
10,
8,
8,
9,
9,
8,
8,
9,
8,
6,
9,
8,
6,
8,
8,
8,
8,
8,
8,
8,
8,
8,
8,
8,
9,
9,
9,
8,
8,
9,
7,
9,
5,
8,
8,
9,
8,
8,
9,
6,
9,
9,
9,
9,
9,
8,
8,
8,
8,
9,
11,
8,
8,
8,
9,
9,
6,
8,
8,
9,
9,
9,
8,
8,
9,
8,
9,
8,
10,
9,
8,
12,
8,
11,
8,
8,
9,
9,
8,
9,
8,
11,
8,
8,
9,
7,
5,
9,
9,
7,
7,
9,
9,
9,
8,
9,
7,
8,
8,
9,
8,
8,
9,
9,
9,
9,
8,
10,
9,
8,
10,
9,
9,
8,
8,
9,
9,
8,
8,
6,
6,
8,
9,
9,
10,
8,
9,
9,
8,
10,
13,
8,
8,
9,
9,
9,
7,
9,
9,
7,
7,
3,
9,
-7,
5,
5,
12,
8,
5,
5,
9,
8,
9,
8,
8,
8,
8,
10,
7,
9,
9,
7,
7,
8,
8,
8,
9,
8,
9,
8,
9,
8,
9,
8,
7,
9,
9,
9,
9,
10,
10,
12,
8,
13,
8,
8,
9,
11,
8,
8,
8,
10,
9,
8,
8,
8,
11,
10,
8,
9,
7,
8,
9,
8,
8,
8,
9,
9,
7,
8,
10,
9,
8,
8,
8,
8,
7,
8,
8,
8,
8,
9,
9,
8,
8,
9,
9,
7,
7,
8,
9,
8,
8,
8,
7,
8,
8,
8,
5,
8,
9,
9,
7,
8,
9,
9,
8,
8,
9,
8,
8,
7,
9,
9,
8,
8,
10,
5,
7,
9,
8,
8,
8,
9,
9,
8,
11,
12,
7,
8,
9,
9,
8,
8,
8,
11,
11,
8,
11,
9,
8,
8,
9,
8,
8,
11,
8,
8,
9,
9,
9,
8,
8,
9,
9,
7,
7,
9,
10,
9,
8,
9,
9,
9,
8,
9,
15,
7,
8,
9,
9,
8,
8,
8,
10,
9,
9,
9,
9,
8,
9,
9,
8,
6,
9,
8,
9,
6,
8,
8,
8,
8,
9,
7,
7,
11,
9,
6,
9,
9,
8,
8,
8,
9,
10,
13,
9,
8,
8,
8,
9,
9,
8,
3,
9,
11,
7,
8,
9,
9,
8,
9,
9,
9,
7,
8,
9,
8,
8,
10,
8,
8,
8,
8,
11,
10,
10,
9,
8,
8,
8,
8,
9,
7,
9,
7,
12,
6,
9,
9,
8,
8,
8,
8,
4,
9,
8,
8,
8,
8,
8,
8,
9,
7,
8,
8,
10,
9,
8,
9,
8,
9,
8,
8,
8,
8,
9,
10,
8,
9,
7,
7,
8,
11,
8,
9,
9,
8,
6,
11,
11,
8,
10,
12,
9,
9,
8,
9,
8,
8,
9,
7,
9,
13,
8,
8,
9,
10,
8,
8,
8,
11,
7,
9,
9,
9,
6,
8,
9,
8,
8,
9,
9,
9,
4,
9,
8,
7,
8,
8,
9,
7,
9,
8,
9,
8,
9,
8,
8,
8,
8,
9,
6,
9,
9,
8,
9,
8,
9,
8,
7,
7,
8,
8,
9,
7,
9,
9,
9,
8,
7,
9,
8,
9,
8,
8,
7,
11,
8,
8,
8,
12,
9,
7,
8,
8,
8,
8,
9,
8,
9,
9,
10,
9,
9,
8,
7,
9,
7,
9,
7,
10,
7,
8,
8,
9,
9,
8,
9,
8,
9,
8,
9,
9,
8,
8,
8,
8,
9,
8,
8,
8,
7,
8,
7,
7,
9,
9,
8,
8,
6,
9,
8,
8,
8,
9,
8,
7,
9,
8,
4,
6,
9,
8,
8,
9,
8,
8,
8,
10,
9,
8,
8,
9,
7,
9,
7,
8,
8,
8,
8,
8,
8,
8,
8,
9,
9,
9,
7,
9,
8,
8,
8,
8,
8,
8,
8,
8,
10,
9,
9,
13,
9,
8,
6,
8,
8,
7,
7,
7,
8,
8,
9,
9,
8,
9,
8,
9,
9,
7,
9,
9,
8,
9,
9,
9,
9,
9,
9,
11,
7,
8,
8,
8,
9,
9,
9,
8,
8,
8,
9,
9,
9,
8,
9,
9,
10,
8,
9,
8,
10,
9,
8,
8,
10,
10,
8,
9,
5,
7,
8,
8,
9,
8,
8,
8,
11,
15,
15,
9,
8,
7,
7,
8,
8,
8,
9,
8,
9,
7,
8,
8,
8,
8,
8,
9,
8,
10,
10,
9,
8,
9,
9,
9,
8,
9,
9,
4,
9,
8,
8,
6,
8,
9,
11,
11,
7,
7,
8,
9,
8,
7,
7,
8,
10,
10,
7,
10,
7,
8,
9,
8,
8,
7,
9,
9,
7,
8,
8,
9,
8,
9,
8,
9,
9,
8,
7,
-1,
0,
12,
8,
8,
8,
8,
9,
11,
7,
8,
9,
9,
9,
8,
8,
10,
9,
9,
8,
8,
8,
8,
8,
8,
9,
7,
8,
9,
9,
8,
9,
9,
7,
8,
8,
9,
9,
11,
9,
9,
7,
8,
8,
9,
9,
8,
8,
6,
8,
5,
9,
8,
9,
9,
8,
8,
9,
3,
7,
7,
10,
9,
3,
8,
8,
9,
6,
8,
8,
9,
8,
9,
9,
8,
9,
9,
9,
8,
12,
10,
9,
9,
10,
9,
8,
9,
15,
9,
9,
9,
9,
9,
9,
8,
9,
9,
-2,
10,
9,
8,
8,
9,
8,
8,
9,
7,
9,
9,
8,
9,
8,
8,
9,
7,
9,
7,
7,
9,
9,
8,
9,
8,
8,
9,
8,
8,
9,
9,
9,
8,
10,
9,
9,
8,
7,
7,
8,
10,
8,
9,
8,
9,
8,
8,
7,
7,
9,
11,
8,
9,
8,
9,
9,
9,
7,
5,
10,
8,
8,
8,
8,
8,
10,
7,
7,
8,
9,
8,
8,
8,
8,
9,
9,
9,
9,
8,
8,
9,
9,
8,
9,
8,
8,
8,
6,
7,
7,
8,
7,
8,
8,
8,
8,
9,
7,
9,
9,
9,
9,
8,
8,
11,
9,
8,
8,
9,
10,
8,
8,
9,
8,
9,
9,
9,
9,
8,
8,
8,
8,
9,
9,
8,
8,
8,
8,
7,
9,
9,
7,
8,
7,
9,
9,
9,
9,
8,
9,
9,
8,
7,
3,
8,
8,
8,
9,
9,
8,
8,
9,
9,
9,
9,
7,
9,
8,
9,
8,
12,
9,
9,
8,
8,
11,
9,
8,
9,
9,
8,
8,
9,
7,
9,
7,
9,
9,
8,
12,
12,
9,
8,
8,
11,
9,
9,
8,
9,
9,
8,
8,
8,
7,
7,
9,
7,
7,
6,
9,
9,
7,
7,
8,
10,
7,
9,
9,
8,
8,
8,
8,
8,
7,
11,
20,
7,
12,
8,
5,
9,
9,
7,
7,
6,
14,
9,
7,
8,
8,
8,
9,
7,
8,
8,
8,
8,
9,
11,
9,
12,
12,
13,
12,
14,
13,
14,
15,
15,
16,
16,
15,
17,
19,
20,
19,
25,
24,
21,
21,
23,
25,
23,
29,
29,
27,
23,
28,
29,
29,
29,
30,
31,
28,
25,
31,
33,
36,
36,
35,
36,
37,
36,
39,
37,
39,
39,
39,
40,
40,
41,
42,
44,
44,
37,
47,
46,
46,
43,
45,
48,
49,
51,
52,
46,
53,
55,
55,
56,
57,
57,
60,
60,
60,
65,
59,
61,
62,
63,
63,
65,
65,
65,
65,
69,
68,
71,
69,
70,
73,
72,
71,
72,
76,
76,
72,
72,
73,
73,
73,
74,
73,
78,
73,
76,
76,
76,
76,
76,
76,
75,
76,
76,
77,
75,
76,
75,
74,
76,
76,
76,
75,
77,
77,
75,
70,
76,
77,
77,
77,
77,
79,
81,
76,
76,
76,
76,
76,
76,
76,
77,
76,
76,
75,
76,
74,
77,
75,
75,
76,
75,
75,
75,
76,
72,
74,
69,
76,
75,
74,
73,
73,
75,
73,
72,
75,
73,
73,
75,
73,
74,
69,
73,
75,
73,
73,
73,
72,
72,
72,
72,
72,
69,
72,
71,
65,
71,
71,
70,
69,
69,
70,
71,
71,
71,
65,
68,
69,
69,
69,
68,
69,
69,
69,
69,
72,
67,
68,
68,
65,
65,
67,
67,
63,
67,
63,
66,
66,
66,
66,
65,
65,
65,
65,
67,
70,
64,
62,
64,
63,
63,
64,
62,
61,
52,
105,
105,
63,
56,
60,
60,
61,
59,
60,
62,
57,
61,
63,
60,
59,
59,
59,
60,
60,
57,
60,
60,
58,
59,
60,
59,
61,
57,
60,
60,
55,
57,
56,
57,
57,
56,
56,
58,
56,
57,
53,
56,
56,
56,
55,
55,
52,
55,
53,
57,
52,
55,
55,
55,
57,
55,
54,
54,
54,
53,
54,
53,
53,
51,
53,
51,
52,
52,
52,
51,
53,
53,
51,
50,
52,
49,
49,
51,
49,
51,
55,
50,
49,
49,
51,
51,
51,
51,
49,
51,
48,
51,
49,
48,
50,
49,
49,
47,
48,
48,
43,
48,
51,
47,
47,
48,
47,
45,
47,
48,
45,
45,
48,
48,
45,
48,
46,
45,
44,
45,
45,
45,
51,
49,
45,
46,
47,
45,
45,
47,
45,
45,
46,
44,
44,
43,
45,
45,
45,
43,
49,
44,
44,
43,
44,
43,
42,
44,
41,
39,
44,
41,
40,
42,
41,
41,
41,
41,
41,
42,
42,
40,
41,
41,
41,
40,
38,
39,
39,
39,
35,
41,
41,
39,
41,
41,
41,
41,
41,
41,
40,
40,
39,
39,
39,
39,
39,
39,
41,
38,
40,
40,
38,
39,
39,
39,
39,
39,
37,
37,
39,
37,
36,
37,
37,
37,
37,
37,
37,
37,
32,
33,
38,
38,
36,
38,
36,
36,
36,
37,
35,
35,
39,
37,
36,
36,
36,
37,
37,
37,
40,
38,
37,
39,
36,
37,
37,
38,
34,
35,
35,
37,
36,
36,
35,
36,
36,
36,
35,
33,
37,
33,
32,
36,
34,
34,
33,
31,
34,
38,
31,
37,
34,
33,
35,
34,
33,
34,
34,
34,
33,
29,
34,
33,
33,
35,
33,
33,
33,
31,
33,
34,
34,
32,
32,
33,
33,
33,
33,
33,
37,
35,
31,
34,
32,
32,
32,
32,
32,
32,
35,
32,
28,
33,
32,
33,
33,
32,
32,
32,
33,
33,
32,
32,
31,
31,
31,
31,
32,
31,
31,
32,
31,
31,
33,
32,
32,
31,
32,
31,
31,
29,
33,
29,
29,
30,
30,
30,
31,
31,
31,
30,
35,
32,
32,
30,
31,
32,
32,
30,
31,
30,
33,
30,
30,
29,
31,
28,
31,
31,
32,
31,
30,
27,
31,
29,
31,
31,
30,
31,
30,
30,
27,
27,
29,
31,
28,
29,
29,
30,
29,
29,
30,
29,
31,
31,
29,
29,
30,
28,
28,
29,
29,
32,
29,
29,
29,
30,
29,
29,
29,
29,
29,
32,
28,
25,
28,
28,
29,
29,
29,
27,
27,
29,
28,
28,
28,
28,
28,
21,
27,
28,
28,
28,
28,
29,
27,
27,
27,
27,
29,
27,
28,
29,
28,
28,
27,
27,
26,
26,
27,
26,
27,
28,
29,
25,
27,
26,
27,
24,
25,
25,
25,
27,
23,
26,
25,
27,
24,
27,
26,
26,
23,
26,
21,
21,
21,
25,
24,
25,
25,
25,
24,
24,
29,
24,
21,
23,
23,
25,
25,
23,
22,
23,
21,
21,
20,
23,
25,
24,
22,
24,
23,
23,
23,
23,
23,
23,
23,
24,
23,
24,
23,
22,
23,
22,
24,
23,
23,
23,
23,
23,
24,
22,
23,
23,
23,
22,
22,
23,
23,
21,
23,
23,
21,
16,
22,
23,
23,
23,
21,
22,
21,
23,
24,
23,
23,
23,
23,
24,
21,
23,
22,
24,
23,
24,
23,
22,
19,
21,
21,
21,
19,
21,
21,
17,
22,
21,
20,
21,
20,
23,
20,
21,
21,
17,
19,
18,
20,
20,
19,
19,
20,
17,
17,
21,
17,
17,
19,
19,
18,
19,
20,
19,
17,
17,
18,
17,
19,
18,
17,
15,
19,
19,
16,
16,
16,
17,
19,
17,
18,
19,
18,
19,
19,
19,
17,
17,
19,
19,
18,
18,
18,
16,
18,
17,
19,
21,
17,
18,
16,
18,
17,
17,
18,
18,
19,
19,
20,
17,
17,
17,
17,
16,
16,
19,
19,
18,
21,
19,
20,
17,
16,
17,
17,
17,
15,
17,
16,
16,
13,
19,
19,
17,
17,
18,
16,
12,
18,
16,
16,
16,
17,
15,
17,
17,
16,
17,
15,
16,
16,
17,
16,
17,
16,
17,
17,
8,
15,
15,
17,
14,
17,
16,
16,
16,
16,
12,
16,
17,
17,
15,
16,
15,
15,
16,
16,
14,
13,
16,
14,
16,
17,
19,
15,
15,
25,
19,
15,
18,
16,
16,
16,
16,
16,
16,
13,
14,
16,
15,
15,
16,
15,
16,
16,
16,
16,
14,
19,
21,
17,
15,
16,
16,
16,
15,
16,
16,
16,
15,
15,
13,
16,
15,
15,
15,
17,
13,
15,
14,
13,
15,
15,
15,
15,
15,
15,
13,
12,
15,
15,
14,
14,
12,
15,
15,
15,
13,
17,
14,
13,
15,
15,
13,
11,
15,
15,
13,
15,
16,
16,
14,
14,
14,
13,
14,
15,
13,
10,
14,
15,
13,
13,
14,
14,
13,
13,
15,
13,
15,
15,
13,
12,
13,
13,
12,
15,
13,
11,
12,
13,
13,
13,
15,
13,
13,
13,
12,
12,
15,
13,
13,
13,
12,
12,
12,
13,
14,
11,
12,
12,
12,
11,
11,
11,
12,
13,
12,
11,
11,
12,
12,
12,
12,
11,
11,
12,
12,
12,
13,
10,
11,
11,
11,
11,
12,
10,
11,
13,
13,
11,
12,
15,
11,
11,
11,
11,
11,
12,
8,
10,
8,
11,
11,
12,
10,
11,
10,
11,
9,
11,
11,
10,
10,
12,
11,
10,
9,
11,
10,
5,
12,
15,
11,
10,
12,
11,
11,
10,
11,
11,
11,
10,
12,
11,
11,
11,
11,
10,
9,
15,
11,
11,
11,
11,
9,
11,
7,
11,
45,
12,
12,
12,
11,
11,
16,
16,
11,
10,
7,
10,
11,
11,
12,
13,
15,
10,
10,
10,
13,
13,
11,
10,
12,
11,
11,
11,
9,
12,
11,
14,
9,
12,
12,
11,
11,
11,
11,
11,
-3,
11,
11,
11,
12,
11,
12,
11,
11,
11,
11,
11,
11,
12,
9,
11,
11,
11,
12,
10,
11,
12,
12,
12,
10,
10,
11,
11,
12,
12,
10,
9,
13,
12,
11,
13,
13,
11,
11,
11,
12,
12,
9,
12,
12,
12,
12,
11,
11,
12,
10,
11,
13,
13,
13,
13,
13,
10,
12,
13,
11,
11,
11,
15,
11,
11,
12,
12,
11,
11,
11,
11,
11,
9,
14,
11,
12,
11,
11,
10,
10,
11,
11,
13,
12,
11,
11,
13,
11,
11,
13,
13,
12,
14,
9,
9,
13,
12,
12,
13,
11,
13,
10,
11,
12,
11,
12,
12,
14,
14,
13,
12,
12,
13,
11,
11,
12,
12,
11,
11,
13,
11,
11,
11,
13,
11,
12,
12,
12,
10,
11,
12,
11,
11,
11,
12,
12,
12,
12,
12,
11,
11,
13,
11,
13,
11,
11,
12,
11,
13,
12,
13,
12,
11,
11,
7,
12,
11,
13,
13,
13,
12,
12,
12,
13,
9,
13,
13,
11,
11,
12,
12,
11,
13,
11,
12,
12,
12,
11,
11,
12,
12,
10,
12,
13,
12,
11,
12,
11,
11,
10,
11,
11,
11,
13,
13,
11,
10,
11,
12,
12,
12,
12,
11,
9,
12,
9,
11,
11,
11,
11,
11,
9,
9,
9,
11,
6,
9,
7,
9,
7,
8,
10,
11,
11,
8,
12,
9,
12,
10,
9,
9,
8,
3,
9,
8,
9,
10,
10,
9,
9,
14,
9,
9,
12,
13,
11,
15,
9,
6,
7,
11,
14,
5,
5,
12,
7,
9,
6,
8,
9,
10,
7,
1,
10,
11,
9,
9,
9,
9,
9,
9,
10,
8,
9,
11,
12,
9,
9,
13,
8,
12,
11,
11,
8,
9,
9,
6,
11,
12,
9,
9,
9,
9,
9,
9,
12,
12,
9,
8,
8,
8,
9,
8,
9,
9,
9,
4,
9,
10,
10,
8,
9,
9,
8,
8,
9,
9,
8,
9,
9,
9,
8,
8,
8,
8,
8,
9,
9,
8,
8,
8,
8,
7,
9,
8,
9,
8,
11,
11,
11,
9,
9,
8,
8,
10,
10,
10,
9,
4,
8,
8,
10,
9,
9,
9,
9,
9,
8,
12,
9,
10,
7,
9,
10,
9,
8,
9,
9,
7,
8,
9,
9,
9,
9,
9,
9,
8,
9,
11,
9,
9,
9,
9,
8,
9,
9,
8,
8,
8,
8,
8,
9,
8,
9,
9,
8,
9,
9,
8,
7,
9,
10,
9,
9,
8,
9,
9,
10,
9,
9,
13,
8,
7,
8,
9,
8,
9,
8,
9,
8,
8,
10,
9,
9,
9,
11,
9,
9,
9,
8,
10,
7,
9,
10,
8,
9,
9,
9,
9,
7,
8,
10,
7,
11,
9,
8,
11,
13,
9,
9,
9,
9,
8,
8,
9,
8,
9,
9,
9,
8,
7,
8,
8,
7,
12,
9,
9,
8,
8,
9,
8,
9,
7,
8,
9,
8,
8,
8,
9,
8,
8,
9,
9,
8,
8,
8,
8,
8,
8,
8,
8,
7,
9,
8,
8,
9,
9,
9,
7,
8,
9,
7,
9,
9,
9,
8,
9,
9,
8,
8,
8,
9,
4,
10,
10,
9,
9,
9,
10,
9,
8,
7,
9,
9,
11,
9,
9,
8,
9,
9,
14,
9,
9,
10,
7,
9,
1,
9,
9,
9,
9,
11,
5,
9,
9,
8,
9,
9,
9,
8,
8,
10,
8,
8,
9,
13,
7,
7,
7,
-1,
8,
13,
9,
10,
5,
8,
8,
8,
9,
8,
9,
7,
11,
8,
11,
11,
9,
8,
9,
9,
9,
7,
5,
9,
8,
8,
8,
10,
11,
9,
8,
9,
9,
9,
8,
8,
8,
8,
8,
9,
9,
8,
9,
8,
8,
8,
10,
9,
7,
7,
9,
9,
9,
9,
3,
9,
7,
9,
9,
7,
9,
8,
8,
9,
11,
9,
7,
9,
7,
8,
8,
8,
9,
8,
9,
9,
9,
10,
9,
8,
8,
9,
9,
9,
9,
5,
7,
10,
9,
8,
7,
9,
8,
8,
9,
9,
9,
11,
8,
9,
8,
9,
8,
9,
9,
7,
8,
8,
8,
9,
9,
8,
9,
9,
9,
9,
5,
9,
9,
8,
8,
8,
9,
8,
9,
9,
10,
9,
9,
8,
9,
8,
8,
8,
11,
11,
9,
9,
9,
7,
8,
8,
7,
8,
9,
8,
9,
7,
8,
8,
9,
9,
7,
9,
9,
9,
8,
11,
9,
4,
7,
9,
8,
8,
9,
8,
8,
7,
7,
9,
9,
8,
8,
9,
9,
8,
9,
6,
8,
9,
9,
8,
7,
8,
8,
8,
9,
7,
9,
8,
8,
8,
9,
9,
9,
7,
8,
8,
9,
9,
9,
9,
8,
8,
8,
9,
7,
7,
9,
9,
8,
8,
12,
9,
8,
8,
10,
8,
6,
11,
9,
9,
9,
9,
9,
11,
9,
11,
7,
9,
9,
9,
9,
10,
9,
9,
9,
9,
13,
9,
8,
10,
11,
9,
9,
9,
7,
9,
7,
10,
10,
9,
13,
8,
10,
8,
9,
13,
8,
7,
9,
9,
9,
9,
9,
9,
7,
8,
6,
8,
9,
8,
9,
11,
8,
9,
8,
7,
11,
9,
9,
9,
8,
9,
8,
9,
9,
9,
7,
9,
9,
8,
8,
8,
8,
8,
8,
9,
9,
9,
8,
10,
9,
8,
8,
9,
9,
9,
7,
7,
5,
7,
8,
8,
8,
9,
8,
8,
8,
8,
9,
10,
10,
12,
8,
8,
9,
8,
8,
9,
11,
9,
9,
9,
9,
8,
8,
8,
10,
7,
0,
9,
8,
7,
8,
9,
11,
8,
10,
9,
9,
15,
8,
4,
10,
9,
7,
8,
8,
9,
9,
11,
9,
8,
8,
8,
8,
9,
8,
8,
7,
7,
6,
9,
9,
9,
9,
9,
9,
8,
11,
9,
9,
8,
8,
8,
9,
7,
8,
8,
8,
10,
8,
12,
10,
10,
11,
9,
9,
9,
12,
9,
11,
7,
11,
9,
9,
10,
9,
9,
9,
10,
8,
3,
9,
10,
7,
9,
9,
9,
8,
8,
8,
8,
8,
9,
9,
8,
9,
8,
8,
8,
10,
9,
10,
7,
9,
9,
9,
8,
9,
8,
9,
8,
8,
9,
7,
6,
9,
7,
8,
8,
9,
9,
8,
9,
8,
8,
9,
9,
8,
8,
8,
11,
8,
8,
10,
9,
7,
9,
9,
9,
8,
8,
9,
8,
8,
9,
7,
7,
9,
11,
9,
9,
8,
9,
9,
9,
9,
9,
9,
9,
8,
8,
4,
4,
9,
7,
8,
9,
8,
9,
9,
9,
7,
5,
9,
8,
8,
9,
9,
10,
8,
9,
10,
5,
9,
10,
8,
8,
9,
8,
8,
9,
9,
9,
9,
11,
10,
9,
9,
11,
9,
9,
9,
9,
9,
9,
9,
8,
10,
7,
8,
9,
11,
5,
5,
9,
7,
7,
9,
9,
9,
9,
8,
9,
9,
8,
7,
8,
8,
9,
9,
9,
9,
9,
13,
8,
11,
8,
8,
9,
9,
14,
9,
5,
8,
9,
8,
7,
9,
9,
8,
8,
9,
7,
11,
13,
9,
7,
10,
12,
8,
9,
9,
9,
12,
7,
9,
10,
9,
9,
9,
9,
9,
9,
8,
1,
1,
5,
8,
9,
8,
8,
8,
7,
8,
7,
9,
9,
10,
9,
8,
8,
8,
9,
8,
9,
8,
7,
7,
7,
8,
6,
6,
8,
9,
9,
8,
7,
8,
10,
8,
9,
8,
9,
9,
9,
9,
8,
7,
7,
9,
9,
8,
8,
3,
8,
8,
8,
9,
9,
7,
9,
9,
8,
9,
9,
11,
10,
8,
10,
8,
8,
10,
9,
9,
7,
9,
9,
