Datos experimentales/DATOS 26-3-24/ALL0039/A0039CH2.CSV

Memory Length,4000,
Trigger Level,1.600E-03,
Source,CH2,
Vertical Units,V,
Vertical Scale,1.000E+00,
Vertical Position,-2.000E+00,
Horizontal Units,s,
Horizontal Scale,1.000E+00,
Horizontal Position,0.000E+00,
Horizontal Mode,Roll Mode,
Waveform Last Dot Address,3290,
Sampling Period,4.000E-03,
Firmware, V1.21,
Waveform Data,
2,
2,
0,
1,
1,
1,
2,
0,
0,
0,
1,
2,
1,
1,
0,
0,
1,
0,
0,
0,
2,
1,
1,
1,
0,
0,
1,
2,
1,
1,
1,
1,
1,
1,
0,
2,
1,
1,
0,
0,
1,
1,
2,
2,
1,
1,
1,
1,
0,
1,
1,
1,
1,
1,
0,
0,
1,
0,
0,
0,
1,
2,
1,
1,
0,
1,
1,
1,
2,
0,
2,
2,
2,
0,
1,
1,
2,
1,
1,
1,
1,
1,
1,
2,
2,
0,
0,
1,
1,
2,
0,
0,
2,
1,
2,
0,
0,
1,
1,
1,
1,
0,
0,
1,
0,
2,
2,
2,
1,
1,
1,
1,
1,
1,
0,
1,
1,
1,
1,
1,
0,
1,
2,
2,
1,
1,
0,
2,
0,
1,
2,
1,
1,
1,
0,
0,
0,
1,
2,
2,
0,
0,
1,
1,
1,
1,
1,
2,
0,
0,
1,
1,
0,
1,
1,
1,
0,
0,
1,
1,
1,
1,
1,
2,
1,
2,
2,
0,
2,
1,
1,
1,
0,
0,
1,
1,
1,
1,
1,
2,
2,
0,
1,
1,
0,
0,
0,
0,
0,
2,
1,
0,
1,
1,
1,
1,
2,
1,
1,
1,
1,
1,
0,
0,
2,
1,
1,
0,
1,
0,
0,
1,
1,
1,
1,
1,
1,
2,
2,
0,
0,
1,
1,
0,
1,
1,
1,
1,
2,
1,
2,
1,
0,
0,
1,
1,
1,
1,
2,
1,
1,
2,
0,
1,
1,
1,
0,
1,
1,
0,
2,
2,
0,
0,
2,
1,
1,
1,
2,
0,
1,
0,
1,
0,
1,
1,
2,
0,
2,
2,
1,
1,
1,
1,
0,
1,
1,
0,
0,
1,
1,
2,
1,
2,
0,
1,
1,
2,
0,
1,
0,
0,
0,
1,
1,
0,
1,
0,
2,
1,
1,
1,
1,
1,
1,
1,
0,
1,
1,
1,
1,
1,
1,
0,
0,
1,
2,
2,
2,
1,
2,
0,
2,
2,
1,
2,
2,
0,
0,
1,
0,
0,
1,
0,
0,
0,
1,
1,
1,
0,
1,
1,
1,
0,
0,
1,
0,
2,
2,
2,
1,
1,
0,
2,
1,
1,
1,
1,
1,
1,
1,
1,
2,
1,
1,
1,
2,
1,
0,
2,
2,
1,
1,
1,
1,
1,
0,
1,
1,
0,
0,
1,
2,
2,
2,
0,
1,
1,
0,
1,
1,
1,
0,
1,
1,
2,
2,
1,
0,
1,
1,
2,
0,
1,
1,
1,
2,
1,
2,
2,
1,
1,
1,
1,
1,
0,
0,
1,
1,
1,
1,
1,
1,
1,
2,
1,
2,
1,
2,
1,
0,
1,
1,
2,
0,
0,
0,
0,
1,
1,
0,
0,
1,
1,
0,
0,
1,
1,
1,
0,
0,
1,
1,
2,
0,
1,
1,
2,
2,
1,
0,
0,
1,
1,
0,
1,
0,
0,
1,
0,
0,
1,
1,
2,
2,
0,
1,
1,
1,
1,
1,
1,
1,
2,
1,
1,
1,
1,
2,
1,
1,
0,
0,
1,
1,
1,
0,
1,
1,
2,
0,
0,
1,
0,
1,
2,
1,
1,
1,
1,
0,
2,
1,
0,
0,
2,
1,
1,
1,
1,
1,
1,
2,
0,
0,
1,
2,
2,
2,
2,
0,
1,
2,
1,
0,
0,
1,
1,
0,
2,
2,
1,
1,
1,
2,
1,
2,
1,
0,
1,
1,
1,
1,
1,
1,
1,
2,
1,
2,
1,
1,
0,
0,
0,
1,
1,
1,
1,
1,
2,
1,
1,
0,
2,
0,
1,
0,
1,
1,
1,
1,
2,
1,
1,
0,
1,
1,
1,
1,
0,
0,
0,
2,
2,
2,
2,
1,
2,
0,
1,
1,
1,
1,
1,
1,
1,
1,
1,
1,
0,
1,
1,
1,
0,
0,
0,
1,
1,
1,
1,
1,
1,
1,
0,
1,
2,
0,
3,
2,
2,
2,
2,
2,
2,
2,
2,
2,
2,
3,
2,
2,
2,
2,
2,
2,
3,
3,
2,
2,
2,
2,
2,
3,
2,
2,
2,
2,
2,
2,
2,
2,
2,
1,
2,
2,
2,
2,
2,
2,
2,
2,
2,
2,
2,
2,
2,
2,
2,
2,
2,
2,
2,
2,
2,
1,
1,
2,
2,
2,
2,
3,
2,
2,
2,
2,
1,
2,
2,
2,
2,
2,
2,
2,
2,
2,
2,
2,
2,
2,
2,
2,
2,
2,
2,
2,
2,
2,
2,
2,
2,
3,
2,
2,
2,
1,
1,
2,
2,
2,
2,
2,
1,
2,
2,
2,
2,
2,
2,
2,
2,
2,
1,
2,
2,
1,
2,
2,
2,
2,
2,
2,
2,
2,
2,
2,
2,
1,
3,
2,
2,
2,
2,
2,
3,
2,
2,
2,
2,
2,
2,
3,
2,
2,
2,
2,
2,
3,
2,
2,
2,
2,
2,
2,
2,
2,
2,
2,
2,
2,
2,
2,
2,
2,
2,
2,
2,
2,
2,
2,
2,
2,
2,
2,
2,
2,
2,
2,
2,
2,
2,
2,
2,
2,
2,
2,
2,
2,
2,
2,
2,
2,
2,
2,
3,
2,
2,
2,
2,
2,
2,
2,
2,
2,
2,
3,
2,
2,
2,
2,
2,
2,
2,
2,
2,
2,
2,
2,
2,
2,
2,
2,
2,
2,
2,
2,
2,
2,
2,
2,
3,
2,
2,
2,
2,
2,
2,
2,
2,
2,
2,
2,
2,
2,
2,
2,
2,
3,
2,
2,
2,
2,
2,
2,
2,
2,
2,
2,
3,
2,
2,
2,
21,
21,
20,
21,
20,
20,
20,
21,
20,
20,
21,
20,
20,
21,
21,
21,
20,
20,
20,
20,
21,
20,
20,
20,
20,
21,
20,
20,
20,
20,
20,
21,
20,
20,
20,
19,
20,
20,
20,
20,
20,
21,
20,
20,
20,
19,
19,
20,
20,
20,
19,
20,
20,
19,
20,
19,
20,
20,
20,
20,
19,
20,
19,
20,
20,
20,
20,
19,
19,
19,
20,
19,
19,
18,
19,
19,
18,
18,
20,
20,
20,
19,
18,
19,
19,
19,
19,
18,
18,
19,
19,
19,
18,
18,
18,
18,
18,
18,
18,
18,
18,
17,
18,
18,
18,
17,
17,
18,
17,
18,
17,
17,
17,
17,
17,
17,
16,
18,
16,
17,
16,
17,
17,
16,
16,
16,
16,
18,
16,
16,
16,
16,
16,
16,
16,
16,
16,
17,
17,
17,
16,
16,
16,
16,
16,
16,
16,
16,
15,
16,
16,
16,
16,
16,
16,
16,
15,
16,
15,
16,
16,
15,
15,
15,
15,
15,
15,
16,
14,
16,
15,
14,
14,
15,
14,
14,
14,
15,
14,
14,
15,
14,
14,
14,
14,
14,
14,
14,
14,
14,
14,
14,
14,
14,
14,
14,
14,
14,
14,
14,
14,
13,
14,
14,
13,
13,
13,
14,
14,
13,
13,
13,
13,
13,
14,
13,
14,
14,
14,
14,
14,
12,
14,
13,
13,
12,
12,
14,
14,
13,
13,
13,
13,
13,
12,
13,
13,
12,
13,
14,
13,
13,
13,
13,
13,
13,
13,
12,
13,
13,
12,
13,
12,
12,
12,
12,
12,
12,
12,
12,
12,
12,
12,
12,
12,
11,
12,
12,
12,
12,
11,
12,
12,
12,
12,
12,
10,
10,
12,
10,
12,
11,
12,
11,
12,
12,
12,
11,
11,
12,
11,
11,
11,
12,
10,
10,
12,
10,
11,
11,
11,
10,
12,
11,
11,
10,
12,
10,
10,
10,
10,
10,
10,
10,
10,
10,
10,
10,
10,
10,
11,
11,
10,
12,
10,
10,
10,
10,
10,
10,
10,
10,
10,
10,
10,
10,
9,
10,
9,
9,
10,
10,
8,
10,
10,
9,
10,
10,
10,
9,
10,
9,
9,
10,
10,
10,
9,
9,
10,
10,
10,
10,
10,
9,
9,
8,
8,
9,
9,
9,
9,
9,
10,
9,
10,
9,
8,
8,
8,
8,
9,
9,
10,
10,
9,
8,
9,
9,
9,
9,
9,
8,
8,
8,
8,
8,
9,
9,
8,
9,
9,
8,
9,
9,
8,
8,
8,
8,
8,
8,
8,
8,
9,
7,
8,
10,
8,
8,
8,
8,
8,
8,
8,
9,
8,
8,
8,
7,
8,
8,
8,
8,
8,
8,
8,
8,
8,
8,
8,
8,
8,
8,
8,
7,
8,
8,
8,
8,
8,
8,
7,
7,
8,
8,
8,
7,
7,
8,
8,
8,
8,
9,
8,
7,
8,
7,
8,
7,
7,
7,
7,
7,
8,
7,
7,
7,
6,
8,
7,
8,
7,
7,
7,
7,
7,
8,
7,
7,
7,
6,
7,
8,
7,
6,
7,
7,
7,
7,
7,
6,
6,
6,
6,
7,
7,
6,
6,
6,
6,
6,
6,
6,
6,
6,
7,
7,
7,
6,
6,
6,
7,
7,
6,
7,
6,
6,
6,
6,
6,
6,
7,
7,
6,
6,
6,
6,
6,
6,
7,
6,
6,
6,
6,
7,
7,
6,
6,
6,
6,
6,
6,
6,
6,
7,
6,
6,
6,
6,
6,
7,
6,
5,
6,
6,
6,
6,
6,
6,
6,
6,
6,
6,
6,
6,
6,
6,
5,
6,
6,
6,
6,
6,
6,
6,
6,
5,
6,
6,
6,
6,
5,
5,
6,
6,
5,
5,
6,
5,
6,
6,
6,
6,
6,
6,
4,
6,
6,
6,
6,
4,
6,
5,
6,
5,
5,
5,
6,
5,
6,
5,
5,
6,
6,
6,
6,
5,
4,
5,
6,
6,
6,
4,
5,
5,
5,
5,
5,
4,
5,
4,
5,
5,
5,
5,
4,
5,
5,
5,
4,
4,
5,
4,
5,
4,
4,
4,
4,
4,
5,
5,
4,
4,
4,
5,
5,
5,
5,
4,
6,
5,
5,
4,
5,
5,
5,
5,
4,
5,
4,
4,
5,
5,
5,
4,
5,
5,
4,
5,
4,
4,
4,
4,
5,
4,
4,
4,
5,
4,
4,
4,
4,
5,
5,
5,
4,
4,
3,
4,
4,
4,
4,
4,
4,
4,
4,
4,
4,
4,
4,
4,
4,
4,
4,
5,
4,
4,
4,
4,
4,
4,
4,
4,
4,
4,
3,
4,
4,
4,
4,
4,
4,
4,
4,
4,
4,
3,
4,
4,
4,
3,
4,
4,
3,
4,
4,
4,
4,
4,
4,
4,
4,
3,
3,
4,
4,
4,
4,
4,
3,
4,
4,
4,
3,
4,
3,
4,
4,
4,
4,
3,
4,
3,
4,
4,
4,
4,
4,
3,
4,
3,
3,
4,
4,
4,
4,
3,
4,
4,
4,
2,
4,
4,
3,
3,
4,
3,
3,
3,
4,
3,
4,
4,
4,
2,
3,
3,
4,
3,
3,
4,
4,
3,
3,
4,
3,
3,
4,
3,
3,
4,
4,
3,
4,
3,
4,
4,
3,
3,
3,
3,
3,
2,
3,
3,
3,
4,
4,
3,
2,
3,
3,
3,
3,
3,
4,
3,
3,
3,
3,
3,
3,
2,
2,
4,
3,
3,
2,
4,
3,
3,
4,
3,
3,
3,
4,
3,
2,
4,
3,
3,
4,
2,
4,
2,
4,
3,
3,
2,
4,
2,
3,
4,
4,
3,
2,
2,
3,
3,
2,
3,
2,
2,
3,
3,
3,
3,
2,
2,
3,
3,
3,
3,
2,
3,
2,
2,
2,
3,
2,
2,
3,
3,
3,
4,
2,
2,
3,
2,
3,
2,
2,
2,
3,
2,
3,
3,
3,
3,
3,
2,
2,
3,
3,
2,
2,
2,
3,
2,
3,
4,
4,
2,
2,
4,
2,
3,
2,
3,
2,
3,
2,
2,
3,
3,
2,
3,
2,
3,
2,
2,
3,
2,
2,
3,
2,
2,
3,
3,
3,
2,
2,
2,
3,
2,
3,
2,
2,
2,
2,
2,
2,
2,
2,
2,
2,
3,
2,
2,
2,
4,
2,
3,
2,
2,
2,
2,
2,
3,
2,
2,
3,
2,
2,
3,
2,
2,
2,
2,
3,
2,
2,
2,
2,
2,
2,
2,
2,
2,
2,
2,
3,
2,
2,
2,
2,
2,
2,
2,
2,
2,
2,
2,
2,
2,
2,
2,
2,
2,
2,
2,
2,
2,
2,
2,
2,
2,
2,
3,
2,
2,
2,
2,
2,
2,
2,
2,
2,
2,
3,
2,
2,
2,
3,
2,
2,
2,
4,
2,
3,
2,
2,
2,
2,
2,
2,
2,
2,
2,
2,
3,
2,
2,
2,
2,
2,
2,
2,
2,
2,
3,
2,
3,
2,
1,
1,
2,
2,
2,
2,
2,
2,
2,
2,
2,
2,
2,
2,
2,
2,
2,
1,
2,
2,
2,
2,
2,
2,
2,
3,
2,
2,
2,
2,
2,
2,
2,
2,
2,
3,
2,
2,
2,
2,
2,
2,
2,
2,
2,
2,
2,
1,
2,
2,
2,
3,
2,
2,
1,
2,
2,
2,
2,
2,
2,
1,
2,
3,
2,
2,
1,
2,
2,
2,
2,
2,
2,
2,
2,
2,
2,
2,
1,
2,
2,
2,
2,
2,
2,
2,
2,
2,
2,
2,
2,
2,
2,
3,
2,
2,
2,
2,
2,
2,
2,
2,
2,
2,
2,
2,
2,
2,
2,
2,
2,
1,
2,
2,
2,
2,
2,
2,
1,
2,
2,
2,
1,
1,
2,
2,
2,
2,
2,
2,
0,
2,
2,
2,
2,
2,
1,
2,
2,
2,
3,
3,
2,
2,
2,
2,
2,
2,
2,
2,
2,
2,
2,
2,
2,
2,
2,
2,
2,
2,
2,
2,
2,
2,
2,
2,
2,
2,
2,
2,
2,
2,
2,
3,
2,
2,
2,
2,
2,
2,
2,
2,
2,
2,
3,
3,
2,
2,
2,
2,
2,
2,
2,
2,
2,
2,
2,
2,
2,
2,
2,
2,
2,
2,
1,
2,
2,
2,
2,
2,
2,
2,
2,
2,
2,
2,
1,
2,
0,
2,
2,
0,
2,
2,
2,
2,
2,
2,
2,
1,
2,
2,
2,
2,
2,
2,
1,
2,
2,
2,
2,
1,
2,
2,
2,
2,
2,
2,
1,
2,
2,
2,
2,
2,
2,
2,
2,
2,
2,
2,
2,
1,
2,
2,
2,
2,
2,
2,
2,
1,
2,
2,
2,
2,
2,
2,
1,
2,
2,
0,
2,
2,
1,
1,
2,
2,
2,
2,
2,
2,
2,
2,
2,
2,
2,
2,
1,
1,
2,
2,
1,
2,
1,
2,
2,
2,
1,
2,
2,
2,
2,
2,
2,
2,
2,
2,
2,
2,
2,
2,
2,
2,
2,
2,
2,
1,
2,
1,
1,
2,
1,
2,
1,
2,
1,
2,
2,
2,
2,
1,
2,
1,
1,
2,
2,
1,
2,
1,
2,
2,
1,
2,
2,
2,
2,
2,
2,
2,
2,
2,
2,
2,
2,
2,
1,
2,
2,
2,
2,
0,
1,
2,
1,
2,
2,
1,
2,
2,
2,
2,
1,
2,
2,
1,
2,
1,
1,
1,
2,
1,
2,
2,
2,
2,
2,
2,
2,
2,
2,
1,
1,
2,
0,
2,
1,
1,
2,
2,
1,
1,
1,
2,
2,
1,
2,
2,
1,
1,
2,
1,
1,
1,
2,
2,
1,
1,
2,
1,
2,
2,
2,
1,
2,
2,
2,
0,
2,
2,
2,
1,
1,
2,
1,
1,
1,
2,
2,
2,
2,
2,
1,
1,
2,
2,
1,
2,
2,
1,
2,
2,
1,
0,
2,
2,
1,
1,
2,
2,
2,
2,
2,
2,
2,
1,
2,
1,
0,
2,
2,
1,
2,
2,
2,
2,
2,
1,
2,
2,
1,
2,
2,
0,
2,
2,
1,
1,
1,
2,
2,
1,
2,
1,
1,
1,
2,
1,
3,
1,
2,
2,
2,
2,
2,
1,
2,
1,
1,
1,
1,
1,
2,
2,
2,
2,
1,
1,
2,
2,
1,
1,
1,
1,
1,
1,
2,
1,
1,
2,
2,
2,
1,
2,
1,
0,
1,
1,
2,
1,
1,
2,
2,
2,
2,
2,
2,
1,
1,
1,
0,
2,
2,
1,
1,
1,
1,
2,
2,
1,
2,
2,
1,
2,
2,
2,
1,
2,
2,
2,
1,
2,
2,
2,
2,
2,
0,
1,
2,
1,
2,
2,
1,
1,
2,
1,
1,
2,
0,
1,
2,
2,
1,
2,
1,
2,
2,
1,
2,
1,
1,
1,
1,
1,
1,
1,
1,
2,
2,
1,
2,
2,
2,
1,
1,
1,
2,
2,
2,
2,
2,
2,
2,
2,
2,
2,
1,
1,
1,
1,
2,
1,
1,
2,
1,
2,
1,
1,
2,
2,
1,
1,
1,
1,
1,
2,
1,
2,
2,
2,
1,
2,
0,
2,
2,
2,
1,
2,
0,
2,
2,
2,
2,
2,
2,
2,
1,
1,
1,
2,
2,
2,
2,
1,
1,
1,
1,
1,
3,
2,
2,
1,
2,
2,
2,
2,
2,
0,
2,
2,
2,
2,
2,
1,
2,
1,
1,
0,
1,
2,
2,
2,
2,
2,
2,
2,
1,
1,
1,
1,
0,
2,
2,
2,
2,
2,
2,
2,
0,
1,
1,
2,
2,
2,
2,
2,
2,
2,
2,
2,
0,
1,
2,
1,
2,
2,
2,
2,
2,
2,
1,
1,
1,
1,
2,
2,
2,
2,
2,
2,
1,
1,
2,
0,
1,
1,
2,
1,
1,
2,
1,
1,
1,
1,
1,
3,
2,
2,
1,
1,
1,
1,
1,
2,
2,
2,
2,
2,
2,
2,
2,
1,
2,
1,
2,
2,
2,
1,
2,
2,
2,
2,
2,
2,
1,
2,
2,
2,
2,
2,
1,
2,
1,
1,
1,
2,
1,
2,
1,
2,
1,
1,
1,
1,
1,
2,
2,
2,
1,
1,
2,
1,
1,
1,
2,
1,
1,
1,
2,
2,
2,
1,
1,
0,
2,
2,
1,
1,
2,
1,
1,
1,
1,
2,
1,
2,
1,
1,
1,
2,
2,
2,
2,
2,
2,
2,
1,
1,
2,
1,
1,
2,
2,
2,
1,
2,
1,
2,
1,
1,
2,
2,
1,
1,
1,
2,
1,
1,
1,
2,
2,
2,
2,
2,
0,
0,
1,
1,
2,
1,
1,
2,
1,
1,
2,
2,
1,
1,
2,
2,
2,
1,
0,
2,
2,
2,
2,
2,
1,
2,
1,
1,
1,
1,
2,
1,
1,
0,
2,
1,
2,
1,
2,
2,
2,
2,
2,
2,
1,
1,
2,
1,
2,
2,
1,
2,
2,
1,
2,
2,
1,
1,
1,
0,
2,
1,
1,
2,
2,
1,
2,
1,
2,
1,
1,
1,
1,
1,
1,
2,
1,
2,
2,
1,
2,
2,
1,
2,
1,
2,
1,
1,
2,
2,
2,
0,
2,
2,
2,
2,
0,
0,
1,
1,
1,
1,
1,
2,
1,
2,
2,
1,
2,
2,
1,
1,
1,
2,
2,
0,
1,
1,
1,
2,
1,
2,
2,
1,
1,
2,
2,
1,
1,
0,
2,
1,
1,
1,
2,
1,
2,
1,
2,
1,
2,
1,
1,
2,
1,
1,
2,
2,
1,
1,
1,
2,
1,
0,
1,
1,
2,
1,
1,
1,
2,
1,
2,
1,
2,
1,
1,
2,
2,
2,
1,
1,
1,
2,
1,
1,
1,
2,
1,
0,
2,
1,
1,
2,
1,
2,
2,
1,
1,
1,
1,
2,
2,
1,
2,
1,
1,
2,
1,
1,
1,
1,
1,
1,
0,
1,
1,
1,
2,
1,
2,
1,
2,
1,
1,
2,
2,
2,
2,
1,
1,
2,
1,
2,
2,
2,
2,
2,
2,
1,
0,
1,
1,
2,
1,
0,
1,
1,
1,
1,
1,
1,
0,
1,
1,
0,
2,
1,
2,
1,
1,
1,
2,
2,
2,
2,
1,
1,
2,
2,
0,
2,
1,
1,
0,
2,
1,
2,
2,
2,
2,
1,
2,
2,
1,
1,
0,
2,
2,
2,
2,
1,
2,
2,
2,
2,
1,
0,
1,
0,
1,
1,
1,
1,
1,
1,
0,
1,
1,
1,
2,
1,
1,
1,
1,
0,
1,
1,
1,
0,
0,
1,
1,
1,
0,
2,
1,
2,
2,
0,
2,
1,
2,
1,
1,
1,
2,
2,
2,
2,
1,
1,
2,
1,
2,
1,
1,
2,
2,
2,
2,
2,
1,
1,
2,
2,
2,
1,
1,
2,
2,
2,
2,
1,
2,
2,
2,
2,
1,
1,
1,
1,
2,
1,
1,
2,
1,
1,
1,
2,
1,
1,
2,
1,
1,
1,
2,
1,
1,
2,
2,
1,
1,
2,
2,
2,
2,
0,
2,
1,
2,
1,
0,
1,
1,
2,
1,
2,
0,
0,
1,
1,
2,
2,
Null,
Null,
Null,
Null,
Null,
Null,
Null,
Null,
Null,
Null,
Null,
Null,
Null,
Null,
Null,
Null,
Null,
Null,
Null,
Null,
Null,
Null,
Null,
Null,
Null,
Null,
Null,
Null,
Null,
Null,
Null,
Null,
Null,
Null,
Null,
Null,
Null,
Null,
Null,
Null,
Null,
Null,
Null,
Null,
Null,
Null,
Null,
Null,
Null,
Null,
Null,
Null,
Null,
Null,
Null,
Null,
Null,
Null,
Null,
Null,
Null,
Null,
Null,
Null,
Null,
Null,
Null,
Null,
Null,
Null,
Null,
Null,
Null,
Null,
Null,
Null,
Null,
Null,
Null,
Null,
Null,
Null,
Null,
Null,
Null,
Null,
Null,
Null,
Null,
Null,
Null,
Null,
Null,
Null,
Null,
Null,
Null,
Null,
Null,
Null,
Null,
Null,
Null,
Null,
Null,
Null,
Null,
Null,
Null,
Null,
Null,
Null,
Null,
Null,
Null,
Null,
Null,
Null,
Null,
Null,
Null,
Null,
Null,
Null,
Null,
Null,
Null,
Null,
Null,
Null,
Null,
Null,
Null,
Null,
Null,
Null,
Null,
Null,
Null,
Null,
Null,
Null,
Null,
Null,
Null,
Null,
Null,
Null,
Null,
Null,
Null,
Null,
Null,
Null,
Null,
Null,
Null,
Null,
Null,
Null,
Null,
Null,
Null,
Null,
Null,
Null,
Null,
Null,
Null,
Null,
Null,
Null,
Null,
Null,
Null,
Null,
Null,
Null,
Null,
Null,
Null,
Null,
Null,
Null,
Null,
Null,
Null,
Null,
Null,
Null,
Null,
Null,
Null,
Null,
Null,
Null,
Null,
Null,
Null,
Null,
Null,
Null,
Null,
Null,
Null,
Null,
Null,
Null,
Null,
Null,
Null,
Null,
Null,
Null,
Null,
Null,
Null,
Null,
Null,
Null,
Null,
Null,
Null,
Null,
Null,
Null,
Null,
Null,
Null,
Null,
Null,
Null,
Null,
Null,
Null,
Null,
Null,
Null,
Null,
Null,
Null,
Null,
Null,
Null,
Null,
Null,
Null,
Null,
Null,
Null,
Null,
Null,
Null,
Null,
Null,
Null,
Null,
Null,
Null,
Null,
Null,
Null,
Null,
Null,
Null,
Null,
Null,
Null,
Null,
Null,
Null,
Null,
Null,
Null,
Null,
Null,
Null,
Null,
Null,
Null,
Null,
Null,
Null,
Null,
Null,
Null,
Null,
Null,
Null,
Null,
Null,
Null,
Null,
Null,
Null,
Null,
Null,
Null,
Null,
Null,
Null,
Null,
Null,
Null,
Null,
Null,
Null,
Null,
Null,
Null,
Null,
Null,
Null,
Null,
Null,
Null,
Null,
Null,
Null,
Null,
Null,
Null,
Null,
Null,
Null,
Null,
Null,
Null,
Null,
Null,
Null,
Null,
Null,
Null,
Null,
Null,
Null,
Null,
Null,
Null,
Null,
Null,
Null,
Null,
Null,
Null,
Null,
Null,
Null,
Null,
Null,
Null,
Null,
Null,
Null,
Null,
Null,
Null,
Null,
Null,
Null,
Null,
Null,
Null,
Null,
Null,
Null,
Null,
Null,
Null,
Null,
Null,
Null,
Null,
Null,
Null,
Null,
Null,
Null,
Null,
Null,
Null,
Null,
Null,
Null,
Null,
Null,
Null,
Null,
Null,
Null,
Null,
Null,
Null,
Null,
Null,
Null,
Null,
Null,
Null,
Null,
Null,
Null,
Null,
Null,
Null,
Null,
Null,
Null,
Null,
Null,
Null,
Null,
Null,
Null,
Null,
Null,
Null,
Null,
Null,
Null,
Null,
Null,
Null,
Null,
Null,
Null,
Null,
Null,
Null,
Null,
Null,
Null,
Null,
Null,
Null,
Null,
Null,
Null,
Null,
Null,
Null,
Null,
Null,
Null,
Null,
Null,
Null,
Null,
Null,
Null,
Null,
Null,
Null,
Null,
Null,
Null,
Null,
Null,
Null,
Null,
Null,
Null,
Null,
Null,
Null,
Null,
Null,
Null,
Null,
Null,
Null,
Null,
Null,
Null,
Null,
Null,
Null,
Null,
Null,
Null,
Null,
Null,
Null,
Null,
Null,
Null,
Null,
Null,
Null,
Null,
Null,
Null,
Null,
Null,
Null,
Null,
Null,
Null,
Null,
Null,
Null,
Null,
Null,
Null,
Null,
Null,
Null,
Null,
Null,
Null,
Null,
Null,
Null,
Null,
Null,
Null,
Null,
Null,
Null,
Null,
Null,
Null,
Null,
Null,
Null,
Null,
Null,
Null,
Null,
Null,
Null,
Null,
Null,
Null,
Null,
Null,
Null,
Null,
Null,
Null,
Null,
Null,
Null,
Null,
Null,
Null,
Null,
Null,
Null,
Null,
Null,
Null,
Null,
Null,
Null,
Null,
Null,
Null,
Null,
Null,
Null,
Null,
Null,
Null,
Null,
Null,
Null,
Null,
Null,
Null,
Null,
Null,
Null,
Null,
Null,
Null,
Null,
Null,
Null,
Null,
Null,
Null,
Null,
Null,
Null,
Null,
Null,
Null,
Null,
Null,
Null,
Null,
Null,
Null,
Null,
Null,
Null,
Null,
Null,
Null,
Null,
Null,
Null,
Null,
Null,
Null,
Null,
Null,
Null,
Null,
Null,
Null,
Null,
Null,
Null,
Null,
Null,
Null,
Null,
Null,
Null,
Null,
Null,
Null,
Null,
Null,
Null,
Null,
Null,
Null,
Null,
Null,
Null,
Null,
Null,
Null,
Null,
Null,
Null,
Null,
Null,
Null,
Null,
Null,
Null,
Null,
Null,
Null,
Null,
Null,
Null,
Null,
Null,
Null,
Null,
Null,
Null,
Null,
Null,
Null,
Null,
Null,
Null,
Null,
Null,
Null,
Null,
Null,
Null,
Null,
Null,
Null,
Null,
Null,
Null,
Null,
Null,
Null,
Null,
Null,
Null,
Null,
Null,
Null,
Null,
Null,
Null,
Null,
Null,
Null,
Null,
Null,
Null,
Null,
Null,
Null,
Null,
Null,
Null,
Null,
Null,
Null,
Null,
Null,
Null,
Null,
Null,
Null,
Null,
