Datos experimentales/DATOS 26-3-24/ALL0039/A0039CH1.CSV

Memory Length,4000,
Trigger Level,1.600E-03,
Source,CH1,
Vertical Units,V,
Vertical Scale,2.000E-02,
Vertical Position,-1.200E-02,
Horizontal Units,s,
Horizontal Scale,1.000E+00,
Horizontal Position,0.000E+00,
Horizontal Mode,Roll Mode,
Waveform Last Dot Address,3290,
Sampling Period,4.000E-03,
Firmware, V1.21,
Waveform Data,
13,
13,
11,
13,
15,
15,
13,
12,
16,
14,
13,
11,
13,
11,
17,
12,
13,
12,
13,
13,
13,
13,
15,
13,
13,
13,
13,
13,
13,
13,
13,
12,
12,
12,
13,
13,
14,
13,
16,
15,
13,
12,
12,
13,
12,
12,
13,
13,
14,
13,
14,
13,
13,
12,
13,
15,
13,
13,
13,
15,
13,
13,
13,
14,
13,
13,
13,
11,
13,
15,
13,
13,
11,
16,
12,
14,
14,
11,
13,
15,
14,
13,
13,
11,
11,
13,
13,
15,
13,
14,
12,
13,
13,
13,
13,
12,
12,
13,
14,
13,
14,
12,
15,
13,
15,
14,
13,
13,
13,
13,
13,
11,
13,
13,
13,
14,
13,
13,
13,
14,
13,
12,
13,
13,
14,
13,
13,
14,
14,
12,
11,
14,
15,
13,
17,
14,
14,
15,
13,
13,
13,
14,
13,
13,
13,
13,
13,
13,
15,
15,
13,
12,
13,
15,
13,
13,
11,
13,
14,
13,
13,
11,
11,
13,
13,
13,
15,
12,
11,
14,
13,
14,
13,
14,
13,
13,
13,
14,
13,
13,
13,
16,
12,
13,
13,
13,
13,
14,
14,
14,
14,
11,
16,
13,
14,
12,
13,
13,
13,
12,
12,
13,
14,
13,
13,
17,
14,
13,
12,
13,
13,
13,
12,
13,
13,
13,
13,
13,
14,
15,
13,
13,
14,
13,
13,
13,
12,
12,
5,
13,
13,
13,
13,
13,
12,
13,
13,
13,
12,
13,
13,
13,
13,
13,
14,
14,
13,
13,
13,
13,
13,
12,
16,
16,
13,
13,
14,
15,
18,
11,
9,
15,
13,
14,
15,
15,
13,
15,
13,
13,
14,
13,
13,
12,
13,
14,
13,
13,
13,
13,
13,
13,
13,
15,
11,
17,
13,
13,
13,
12,
13,
13,
16,
14,
13,
15,
13,
13,
13,
16,
14,
13,
13,
13,
12,
12,
15,
13,
13,
12,
13,
12,
17,
13,
14,
13,
13,
15,
15,
12,
13,
13,
14,
16,
13,
13,
13,
12,
13,
13,
13,
13,
12,
14,
13,
14,
13,
13,
13,
14,
13,
13,
15,
16,
16,
12,
21,
12,
12,
14,
13,
14,
13,
12,
14,
13,
13,
13,
17,
13,
13,
12,
13,
13,
13,
11,
13,
13,
12,
13,
13,
14,
12,
14,
11,
13,
13,
11,
9,
13,
13,
13,
13,
13,
12,
14,
13,
13,
13,
13,
13,
13,
12,
13,
13,
13,
13,
13,
13,
14,
13,
15,
13,
11,
15,
11,
14,
12,
10,
10,
11,
11,
15,
13,
13,
13,
12,
15,
14,
13,
12,
14,
14,
13,
13,
13,
14,
13,
13,
13,
13,
13,
14,
13,
13,
13,
12,
11,
13,
13,
8,
9,
13,
12,
15,
13,
13,
13,
13,
14,
13,
13,
13,
13,
12,
14,
13,
12,
13,
13,
13,
13,
11,
13,
15,
13,
13,
13,
16,
15,
14,
12,
12,
12,
12,
10,
17,
13,
12,
13,
13,
12,
14,
14,
13,
13,
14,
14,
13,
12,
16,
15,
13,
13,
13,
14,
12,
13,
13,
15,
14,
14,
12,
13,
15,
14,
15,
11,
13,
13,
13,
13,
14,
13,
13,
13,
13,
13,
13,
13,
13,
11,
13,
13,
13,
15,
13,
13,
12,
12,
15,
13,
11,
9,
12,
13,
15,
13,
13,
14,
14,
13,
8,
13,
13,
14,
13,
12,
13,
19,
13,
13,
13,
13,
13,
13,
14,
13,
13,
13,
12,
13,
11,
13,
12,
13,
13,
13,
13,
12,
14,
13,
12,
13,
13,
13,
15,
11,
13,
13,
15,
14,
13,
13,
14,
13,
14,
15,
13,
14,
15,
12,
16,
16,
12,
12,
13,
13,
13,
14,
14,
13,
12,
13,
16,
13,
13,
13,
13,
13,
13,
13,
13,
13,
13,
13,
13,
17,
11,
11,
14,
13,
11,
11,
14,
13,
15,
13,
13,
15,
13,
13,
13,
13,
13,
13,
12,
13,
13,
13,
13,
13,
13,
16,
13,
13,
13,
13,
13,
13,
9,
11,
13,
14,
14,
13,
12,
13,
14,
14,
13,
12,
13,
12,
13,
13,
13,
12,
13,
13,
15,
13,
13,
13,
15,
14,
14,
13,
16,
13,
13,
13,
13,
13,
11,
11,
13,
14,
13,
13,
11,
13,
14,
14,
12,
13,
14,
13,
14,
14,
13,
14,
13,
13,
13,
13,
13,
13,
13,
11,
13,
13,
13,
13,
13,
14,
12,
12,
14,
15,
15,
13,
12,
8,
11,
11,
13,
15,
13,
13,
10,
13,
14,
13,
13,
13,
13,
13,
13,
12,
13,
13,
15,
12,
13,
13,
14,
12,
13,
12,
15,
15,
13,
13,
13,
11,
13,
13,
13,
14,
13,
15,
13,
13,
13,
13,
13,
15,
14,
14,
13,
13,
14,
14,
13,
13,
13,
13,
13,
14,
13,
13,
13,
14,
15,
12,
13,
11,
13,
14,
13,
13,
14,
13,
13,
15,
13,
13,
13,
14,
15,
13,
13,
15,
13,
13,
14,
12,
13,
8,
14,
13,
17,
11,
12,
13,
14,
13,
13,
13,
14,
13,
13,
13,
12,
13,
13,
13,
16,
15,
13,
13,
13,
13,
13,
13,
13,
15,
16,
14,
15,
16,
13,
8,
8,
15,
13,
13,
14,
14,
16,
16,
15,
13,
15,
14,
13,
13,
15,
19,
15,
15,
16,
16,
15,
16,
15,
15,
16,
15,
15,
15,
15,
17,
13,
19,
13,
16,
15,
16,
15,
16,
18,
18,
16,
16,
17,
17,
16,
15,
17,
19,
17,
15,
16,
17,
17,
17,
17,
17,
18,
17,
18,
15,
20,
21,
19,
20,
19,
22,
22,
21,
23,
19,
23,
25,
25,
26,
25,
27,
27,
25,
27,
32,
32,
31,
31,
31,
33,
32,
34,
33,
34,
33,
38,
38,
34,
34,
38,
37,
39,
40,
40,
41,
40,
42,
43,
43,
44,
46,
46,
45,
47,
47,
47,
51,
49,
51,
50,
53,
52,
54,
56,
56,
57,
57,
58,
59,
57,
61,
59,
61,
63,
62,
65,
65,
65,
67,
67,
69,
71,
72,
71,
69,
71,
73,
76,
74,
77,
78,
78,
79,
79,
79,
78,
79,
79,
80,
84,
83,
83,
81,
83,
82,
82,
85,
81,
85,
80,
85,
85,
80,
85,
86,
87,
89,
85,
85,
87,
87,
85,
87,
89,
83,
88,
89,
88,
88,
88,
85,
85,
88,
83,
89,
88,
88,
89,
83,
89,
85,
88,
89,
89,
89,
87,
89,
89,
88,
88,
87,
89,
87,
85,
87,
87,
87,
85,
85,
87,
87,
85,
84,
85,
85,
87,
84,
83,
85,
85,
83,
83,
83,
83,
84,
84,
83,
81,
79,
81,
81,
81,
82,
82,
82,
86,
81,
81,
79,
81,
78,
79,
83,
80,
81,
80,
78,
78,
77,
79,
77,
78,
79,
75,
76,
80,
79,
77,
76,
77,
78,
78,
75,
75,
77,
76,
76,
74,
74,
75,
75,
74,
73,
75,
72,
72,
72,
72,
72,
73,
75,
71,
72,
72,
72,
71,
71,
68,
68,
88,
71,
73,
67,
69,
69,
70,
67,
68,
68,
68,
67,
67,
68,
68,
65,
68,
67,
68,
67,
67,
65,
63,
66,
66,
66,
66,
66,
65,
63,
63,
64,
65,
66,
65,
63,
67,
63,
63,
63,
63,
61,
61,
65,
61,
60,
64,
60,
63,
62,
62,
61,
61,
61,
61,
60,
61,
57,
62,
60,
60,
65,
61,
61,
60,
60,
60,
59,
61,
58,
60,
59,
59,
55,
57,
57,
60,
56,
58,
58,
59,
57,
58,
56,
57,
56,
56,
57,
60,
55,
57,
57,
57,
53,
57,
57,
56,
57,
59,
56,
56,
55,
59,
56,
55,
55,
56,
53,
52,
54,
53,
55,
55,
55,
53,
56,
53,
54,
55,
55,
51,
55,
52,
53,
55,
53,
55,
53,
52,
55,
53,
54,
54,
53,
51,
55,
53,
53,
53,
52,
48,
51,
50,
52,
51,
51,
51,
53,
49,
49,
47,
49,
50,
49,
49,
48,
48,
48,
49,
50,
50,
48,
49,
45,
51,
48,
50,
48,
52,
47,
48,
49,
49,
49,
50,
47,
48,
48,
48,
49,
48,
47,
47,
45,
45,
45,
47,
47,
47,
45,
47,
45,
48,
46,
45,
44,
44,
47,
44,
43,
43,
44,
45,
39,
46,
45,
44,
45,
45,
45,
47,
41,
45,
45,
45,
44,
41,
45,
45,
45,
45,
45,
44,
43,
44,
45,
43,
43,
45,
41,
44,
41,
43,
43,
43,
39,
43,
45,
43,
41,
41,
42,
41,
43,
35,
43,
43,
43,
40,
41,
41,
42,
39,
39,
43,
44,
43,
43,
42,
40,
41,
41,
41,
41,
45,
43,
43,
42,
42,
44,
42,
42,
41,
40,
43,
43,
41,
43,
41,
41,
41,
41,
40,
39,
41,
40,
39,
40,
40,
35,
39,
40,
40,
39,
39,
39,
42,
39,
40,
39,
39,
39,
39,
43,
39,
39,
42,
35,
35,
36,
37,
38,
38,
37,
39,
39,
39,
37,
37,
37,
40,
40,
35,
36,
37,
38,
39,
37,
39,
37,
39,
39,
38,
38,
38,
37,
38,
33,
36,
35,
37,
36,
37,
37,
34,
36,
37,
36,
36,
34,
35,
36,
35,
36,
36,
33,
35,
34,
33,
32,
34,
34,
34,
36,
33,
34,
35,
34,
37,
36,
33,
33,
33,
34,
35,
35,
35,
33,
33,
37,
36,
35,
33,
33,
33,
33,
34,
34,
34,
36,
32,
33,
34,
33,
35,
36,
35,
35,
38,
33,
35,
33,
33,
31,
33,
34,
32,
33,
34,
33,
32,
32,
31,
35,
32,
32,
33,
33,
33,
32,
31,
29,
32,
31,
33,
31,
33,
31,
31,
33,
32,
31,
31,
30,
31,
24,
31,
31,
31,
31,
31,
31,
31,
31,
29,
30,
31,
31,
28,
31,
31,
30,
29,
29,
31,
29,
29,
31,
30,
33,
27,
31,
30,
32,
31,
29,
27,
30,
30,
30,
29,
31,
32,
32,
30,
30,
27,
30,
30,
29,
24,
31,
30,
30,
28,
29,
28,
32,
30,
28,
33,
31,
28,
27,
28,
28,
28,
27,
27,
28,
29,
27,
27,
27,
28,
28,
26,
27,
28,
26,
26,
28,
27,
27,
26,
26,
26,
27,
24,
27,
27,
28,
25,
25,
27,
25,
27,
27,
28,
26,
28,
25,
26,
26,
25,
26,
25,
25,
27,
21,
27,
26,
26,
25,
24,
27,
25,
26,
26,
27,
26,
26,
27,
25,
25,
27,
25,
26,
25,
29,
25,
26,
27,
25,
25,
24,
28,
26,
31,
26,
28,
25,
26,
25,
25,
25,
25,
25,
25,
25,
25,
25,
25,
24,
25,
25,
25,
25,
24,
25,
25,
24,
24,
23,
25,
24,
26,
24,
21,
25,
23,
23,
24,
24,
23,
23,
24,
24,
25,
24,
23,
23,
23,
23,
24,
28,
23,
21,
21,
21,
23,
21,
25,
22,
21,
17,
22,
20,
21,
17,
19,
21,
21,
23,
21,
21,
25,
21,
21,
21,
22,
23,
21,
21,
21,
21,
20,
20,
20,
21,
21,
20,
19,
21,
21,
21,
19,
19,
21,
21,
20,
21,
21,
22,
20,
21,
20,
20,
23,
21,
19,
21,
25,
21,
21,
21,
19,
20,
21,
21,
21,
19,
21,
21,
21,
21,
21,
21,
19,
19,
18,
17,
21,
21,
21,
20,
21,
21,
19,
23,
20,
20,
21,
21,
23,
21,
23,
19,
21,
25,
20,
20,
20,
20,
19,
16,
16,
20,
20,
20,
20,
16,
20,
16,
19,
19,
19,
21,
20,
19,
19,
21,
20,
19,
20,
32,
21,
18,
19,
19,
17,
19,
19,
19,
19,
19,
19,
21,
20,
19,
21,
19,
13,
16,
16,
21,
20,
18,
19,
19,
19,
19,
19,
18,
20,
16,
18,
15,
19,
20,
16,
18,
19,
19,
17,
17,
20,
18,
17,
19,
17,
21,
18,
17,
21,
19,
19,
19,
18,
19,
20,
19,
20,
19,
18,
15,
17,
18,
8,
20,
20,
20,
19,
17,
19,
17,
17,
18,
18,
17,
17,
16,
19,
17,
17,
16,
17,
16,
17,
15,
17,
15,
15,
16,
15,
16,
19,
15,
15,
13,
23,
19,
15,
15,
17,
16,
16,
16,
17,
15,
15,
16,
17,
15,
15,
19,
16,
15,
16,
15,
15,
13,
14,
18,
16,
14,
11,
11,
17,
15,
15,
15,
14,
17,
15,
15,
16,
15,
13,
15,
17,
17,
16,
17,
15,
15,
13,
13,
16,
15,
15,
14,
17,
14,
15,
15,
13,
13,
12,
17,
15,
15,
15,
15,
15,
14,
12,
13,
13,
13,
13,
13,
15,
17,
16,
13,
16,
13,
15,
13,
14,
15,
15,
15,
13,
14,
16,
15,
14,
15,
14,
14,
12,
15,
15,
15,
15,
14,
13,
14,
16,
14,
15,
15,
15,
14,
13,
13,
16,
13,
13,
14,
14,
15,
13,
14,
15,
15,
14,
14,
15,
12,
13,
15,
12,
14,
14,
15,
15,
14,
15,
15,
13,
13,
15,
13,
13,
10,
13,
15,
15,
13,
15,
15,
15,
14,
15,
13,
14,
14,
12,
14,
14,
14,
14,
13,
15,
14,
15,
16,
15,
14,
15,
13,
14,
13,
8,
8,
15,
14,
15,
14,
14,
11,
16,
15,
15,
14,
15,
19,
19,
15,
13,
16,
13,
13,
15,
16,
15,
15,
13,
15,
15,
15,
15,
15,
12,
10,
15,
17,
15,
15,
15,
13,
13,
14,
15,
16,
15,
15,
12,
12,
13,
16,
14,
13,
13,
13,
9,
11,
15,
17,
16,
12,
14,
14,
14,
14,
13,
11,
14,
15,
11,
15,
15,
16,
15,
14,
14,
13,
15,
13,
14,
13,
16,
14,
13,
15,
14,
13,
13,
15,
15,
13,
13,
15,
15,
15,
14,
11,
13,
14,
14,
15,
15,
15,
15,
15,
13,
13,
15,
15,
15,
14,
13,
13,
13,
15,
15,
15,
16,
15,
14,
15,
13,
14,
16,
16,
16,
15,
11,
15,
15,
15,
14,
15,
16,
16,
15,
15,
15,
15,
14,
15,
14,
19,
13,
15,
15,
15,
14,
14,
15,
15,
16,
17,
15,
16,
12,
15,
13,
17,
13,
13,
16,
16,
15,
15,
16,
15,
16,
15,
15,
16,
15,
13,
14,
14,
14,
13,
15,
15,
16,
13,
13,
15,
14,
14,
15,
15,
15,
20,
13,
15,
14,
15,
14,
13,
14,
15,
16,
13,
15,
14,
14,
14,
13,
11,
13,
13,
15,
13,
13,
13,
13,
15,
15,
13,
13,
13,
13,
2,
13,
15,
15,
14,
13,
16,
13,
13,
13,
13,
13,
14,
13,
14,
14,
14,
17,
15,
14,
13,
14,
13,
13,
12,
15,
14,
14,
12,
14,
10,
12,
15,
14,
12,
13,
13,
14,
12,
13,
14,
14,
13,
16,
13,
14,
13,
15,
15,
13,
13,
13,
13,
13,
15,
15,
13,
13,
13,
13,
13,
17,
17,
14,
13,
15,
14,
14,
14,
18,
13,
13,
13,
13,
15,
12,
17,
16,
15,
13,
13,
15,
15,
13,
13,
13,
15,
13,
13,
11,
13,
15,
11,
12,
13,
13,
13,
14,
13,
13,
12,
13,
13,
12,
13,
13,
17,
11,
13,
15,
15,
13,
13,
13,
18,
13,
13,
13,
13,
1,
8,
19,
12,
9,
12,
13,
13,
15,
11,
13,
13,
13,
13,
13,
12,
13,
11,
13,
12,
13,
13,
13,
13,
13,
13,
12,
13,
13,
14,
12,
13,
13,
11,
13,
13,
13,
13,
13,
14,
13,
14,
13,
13,
20,
13,
13,
15,
13,
13,
13,
13,
12,
12,
15,
13,
13,
13,
12,
19,
13,
15,
15,
16,
12,
12,
12,
13,
13,
13,
12,
13,
13,
13,
12,
13,
13,
9,
13,
12,
13,
13,
13,
13,
13,
4,
13,
11,
9,
14,
14,
14,
14,
14,
12,
15,
13,
12,
11,
16,
13,
12,
12,
14,
12,
11,
14,
14,
11,
9,
12,
14,
13,
12,
11,
13,
13,
13,
13,
12,
12,
11,
12,
14,
11,
12,
13,
12,
14,
13,
13,
13,
13,
13,
13,
15,
13,
7,
8,
12,
15,
14,
12,
13,
17,
12,
13,
13,
13,
13,
12,
11,
11,
9,
12,
13,
13,
14,
12,
13,
12,
13,
13,
13,
12,
13,
12,
8,
9,
12,
13,
13,
12,
11,
13,
13,
13,
12,
13,
13,
12,
12,
16,
16,
13,
13,
12,
13,
12,
12,
13,
13,
12,
13,
13,
15,
15,
12,
8,
13,
13,
12,
12,
13,
13,
11,
11,
13,
12,
13,
13,
12,
15,
11,
12,
12,
13,
13,
12,
12,
12,
13,
13,
11,
12,
12,
13,
9,
14,
12,
13,
14,
12,
13,
13,
12,
13,
11,
13,
11,
13,
13,
9,
14,
12,
12,
12,
12,
12,
11,
13,
13,
13,
12,
11,
8,
12,
15,
12,
13,
12,
12,
12,
12,
12,
12,
12,
12,
13,
7,
11,
12,
15,
13,
13,
13,
12,
12,
12,
13,
13,
14,
8,
13,
15,
9,
5,
11,
17,
17,
7,
11,
11,
13,
11,
12,
10,
13,
15,
14,
12,
13,
15,
15,
13,
11,
13,
11,
13,
12,
12,
13,
11,
12,
13,
13,
12,
13,
13,
13,
13,
9,
12,
13,
11,
12,
12,
11,
13,
13,
13,
12,
13,
13,
13,
14,
13,
13,
14,
14,
14,
11,
14,
14,
15,
16,
13,
14,
14,
14,
12,
12,
12,
12,
13,
13,
9,
12,
12,
11,
12,
12,
16,
9,
11,
12,
14,
11,
12,
11,
12,
13,
12,
13,
15,
15,
12,
8,
9,
13,
10,
13,
11,
12,
13,
12,
13,
12,
12,
12,
13,
12,
12,
8,
13,
14,
13,
13,
13,
13,
13,
13,
13,
13,
12,
12,
12,
19,
17,
11,
11,
12,
12,
12,
12,
13,
13,
12,
13,
13,
13,
12,
17,
13,
13,
13,
13,
13,
11,
12,
12,
12,
12,
12,
11,
13,
12,
11,
13,
13,
13,
12,
11,
12,
12,
13,
12,
12,
12,
13,
12,
7,
12,
13,
12,
12,
11,
13,
12,
10,
10,
12,
12,
13,
11,
13,
9,
12,
11,
12,
11,
11,
12,
11,
12,
12,
11,
13,
13,
11,
11,
17,
9,
11,
12,
12,
13,
13,
13,
12,
12,
14,
12,
14,
13,
13,
13,
12,
11,
13,
13,
13,
11,
13,
14,
14,
12,
12,
13,
13,
13,
10,
9,
11,
12,
13,
12,
12,
12,
11,
12,
11,
13,
9,
13,
13,
13,
15,
13,
13,
10,
12,
12,
13,
12,
11,
11,
11,
13,
10,
13,
12,
9,
14,
5,
12,
12,
13,
12,
12,
13,
12,
12,
12,
13,
12,
11,
11,
11,
13,
13,
12,
12,
1,
12,
11,
11,
11,
12,
12,
11,
11,
13,
13,
12,
11,
11,
12,
13,
10,
13,
13,
16,
13,
12,
12,
9,
9,
10,
12,
12,
13,
11,
12,
12,
13,
13,
12,
12,
11,
13,
12,
12,
13,
13,
13,
16,
12,
11,
13,
12,
12,
11,
12,
13,
11,
12,
15,
15,
12,
10,
12,
12,
11,
12,
12,
13,
12,
12,
11,
12,
12,
12,
15,
12,
10,
13,
11,
12,
12,
13,
12,
11,
12,
12,
12,
11,
10,
14,
12,
12,
11,
12,
12,
13,
12,
12,
12,
12,
12,
11,
12,
9,
17,
12,
11,
12,
12,
11,
12,
11,
12,
12,
12,
12,
12,
13,
12,
17,
13,
11,
11,
13,
13,
12,
11,
13,
13,
12,
12,
12,
12,
13,
11,
12,
12,
11,
12,
12,
12,
15,
11,
12,
12,
12,
16,
12,
9,
18,
12,
12,
12,
12,
11,
11,
12,
11,
11,
11,
13,
13,
13,
13,
15,
14,
13,
13,
11,
11,
12,
11,
11,
13,
13,
12,
11,
13,
12,
11,
12,
11,
11,
13,
12,
11,
11,
12,
12,
11,
12,
8,
14,
12,
9,
15,
14,
13,
12,
12,
12,
11,
12,
11,
12,
12,
11,
11,
12,
13,
15,
11,
12,
12,
12,
12,
12,
12,
11,
13,
12,
13,
13,
13,
16,
13,
13,
13,
10,
12,
12,
11,
13,
11,
12,
14,
13,
12,
13,
12,
13,
13,
11,
12,
12,
13,
12,
13,
12,
13,
13,
11,
11,
12,
13,
13,
10,
13,
13,
12,
13,
12,
12,
Null,
Null,
Null,
Null,
Null,
Null,
Null,
Null,
Null,
Null,
Null,
Null,
Null,
Null,
Null,
Null,
Null,
Null,
Null,
Null,
Null,
Null,
Null,
Null,
Null,
Null,
Null,
Null,
Null,
Null,
Null,
Null,
Null,
Null,
Null,
Null,
Null,
Null,
Null,
Null,
Null,
Null,
Null,
Null,
Null,
Null,
Null,
Null,
Null,
Null,
Null,
Null,
Null,
Null,
Null,
Null,
Null,
Null,
Null,
Null,
Null,
Null,
Null,
Null,
Null,
Null,
Null,
Null,
Null,
Null,
Null,
Null,
Null,
Null,
Null,
Null,
Null,
Null,
Null,
Null,
Null,
Null,
Null,
Null,
Null,
Null,
Null,
Null,
Null,
Null,
Null,
Null,
Null,
Null,
Null,
Null,
Null,
Null,
Null,
Null,
Null,
Null,
Null,
Null,
Null,
Null,
Null,
Null,
Null,
Null,
Null,
Null,
Null,
Null,
Null,
Null,
Null,
Null,
Null,
Null,
Null,
Null,
Null,
Null,
Null,
Null,
Null,
Null,
Null,
Null,
Null,
Null,
Null,
Null,
Null,
Null,
Null,
Null,
Null,
Null,
Null,
Null,
Null,
Null,
Null,
Null,
Null,
Null,
Null,
Null,
Null,
Null,
Null,
Null,
Null,
Null,
Null,
Null,
Null,
Null,
Null,
Null,
Null,
Null,
Null,
Null,
Null,
Null,
Null,
Null,
Null,
Null,
Null,
Null,
Null,
Null,
Null,
Null,
Null,
Null,
Null,
Null,
Null,
Null,
Null,
Null,
Null,
Null,
Null,
Null,
Null,
Null,
Null,
Null,
Null,
Null,
Null,
Null,
Null,
Null,
Null,
Null,
Null,
Null,
Null,
Null,
Null,
Null,
Null,
Null,
Null,
Null,
Null,
Null,
Null,
Null,
Null,
Null,
Null,
Null,
Null,
Null,
Null,
Null,
Null,
Null,
Null,
Null,
Null,
Null,
Null,
Null,
Null,
Null,
Null,
Null,
Null,
Null,
Null,
Null,
Null,
Null,
Null,
Null,
Null,
Null,
Null,
Null,
Null,
Null,
Null,
Null,
Null,
Null,
Null,
Null,
Null,
Null,
Null,
Null,
Null,
Null,
Null,
Null,
Null,
Null,
Null,
Null,
Null,
Null,
Null,
Null,
Null,
Null,
Null,
Null,
Null,
Null,
Null,
Null,
Null,
Null,
Null,
Null,
Null,
Null,
Null,
Null,
Null,
Null,
Null,
Null,
Null,
Null,
Null,
Null,
Null,
Null,
Null,
Null,
Null,
Null,
Null,
Null,
Null,
Null,
Null,
Null,
Null,
Null,
Null,
Null,
Null,
Null,
Null,
Null,
Null,
Null,
Null,
Null,
Null,
Null,
Null,
Null,
Null,
Null,
Null,
Null,
Null,
Null,
Null,
Null,
Null,
Null,
Null,
Null,
Null,
Null,
Null,
Null,
Null,
Null,
Null,
Null,
Null,
Null,
Null,
Null,
Null,
Null,
Null,
Null,
Null,
Null,
Null,
Null,
Null,
Null,
Null,
Null,
Null,
Null,
Null,
Null,
Null,
Null,
Null,
Null,
Null,
Null,
Null,
Null,
Null,
Null,
Null,
Null,
Null,
Null,
Null,
Null,
Null,
Null,
Null,
Null,
Null,
Null,
Null,
Null,
Null,
Null,
Null,
Null,
Null,
Null,
Null,
Null,
Null,
Null,
Null,
Null,
Null,
Null,
Null,
Null,
Null,
Null,
Null,
Null,
Null,
Null,
Null,
Null,
Null,
Null,
Null,
Null,
Null,
Null,
Null,
Null,
Null,
Null,
Null,
Null,
Null,
Null,
Null,
Null,
Null,
Null,
Null,
Null,
Null,
Null,
Null,
Null,
Null,
Null,
Null,
Null,
Null,
Null,
Null,
Null,
Null,
Null,
Null,
Null,
Null,
Null,
Null,
Null,
Null,
Null,
Null,
Null,
Null,
Null,
Null,
Null,
Null,
Null,
Null,
Null,
Null,
Null,
Null,
Null,
Null,
Null,
Null,
Null,
Null,
Null,
Null,
Null,
Null,
Null,
Null,
Null,
Null,
Null,
Null,
Null,
Null,
Null,
Null,
Null,
Null,
Null,
Null,
Null,
Null,
Null,
Null,
Null,
Null,
Null,
Null,
Null,
Null,
Null,
Null,
Null,
Null,
Null,
Null,
Null,
Null,
Null,
Null,
Null,
Null,
Null,
Null,
Null,
Null,
Null,
Null,
Null,
Null,
Null,
Null,
Null,
Null,
Null,
Null,
Null,
Null,
Null,
Null,
Null,
Null,
Null,
Null,
Null,
Null,
Null,
Null,
Null,
Null,
Null,
Null,
Null,
Null,
Null,
Null,
Null,
Null,
Null,
Null,
Null,
Null,
Null,
Null,
Null,
Null,
Null,
Null,
Null,
Null,
Null,
Null,
Null,
Null,
Null,
Null,
Null,
Null,
Null,
Null,
Null,
Null,
Null,
Null,
Null,
Null,
Null,
Null,
Null,
Null,
Null,
Null,
Null,
Null,
Null,
Null,
Null,
Null,
Null,
Null,
Null,
Null,
Null,
Null,
Null,
Null,
Null,
Null,
Null,
Null,
Null,
Null,
Null,
Null,
Null,
Null,
Null,
Null,
Null,
Null,
Null,
Null,
Null,
Null,
Null,
Null,
Null,
Null,
Null,
Null,
Null,
Null,
Null,
Null,
Null,
Null,
Null,
Null,
Null,
Null,
Null,
Null,
Null,
Null,
Null,
Null,
Null,
Null,
Null,
Null,
Null,
Null,
Null,
Null,
Null,
Null,
Null,
Null,
Null,
Null,
Null,
Null,
Null,
Null,
Null,
Null,
Null,
Null,
Null,
Null,
Null,
Null,
Null,
Null,
Null,
Null,
Null,
Null,
Null,
Null,
Null,
Null,
Null,
Null,
Null,
Null,
Null,
Null,
Null,
Null,
Null,
Null,
Null,
Null,
Null,
Null,
Null,
Null,
Null,
Null,
Null,
Null,
Null,
Null,
Null,
Null,
Null,
Null,
Null,
Null,
Null,
Null,
Null,
Null,
Null,
Null,
Null,
Null,
Null,
