Datos experimentales/DATOS 26-3-24/ALL0037/A0037CH1.CSV

Memory Length,4000,
Trigger Level,1.600E-03,
Source,CH1,
Vertical Units,V,
Vertical Scale,2.000E-02,
Vertical Position,-1.200E-02,
Horizontal Units,s,
Horizontal Scale,1.000E+00,
Horizontal Position,0.000E+00,
Horizontal Mode,Roll Mode,
Sampling Period,4.000E-03,
Firmware, V1.21,
Waveform Data,
15,
14,
13,
13,
14,
13,
13,
17,
17,
11,
13,
13,
14,
14,
13,
12,
13,
13,
15,
14,
13,
13,
13,
13,
13,
14,
13,
14,
13,
13,
13,
14,
13,
11,
13,
13,
13,
13,
13,
14,
11,
15,
13,
14,
14,
13,
12,
13,
13,
14,
14,
13,
13,
13,
15,
20,
14,
15,
12,
13,
11,
11,
13,
13,
13,
13,
13,
13,
15,
13,
13,
14,
14,
14,
14,
14,
14,
14,
12,
14,
13,
13,
12,
12,
13,
16,
13,
14,
13,
13,
10,
14,
14,
8,
13,
13,
8,
10,
15,
11,
13,
14,
14,
13,
15,
13,
13,
11,
14,
12,
13,
13,
13,
13,
16,
13,
13,
14,
13,
13,
15,
17,
13,
13,
13,
13,
13,
15,
14,
14,
13,
13,
15,
15,
11,
16,
13,
13,
13,
9,
15,
13,
15,
15,
12,
12,
15,
13,
14,
13,
13,
13,
14,
13,
13,
13,
13,
13,
13,
12,
12,
13,
15,
13,
12,
13,
14,
14,
13,
14,
14,
13,
13,
9,
13,
13,
14,
14,
13,
12,
17,
11,
14,
14,
14,
13,
13,
14,
7,
13,
14,
15,
13,
13,
11,
12,
14,
13,
13,
14,
13,
13,
13,
14,
14,
15,
13,
13,
11,
15,
13,
13,
13,
14,
13,
13,
13,
17,
11,
12,
15,
15,
13,
8,
8,
15,
13,
13,
12,
12,
15,
13,
13,
15,
13,
13,
13,
13,
13,
12,
13,
13,
13,
13,
13,
15,
13,
14,
13,
12,
15,
15,
15,
13,
13,
13,
13,
12,
16,
13,
14,
14,
13,
13,
14,
11,
11,
13,
12,
13,
14,
17,
13,
13,
11,
12,
13,
12,
11,
11,
14,
14,
15,
15,
14,
13,
15,
13,
13,
15,
14,
13,
15,
15,
13,
13,
13,
14,
14,
14,
16,
13,
13,
14,
13,
14,
14,
13,
13,
12,
13,
14,
15,
15,
16,
13,
11,
13,
16,
13,
13,
12,
15,
13,
13,
14,
13,
14,
11,
14,
13,
13,
13,
13,
13,
14,
14,
13,
13,
13,
13,
13,
11,
14,
13,
13,
13,
13,
13,
16,
13,
13,
15,
14,
13,
13,
10,
13,
8,
18,
15,
15,
12,
14,
13,
15,
15,
14,
12,
13,
16,
13,
13,
14,
13,
13,
14,
11,
13,
13,
13,
13,
14,
13,
16,
13,
14,
14,
14,
14,
15,
13,
13,
13,
12,
12,
13,
14,
13,
13,
17,
16,
16,
13,
15,
15,
13,
14,
12,
13,
13,
13,
13,
14,
14,
14,
13,
15,
13,
13,
13,
14,
13,
13,
14,
14,
14,
12,
13,
13,
14,
13,
13,
13,
13,
20,
13,
11,
13,
13,
13,
13,
15,
15,
10,
10,
15,
11,
13,
13,
13,
12,
13,
13,
14,
13,
12,
12,
15,
14,
14,
13,
13,
14,
13,
13,
13,
14,
14,
13,
13,
13,
10,
14,
15,
13,
14,
13,
13,
13,
13,
13,
15,
12,
12,
14,
12,
12,
15,
13,
13,
14,
12,
11,
13,
13,
15,
15,
14,
13,
14,
14,
13,
13,
13,
13,
14,
12,
13,
13,
13,
13,
13,
13,
14,
13,
13,
12,
13,
13,
14,
13,
14,
15,
13,
13,
13,
15,
15,
13,
13,
14,
9,
12,
13,
17,
13,
13,
15,
15,
13,
14,
14,
14,
15,
14,
17,
13,
13,
14,
13,
15,
13,
13,
13,
12,
13,
13,
15,
13,
13,
14,
14,
14,
12,
14,
14,
13,
13,
13,
13,
12,
15,
15,
13,
15,
13,
15,
16,
13,
13,
11,
15,
14,
12,
11,
13,
13,
14,
13,
13,
12,
18,
13,
13,
13,
14,
13,
14,
13,
13,
12,
14,
13,
13,
13,
13,
13,
13,
13,
13,
14,
13,
16,
13,
15,
13,
15,
13,
15,
14,
14,
16,
12,
15,
15,
13,
15,
13,
13,
15,
13,
13,
13,
13,
13,
14,
13,
13,
13,
13,
14,
15,
13,
15,
13,
13,
13,
13,
13,
14,
13,
13,
13,
12,
13,
13,
15,
14,
12,
13,
11,
11,
15,
13,
13,
17,
13,
13,
14,
13,
13,
15,
13,
13,
13,
13,
14,
14,
14,
14,
13,
14,
15,
13,
13,
13,
14,
13,
13,
12,
15,
13,
13,
13,
13,
14,
15,
14,
15,
13,
9,
15,
15,
15,
9,
12,
15,
15,
11,
14,
13,
12,
13,
14,
13,
13,
13,
13,
11,
13,
15,
14,
13,
13,
13,
11,
13,
13,
13,
13,
14,
12,
13,
14,
13,
14,
14,
13,
13,
13,
14,
16,
15,
15,
15,
13,
11,
8,
9,
17,
12,
12,
13,
13,
13,
13,
8,
8,
13,
13,
14,
13,
14,
12,
15,
14,
13,
13,
13,
13,
12,
12,
13,
13,
14,
13,
13,
13,
16,
13,
13,
14,
13,
13,
13,
16,
11,
13,
13,
15,
13,
14,
10,
17,
15,
11,
12,
14,
14,
13,
14,
13,
14,
13,
13,
13,
13,
13,
14,
12,
13,
13,
13,
13,
13,
13,
12,
13,
13,
14,
13,
13,
13,
13,
13,
13,
13,
13,
15,
13,
13,
10,
13,
11,
12,
15,
13,
13,
23,
13,
13,
15,
11,
14,
13,
14,
14,
13,
13,
15,
13,
14,
12,
14,
14,
13,
16,
13,
13,
13,
13,
13,
15,
12,
13,
12,
13,
13,
13,
14,
11,
13,
13,
15,
13,
15,
13,
13,
12,
13,
15,
15,
11,
16,
13,
13,
14,
11,
14,
16,
14,
13,
13,
13,
14,
14,
14,
14,
14,
13,
13,
12,
14,
14,
13,
12,
13,
13,
13,
13,
15,
12,
13,
12,
13,
12,
14,
15,
13,
11,
10,
14,
17,
17,
15,
13,
13,
13,
13,
13,
15,
14,
13,
13,
12,
13,
16,
16,
13,
13,
13,
13,
13,
14,
17,
13,
12,
13,
14,
13,
14,
14,
13,
13,
13,
10,
15,
12,
15,
13,
13,
13,
13,
13,
10,
10,
13,
15,
13,
13,
15,
13,
13,
13,
14,
15,
13,
13,
13,
15,
12,
14,
13,
15,
13,
12,
12,
13,
13,
15,
13,
13,
13,
13,
13,
13,
13,
13,
13,
13,
13,
16,
13,
15,
15,
13,
13,
13,
16,
12,
12,
12,
12,
13,
13,
13,
13,
15,
13,
15,
15,
14,
13,
13,
13,
11,
13,
13,
16,
14,
14,
12,
13,
14,
14,
12,
14,
13,
14,
16,
13,
13,
14,
13,
13,
13,
13,
16,
16,
12,
15,
15,
13,
14,
12,
15,
17,
10,
12,
13,
15,
14,
14,
13,
13,
13,
15,
13,
13,
13,
15,
13,
13,
13,
13,
13,
13,
13,
7,
13,
14,
14,
13,
14,
13,
13,
13,
14,
12,
19,
19,
15,
9,
14,
14,
13,
8,
15,
15,
7,
14,
13,
13,
13,
14,
13,
16,
13,
14,
14,
13,
12,
13,
14,
15,
13,
14,
13,
13,
13,
13,
13,
14,
13,
13,
13,
13,
13,
13,
13,
11,
11,
11,
13,
15,
12,
13,
15,
12,
14,
11,
13,
13,
13,
13,
13,
13,
13,
15,
14,
13,
14,
13,
13,
13,
14,
13,
13,
13,
13,
14,
14,
12,
14,
14,
15,
12,
13,
15,
15,
13,
13,
11,
11,
12,
15,
13,
13,
13,
13,
19,
15,
13,
15,
15,
13,
15,
15,
14,
13,
15,
13,
13,
13,
15,
13,
14,
15,
15,
12,
13,
13,
14,
13,
15,
14,
13,
13,
12,
13,
13,
14,
13,
14,
15,
15,
14,
16,
13,
15,
15,
13,
13,
11,
18,
11,
13,
16,
14,
14,
12,
14,
15,
12,
13,
14,
15,
13,
13,
12,
14,
15,
13,
13,
14,
13,
13,
13,
14,
13,
13,
12,
13,
13,
8,
13,
15,
15,
13,
13,
13,
21,
11,
12,
13,
14,
15,
14,
12,
16,
16,
16,
12,
14,
13,
15,
13,
14,
13,
13,
13,
14,
14,
13,
13,
12,
13,
14,
14,
12,
13,
13,
13,
13,
13,
13,
18,
13,
13,
14,
14,
13,
14,
13,
15,
13,
11,
13,
16,
13,
12,
12,
15,
15,
13,
9,
12,
16,
14,
12,
13,
14,
13,
15,
13,
13,
13,
14,
13,
14,
13,
13,
14,
14,
14,
9,
13,
13,
15,
13,
13,
13,
16,
13,
13,
14,
13,
14,
13,
17,
13,
9,
13,
13,
13,
15,
12,
13,
13,
11,
13,
12,
13,
11,
12,
13,
15,
15,
15,
14,
13,
13,
13,
13,
14,
15,
13,
14,
12,
13,
13,
13,
13,
13,
13,
13,
13,
12,
14,
14,
13,
15,
13,
12,
15,
15,
13,
15,
12,
13,
18,
12,
13,
13,
13,
13,
16,
15,
13,
14,
14,
14,
13,
10,
13,
13,
13,
13,
13,
14,
10,
13,
13,
15,
15,
13,
13,
15,
13,
14,
15,
13,
14,
13,
13,
12,
13,
13,
13,
14,
13,
12,
13,
14,
15,
13,
13,
13,
14,
14,
13,
13,
4,
10,
13,
13,
14,
15,
13,
13,
13,
15,
16,
13,
13,
13,
13,
15,
16,
14,
15,
12,
14,
14,
16,
13,
13,
15,
13,
13,
13,
14,
13,
15,
15,
15,
15,
15,
13,
13,
13,
15,
15,
15,
13,
15,
13,
16,
14,
14,
14,
14,
12,
14,
13,
24,
16,
16,
16,
15,
15,
16,
19,
15,
15,
15,
15,
14,
15,
13,
14,
14,
16,
13,
13,
13,
15,
15,
15,
15,
16,
15,
16,
18,
15,
15,
15,
14,
15,
15,
15,
17,
13,
13,
14,
15,
13,
13,
14,
14,
15,
13,
14,
14,
15,
13,
16,
12,
8,
13,
14,
15,
15,
15,
14,
16,
14,
14,
13,
15,
14,
13,
13,
15,
13,
16,
16,
16,
16,
16,
15,
16,
15,
15,
14,
15,
13,
14,
15,
13,
13,
15,
7,
16,
16,
16,
15,
12,
15,
15,
15,
15,
15,
16,
16,
17,
19,
19,
19,
19,
19,
14,
19,
19,
21,
21,
21,
23,
25,
25,
24,
24,
26,
25,
27,
29,
27,
28,
28,
31,
28,
31,
31,
31,
32,
32,
34,
34,
33,
34,
37,
35,
38,
40,
39,
41,
41,
42,
43,
41,
44,
47,
45,
45,
47,
47,
49,
49,
49,
52,
52,
54,
55,
53,
55,
55,
56,
59,
57,
60,
60,
64,
61,
62,
62,
64,
65,
67,
64,
67,
69,
71,
71,
69,
71,
76,
74,
75,
75,
76,
77,
79,
79,
78,
80,
80,
77,
81,
81,
71,
83,
84,
84,
83,
84,
84,
83,
84,
83,
84,
83,
84,
83,
85,
76,
85,
85,
82,
84,
86,
88,
85,
86,
87,
86,
79,
86,
85,
87,
87,
89,
89,
85,
85,
83,
89,
89,
85,
87,
88,
88,
87,
88,
86,
86,
87,
86,
87,
87,
85,
87,
87,
82,
85,
84,
87,
87,
87,
85,
85,
85,
85,
83,
81,
83,
85,
82,
81,
83,
83,
81,
81,
80,
84,
81,
81,
80,
78,
80,
81,
80,
80,
79,
78,
79,
79,
77,
73,
77,
78,
76,
77,
77,
77,
81,
77,
77,
73,
75,
75,
75,
75,
73,
74,
76,
73,
70,
72,
73,
73,
73,
72,
73,
73,
73,
69,
72,
77,
73,
77,
81,
69,
65,
71,
71,
68,
69,
69,
93,
69,
69,
69,
70,
67,
69,
75,
69,
67,
68,
69,
69,
67,
67,
69,
67,
67,
65,
67,
67,
65,
65,
65,
65,
65,
65,
64,
65,
64,
63,
67,
65,
63,
65,
66,
65,
65,
65,
67,
67,
65,
64,
63,
63,
65,
65,
62,
61,
62,
63,
63,
60,
60,
60,
61,
62,
63,
61,
61,
61,
62,
62,
61,
52,
59,
63,
62,
61,
61,
61,
63,
60,
61,
60,
59,
60,
61,
59,
58,
61,
62,
62,
55,
59,
60,
57,
58,
57,
59,
58,
57,
69,
59,
60,
53,
53,
59,
60,
60,
58,
57,
58,
74,
62,
58,
57,
57,
59,
55,
55,
57,
49,
59,
55,
57,
55,
50,
53,
56,
55,
56,
54,
55,
55,
55,
55,
55,
55,
55,
53,
55,
53,
56,
51,
58,
56,
56,
52,
55,
55,
53,
55,
55,
53,
55,
54,
55,
53,
55,
52,
52,
56,
52,
51,
53,
51,
51,
52,
48,
51,
52,
52,
51,
51,
51,
51,
49,
52,
51,
49,
49,
49,
51,
52,
51,
49,
50,
51,
51,
51,
48,
50,
51,
48,
49,
49,
51,
48,
49,
47,
47,
48,
47,
47,
47,
47,
49,
47,
47,
47,
47,
45,
46,
45,
39,
45,
45,
47,
47,
47,
47,
47,
46,
46,
45,
45,
45,
44,
47,
47,
47,
49,
43,
47,
46,
49,
45,
45,
46,
45,
44,
45,
47,
45,
45,
45,
43,
44,
43,
40,
45,
43,
43,
37,
43,
45,
41,
43,
43,
43,
40,
41,
42,
43,
42,
43,
41,
40,
39,
43,
40,
40,
41,
42,
40,
41,
43,
39,
42,
42,
41,
41,
41,
44,
43,
42,
42,
41,
43,
43,
42,
41,
41,
41,
41,
40,
42,
37,
43,
38,
38,
39,
41,
39,
40,
40,
40,
39,
36,
40,
40,
39,
39,
38,
38,
39,
37,
34,
39,
38,
39,
38,
36,
32,
37,
39,
37,
37,
37,
37,
40,
37,
35,
37,
39,
42,
37,
37,
37,
38,
36,
36,
37,
37,
40,
36,
37,
40,
37,
40,
39,
40,
36,
37,
39,
39,
38,
37,
36,
37,
37,
38,
36,
37,
37,
36,
36,
33,
36,
36,
41,
33,
32,
35,
37,
35,
35,
36,
34,
36,
35,
32,
34,
32,
32,
35,
33,
34,
32,
33,
33,
33,
35,
35,
33,
34,
35,
35,
35,
33,
33,
35,
32,
33,
35,
40,
32,
36,
35,
33,
33,
33,
33,
31,
35,
35,
30,
33,
34,
35,
33,
32,
33,
36,
33,
33,
33,
33,
34,
32,
33,
33,
30,
33,
33,
33,
34,
29,
40,
40,
29,
35,
31,
32,
29,
32,
34,
31,
33,
33,
32,
33,
31,
31,
32,
32,
32,
32,
37,
29,
33,
33,
29,
35,
32,
33,
33,
31,
32,
32,
31,
32,
32,
32,
30,
33,
35,
35,
31,
31,
32,
32,
32,
33,
31,
31,
31,
31,
36,
31,
31,
32,
38,
33,
30,
30,
29,
32,
31,
31,
31,
29,
32,
30,
31,
29,
32,
33,
31,
31,
29,
31,
31,
36,
30,
31,
29,
30,
31,
31,
30,
30,
30,
31,
29,
31,
29,
31,
33,
29,
28,
29,
31,
30,
29,
25,
25,
28,
29,
29,
29,
30,
30,
29,
30,
29,
28,
27,
29,
27,
27,
27,
28,
28,
28,
27,
28,
27,
29,
26,
25,
27,
27,
27,
27,
28,
26,
27,
28,
26,
27,
26,
28,
25,
27,
25,
29,
26,
25,
25,
25,
29,
26,
24,
25,
25,
27,
25,
25,
24,
25,
25,
25,
23,
25,
24,
25,
24,
18,
23,
25,
25,
24,
25,
25,
26,
26,
24,
25,
25,
26,
24,
25,
23,
24,
27,
25,
22,
25,
24,
24,
24,
25,
26,
24,
26,
25,
25,
25,
24,
24,
33,
24,
25,
25,
24,
16,
13,
23,
29,
21,
24,
22,
21,
21,
23,
23,
21,
21,
23,
23,
21,
21,
24,
23,
23,
21,
23,
23,
22,
22,
22,
20,
21,
20,
21,
21,
21,
16,
24,
21,
21,
20,
22,
19,
19,
22,
21,
21,
20,
21,
21,
24,
19,
22,
21,
26,
27,
19,
21,
22,
19,
19,
20,
21,
20,
19,
21,
21,
19,
19,
20,
20,
16,
19,
21,
21,
20,
21,
19,
13,
20,
20,
16,
20,
19,
20,
21,
21,
17,
17,
14,
18,
19,
20,
20,
21,
20,
19,
20,
19,
21,
20,
20,
17,
26,
19,
19,
24,
23,
21,
21,
23,
19,
19,
21,
19,
19,
21,
20,
20,
21,
20,
19,
21,
20,
25,
20,
20,
23,
23,
20,
20,
20,
20,
20,
19,
20,
20,
20,
23,
19,
19,
25,
17,
21,
20,
19,
19,
20,
19,
20,
19,
20,
19,
19,
20,
19,
19,
20,
19,
21,
21,
17,
20,
20,
21,
19,
21,
19,
20,
19,
21,
21,
20,
20,
20,
20,
16,
21,
20,
20,
18,
19,
19,
19,
17,
19,
20,
19,
19,
19,
19,
19,
19,
19,
19,
16,
17,
19,
18,
18,
18,
17,
18,
18,
18,
18,
19,
20,
19,
17,
20,
19,
15,
17,
17,
17,
17,
18,
18,
19,
17,
17,
19,
17,
19,
18,
19,
17,
16,
11,
18,
17,
16,
16,
19,
17,
19,
17,
19,
17,
17,
17,
17,
16,
17,
17,
18,
18,
15,
16,
16,
22,
15,
16,
15,
16,
17,
16,
16,
16,
16,
16,
16,
15,
12,
15,
15,
18,
15,
16,
16,
16,
12,
16,
17,
17,
17,
16,
16,
13,
16,
15,
16,
16,
16,
14,
14,
15,
15,
15,
15,
14,
15,
15,
15,
15,
13,
16,
14,
15,
14,
15,
17,
17,
13,
15,
15,
15,
15,
16,
14,
15,
16,
16,
13,
15,
13,
13,
13,
14,
15,
15,
15,
17,
15,
14,
14,
19,
14,
15,
15,
14,
14,
15,
19,
12,
15,
16,
15,
9,
14,
15,
15,
14,
14,
13,
13,
15,
15,
15,
14,
15,
14,
13,
15,
15,
16,
13,
14,
15,
15,
15,
15,
14,
14,
16,
16,
15,
17,
13,
15,
14,
15,
13,
15,
15,
15,
13,
13,
13,
13,
15,
16,
13,
14,
19,
13,
15,
15,
15,
16,
15,
13,
15,
14,
13,
15,
14,
14,
14,
15,
14,
17,
16,
16,
13,
15,
15,
14,
11,
15,
15,
15,
16,
14,
15,
18,
16,
16,
14,
12,
13,
16,
11,
15,
15,
15,
15,
15,
15,
19,
13,
13,
15,
13,
13,
15,
16,
17,
15,
15,
15,
14,
17,
15,
15,
15,
15,
15,
15,
16,
15,
15,
13,
16,
16,
21,
14,
13,
16,
16,
16,
16,
16,
15,
10,
15,
15,
15,
15,
13,
17,
18,
21,
15,
14,
15,
15,
14,
15,
16,
15,
15,
16,
16,
15,
16,
15,
13,
15,
15,
15,
16,
15,
16,
15,
17,
16,
14,
14,
14,
15,
15,
16,
16,
17,
16,
10,
13,
16,
16,
15,
14,
14,
17,
15,
16,
15,
15,
15,
16,
14,
15,
16,
16,
17,
16,
16,
13,
15,
15,
15,
13,
13,
15,
16,
15,
15,
15,
15,
15,
15,
18,
13,
15,
14,
15,
15,
15,
14,
15,
15,
16,
15,
15,
16,
17,
15,
15,
8,
17,
17,
15,
13,
15,
15,
16,
16,
15,
15,
15,
15,
16,
16,
14,
14,
24,
17,
12,
16,
13,
17,
15,
16,
14,
15,
16,
15,
17,
15,
15,
17,
16,
13,
11,
13,
14,
14,
16,
15,
15,
14,
15,
15,
15,
15,
14,
16,
15,
15,
13,
11,
13,
15,
15,
15,
15,
15,
14,
16,
14,
14,
13,
15,
14,
13,
13,
14,
10,
13,
13,
13,
15,
13,
17,
13,
14,
12,
15,
12,
13,
13,
16,
15,
14,
11,
11,
11,
17,
16,
14,
14,
14,
15,
12,
12,
15,
13,
14,
15,
13,
11,
11,
12,
12,
15,
15,
15,
15,
14,
13,
15,
15,
16,
13,
15,
15,
15,
14,
13,
12,
15,
14,
13,
13,
13,
14,
13,
13,
13,
14,
13,
13,
14,
13,
12,
11,
13,
13,
16,
13,
13,
14,
14,
14,
14,
15,
13,
15,
15,
13,
14,
13,
11,
12,
16,
16,
14,
14,
13,
15,
13,
14,
14,
12,
14,
13,
14,
14,
14,
9,
13,
13,
14,
15,
13,
13,
15,
14,
13,
14,
14,
13,
13,
14,
15,
12,
17,
17,
14,
15,
13,
12,
13,
14,
13,
12,
14,
13,
13,
13,
13,
13,
12,
8,
12,
16,
14,
14,
15,
14,
13,
14,
13,
11,
11,
15,
13,
13,
16,
13,
13,
11,
15,
13,
13,
14,
13,
14,
13,
13,
13,
13,
13,
13,
15,
11,
14,
12,
15,
12,
15,
13,
14,
14,
14,
14,
16,
15,
14,
15,
14,
15,
14,
15,
13,
16,
13,
13,
13,
15,
14,
14,
13,
14,
13,
13,
15,
13,
14,
13,
13,
13,
15,
12,
13,
15,
14,
13,
13,
13,
13,
15,
13,
13,
13,
13,
13,
13,
12,
14,
12,
9,
14,
15,
12,
16,
13,
5,
15,
12,
9,
17,
17,
16,
14,
13,
8,
13,
13,
15,
13,
12,
6,
13,
12,
13,
13,
13,
14,
13,
15,
12,
4,
15,
11,
9,
5,
13,
13,
13,
12,
13,
12,
13,
12,
13,
13,
13,
14,
12,
12,
13,
15,
15,
13,
13,
12,
13,
14,
13,
12,
13,
13,
13,
15,
11,
13,
12,
12,
13,
15,
13,
12,
12,
14,
16,
13,
13,
13,
14,
15,
13,
13,
12,
12,
11,
13,
13,
12,
15,
12,
13,
13,
12,
14,
13,
13,
12,
15,
10,
13,
12,
9,
14,
11,
11,
13,
12,
12,
13,
13,
13,
13,
13,
15,
13,
12,
12,
13,
15,
15,
12,
12,
13,
12,
9,
12,
12,
11,
13,
13,
13,
12,
12,
13,
10,
15,
14,
15,
15,
13,
13,
14,
14,
13,
13,
13,
14,
14,
12,
12,
15,
13,
11,
11,
13,
15,
13,
12,
13,
15,
14,
13,
13,
13,
13,
13,
13,
13,
13,
17,
11,
13,
14,
13,
13,
12,
12,
14,
12,
13,
13,
13,
13,
13,
12,
13,
13,
9,
12,
12,
13,
8,
13,
12,
13,
13,
13,
12,
12,
12,
13,
14,
13,
12,
13,
16,
15,
11,
12,
13,
13,
13,
12,
13,
13,
12,
12,
14,
13,
11,
13,
13,
13,
12,
12,
15,
15,
15,
13,
13,
8,
13,
13,
15,
14,
13,
12,
14,
14,
12,
12,
14,
14,
15,
15,
13,
13,
14,
13,
13,
13,
13,
13,
14,
13,
13,
13,
12,
15,
13,
13,
15,
13,
13,
13,
13,
13,
13,
13,
13,
13,
13,
13,
18,
11,
13,
15,
13,
13,
13,
13,
12,
13,
15,
13,
13,
13,
14,
13,
14,
9,
21,
15,
13,
13,
13,
11,
13,
12,
11,
15,
13,
12,
13,
10,
13,
13,
9,
16,
16,
15,
12,
13,
13,
16,
14,
13,
14,
13,
13,
15,
12,
14,
12,
12,
12,
12,
12,
14,
14,
13,
13,
12,
12,
13,
13,
13,
13,
12,
15,
13,
15,
11,
12,
14,
13,
12,
13,
13,
13,
13,
13,
13,
12,
12,
13,
13,
11,
13,
13,
12,
13,
13,
13,
13,
13,
14,
15,
13,
13,
13,
15,
13,
13,
13,
12,
14,
12,
12,
15,
14,
17,
14,
13,
12,
14,
15,
13,
11,
14,
13,
12,
13,
6,
15,
13,
13,
13,
13,
13,
13,
13,
12,
13,
13,
13,
14,
12,
13,
7,
7,
16,
14,
12,
13,
13,
12,
13,
12,
13,
13,
12,
12,
13,
13,
12,
13,
15,
14,
11,
12,
13,
15,
12,
13,
12,
16,
16,
13,
13,
13,
14,
15,
15,
13,
11,
12,
15,
13,
14,
15,
17,
17,
14,
13,
14,
13,
14,
15,
14,
13,
13,
13,
15,
13,
11,
11,
13,
13,
13,
13,
13,
14,
14,
12,
13,
13,
9,
13,
11,
11,
13,
12,
12,
14,
12,
13,
15,
13,
13,
15,
13,
13,
13,
14,
13,
15,
15,
11,
13,
13,
13,
13,
13,
14,
12,
13,
13,
13,
13,
13,
11,
14,
13,
15,
12,
12,
12,
15,
12,
13,
13,
14,
13,
12,
12,
13,
13,
13,
13,
7,
15,
15,
17,
13,
16,
14,
14,
14,
14,
9,
13,
13,
15,
13,
13,
13,
12,
13,
14,
13,
16,
16,
13,
15,
14,
13,
14,
15,
13,
13,
10,
13,
14,
15,
14,
14,
15,
15,
13,
13,
15,
13,
13,
13,
10,
14,
11,
15,
13,
12,
12,
16,
12,
13,
15,
13,
11,
14,
12,
14,
14,
13,
11,
14,
14,
23,
12,
10,
11,
13,
12,
14,
12,
13,
12,
13,
14,
13,
13,
14,
14,
12,
13,
13,
13,
15,
12,
13,
13,
13,
13,
13,
11,
13,
13,
13,
13,
13,
14,
14,
13,
15,
15,
12,
13,
13,
13,
13,
13,
13,
15,
12,
12,
13,
13,
12,
12,
10,
10,
12,
13,
12,
13,
13,
15,
12,
13,
13,
13,
12,
13,
8,
12,
13,
12,
6,
12,
12,
15,
12,
11,
10,
13,
13,
13,
11,
13,
13,
15,
13,
13,
13,
13,
12,
13,
15,
13,
13,
12,
11,
13,
13,
12,
15,
13,
