Datos experimentales/DATOS 26-3-24/ALL0024/A0024CH1.CSV

Memory Length,4000,
Trigger Level,0.000E+00,
Source,CH1,
Vertical Units,V,
Vertical Scale,2.000E-02,
Vertical Position,-1.200E-02,
Horizontal Units,s,
Horizontal Scale,1.000E+00,
Horizontal Position,0.000E+00,
Horizontal Mode,Roll Mode,
Waveform Last Dot Address,3710,
Sampling Period,4.000E-03,
Firmware, V1.21,
Waveform Data,
8,
8,
8,
7,
9,
9,
9,
7,
5,
6,
8,
8,
9,
11,
8,
9,
8,
8,
8,
8,
8,
9,
8,
8,
11,
9,
7,
8,
6,
7,
11,
11,
11,
8,
10,
8,
11,
8,
8,
8,
11,
8,
9,
10,
8,
8,
9,
8,
9,
9,
7,
13,
8,
10,
8,
7,
8,
7,
7,
7,
8,
9,
7,
8,
9,
8,
8,
11,
8,
8,
8,
8,
10,
9,
8,
7,
9,
8,
9,
8,
8,
8,
8,
8,
9,
8,
6,
7,
9,
9,
8,
6,
7,
7,
9,
11,
11,
8,
7,
5,
7,
9,
10,
8,
8,
8,
7,
8,
8,
8,
8,
9,
10,
10,
5,
8,
8,
9,
8,
8,
8,
8,
8,
9,
9,
7,
9,
8,
9,
8,
8,
9,
8,
7,
17,
17,
8,
8,
10,
8,
9,
8,
8,
8,
8,
9,
8,
8,
8,
8,
9,
9,
7,
8,
8,
7,
9,
12,
9,
9,
8,
8,
7,
8,
8,
8,
8,
8,
8,
8,
10,
8,
9,
7,
7,
8,
7,
9,
11,
14,
8,
9,
7,
8,
9,
9,
8,
8,
9,
8,
8,
9,
7,
8,
9,
9,
8,
10,
7,
9,
9,
9,
8,
8,
11,
7,
9,
8,
8,
8,
9,
8,
9,
9,
9,
8,
8,
8,
7,
8,
8,
7,
14,
9,
8,
13,
13,
9,
8,
7,
8,
8,
9,
8,
8,
9,
8,
8,
8,
8,
9,
5,
9,
7,
9,
7,
9,
8,
8,
4,
9,
9,
9,
8,
9,
8,
7,
9,
8,
8,
8,
7,
9,
9,
11,
11,
8,
9,
8,
8,
8,
9,
8,
8,
8,
9,
9,
9,
9,
8,
8,
9,
8,
9,
10,
9,
13,
8,
9,
10,
9,
9,
8,
8,
8,
9,
9,
8,
9,
9,
8,
8,
9,
8,
8,
8,
10,
10,
7,
9,
7,
8,
7,
9,
8,
9,
9,
9,
9,
7,
5,
9,
9,
9,
11,
8,
7,
9,
11,
9,
8,
8,
6,
9,
9,
9,
7,
9,
8,
8,
9,
8,
11,
11,
9,
8,
8,
7,
5,
9,
9,
11,
8,
8,
9,
8,
8,
9,
9,
9,
7,
9,
9,
8,
8,
9,
8,
9,
8,
8,
5,
7,
6,
8,
8,
9,
8,
8,
9,
8,
8,
9,
9,
8,
8,
8,
8,
9,
8,
8,
9,
7,
7,
9,
11,
8,
8,
9,
8,
9,
8,
8,
7,
8,
8,
9,
9,
9,
9,
9,
9,
7,
6,
8,
8,
7,
9,
8,
9,
9,
8,
9,
9,
7,
8,
9,
9,
8,
8,
8,
9,
8,
8,
8,
3,
3,
8,
9,
8,
9,
8,
9,
8,
8,
8,
9,
8,
9,
9,
9,
8,
9,
8,
9,
8,
7,
9,
9,
8,
11,
8,
8,
8,
9,
9,
8,
10,
12,
8,
8,
8,
5,
8,
9,
9,
8,
8,
7,
8,
8,
9,
8,
11,
8,
8,
10,
9,
8,
8,
9,
9,
8,
7,
8,
8,
9,
9,
8,
8,
4,
8,
8,
8,
9,
13,
9,
8,
8,
7,
8,
9,
8,
9,
7,
7,
9,
8,
8,
8,
7,
9,
9,
9,
8,
5,
7,
8,
8,
8,
8,
9,
8,
8,
8,
11,
8,
8,
7,
8,
9,
8,
8,
13,
7,
7,
8,
13,
10,
8,
9,
8,
8,
8,
8,
10,
9,
8,
9,
8,
8,
8,
9,
9,
8,
8,
10,
8,
8,
7,
8,
9,
9,
8,
9,
8,
8,
7,
9,
9,
8,
8,
9,
8,
9,
9,
8,
9,
7,
6,
9,
7,
3,
10,
10,
9,
9,
9,
9,
8,
9,
8,
8,
8,
9,
8,
8,
8,
9,
8,
7,
9,
9,
8,
11,
8,
9,
7,
7,
9,
9,
7,
8,
7,
8,
8,
10,
8,
9,
8,
9,
9,
10,
15,
15,
11,
8,
7,
8,
9,
8,
9,
7,
5,
9,
9,
9,
9,
8,
9,
9,
8,
8,
8,
9,
20,
8,
10,
8,
8,
8,
8,
9,
9,
8,
8,
8,
9,
9,
9,
8,
8,
7,
7,
9,
7,
7,
8,
9,
7,
6,
7,
7,
10,
7,
8,
8,
8,
8,
5,
8,
8,
9,
9,
8,
8,
8,
5,
9,
8,
9,
8,
8,
8,
7,
8,
8,
9,
8,
8,
9,
9,
8,
8,
8,
8,
8,
8,
8,
8,
8,
8,
8,
10,
8,
11,
13,
15,
15,
8,
8,
9,
9,
8,
8,
9,
8,
9,
9,
9,
9,
9,
9,
9,
8,
8,
10,
8,
7,
9,
8,
8,
10,
6,
8,
8,
7,
10,
8,
9,
8,
8,
8,
8,
9,
8,
8,
8,
8,
8,
8,
9,
11,
7,
9,
11,
9,
8,
9,
12,
8,
8,
9,
9,
7,
8,
9,
7,
5,
8,
8,
10,
8,
8,
8,
7,
9,
9,
6,
9,
10,
7,
9,
8,
8,
8,
8,
9,
7,
9,
9,
8,
8,
8,
9,
9,
8,
9,
9,
6,
3,
8,
7,
9,
9,
8,
9,
8,
8,
8,
8,
8,
9,
8,
8,
9,
9,
9,
9,
12,
8,
5,
9,
9,
8,
8,
8,
7,
8,
9,
9,
8,
8,
9,
8,
4,
8,
8,
9,
9,
8,
9,
8,
8,
9,
7,
7,
8,
9,
8,
8,
9,
9,
8,
9,
8,
8,
9,
8,
9,
9,
8,
7,
9,
9,
8,
8,
5,
8,
8,
8,
8,
8,
9,
8,
9,
8,
8,
7,
9,
7,
10,
10,
9,
8,
9,
10,
8,
8,
8,
8,
8,
9,
10,
11,
8,
8,
9,
7,
7,
10,
9,
5,
6,
7,
9,
9,
8,
9,
9,
5,
7,
8,
15,
9,
8,
9,
8,
9,
8,
8,
-11,
-11,
9,
8,
10,
9,
8,
8,
9,
9,
7,
9,
9,
9,
8,
8,
9,
9,
9,
7,
8,
9,
8,
7,
7,
11,
10,
9,
9,
7,
9,
9,
9,
8,
7,
9,
8,
7,
10,
9,
8,
8,
8,
9,
8,
9,
9,
8,
9,
8,
7,
9,
8,
7,
7,
9,
9,
9,
8,
9,
9,
8,
8,
8,
9,
8,
8,
8,
8,
8,
9,
10,
7,
9,
7,
13,
7,
9,
8,
8,
9,
8,
8,
8,
9,
8,
8,
8,
9,
8,
8,
8,
9,
8,
8,
8,
9,
8,
8,
8,
9,
8,
8,
9,
9,
8,
8,
7,
7,
8,
8,
8,
6,
7,
8,
9,
8,
9,
6,
11,
6,
6,
9,
10,
6,
8,
10,
7,
10,
8,
8,
8,
9,
8,
8,
8,
9,
8,
9,
10,
8,
8,
9,
8,
8,
9,
8,
9,
9,
8,
9,
9,
9,
7,
9,
8,
8,
9,
9,
8,
8,
8,
9,
8,
8,
8,
9,
7,
8,
8,
8,
11,
8,
9,
15,
15,
8,
9,
8,
10,
8,
8,
10,
8,
7,
9,
8,
3,
9,
9,
9,
9,
9,
8,
7,
9,
8,
8,
9,
8,
8,
9,
9,
8,
7,
9,
9,
8,
8,
9,
7,
12,
8,
15,
8,
8,
8,
9,
9,
8,
8,
7,
11,
8,
8,
8,
8,
8,
8,
8,
7,
8,
8,
9,
9,
8,
8,
8,
8,
8,
9,
7,
7,
8,
8,
8,
9,
8,
9,
9,
6,
7,
8,
9,
8,
8,
9,
9,
7,
11,
4,
15,
7,
8,
8,
11,
9,
7,
7,
13,
8,
8,
8,
8,
8,
8,
8,
9,
9,
8,
9,
8,
8,
8,
9,
8,
12,
6,
9,
5,
8,
10,
9,
9,
9,
8,
8,
7,
9,
7,
8,
12,
7,
8,
7,
4,
7,
8,
8,
8,
8,
8,
9,
8,
9,
8,
8,
8,
8,
8,
8,
8,
8,
8,
8,
7,
9,
9,
9,
7,
8,
8,
9,
10,
8,
8,
8,
9,
9,
8,
9,
13,
9,
7,
8,
7,
7,
8,
12,
12,
7,
8,
10,
13,
5,
1,
8,
8,
7,
8,
9,
8,
7,
7,
9,
9,
11,
8,
9,
8,
8,
8,
9,
8,
8,
8,
8,
8,
10,
6,
8,
8,
8,
8,
10,
10,
10,
9,
10,
11,
11,
13,
13,
13,
13,
15,
15,
14,
15,
16,
16,
16,
17,
24,
24,
21,
21,
21,
21,
23,
23,
23,
26,
26,
27,
28,
27,
27,
31,
28,
32,
31,
29,
31,
33,
35,
36,
35,
36,
36,
41,
41,
38,
39,
40,
37,
40,
44,
41,
43,
47,
45,
46,
47,
47,
48,
49,
51,
49,
49,
53,
52,
53,
57,
57,
57,
61,
61,
64,
61,
59,
63,
64,
67,
65,
66,
69,
66,
67,
72,
74,
74,
73,
75,
76,
75,
78,
76,
77,
79,
78,
80,
80,
81,
81,
82,
82,
82,
83,
85,
84,
84,
83,
85,
80,
83,
85,
83,
83,
84,
81,
81,
84,
84,
85,
82,
84,
81,
84,
81,
81,
83,
83,
85,
85,
83,
83,
81,
81,
83,
81,
80,
81,
83,
83,
81,
80,
80,
79,
81,
81,
81,
79,
81,
80,
81,
81,
80,
81,
81,
80,
80,
79,
78,
80,
77,
81,
81,
80,
80,
80,
80,
79,
80,
80,
79,
80,
79,
77,
81,
78,
77,
75,
75,
76,
77,
73,
72,
72,
72,
77,
78,
74,
73,
73,
73,
73,
72,
75,
75,
71,
71,
72,
72,
69,
71,
71,
70,
70,
69,
68,
69,
69,
69,
69,
69,
67,
69,
68,
68,
65,
64,
68,
68,
67,
66,
66,
67,
67,
67,
67,
68,
65,
65,
65,
67,
67,
64,
65,
65,
65,
63,
63,
67,
65,
64,
68,
66,
66,
67,
67,
67,
65,
63,
64,
64,
64,
62,
64,
64,
62,
63,
61,
61,
60,
61,
61,
61,
61,
61,
61,
53,
59,
61,
59,
59,
61,
60,
56,
59,
59,
57,
57,
55,
57,
58,
60,
58,
56,
55,
52,
57,
56,
55,
54,
55,
55,
52,
57,
51,
59,
53,
53,
55,
55,
55,
55,
54,
61,
57,
57,
54,
56,
53,
53,
55,
54,
55,
56,
53,
55,
55,
53,
53,
53,
53,
50,
53,
52,
53,
53,
53,
53,
51,
53,
55,
55,
52,
51,
53,
53,
52,
55,
53,
53,
53,
53,
53,
53,
51,
51,
53,
56,
58,
51,
47,
51,
51,
50,
49,
48,
51,
49,
49,
49,
47,
47,
49,
48,
47,
49,
47,
47,
48,
48,
45,
47,
47,
46,
47,
46,
47,
47,
42,
45,
45,
45,
45,
45,
45,
45,
45,
46,
45,
44,
43,
43,
45,
44,
44,
44,
44,
43,
43,
41,
41,
42,
43,
44,
39,
39,
43,
43,
35,
35,
40,
39,
39,
43,
43,
42,
41,
41,
43,
40,
41,
41,
41,
41,
41,
42,
42,
42,
38,
43,
42,
42,
41,
41,
40,
41,
41,
41,
40,
41,
40,
40,
40,
40,
40,
40,
40,
40,
40,
39,
40,
40,
39,
40,
40,
38,
41,
40,
37,
39,
41,
36,
36,
37,
39,
40,
39,
39,
41,
41,
38,
40,
41,
39,
43,
41,
40,
41,
40,
40,
40,
40,
40,
40,
40,
40,
39,
39,
40,
38,
38,
37,
38,
37,
37,
37,
35,
37,
38,
35,
35,
34,
34,
35,
35,
35,
35,
33,
36,
36,
33,
34,
29,
39,
38,
35,
29,
35,
31,
33,
23,
31,
31,
31,
31,
31,
29,
31,
29,
38,
28,
31,
31,
32,
32,
31,
31,
30,
27,
28,
30,
32,
31,
29,
31,
30,
31,
29,
31,
29,
29,
29,
32,
30,
30,
29,
29,
29,
30,
29,
29,
29,
29,
29,
30,
29,
25,
29,
29,
28,
32,
29,
29,
33,
31,
33,
26,
26,
29,
29,
25,
27,
30,
29,
28,
29,
28,
29,
35,
29,
29,
29,
28,
27,
29,
29,
29,
27,
29,
28,
31,
29,
30,
27,
29,
29,
29,
29,
30,
31,
30,
30,
30,
31,
30,
29,
29,
30,
30,
29,
29,
29,
29,
29,
31,
29,
29,
29,
32,
31,
29,
29,
29,
32,
31,
28,
30,
29,
28,
30,
31,
27,
27,
29,
25,
29,
29,
28,
29,
28,
29,
27,
28,
29,
29,
27,
25,
29,
29,
29,
28,
29,
29,
28,
30,
30,
29,
28,
29,
29,
30,
29,
29,
29,
29,
30,
29,
29,
29,
30,
31,
31,
30,
29,
29,
25,
32,
32,
32,
29,
29,
31,
29,
28,
29,
30,
27,
30,
30,
29,
29,
29,
29,
28,
28,
28,
28,
27,
28,
28,
27,
27,
27,
26,
26,
26,
26,
26,
24,
24,
24,
24,
25,
24,
22,
24,
21,
24,
24,
23,
21,
20,
21,
21,
21,
23,
22,
21,
21,
22,
19,
24,
24,
20,
17,
19,
18,
18,
15,
20,
21,
19,
19,
18,
19,
19,
15,
18,
19,
18,
18,
17,
17,
17,
17,
19,
18,
18,
17,
17,
16,
17,
17,
18,
17,
16,
16,
17,
17,
17,
17,
17,
19,
19,
17,
19,
19,
19,
17,
17,
16,
18,
16,
17,
16,
17,
17,
17,
18,
16,
20,
13,
17,
17,
19,
18,
16,
15,
16,
17,
17,
17,
15,
19,
17,
16,
17,
17,
19,
16,
16,
17,
19,
16,
16,
16,
17,
17,
15,
17,
17,
16,
16,
15,
14,
15,
16,
17,
17,
15,
15,
16,
18,
17,
16,
19,
18,
16,
15,
16,
16,
16,
16,
16,
15,
15,
16,
15,
16,
15,
13,
13,
13,
15,
15,
15,
15,
16,
16,
20,
14,
16,
15,
15,
15,
15,
16,
14,
15,
15,
16,
15,
15,
15,
16,
16,
16,
16,
15,
13,
14,
15,
16,
16,
15,
15,
15,
16,
15,
15,
15,
15,
15,
16,
16,
19,
16,
16,
16,
16,
15,
15,
13,
14,
15,
15,
13,
15,
17,
15,
19,
13,
15,
15,
15,
16,
16,
15,
14,
17,
15,
15,
16,
15,
16,
16,
16,
16,
16,
15,
16,
15,
16,
17,
16,
17,
16,
15,
16,
15,
15,
15,
15,
15,
16,
16,
17,
16,
15,
15,
16,
17,
16,
14,
14,
17,
16,
14,
16,
17,
17,
16,
14,
17,
17,
14,
17,
17,
17,
17,
16,
16,
16,
17,
15,
16,
16,
21,
17,
17,
16,
17,
16,
17,
16,
16,
19,
16,
15,
17,
17,
17,
17,
17,
15,
16,
17,
16,
16,
17,
17,
15,
12,
16,
16,
18,
15,
16,
16,
15,
19,
15,
15,
15,
16,
17,
15,
15,
14,
17,
16,
13,
11,
16,
16,
16,
16,
17,
17,
16,
16,
15,
13,
16,
16,
15,
16,
15,
16,
16,
16,
16,
16,
16,
16,
17,
16,
15,
16,
15,
16,
16,
15,
15,
16,
16,
16,
14,
16,
17,
14,
16,
14,
17,
16,
16,
14,
15,
17,
14,
14,
17,
15,
15,
14,
19,
16,
14,
15,
8,
15,
15,
15,
15,
17,
16,
14,
15,
16,
15,
21,
16,
16,
15,
16,
16,
15,
15,
16,
14,
15,
13,
16,
15,
17,
15,
16,
15,
16,
16,
16,
16,
15,
14,
16,
15,
16,
16,
14,
15,
15,
13,
16,
16,
17,
17,
15,
17,
15,
16,
16,
16,
13,
16,
15,
19,
15,
15,
15,
16,
15,
15,
17,
17,
15,
15,
15,
16,
16,
16,
15,
17,
17,
15,
16,
17,
16,
17,
15,
16,
16,
17,
15,
16,
16,
19,
17,
17,
17,
17,
16,
17,
17,
17,
15,
16,
16,
17,
15,
16,
17,
17,
15,
15,
15,
17,
17,
16,
18,
17,
17,
14,
19,
12,
16,
16,
16,
16,
16,
16,
16,
16,
16,
16,
13,
18,
17,
16,
19,
16,
16,
16,
18,
16,
16,
15,
16,
15,
16,
17,
17,
17,
16,
15,
15,
15,
15,
17,
16,
17,
17,
16,
15,
16,
16,
16,
16,
16,
16,
16,
16,
15,
16,
17,
15,
15,
15,
16,
15,
16,
12,
19,
19,
25,
15,
16,
16,
16,
15,
14,
15,
15,
15,
13,
13,
13,
13,
13,
13,
13,
13,
11,
12,
12,
11,
11,
13,
11,
12,
10,
11,
11,
11,
9,
12,
11,
11,
10,
11,
12,
11,
12,
10,
10,
9,
10,
10,
9,
10,
13,
10,
9,
11,
11,
11,
9,
7,
8,
7,
10,
10,
7,
9,
9,
9,
11,
9,
8,
11,
18,
9,
9,
9,
9,
9,
9,
9,
9,
9,
9,
7,
9,
9,
9,
9,
8,
9,
9,
8,
8,
9,
5,
9,
8,
9,
8,
8,
9,
8,
7,
9,
9,
8,
8,
9,
8,
7,
8,
9,
10,
2,
8,
8,
8,
9,
9,
8,
7,
10,
9,
8,
9,
9,
8,
8,
8,
8,
9,
9,
9,
8,
8,
9,
8,
9,
9,
8,
8,
8,
8,
9,
8,
8,
8,
9,
8,
8,
9,
7,
8,
9,
7,
8,
9,
9,
9,
11,
11,
13,
10,
8,
8,
8,
8,
9,
8,
9,
7,
9,
9,
9,
9,
11,
9,
9,
8,
9,
8,
9,
9,
8,
8,
9,
9,
9,
8,
9,
8,
7,
8,
8,
8,
9,
8,
8,
8,
10,
8,
8,
8,
8,
7,
8,
8,
10,
8,
9,
5,
8,
12,
2,
11,
11,
8,
8,
8,
5,
8,
8,
8,
7,
8,
8,
9,
9,
7,
8,
9,
7,
7,
8,
9,
8,
8,
8,
7,
8,
8,
8,
10,
7,
8,
8,
8,
5,
8,
9,
9,
8,
7,
8,
7,
9,
8,
7,
11,
11,
8,
8,
5,
5,
9,
8,
8,
8,
8,
9,
9,
8,
8,
8,
9,
8,
9,
9,
7,
8,
8,
9,
9,
8,
8,
8,
8,
8,
8,
8,
8,
8,
8,
8,
9,
8,
8,
8,
8,
9,
8,
8,
9,
8,
7,
9,
8,
8,
8,
9,
9,
7,
6,
9,
12,
11,
8,
8,
8,
9,
9,
8,
10,
7,
8,
8,
8,
8,
8,
9,
10,
8,
8,
8,
8,
9,
8,
8,
7,
8,
8,
9,
9,
8,
8,
8,
7,
8,
8,
8,
8,
9,
8,
9,
9,
9,
8,
8,
8,
8,
10,
8,
9,
11,
8,
5,
8,
9,
9,
8,
10,
10,
10,
7,
6,
13,
8,
8,
12,
9,
8,
7,
7,
8,
6,
9,
9,
9,
9,
8,
9,
9,
9,
8,
9,
9,
8,
9,
9,
10,
10,
8,
3,
9,
8,
11,
9,
9,
7,
7,
9,
7,
9,
9,
9,
11,
9,
8,
9,
8,
9,
11,
9,
8,
7,
8,
9,
9,
9,
9,
8,
8,
8,
8,
8,
8,
8,
9,
9,
9,
8,
8,
8,
8,
9,
8,
8,
7,
7,
8,
9,
9,
8,
11,
8,
7,
9,
9,
9,
7,
9,
10,
8,
7,
8,
8,
6,
7,
9,
9,
9,
9,
9,
9,
8,
8,
7,
8,
9,
9,
8,
9,
8,
7,
7,
7,
8,
9,
9,
9,
9,
7,
8,
7,
9,
8,
8,
9,
9,
8,
7,
7,
8,
8,
9,
9,
8,
9,
7,
7,
11,
7,
7,
11,
10,
12,
8,
9,
9,
8,
9,
8,
8,
9,
9,
8,
8,
8,
8,
9,
9,
8,
9,
9,
9,
8,
8,
6,
8,
8,
8,
11,
8,
7,
7,
6,
8,
8,
8,
9,
8,
8,
8,
9,
9,
8,
9,
7,
8,
6,
9,
11,
7,
8,
9,
11,
7,
9,
9,
11,
10,
9,
7,
8,
8,
9,
9,
9,
9,
8,
7,
9,
9,
8,
9,
9,
9,
9,
7,
8,
8,
8,
9,
8,
9,
7,
7,
9,
9,
9,
10,
9,
8,
8,
8,
2,
9,
9,
12,
12,
8,
10,
7,
7,
9,
5,
8,
9,
9,
8,
6,
3,
9,
9,
8,
10,
10,
8,
8,
4,
8,
9,
9,
13,
8,
8,
8,
8,
8,
11,
11,
8,
8,
8,
8,
9,
8,
8,
10,
9,
8,
8,
7,
9,
9,
7,
8,
9,
8,
8,
8,
9,
8,
9,
7,
10,
4,
5,
5,
9,
-1,
8,
9,
10,
8,
7,
8,
9,
8,
9,
9,
8,
8,
8,
9,
7,
8,
8,
9,
8,
8,
8,
8,
9,
8,
8,
9,
9,
8,
7,
7,
8,
9,
8,
10,
7,
8,
8,
8,
8,
7,
8,
8,
8,
7,
11,
7,
13,
8,
9,
10,
8,
9,
8,
7,
9,
9,
9,
9,
9,
7,
8,
7,
8,
7,
9,
10,
9,
8,
8,
8,
8,
10,
7,
10,
8,
8,
8,
9,
8,
9,
8,
11,
9,
9,
8,
9,
9,
10,
7,
7,
8,
10,
7,
7,
3,
5,
5,
8,
8,
8,
9,
8,
9,
8,
5,
9,
8,
8,
8,
8,
8,
8,
7,
9,
7,
8,
7,
9,
9,
8,
8,
9,
9,
8,
8,
9,
8,
9,
8,
7,
9,
9,
8,
8,
8,
9,
8,
8,
8,
9,
7,
7,
10,
9,
8,
7,
9,
4,
5,
9,
8,
9,
8,
10,
10,
9,
8,
8,
8,
8,
9,
9,
9,
8,
7,
8,
8,
8,
9,
9,
8,
8,
8,
8,
8,
9,
8,
8,
9,
8,
8,
9,
9,
8,
8,
9,
9,
8,
7,
9,
8,
7,
8,
9,
9,
4,
4,
7,
8,
8,
8,
7,
9,
8,
7,
8,
10,
14,
9,
9,
9,
8,
9,
8,
9,
8,
7,
9,
9,
9,
8,
8,
9,
9,
8,
8,
9,
9,
7,
9,
8,
8,
8,
9,
8,
9,
8,
8,
8,
9,
8,
8,
9,
10,
7,
9,
11,
6,
12,
5,
9,
8,
8,
10,
8,
8,
8,
9,
9,
9,
8,
8,
8,
9,
8,
8,
8,
8,
8,
8,
9,
9,
8,
8,
9,
8,
8,
9,
8,
7,
7,
5,
8,
11,
10,
9,
8,
8,
7,
7,
9,
7,
12,
16,
16,
8,
7,
10,
8,
1,
9,
8,
9,
8,
10,
7,
9,
9,
9,
9,
8,
8,
10,
9,
7,
8,
9,
8,
8,
8,
9,
8,
8,
8,
8,
7,
8,
8,
8,
7,
8,
9,
9,
8,
9,
9,
8,
9,
8,
9,
8,
8,
8,
9,
7,
8,
9,
7,
5,
9,
8,
9,
9,
8,
9,
9,
8,
8,
8,
8,
9,
8,
8,
8,
7,
9,
9,
8,
7,
8,
8,
8,
7,
9,
8,
8,
11,
9,
8,
10,
10,
8,
8,
9,
11,
8,
8,
7,
8,
9,
8,
9,
8,
8,
9,
9,
8,
11,
13,
11,
2,
8,
9,
9,
9,
9,
8,
8,
10,
9,
8,
8,
9,
9,
8,
9,
8,
8,
7,
8,
9,
9,
8,
9,
8,
7,
8,
8,
8,
9,
8,
8,
8,
8,
10,
10,
8,
9,
8,
7,
9,
9,
8,
8,
9,
11,
8,
8,
8,
7,
6,
6,
9,
9,
9,
11,
9,
Null,
Null,
Null,
Null,
Null,
Null,
Null,
Null,
Null,
Null,
Null,
Null,
Null,
Null,
Null,
Null,
Null,
Null,
Null,
Null,
Null,
Null,
Null,
Null,
Null,
Null,
Null,
Null,
Null,
Null,
Null,
Null,
Null,
Null,
Null,
Null,
Null,
Null,
Null,
Null,
Null,
Null,
Null,
Null,
Null,
Null,
Null,
Null,
Null,
Null,
Null,
Null,
Null,
Null,
Null,
Null,
Null,
Null,
Null,
Null,
Null,
Null,
Null,
Null,
Null,
Null,
Null,
Null,
Null,
Null,
Null,
Null,
Null,
Null,
Null,
Null,
Null,
Null,
Null,
Null,
Null,
Null,
Null,
Null,
Null,
Null,
Null,
Null,
Null,
Null,
Null,
Null,
Null,
Null,
Null,
Null,
Null,
Null,
Null,
Null,
Null,
Null,
Null,
Null,
Null,
Null,
Null,
Null,
Null,
Null,
Null,
Null,
Null,
Null,
Null,
Null,
Null,
Null,
Null,
Null,
Null,
Null,
Null,
Null,
Null,
Null,
Null,
Null,
Null,
Null,
Null,
Null,
Null,
Null,
Null,
Null,
Null,
Null,
Null,
Null,
Null,
Null,
Null,
Null,
Null,
Null,
Null,
Null,
Null,
Null,
Null,
Null,
Null,
Null,
Null,
Null,
Null,
Null,
Null,
Null,
Null,
Null,
Null,
Null,
Null,
Null,
Null,
Null,
Null,
Null,
Null,
Null,
Null,
Null,
Null,
Null,
Null,
Null,
Null,
Null,
Null,
Null,
Null,
Null,
Null,
Null,
Null,
Null,
Null,
Null,
Null,
Null,
Null,
Null,
Null,
Null,
Null,
Null,
Null,
Null,
Null,
Null,
Null,
Null,
Null,
Null,
Null,
Null,
Null,
Null,
Null,
Null,
Null,
Null,
Null,
Null,
Null,
Null,
Null,
Null,
Null,
Null,
Null,
Null,
Null,
Null,
Null,
Null,
Null,
Null,
Null,
Null,
Null,
Null,
Null,
Null,
Null,
Null,
Null,
Null,
Null,
Null,
Null,
Null,
Null,
Null,
Null,
Null,
Null,
Null,
Null,
Null,
Null,
Null,
Null,
Null,
Null,
Null,
Null,
Null,
Null,
Null,
Null,
Null,
Null,
Null,
Null,
Null,
Null,
Null,
Null,
Null,
Null,
Null,
Null,
Null,
Null,
Null,
Null,
Null,
Null,
Null,
Null,
Null,
Null,
Null,
Null,
Null,
Null,
Null,
