Datos experimentales/DATOS 26-3-24/ALL0038/A0038CH1.CSV

Memory Length,4000,
Trigger Level,1.600E-03,
Source,CH1,
Vertical Units,V,
Vertical Scale,2.000E-02,
Vertical Position,-1.200E-02,
Horizontal Units,s,
Horizontal Scale,1.000E+00,
Horizontal Position,0.000E+00,
Horizontal Mode,Roll Mode,
Waveform Last Dot Address,3720,
Sampling Period,4.000E-03,
Firmware, V1.21,
Waveform Data,
12,
12,
15,
13,
13,
13,
13,
14,
13,
13,
12,
13,
14,
13,
12,
15,
13,
12,
12,
13,
10,
15,
12,
14,
12,
15,
13,
14,
12,
13,
13,
13,
13,
14,
14,
14,
13,
13,
14,
14,
13,
13,
13,
13,
13,
13,
14,
12,
14,
13,
11,
10,
10,
13,
14,
13,
14,
14,
14,
14,
14,
13,
13,
15,
13,
15,
14,
13,
14,
12,
12,
13,
14,
13,
15,
13,
16,
11,
12,
14,
13,
16,
12,
12,
13,
13,
13,
13,
13,
13,
13,
13,
13,
13,
14,
13,
13,
12,
13,
13,
14,
12,
13,
13,
13,
13,
13,
16,
13,
13,
14,
14,
16,
14,
13,
15,
16,
12,
13,
13,
14,
11,
11,
15,
13,
13,
13,
13,
13,
13,
13,
13,
13,
13,
12,
12,
13,
12,
14,
13,
14,
13,
15,
12,
19,
13,
14,
13,
13,
13,
13,
13,
13,
13,
13,
13,
13,
13,
15,
14,
15,
15,
14,
13,
13,
16,
13,
14,
11,
8,
18,
13,
12,
15,
15,
16,
13,
14,
12,
15,
13,
13,
13,
13,
13,
13,
13,
13,
13,
14,
13,
13,
13,
20,
11,
14,
12,
13,
10,
12,
12,
15,
12,
16,
13,
13,
13,
13,
13,
13,
13,
13,
13,
13,
13,
12,
13,
15,
13,
13,
14,
13,
16,
13,
13,
8,
8,
15,
10,
13,
14,
15,
13,
14,
13,
13,
13,
13,
14,
14,
14,
13,
16,
14,
13,
13,
13,
13,
15,
13,
13,
15,
15,
15,
13,
12,
17,
12,
11,
15,
13,
13,
13,
12,
13,
13,
13,
13,
14,
14,
14,
13,
13,
14,
13,
13,
12,
14,
14,
13,
14,
19,
11,
14,
13,
13,
15,
19,
14,
13,
12,
12,
13,
12,
14,
14,
13,
12,
14,
14,
13,
12,
13,
15,
15,
12,
13,
13,
15,
13,
13,
12,
17,
13,
15,
13,
16,
12,
12,
16,
13,
12,
15,
13,
13,
13,
13,
13,
14,
13,
13,
13,
13,
14,
13,
13,
13,
13,
13,
13,
13,
13,
13,
14,
14,
13,
15,
16,
16,
12,
14,
13,
13,
13,
14,
13,
13,
13,
13,
13,
12,
13,
13,
14,
13,
13,
14,
13,
13,
13,
13,
14,
12,
13,
15,
13,
13,
13,
11,
13,
15,
12,
13,
13,
13,
15,
13,
14,
16,
13,
13,
13,
13,
13,
13,
13,
13,
14,
13,
14,
13,
11,
15,
13,
15,
14,
13,
15,
17,
17,
13,
13,
13,
14,
13,
12,
13,
14,
13,
12,
13,
14,
14,
13,
13,
13,
14,
13,
14,
13,
17,
12,
15,
13,
13,
13,
15,
12,
13,
14,
14,
13,
13,
14,
13,
13,
13,
13,
13,
13,
13,
14,
14,
14,
12,
13,
13,
13,
15,
13,
17,
17,
13,
11,
8,
12,
12,
16,
15,
13,
13,
14,
13,
13,
13,
11,
14,
13,
13,
14,
13,
13,
15,
13,
13,
14,
13,
13,
14,
16,
11,
13,
12,
23,
17,
12,
15,
13,
14,
14,
14,
13,
13,
12,
13,
13,
14,
13,
12,
13,
16,
13,
13,
13,
13,
14,
13,
13,
13,
13,
11,
14,
13,
13,
15,
11,
15,
15,
13,
13,
13,
16,
15,
12,
13,
13,
13,
14,
11,
13,
13,
13,
14,
13,
13,
15,
12,
13,
14,
13,
9,
12,
13,
13,
15,
12,
14,
15,
15,
13,
13,
15,
12,
14,
13,
13,
13,
12,
13,
13,
13,
13,
13,
14,
13,
14,
13,
13,
14,
14,
13,
19,
11,
15,
13,
13,
5,
13,
10,
15,
15,
13,
13,
12,
15,
14,
13,
12,
14,
15,
14,
11,
13,
13,
13,
13,
13,
15,
13,
14,
13,
12,
13,
13,
13,
14,
12,
16,
16,
11,
15,
13,
15,
14,
14,
13,
13,
13,
13,
12,
13,
13,
15,
13,
13,
13,
13,
14,
15,
12,
13,
14,
12,
11,
14,
14,
15,
9,
14,
13,
14,
13,
13,
13,
13,
14,
13,
13,
13,
13,
13,
12,
13,
13,
14,
13,
13,
14,
14,
13,
14,
14,
14,
13,
14,
11,
13,
15,
10,
13,
13,
14,
16,
14,
14,
13,
13,
13,
13,
11,
13,
13,
12,
15,
13,
13,
14,
14,
13,
13,
13,
11,
12,
13,
13,
14,
13,
14,
12,
13,
13,
14,
13,
15,
13,
13,
13,
15,
14,
14,
12,
13,
14,
14,
12,
13,
13,
14,
14,
13,
13,
13,
15,
13,
13,
15,
15,
11,
14,
14,
14,
12,
14,
13,
14,
12,
13,
13,
14,
12,
12,
13,
14,
13,
13,
15,
13,
14,
13,
13,
16,
12,
12,
12,
7,
19,
12,
15,
14,
12,
15,
13,
13,
13,
13,
13,
13,
13,
13,
13,
12,
16,
13,
14,
13,
13,
13,
13,
13,
13,
16,
12,
12,
13,
13,
8,
13,
13,
15,
13,
14,
15,
15,
13,
13,
15,
13,
12,
14,
14,
14,
13,
13,
15,
14,
13,
13,
13,
13,
13,
12,
10,
12,
15,
13,
13,
15,
16,
15,
15,
13,
13,
13,
15,
13,
13,
13,
13,
14,
13,
13,
13,
13,
13,
15,
13,
13,
13,
13,
13,
13,
12,
12,
14,
13,
13,
13,
11,
13,
15,
14,
13,
13,
14,
13,
13,
13,
12,
15,
15,
13,
13,
13,
15,
14,
14,
12,
12,
13,
13,
13,
12,
12,
13,
19,
13,
12,
14,
12,
13,
15,
11,
13,
13,
13,
13,
15,
13,
17,
13,
13,
13,
13,
13,
13,
14,
13,
13,
13,
13,
13,
13,
14,
13,
13,
12,
14,
12,
14,
13,
13,
15,
15,
13,
13,
13,
13,
14,
13,
13,
9,
14,
14,
14,
13,
13,
13,
13,
16,
13,
13,
14,
8,
11,
17,
15,
14,
13,
13,
13,
15,
12,
13,
14,
14,
14,
14,
12,
14,
14,
13,
13,
13,
13,
14,
15,
12,
14,
12,
15,
13,
13,
9,
11,
13,
13,
13,
13,
13,
15,
14,
14,
12,
13,
13,
14,
13,
13,
13,
15,
13,
13,
13,
13,
13,
15,
13,
11,
13,
15,
13,
13,
13,
13,
12,
14,
12,
13,
14,
14,
13,
10,
14,
13,
13,
13,
13,
13,
15,
13,
13,
15,
15,
14,
13,
20,
14,
15,
15,
12,
12,
12,
12,
14,
13,
13,
14,
13,
13,
13,
13,
15,
15,
13,
13,
13,
15,
14,
15,
13,
13,
13,
15,
13,
13,
13,
21,
15,
15,
12,
14,
12,
13,
10,
15,
13,
14,
13,
13,
13,
13,
13,
13,
13,
14,
13,
13,
12,
11,
14,
13,
14,
14,
13,
13,
17,
16,
13,
12,
13,
15,
13,
9,
13,
13,
13,
13,
12,
13,
16,
14,
13,
13,
13,
15,
13,
12,
13,
13,
15,
14,
13,
14,
18,
14,
13,
13,
14,
12,
12,
13,
13,
7,
13,
11,
13,
14,
12,
15,
12,
13,
14,
14,
13,
14,
14,
13,
13,
13,
13,
14,
16,
13,
13,
14,
13,
15,
15,
14,
14,
15,
14,
22,
12,
14,
15,
13,
13,
14,
15,
14,
11,
11,
13,
14,
13,
13,
13,
13,
11,
13,
13,
12,
13,
13,
13,
13,
11,
12,
13,
14,
11,
19,
12,
14,
13,
12,
15,
13,
13,
13,
13,
13,
15,
13,
16,
13,
14,
14,
15,
13,
13,
13,
15,
8,
15,
15,
15,
19,
15,
13,
13,
14,
13,
14,
14,
14,
15,
15,
12,
15,
15,
21,
13,
13,
14,
17,
14,
12,
12,
15,
15,
15,
15,
15,
15,
19,
17,
15,
15,
15,
17,
15,
15,
17,
15,
17,
17,
16,
17,
15,
17,
16,
17,
16,
14,
14,
19,
16,
17,
17,
16,
16,
15,
17,
15,
19,
17,
17,
17,
17,
15,
16,
10,
17,
17,
18,
16,
19,
17,
18,
17,
17,
17,
17,
14,
17,
19,
18,
16,
23,
16,
16,
19,
18,
17,
17,
19,
17,
15,
16,
17,
17,
17,
23,
17,
19,
19,
21,
21,
17,
19,
19,
23,
20,
20,
21,
21,
21,
23,
20,
23,
25,
25,
26,
24,
29,
30,
29,
29,
29,
31,
31,
31,
32,
32,
33,
33,
36,
36,
38,
35,
36,
39,
39,
40,
42,
41,
43,
42,
43,
44,
44,
35,
45,
42,
45,
48,
40,
49,
49,
48,
49,
50,
51,
53,
53,
46,
56,
55,
57,
57,
61,
59,
61,
61,
63,
66,
65,
65,
66,
67,
68,
69,
67,
71,
72,
72,
74,
76,
75,
77,
77,
75,
79,
80,
76,
80,
80,
83,
83,
80,
81,
83,
83,
83,
83,
83,
85,
84,
86,
84,
87,
88,
88,
85,
88,
87,
88,
88,
88,
87,
85,
89,
88,
89,
95,
87,
87,
91,
89,
89,
89,
89,
88,
87,
89,
87,
88,
89,
84,
87,
87,
84,
85,
86,
86,
88,
87,
88,
88,
87,
87,
84,
87,
86,
85,
90,
87,
84,
84,
83,
84,
84,
83,
85,
84,
85,
84,
84,
84,
81,
85,
85,
84,
83,
85,
81,
87,
81,
125,
84,
82,
80,
81,
79,
80,
80,
81,
82,
82,
82,
83,
77,
81,
82,
80,
79,
81,
79,
79,
79,
78,
78,
78,
77,
78,
77,
77,
77,
73,
80,
77,
77,
77,
76,
76,
77,
76,
77,
80,
75,
75,
77,
77,
74,
76,
73,
73,
73,
75,
75,
73,
73,
73,
73,
72,
72,
72,
75,
73,
73,
72,
74,
75,
72,
71,
72,
71,
72,
72,
71,
71,
71,
72,
72,
69,
71,
68,
69,
70,
72,
71,
68,
68,
69,
67,
70,
70,
68,
69,
69,
68,
69,
68,
68,
64,
67,
69,
67,
66,
66,
67,
65,
66,
67,
64,
64,
64,
64,
63,
64,
62,
65,
63,
63,
70,
66,
64,
64,
61,
63,
64,
64,
63,
60,
63,
64,
63,
63,
63,
65,
60,
61,
63,
63,
61,
62,
65,
63,
60,
61,
59,
59,
60,
57,
60,
60,
51,
58,
60,
59,
64,
59,
59,
60,
60,
59,
59,
56,
59,
59,
59,
59,
59,
61,
62,
56,
56,
56,
56,
56,
100,
53,
56,
55,
52,
56,
56,
55,
59,
53,
57,
57,
55,
52,
55,
52,
55,
55,
54,
52,
55,
55,
58,
54,
54,
54,
49,
52,
53,
55,
53,
53,
53,
53,
52,
52,
51,
52,
52,
52,
48,
52,
50,
56,
51,
48,
50,
49,
51,
50,
52,
47,
47,
51,
49,
49,
49,
42,
49,
47,
50,
51,
51,
49,
49,
49,
49,
49,
48,
50,
48,
52,
48,
49,
48,
48,
46,
47,
44,
47,
47,
47,
47,
47,
47,
48,
45,
47,
45,
45,
47,
47,
50,
50,
45,
44,
44,
45,
41,
45,
45,
45,
45,
45,
45,
46,
44,
44,
44,
55,
44,
47,
45,
45,
46,
45,
45,
45,
45,
45,
45,
45,
45,
45,
45,
43,
42,
41,
43,
43,
43,
43,
44,
39,
39,
42,
42,
42,
44,
41,
41,
37,
48,
38,
43,
41,
41,
41,
43,
41,
41,
41,
44,
41,
42,
42,
44,
42,
41,
37,
41,
41,
43,
43,
43,
41,
42,
40,
41,
42,
41,
41,
42,
40,
40,
40,
41,
39,
41,
39,
38,
40,
41,
39,
39,
40,
40,
39,
39,
39,
39,
39,
39,
36,
40,
39,
33,
37,
38,
39,
37,
37,
37,
37,
38,
36,
36,
38,
36,
37,
35,
37,
39,
40,
37,
39,
39,
38,
39,
37,
37,
38,
37,
33,
37,
36,
40,
40,
34,
34,
37,
39,
39,
37,
35,
37,
37,
36,
37,
33,
37,
37,
36,
36,
37,
35,
37,
34,
36,
34,
35,
35,
36,
32,
35,
35,
35,
35,
34,
32,
34,
40,
36,
37,
35,
34,
34,
36,
36,
35,
32,
32,
33,
33,
33,
33,
31,
34,
23,
35,
33,
35,
32,
33,
33,
35,
35,
34,
35,
33,
36,
36,
34,
39,
37,
33,
37,
35,
35,
34,
34,
34,
35,
35,
35,
34,
33,
37,
33,
43,
37,
44,
44,
41,
36,
33,
35,
35,
33,
35,
33,
34,
35,
32,
34,
34,
29,
37,
34,
35,
28,
33,
33,
33,
33,
28,
33,
33,
33,
33,
36,
33,
33,
37,
33,
35,
35,
35,
34,
37,
33,
33,
29,
29,
33,
48,
32,
31,
34,
31,
31,
35,
33,
30,
32,
32,
35,
35,
33,
34,
33,
32,
26,
39,
29,
32,
33,
29,
40,
31,
31,
35,
30,
32,
27,
32,
31,
31,
28,
31,
34,
31,
31,
28,
28,
28,
31,
31,
30,
30,
30,
29,
33,
29,
29,
29,
30,
31,
31,
29,
26,
28,
29,
29,
29,
28,
29,
29,
28,
29,
28,
28,
30,
30,
27,
29,
27,
31,
28,
30,
28,
28,
28,
29,
29,
29,
28,
27,
28,
29,
31,
31,
28,
25,
29,
28,
27,
27,
27,
27,
29,
27,
27,
27,
28,
31,
28,
27,
28,
27,
29,
27,
28,
28,
28,
25,
25,
29,
27,
29,
27,
28,
27,
27,
28,
30,
30,
29,
29,
28,
27,
27,
24,
27,
25,
27,
28,
27,
26,
27,
27,
27,
27,
25,
24,
28,
26,
27,
26,
24,
28,
25,
25,
27,
27,
25,
25,
23,
26,
25,
25,
25,
24,
25,
27,
25,
25,
25,
24,
25,
24,
24,
24,
24,
23,
22,
19,
25,
28,
24,
25,
25,
23,
24,
25,
23,
24,
24,
24,
23,
23,
25,
25,
20,
23,
25,
25,
25,
23,
21,
24,
24,
21,
21,
23,
23,
25,
25,
24,
24,
25,
25,
24,
21,
23,
24,
23,
21,
24,
24,
23,
21,
13,
13,
23,
23,
27,
19,
21,
25,
23,
19,
23,
23,
23,
23,
23,
21,
23,
23,
21,
21,
19,
19,
23,
22,
23,
21,
25,
22,
22,
21,
24,
23,
22,
20,
23,
22,
21,
16,
24,
21,
21,
21,
21,
21,
24,
23,
21,
21,
18,
21,
23,
21,
20,
22,
26,
21,
21,
23,
21,
21,
21,
21,
18,
21,
21,
21,
21,
22,
20,
22,
22,
25,
21,
20,
21,
23,
25,
21,
21,
21,
23,
20,
21,
23,
23,
21,
21,
19,
20,
20,
21,
20,
21,
22,
24,
21,
20,
20,
21,
20,
20,
23,
20,
20,
27,
20,
19,
19,
21,
19,
20,
20,
19,
19,
20,
20,
19,
20,
18,
19,
21,
23,
17,
18,
18,
18,
18,
19,
18,
19,
19,
19,
17,
18,
19,
20,
18,
21,
21,
19,
19,
19,
17,
19,
19,
18,
16,
18,
17,
19,
19,
19,
19,
19,
15,
16,
15,
17,
19,
19,
18,
18,
17,
17,
19,
17,
18,
18,
16,
16,
23,
8,
19,
17,
17,
17,
19,
17,
16,
18,
17,
16,
17,
17,
17,
15,
17,
16,
17,
16,
17,
17,
17,
17,
18,
17,
17,
17,
17,
15,
16,
14,
17,
16,
19,
18,
13,
17,
17,
17,
17,
17,
16,
17,
18,
17,
17,
16,
17,
16,
15,
16,
18,
15,
15,
17,
16,
18,
16,
16,
17,
16,
17,
16,
13,
18,
16,
16,
16,
16,
16,
16,
16,
17,
18,
16,
16,
16,
17,
17,
14,
14,
16,
17,
21,
13,
15,
16,
18,
16,
16,
16,
16,
16,
16,
15,
17,
17,
17,
16,
22,
16,
19,
16,
15,
17,
17,
17,
15,
15,
15,
16,
16,
16,
16,
15,
19,
19,
15,
16,
15,
17,
16,
17,
17,
16,
16,
16,
13,
19,
15,
13,
17,
6,
20,
17,
15,
17,
16,
16,
16,
16,
16,
16,
15,
14,
17,
23,
16,
17,
17,
14,
16,
16,
16,
17,
17,
17,
17,
15,
17,
17,
16,
17,
16,
15,
19,
19,
16,
16,
16,
17,
16,
16,
16,
15,
16,
16,
17,
15,
16,
16,
16,
19,
15,
16,
17,
18,
16,
17,
16,
18,
16,
16,
16,
13,
17,
17,
17,
21,
14,
16,
16,
16,
13,
19,
19,
16,
18,
17,
19,
19,
16,
15,
17,
16,
16,
17,
16,
16,
16,
17,
18,
16,
18,
18,
17,
16,
17,
17,
17,
16,
15,
17,
17,
17,
17,
16,
17,
17,
17,
16,
17,
16,
17,
17,
17,
17,
17,
20,
16,
16,
19,
19,
17,
17,
17,
17,
16,
16,
16,
18,
16,
17,
16,
13,
13,
19,
17,
16,
16,
16,
16,
16,
17,
16,
16,
16,
16,
15,
15,
16,
18,
16,
12,
15,
16,
15,
16,
11,
15,
15,
16,
15,
15,
20,
20,
15,
13,
15,
15,
16,
16,
9,
15,
15,
15,
15,
14,
15,
11,
11,
16,
15,
16,
15,
15,
11,
15,
15,
14,
15,
14,
15,
15,
16,
15,
17,
15,
15,
11,
15,
16,
16,
13,
14,
15,
14,
14,
13,
15,
13,
15,
15,
14,
15,
15,
14,
16,
13,
16,
14,
14,
16,
15,
13,
15,
14,
16,
14,
16,
14,
15,
16,
16,
15,
15,
15,
16,
15,
14,
14,
15,
15,
16,
14,
14,
13,
14,
15,
15,
15,
16,
15,
13,
15,
15,
15,
14,
14,
15,
15,
17,
25,
15,
21,
21,
13,
15,
15,
13,
13,
14,
15,
17,
15,
15,
16,
15,
15,
15,
17,
14,
15,
15,
15,
15,
14,
15,
15,
13,
15,
13,
13,
15,
12,
15,
15,
13,
15,
15,
13,
16,
13,
13,
14,
14,
13,
13,
11,
15,
9,
15,
13,
16,
13,
9,
15,
15,
14,
15,
15,
13,
13,
13,
14,
15,
15,
15,
13,
17,
14,
13,
14,
14,
14,
12,
16,
14,
15,
13,
14,
13,
14,
12,
13,
13,
15,
13,
13,
13,
16,
13,
13,
13,
14,
15,
13,
13,
13,
13,
16,
14,
18,
11,
12,
12,
13,
11,
13,
13,
14,
11,
13,
14,
14,
15,
13,
13,
12,
12,
13,
12,
15,
13,
15,
11,
13,
14,
13,
13,
15,
15,
15,
13,
11,
13,
12,
13,
15,
13,
15,
14,
15,
13,
13,
17,
17,
14,
13,
13,
16,
13,
15,
9,
13,
15,
14,
13,
13,
16,
16,
13,
12,
13,
13,
13,
12,
8,
12,
12,
13,
13,
13,
13,
13,
15,
15,
15,
15,
13,
15,
15,
19,
13,
14,
16,
15,
16,
16,
14,
14,
13,
15,
13,
14,
14,
12,
13,
17,
13,
13,
12,
13,
15,
15,
14,
13,
14,
13,
7,
15,
13,
13,
13,
11,
10,
12,
13,
13,
13,
13,
13,
13,
13,
13,
13,
15,
13,
13,
13,
17,
12,
12,
13,
13,
13,
13,
7,
13,
13,
13,
13,
13,
13,
12,
9,
9,
11,
15,
13,
13,
16,
14,
13,
13,
13,
13,
13,
13,
12,
12,
15,
15,
13,
13,
12,
14,
14,
14,
15,
13,
13,
14,
14,
14,
13,
16,
15,
13,
16,
12,
13,
16,
14,
15,
14,
13,
13,
13,
13,
13,
14,
13,
13,
13,
14,
17,
15,
13,
13,
14,
13,
14,
13,
13,
13,
13,
12,
14,
15,
15,
13,
17,
10,
13,
13,
13,
14,
14,
13,
13,
15,
14,
13,
13,
20,
13,
14,
12,
14,
15,
15,
17,
14,
13,
15,
13,
14,
15,
11,
13,
13,
14,
13,
19,
19,
15,
13,
13,
14,
14,
14,
13,
13,
13,
13,
12,
13,
15,
15,
12,
15,
16,
14,
13,
13,
13,
15,
13,
13,
13,
13,
11,
11,
10,
14,
13,
17,
13,
13,
13,
14,
12,
11,
13,
13,
15,
15,
13,
14,
16,
15,
16,
17,
14,
11,
13,
14,
13,
15,
12,
12,
13,
12,
13,
14,
11,
15,
15,
10,
14,
14,
14,
18,
13,
13,
15,
15,
13,
15,
13,
15,
16,
12,
15,
15,
15,
11,
13,
14,
14,
14,
13,
13,
15,
13,
13,
13,
16,
15,
14,
16,
15,
13,
16,
16,
13,
13,
13,
12,
13,
13,
14,
13,
13,
15,
7,
15,
15,
15,
14,
14,
13,
13,
14,
13,
15,
13,
13,
13,
12,
13,
16,
16,
15,
14,
13,
13,
13,
14,
11,
13,
13,
15,
13,
13,
13,
13,
13,
11,
14,
14,
14,
13,
13,
13,
12,
13,
13,
12,
13,
13,
12,
12,
11,
13,
14,
13,
13,
13,
14,
15,
12,
13,
14,
13,
14,
14,
12,
13,
13,
12,
15,
12,
13,
13,
13,
13,
13,
12,
13,
13,
13,
12,
11,
15,
13,
13,
11,
15,
15,
13,
13,
9,
9,
13,
14,
13,
13,
13,
13,
14,
13,
13,
13,
14,
15,
15,
15,
14,
15,
13,
13,
15,
14,
13,
14,
14,
14,
7,
9,
15,
15,
15,
15,
13,
14,
13,
8,
15,
13,
13,
13,
12,
15,
17,
17,
13,
12,
13,
14,
13,
14,
13,
13,
13,
13,
13,
14,
15,
15,
19,
19,
15,
13,
13,
13,
11,
15,
14,
13,
14,
15,
13,
12,
13,
13,
14,
17,
13,
11,
15,
14,
12,
13,
13,
13,
13,
13,
12,
12,
17,
13,
13,
15,
15,
13,
13,
13,
14,
13,
13,
13,
13,
13,
13,
13,
15,
14,
15,
16,
12,
13,
13,
15,
14,
11,
16,
16,
15,
13,
12,
14,
20,
12,
12,
10,
12,
13,
13,
13,
13,
15,
14,
13,
12,
13,
14,
15,
12,
13,
13,
15,
12,
13,
13,
13,
13,
14,
14,
13,
18,
13,
13,
14,
13,
12,
13,
13,
12,
11,
13,
13,
13,
13,
13,
12,
13,
13,
13,
13,
15,
11,
13,
11,
11,
12,
13,
13,
12,
12,
12,
12,
15,
14,
13,
15,
16,
15,
15,
17,
15,
15,
13,
14,
14,
12,
13,
15,
15,
13,
15,
13,
13,
15,
13,
17,
15,
13,
13,
12,
14,
13,
13,
13,
13,
13,
13,
16,
15,
13,
13,
10,
16,
14,
15,
13,
13,
15,
14,
13,
13,
15,
13,
13,
13,
14,
15,
13,
19,
12,
13,
15,
13,
13,
13,
13,
13,
14,
14,
13,
13,
13,
18,
14,
13,
17,
16,
12,
13,
13,
13,
13,
13,
13,
14,
12,
14,
14,
13,
12,
14,
16,
13,
14,
14,
14,
13,
13,
14,
13,
14,
13,
13,
15,
13,
13,
13,
15,
15,
15,
13,
12,
13,
13,
13,
13,
13,
15,
13,
13,
13,
14,
14,
13,
12,
8,
13,
14,
15,
13,
13,
13,
15,
13,
12,
12,
13,
10,
14,
9,
8,
15,
12,
13,
13,
13,
12,
13,
13,
13,
13,
14,
13,
14,
13,
13,
13,
8,
12,
21,
13,
13,
16,
16,
15,
15,
12,
13,
14,
13,
13,
11,
13,
15,
16,
12,
14,
14,
13,
13,
11,
13,
13,
13,
12,
13,
13,
17,
14,
13,
12,
13,
13,
12,
13,
13,
13,
13,
11,
13,
12,
15,
13,
13,
15,
15,
15,
12,
12,
15,
15,
13,
13,
13,
Null,
Null,
Null,
Null,
Null,
Null,
Null,
Null,
Null,
Null,
Null,
Null,
Null,
Null,
Null,
Null,
Null,
Null,
Null,
Null,
Null,
Null,
Null,
Null,
Null,
Null,
Null,
Null,
Null,
Null,
Null,
Null,
Null,
Null,
Null,
Null,
Null,
Null,
Null,
Null,
Null,
Null,
Null,
Null,
Null,
Null,
Null,
Null,
Null,
Null,
Null,
Null,
Null,
Null,
Null,
Null,
Null,
Null,
Null,
Null,
Null,
Null,
Null,
Null,
Null,
Null,
Null,
Null,
Null,
Null,
Null,
Null,
Null,
Null,
Null,
Null,
Null,
Null,
Null,
Null,
Null,
Null,
Null,
Null,
Null,
Null,
Null,
Null,
Null,
Null,
Null,
Null,
Null,
Null,
Null,
Null,
Null,
Null,
Null,
Null,
Null,
Null,
Null,
Null,
Null,
Null,
Null,
Null,
Null,
Null,
Null,
Null,
Null,
Null,
Null,
Null,
Null,
Null,
Null,
Null,
Null,
Null,
Null,
Null,
Null,
Null,
Null,
Null,
Null,
Null,
Null,
Null,
Null,
Null,
Null,
Null,
Null,
Null,
Null,
Null,
Null,
Null,
Null,
Null,
Null,
Null,
Null,
Null,
Null,
Null,
Null,
Null,
Null,
Null,
Null,
Null,
Null,
Null,
Null,
Null,
Null,
Null,
Null,
Null,
Null,
Null,
Null,
Null,
Null,
Null,
Null,
Null,
Null,
Null,
Null,
Null,
Null,
Null,
Null,
Null,
Null,
Null,
Null,
Null,
Null,
Null,
Null,
Null,
Null,
Null,
Null,
Null,
Null,
Null,
Null,
Null,
Null,
Null,
Null,
Null,
Null,
Null,
Null,
Null,
Null,
Null,
Null,
Null,
Null,
Null,
Null,
Null,
Null,
Null,
Null,
Null,
Null,
Null,
Null,
Null,
Null,
Null,
Null,
Null,
Null,
Null,
Null,
Null,
Null,
Null,
Null,
Null,
Null,
Null,
Null,
Null,
Null,
Null,
Null,
Null,
Null,
Null,
Null,
Null,
Null,
Null,
Null,
Null,
Null,
Null,
Null,
Null,
Null,
Null,
Null,
Null,
Null,
Null,
Null,
Null,
Null,
Null,
Null,
Null,
Null,
Null,
Null,
Null,
Null,
Null,
Null,
Null,
Null,
Null,
Null,
Null,
Null,
Null,
Null,
Null,
