Datos experimentales/DATOS 26-3-24/ALL0025/A0025CH1.CSV

Memory Length,4000,
Trigger Level,0.000E+00,
Source,CH1,
Vertical Units,V,
Vertical Scale,2.000E-02,
Vertical Position,-1.200E-02,
Horizontal Units,s,
Horizontal Scale,1.000E+00,
Horizontal Position,0.000E+00,
Horizontal Mode,Roll Mode,
Waveform Last Dot Address,3820,
Sampling Period,4.000E-03,
Firmware, V1.21,
Waveform Data,
8,
8,
9,
7,
11,
11,
8,
8,
8,
9,
9,
9,
9,
8,
7,
9,
8,
8,
8,
10,
10,
9,
9,
8,
8,
9,
8,
8,
11,
8,
8,
8,
7,
9,
9,
9,
7,
9,
8,
8,
9,
9,
9,
11,
11,
9,
8,
11,
10,
8,
9,
8,
7,
8,
9,
11,
8,
8,
8,
7,
9,
9,
9,
9,
8,
9,
9,
8,
8,
8,
8,
8,
8,
8,
6,
9,
9,
9,
9,
9,
8,
8,
8,
8,
9,
9,
9,
8,
9,
9,
9,
9,
8,
7,
8,
8,
8,
8,
9,
8,
8,
9,
8,
9,
9,
9,
8,
8,
10,
10,
10,
12,
9,
9,
9,
11,
8,
11,
5,
9,
11,
12,
12,
12,
9,
9,
8,
8,
9,
9,
8,
8,
8,
10,
9,
9,
9,
10,
9,
8,
8,
9,
8,
4,
8,
9,
9,
8,
8,
9,
10,
8,
9,
9,
10,
8,
8,
9,
8,
8,
9,
9,
12,
10,
8,
8,
11,
13,
11,
9,
6,
9,
8,
8,
8,
9,
8,
8,
8,
9,
9,
9,
9,
9,
7,
8,
8,
8,
9,
8,
7,
8,
7,
8,
10,
7,
8,
9,
9,
9,
8,
8,
9,
9,
7,
8,
9,
9,
9,
8,
10,
10,
8,
8,
8,
8,
10,
7,
9,
9,
8,
10,
9,
9,
8,
9,
9,
9,
8,
9,
9,
8,
9,
8,
8,
9,
8,
9,
8,
8,
7,
8,
4,
8,
9,
6,
11,
9,
9,
9,
9,
9,
9,
9,
9,
8,
9,
7,
9,
9,
9,
10,
9,
8,
5,
8,
8,
10,
8,
7,
8,
8,
9,
8,
8,
9,
8,
11,
9,
9,
8,
9,
9,
9,
8,
10,
8,
8,
11,
13,
10,
10,
7,
3,
9,
9,
9,
8,
8,
9,
8,
9,
8,
8,
8,
8,
9,
9,
8,
9,
8,
9,
5,
8,
10,
8,
8,
9,
9,
9,
10,
7,
9,
8,
8,
8,
9,
8,
8,
9,
9,
9,
9,
10,
8,
7,
7,
8,
9,
9,
9,
9,
8,
8,
8,
9,
9,
8,
7,
8,
9,
9,
9,
9,
8,
9,
8,
8,
11,
3,
9,
9,
10,
10,
13,
9,
9,
8,
11,
8,
8,
10,
8,
9,
8,
9,
9,
8,
8,
8,
9,
9,
8,
8,
9,
11,
9,
15,
8,
8,
8,
8,
9,
8,
9,
9,
9,
9,
8,
8,
8,
8,
9,
9,
9,
9,
8,
8,
8,
8,
9,
11,
9,
9,
8,
9,
9,
9,
9,
10,
9,
8,
9,
9,
8,
8,
9,
3,
8,
8,
11,
7,
5,
9,
8,
9,
9,
8,
8,
9,
9,
8,
8,
9,
9,
9,
9,
10,
9,
9,
8,
10,
8,
9,
8,
10,
6,
9,
9,
11,
9,
9,
9,
9,
8,
8,
7,
9,
9,
9,
7,
8,
9,
9,
8,
8,
8,
9,
8,
8,
11,
9,
11,
9,
8,
9,
7,
9,
9,
9,
8,
8,
9,
9,
9,
9,
8,
8,
9,
9,
8,
8,
10,
9,
9,
11,
12,
9,
8,
8,
6,
14,
8,
8,
8,
8,
9,
9,
8,
8,
8,
9,
8,
9,
9,
9,
8,
8,
9,
9,
9,
9,
7,
8,
8,
9,
8,
9,
8,
9,
11,
11,
8,
8,
9,
8,
7,
8,
10,
9,
10,
9,
7,
12,
8,
8,
9,
7,
9,
8,
9,
9,
9,
7,
9,
9,
9,
8,
8,
5,
8,
9,
11,
9,
8,
7,
11,
10,
8,
9,
8,
8,
8,
9,
9,
8,
9,
8,
8,
9,
9,
9,
9,
9,
9,
7,
8,
8,
8,
8,
8,
9,
10,
9,
10,
8,
8,
8,
10,
8,
8,
7,
5,
9,
9,
10,
8,
9,
8,
9,
10,
10,
11,
6,
8,
8,
7,
9,
11,
9,
9,
9,
9,
9,
9,
8,
9,
9,
8,
9,
9,
9,
9,
9,
7,
7,
7,
7,
9,
9,
8,
8,
8,
8,
9,
10,
8,
9,
8,
7,
7,
9,
9,
9,
8,
9,
10,
13,
7,
9,
9,
9,
9,
9,
7,
10,
7,
9,
8,
9,
8,
8,
10,
9,
8,
8,
8,
9,
9,
8,
7,
9,
8,
10,
9,
8,
8,
12,
9,
9,
9,
7,
10,
7,
8,
8,
9,
8,
9,
9,
13,
8,
8,
9,
8,
9,
9,
8,
9,
9,
8,
9,
7,
9,
9,
9,
9,
9,
9,
8,
9,
9,
8,
8,
9,
9,
8,
9,
9,
9,
8,
12,
8,
9,
8,
10,
9,
12,
5,
10,
9,
7,
9,
9,
9,
9,
7,
9,
9,
9,
7,
9,
9,
8,
8,
9,
9,
9,
7,
8,
8,
9,
8,
9,
8,
12,
8,
9,
9,
9,
9,
9,
9,
8,
8,
9,
8,
8,
8,
9,
9,
7,
7,
10,
10,
9,
7,
9,
9,
10,
8,
9,
9,
9,
9,
9,
9,
7,
8,
10,
9,
9,
8,
8,
9,
9,
8,
10,
10,
8,
7,
9,
8,
8,
8,
9,
8,
9,
8,
9,
9,
9,
9,
9,
8,
7,
9,
9,
9,
8,
9,
11,
11,
9,
8,
8,
8,
9,
9,
8,
8,
9,
9,
9,
10,
9,
9,
7,
7,
9,
9,
9,
8,
9,
9,
9,
9,
10,
8,
9,
9,
9,
9,
8,
8,
9,
9,
8,
8,
9,
9,
8,
9,
9,
9,
9,
7,
10,
8,
7,
9,
9,
9,
7,
9,
9,
9,
8,
8,
9,
9,
8,
7,
8,
9,
8,
9,
8,
9,
7,
9,
9,
9,
9,
5,
9,
10,
4,
9,
9,
8,
8,
8,
9,
9,
9,
9,
9,
9,
9,
8,
8,
9,
7,
9,
8,
9,
9,
9,
12,
8,
9,
7,
7,
8,
8,
9,
9,
9,
9,
8,
8,
9,
8,
8,
9,
8,
7,
9,
8,
9,
9,
8,
7,
7,
7,
9,
9,
9,
12,
6,
9,
9,
9,
9,
9,
9,
9,
9,
9,
9,
8,
9,
8,
8,
6,
7,
11,
8,
10,
8,
8,
9,
7,
9,
9,
10,
11,
7,
9,
8,
3,
8,
9,
9,
8,
8,
8,
8,
9,
9,
9,
11,
7,
9,
9,
9,
9,
11,
8,
8,
8,
8,
9,
9,
9,
7,
8,
8,
9,
7,
7,
8,
9,
9,
8,
11,
8,
6,
7,
9,
8,
8,
9,
9,
9,
8,
8,
9,
8,
8,
8,
7,
8,
8,
9,
10,
7,
7,
10,
9,
8,
8,
9,
8,
12,
8,
9,
7,
9,
9,
9,
11,
8,
8,
9,
12,
9,
8,
10,
6,
10,
8,
9,
7,
7,
9,
10,
8,
7,
8,
7,
9,
8,
9,
8,
9,
9,
9,
9,
10,
7,
8,
9,
8,
11,
7,
11,
7,
9,
11,
11,
8,
9,
8,
8,
9,
9,
9,
9,
10,
8,
9,
9,
9,
8,
9,
8,
8,
9,
8,
9,
8,
12,
8,
7,
8,
13,
13,
9,
9,
9,
8,
9,
9,
9,
7,
9,
9,
9,
10,
8,
8,
9,
7,
7,
9,
11,
10,
16,
8,
8,
9,
8,
9,
9,
9,
7,
9,
9,
8,
11,
9,
9,
9,
8,
8,
10,
10,
9,
9,
8,
9,
10,
11,
10,
9,
8,
9,
7,
8,
9,
9,
8,
9,
9,
9,
9,
8,
11,
9,
9,
9,
7,
9,
9,
8,
9,
10,
9,
9,
10,
8,
8,
7,
8,
8,
9,
9,
8,
9,
9,
8,
9,
9,
9,
10,
9,
8,
8,
8,
8,
8,
9,
10,
6,
11,
9,
9,
9,
8,
9,
8,
9,
9,
9,
8,
8,
9,
8,
8,
9,
9,
8,
7,
9,
8,
9,
9,
9,
8,
7,
8,
9,
11,
9,
8,
8,
9,
7,
8,
9,
9,
9,
8,
8,
8,
9,
7,
8,
8,
9,
9,
9,
8,
8,
7,
9,
8,
9,
9,
9,
8,
10,
8,
9,
9,
7,
7,
8,
9,
9,
10,
9,
9,
8,
9,
8,
8,
10,
8,
8,
8,
9,
9,
11,
8,
11,
8,
9,
3,
4,
9,
8,
9,
8,
8,
9,
9,
7,
9,
8,
7,
8,
10,
11,
9,
8,
7,
7,
9,
8,
9,
8,
9,
8,
9,
8,
9,
8,
9,
9,
8,
8,
9,
10,
9,
8,
9,
9,
9,
8,
9,
9,
9,
9,
9,
8,
8,
8,
9,
9,
11,
7,
9,
10,
12,
9,
8,
8,
6,
8,
12,
9,
8,
8,
8,
9,
10,
10,
10,
9,
9,
9,
7,
10,
8,
9,
9,
9,
10,
12,
8,
9,
8,
8,
8,
9,
9,
9,
8,
9,
9,
8,
9,
8,
9,
9,
8,
8,
8,
8,
9,
11,
10,
9,
9,
10,
10,
10,
11,
11,
11,
12,
13,
15,
15,
14,
16,
15,
17,
17,
16,
17,
16,
17,
21,
18,
21,
21,
26,
21,
23,
27,
21,
27,
27,
28,
29,
30,
33,
31,
28,
28,
32,
34,
32,
34,
36,
44,
38,
38,
41,
41,
40,
41,
41,
43,
43,
42,
45,
45,
44,
47,
48,
48,
48,
48,
49,
52,
52,
52,
53,
53,
53,
53,
57,
56,
59,
59,
59,
60,
61,
61,
62,
65,
64,
65,
65,
66,
65,
68,
69,
67,
69,
71,
71,
73,
73,
74,
72,
76,
77,
77,
76,
77,
76,
77,
79,
83,
80,
80,
77,
79,
81,
80,
80,
80,
80,
80,
81,
80,
80,
74,
74,
79,
81,
95,
81,
81,
86,
79,
80,
81,
81,
81,
80,
80,
80,
78,
80,
77,
80,
80,
80,
80,
79,
79,
80,
79,
81,
81,
80,
79,
80,
82,
80,
80,
79,
78,
79,
79,
81,
79,
79,
79,
78,
73,
80,
79,
81,
79,
80,
80,
75,
79,
78,
80,
80,
79,
80,
78,
76,
77,
79,
79,
78,
76,
75,
77,
77,
77,
75,
75,
76,
72,
72,
73,
75,
73,
74,
71,
74,
75,
72,
72,
71,
74,
75,
70,
72,
71,
72,
71,
71,
70,
71,
70,
68,
68,
69,
69,
71,
67,
66,
66,
69,
69,
69,
69,
69,
68,
68,
68,
83,
68,
65,
67,
65,
67,
68,
68,
68,
67,
67,
69,
69,
66,
65,
67,
69,
68,
67,
70,
67,
67,
67,
67,
68,
68,
63,
65,
72,
62,
65,
64,
64,
64,
63,
63,
64,
61,
60,
60,
73,
56,
61,
61,
61,
61,
62,
60,
61,
61,
60,
59,
59,
57,
61,
59,
57,
59,
57,
60,
56,
57,
57,
56,
57,
56,
56,
56,
56,
55,
56,
55,
56,
56,
56,
54,
56,
55,
55,
55,
55,
55,
55,
55,
56,
55,
53,
55,
53,
55,
55,
55,
54,
54,
54,
53,
54,
53,
55,
53,
53,
51,
53,
54,
53,
54,
53,
53,
53,
53,
55,
55,
56,
53,
53,
57,
55,
55,
50,
47,
53,
53,
53,
56,
52,
52,
50,
47,
52,
51,
51,
50,
51,
49,
49,
51,
48,
49,
48,
49,
47,
48,
48,
45,
47,
47,
45,
45,
45,
46,
47,
47,
45,
46,
46,
45,
45,
46,
46,
44,
45,
43,
43,
42,
43,
41,
45,
42,
43,
42,
41,
41,
42,
41,
42,
42,
42,
41,
41,
41,
41,
41,
41,
41,
41,
41,
40,
40,
41,
41,
39,
39,
40,
41,
41,
43,
43,
40,
43,
39,
39,
40,
40,
39,
39,
37,
41,
40,
42,
41,
40,
40,
41,
40,
41,
37,
37,
39,
36,
39,
41,
39,
37,
40,
39,
39,
40,
39,
39,
40,
40,
39,
39,
38,
38,
40,
39,
39,
40,
40,
39,
39,
41,
41,
40,
39,
40,
39,
40,
39,
39,
41,
40,
40,
41,
42,
40,
40,
44,
40,
40,
41,
41,
40,
41,
40,
38,
41,
40,
41,
39,
39,
39,
39,
39,
38,
37,
39,
40,
39,
37,
36,
37,
37,
37,
37,
41,
35,
37,
37,
30,
29,
35,
35,
33,
33,
35,
35,
35,
32,
35,
33,
34,
32,
33,
33,
33,
32,
33,
33,
32,
33,
33,
35,
31,
32,
31,
32,
18,
31,
33,
32,
32,
32,
31,
31,
31,
31,
35,
31,
29,
31,
32,
31,
30,
29,
32,
31,
30,
30,
29,
29,
30,
30,
29,
27,
29,
29,
30,
29,
29,
30,
29,
29,
29,
31,
29,
29,
31,
32,
29,
32,
30,
25,
29,
29,
28,
28,
31,
27,
25,
25,
29,
29,
29,
29,
27,
31,
30,
31,
31,
31,
31,
31,
32,
29,
29,
31,
32,
31,
31,
31,
30,
31,
31,
29,
29,
30,
30,
29,
30,
32,
29,
29,
31,
29,
29,
31,
31,
29,
29,
29,
29,
29,
29,
29,
31,
31,
30,
27,
28,
28,
30,
26,
30,
32,
30,
30,
30,
33,
29,
29,
29,
31,
30,
30,
29,
28,
30,
32,
31,
31,
29,
32,
29,
34,
33,
32,
24,
24,
30,
31,
32,
31,
31,
31,
32,
29,
29,
31,
32,
29,
30,
30,
31,
29,
30,
31,
30,
30,
29,
29,
29,
29,
31,
30,
30,
30,
29,
29,
31,
30,
29,
29,
29,
31,
29,
28,
29,
28,
28,
28,
29,
27,
28,
25,
27,
28,
27,
26,
27,
24,
25,
23,
23,
25,
24,
21,
20,
24,
23,
24,
27,
23,
23,
21,
24,
24,
22,
24,
21,
21,
21,
20,
22,
21,
21,
19,
19,
19,
21,
21,
17,
21,
16,
19,
19,
19,
19,
19,
18,
19,
19,
20,
17,
17,
19,
19,
14,
19,
19,
18,
19,
18,
17,
17,
16,
17,
18,
18,
18,
17,
17,
16,
19,
16,
17,
17,
19,
17,
17,
16,
16,
16,
16,
17,
15,
17,
17,
17,
16,
17,
16,
15,
17,
17,
16,
16,
15,
17,
16,
16,
15,
17,
15,
16,
16,
17,
17,
17,
17,
17,
16,
13,
16,
15,
15,
14,
16,
16,
15,
15,
13,
13,
13,
16,
13,
12,
19,
15,
16,
16,
14,
15,
15,
15,
15,
13,
13,
14,
15,
18,
15,
15,
16,
16,
15,
15,
15,
15,
14,
16,
16,
14,
14,
15,
15,
15,
15,
15,
15,
14,
15,
16,
16,
15,
15,
14,
14,
15,
15,
15,
15,
15,
15,
15,
17,
15,
15,
13,
13,
15,
15,
14,
13,
15,
14,
15,
17,
15,
14,
15,
15,
15,
15,
15,
15,
15,
15,
14,
21,
19,
14,
13,
21,
17,
17,
14,
15,
15,
16,
14,
20,
16,
20,
18,
14,
11,
20,
16,
16,
16,
15,
15,
15,
17,
15,
15,
16,
16,
16,
15,
15,
16,
16,
19,
16,
16,
16,
16,
16,
16,
15,
16,
16,
16,
15,
14,
15,
15,
16,
16,
16,
16,
16,
17,
17,
16,
16,
17,
16,
16,
17,
18,
16,
15,
17,
17,
16,
16,
15,
14,
16,
16,
13,
16,
16,
15,
19,
16,
16,
16,
16,
11,
16,
17,
17,
16,
16,
15,
17,
15,
16,
15,
17,
17,
16,
13,
17,
13,
17,
17,
16,
13,
13,
19,
13,
17,
15,
15,
15,
15,
16,
17,
16,
15,
18,
16,
15,
16,
16,
16,
16,
15,
17,
16,
17,
15,
16,
15,
14,
15,
15,
14,
17,
16,
16,
17,
15,
15,
15,
15,
15,
14,
16,
16,
15,
14,
15,
13,
15,
15,
15,
15,
16,
15,
15,
14,
15,
15,
15,
14,
16,
16,
15,
15,
14,
14,
12,
15,
15,
14,
14,
14,
15,
15,
16,
16,
15,
13,
16,
16,
17,
17,
15,
13,
13,
17,
16,
14,
8,
15,
15,
14,
16,
16,
15,
15,
15,
15,
14,
15,
17,
15,
12,
13,
16,
16,
16,
14,
15,
15,
16,
19,
15,
14,
14,
15,
16,
14,
16,
16,
16,
16,
15,
16,
15,
15,
15,
16,
16,
15,
15,
15,
15,
15,
15,
15,
15,
16,
16,
16,
16,
16,
16,
15,
16,
15,
15,
15,
15,
16,
16,
15,
16,
16,
16,
15,
17,
16,
16,
15,
15,
16,
16,
17,
17,
17,
14,
12,
13,
18,
21,
16,
20,
17,
15,
17,
12,
17,
17,
16,
16,
16,
15,
16,
20,
10,
12,
15,
17,
19,
19,
16,
16,
15,
17,
16,
16,
15,
18,
16,
16,
16,
16,
16,
16,
10,
10,
17,
18,
17,
16,
17,
16,
16,
16,
16,
15,
15,
15,
16,
16,
16,
15,
16,
16,
15,
15,
16,
16,
15,
16,
15,
16,
16,
15,
15,
15,
16,
15,
16,
15,
17,
16,
14,
16,
16,
16,
16,
16,
14,
14,
15,
15,
16,
16,
19,
15,
17,
13,
15,
19,
17,
13,
13,
13,
15,
16,
15,
15,
14,
15,
15,
15,
17,
16,
15,
16,
16,
15,
17,
15,
15,
15,
14,
16,
15,
15,
15,
15,
15,
14,
15,
15,
15,
16,
14,
14,
15,
15,
14,
14,
13,
13,
13,
13,
13,
12,
12,
11,
12,
12,
12,
13,
12,
13,
12,
11,
12,
11,
11,
11,
12,
11,
10,
11,
10,
11,
9,
8,
9,
10,
10,
10,
10,
10,
9,
8,
10,
11,
9,
9,
10,
9,
13,
11,
6,
7,
19,
9,
9,
10,
10,
11,
9,
10,
8,
4,
8,
10,
9,
11,
10,
8,
8,
9,
10,
9,
11,
9,
9,
9,
8,
9,
9,
10,
8,
9,
9,
9,
9,
9,
9,
9,
8,
8,
9,
9,
9,
9,
9,
9,
9,
8,
9,
8,
8,
9,
9,
9,
9,
9,
9,
8,
8,
9,
9,
10,
10,
9,
9,
9,
10,
9,
9,
5,
15,
11,
5,
5,
11,
8,
9,
9,
11,
8,
9,
9,
9,
9,
9,
8,
9,
9,
9,
9,
12,
9,
9,
9,
8,
8,
8,
11,
9,
9,
9,
9,
10,
9,
9,
11,
8,
8,
9,
9,
8,
8,
9,
9,
9,
8,
8,
9,
9,
8,
9,
9,
9,
8,
8,
5,
11,
8,
12,
10,
13,
9,
9,
9,
9,
9,
8,
5,
8,
6,
10,
9,
7,
19,
9,
9,
9,
-12,
8,
8,
8,
9,
8,
9,
8,
12,
7,
11,
9,
9,
7,
10,
9,
9,
9,
13,
9,
8,
7,
8,
9,
9,
9,
9,
9,
9,
8,
9,
9,
8,
8,
8,
9,
9,
9,
9,
9,
9,
9,
8,
9,
8,
7,
9,
9,
9,
9,
8,
9,
9,
8,
10,
8,
8,
7,
9,
9,
9,
11,
7,
7,
10,
3,
6,
9,
5,
9,
9,
9,
9,
12,
9,
9,
7,
7,
7,
9,
8,
5,
9,
10,
10,
7,
9,
9,
9,
5,
8,
8,
10,
8,
9,
8,
10,
9,
9,
10,
8,
9,
9,
8,
8,
9,
9,
9,
9,
9,
8,
8,
8,
8,
7,
9,
9,
8,
9,
9,
10,
9,
8,
8,
9,
9,
8,
9,
9,
8,
9,
11,
7,
7,
11,
8,
7,
10,
9,
9,
12,
9,
9,
9,
7,
9,
9,
9,
8,
8,
9,
12,
10,
8,
9,
9,
9,
8,
9,
9,
8,
8,
8,
7,
9,
9,
8,
9,
9,
8,
8,
9,
9,
8,
7,
8,
9,
9,
8,
10,
8,
8,
7,
7,
8,
9,
8,
9,
8,
9,
8,
9,
9,
9,
9,
8,
9,
9,
9,
11,
7,
7,
7,
12,
10,
8,
7,
8,
8,
7,
8,
8,
10,
8,
8,
7,
9,
8,
10,
10,
9,
9,
7,
8,
9,
9,
8,
9,
9,
9,
8,
9,
9,
9,
9,
8,
8,
9,
9,
9,
9,
9,
8,
8,
9,
9,
8,
10,
9,
7,
7,
8,
9,
9,
9,
9,
9,
8,
7,
8,
8,
8,
4,
7,
11,
3,
7,
8,
8,
8,
8,
7,
9,
8,
8,
9,
9,
8,
8,
7,
11,
7,
7,
17,
9,
8,
8,
9,
9,
9,
9,
8,
8,
9,
9,
9,
8,
8,
9,
8,
9,
9,
8,
9,
9,
9,
9,
9,
8,
9,
9,
9,
9,
10,
8,
8,
9,
8,
9,
7,
8,
8,
9,
9,
9,
9,
8,
7,
9,
9,
9,
9,
9,
10,
10,
8,
8,
8,
8,
8,
9,
9,
9,
9,
9,
7,
9,
10,
8,
4,
9,
8,
17,
3,
7,
7,
10,
10,
8,
8,
9,
9,
7,
8,
8,
10,
10,
9,
9,
9,
9,
7,
9,
9,
9,
8,
8,
8,
8,
8,
9,
8,
8,
9,
9,
9,
9,
9,
8,
9,
9,
8,
8,
8,
9,
7,
7,
8,
9,
8,
7,
8,
9,
9,
7,
9,
9,
8,
10,
10,
8,
9,
9,
9,
9,
7,
8,
8,
9,
11,
7,
7,
8,
8,
11,
6,
8,
3,
8,
9,
8,
8,
9,
10,
9,
11,
10,
10,
6,
8,
9,
8,
9,
8,
9,
8,
9,
7,
9,
9,
9,
8,
8,
9,
9,
9,
9,
9,
8,
7,
9,
9,
8,
8,
9,
9,
9,
8,
8,
8,
9,
7,
8,
9,
9,
8,
9,
8,
9,
9,
9,
9,
9,
9,
8,
8,
8,
5,
8,
8,
9,
9,
7,
7,
10,
12,
12,
9,
7,
4,
9,
9,
9,
8,
9,
9,
8,
8,
11,
11,
9,
12,
8,
9,
8,
6,
8,
8,
11,
9,
8,
9,
8,
8,
8,
8,
9,
8,
8,
9,
9,
9,
9,
9,
8,
9,
8,
8,
8,
9,
7,
10,
10,
8,
7,
8,
9,
7,
6,
11,
8,
9,
8,
10,
10,
9,
7,
8,
10,
10,
8,
9,
11,
9,
11,
9,
7,
7,
1,
9,
10,
9,
6,
6,
10,
9,
8,
9,
13,
9,
8,
8,
8,
9,
9,
11,
8,
9,
9,
9,
9,
9,
9,
8,
9,
9,
9,
8,
7,
8,
8,
9,
9,
9,
8,
8,
9,
9,
9,
9,
8,
9,
8,
8,
9,
9,
9,
9,
9,
8,
8,
8,
8,
8,
9,
7,
9,
9,
9,
8,
8,
8,
8,
7,
8,
8,
8,
9,
11,
10,
8,
9,
7,
8,
5,
8,
11,
9,
9,
5,
9,
9,
7,
7,
8,
8,
7,
4,
8,
9,
9,
9,
9,
8,
8,
9,
9,
8,
9,
9,
9,
8,
9,
9,
9,
9,
8,
9,
9,
9,
9,
9,
9,
10,
8,
8,
8,
9,
9,
9,
9,
8,
7,
9,
9,
9,
8,
9,
9,
9,
9,
9,
9,
8,
5,
8,
9,
5,
5,
7,
9,
9,
9,
11,
10,
8,
5,
11,
12,
13,
7,
9,
9,
8,
9,
9,
9,
9,
8,
8,
10,
9,
7,
11,
11,
8,
8,
8,
8,
8,
8,
9,
9,
9,
8,
8,
9,
9,
8,
9,
9,
8,
8,
8,
10,
10,
8,
9,
9,
8,
8,
9,
8,
7,
9,
9,
8,
6,
9,
9,
8,
8,
8,
8,
8,
4,
9,
9,
9,
8,
9,
9,
10,
9,
8,
7,
9,
9,
9,
11,
7,
8,
8,
11,
8,
7,
6,
8,
2,
9,
9,
8,
8,
9,
8,
8,
8,
9,
9,
7,
7,
9,
8,
8,
9,
10,
9,
9,
10,
9,
9,
8,
8,
8,
8,
8,
7,
8,
8,
9,
9,
11,
7,
7,
3,
7,
9,
11,
9,
9,
9,
8,
9,
9,
8,
8,
9,
9,
8,
8,
9,
10,
8,
9,
8,
7,
8,
9,
10,
10,
7,
7,
9,
9,
9,
9,
8,
5,
8,
9,
9,
9,
3,
9,
9,
8,
9,
9,
9,
9,
8,
8,
Null,
Null,
Null,
Null,
Null,
Null,
Null,
Null,
Null,
Null,
Null,
Null,
Null,
Null,
Null,
Null,
Null,
Null,
Null,
Null,
Null,
Null,
Null,
Null,
Null,
Null,
Null,
Null,
Null,
Null,
Null,
Null,
Null,
Null,
Null,
Null,
Null,
Null,
Null,
Null,
Null,
Null,
Null,
Null,
Null,
Null,
Null,
Null,
Null,
Null,
Null,
Null,
Null,
Null,
Null,
Null,
Null,
Null,
Null,
Null,
Null,
Null,
Null,
Null,
Null,
Null,
Null,
Null,
Null,
Null,
Null,
Null,
Null,
Null,
Null,
Null,
Null,
Null,
Null,
Null,
Null,
Null,
Null,
Null,
Null,
Null,
Null,
Null,
Null,
Null,
Null,
Null,
Null,
Null,
Null,
Null,
Null,
Null,
Null,
Null,
Null,
Null,
Null,
Null,
Null,
Null,
Null,
Null,
Null,
Null,
Null,
Null,
Null,
Null,
Null,
Null,
Null,
Null,
Null,
Null,
Null,
Null,
Null,
Null,
Null,
Null,
Null,
Null,
Null,
Null,
Null,
Null,
Null,
Null,
Null,
Null,
Null,
Null,
Null,
Null,
Null,
Null,
Null,
Null,
Null,
Null,
Null,
Null,
Null,
Null,
Null,
Null,
Null,
Null,
Null,
Null,
Null,
Null,
Null,
Null,
Null,
Null,
Null,
Null,
Null,
Null,
Null,
Null,
Null,
Null,
Null,
Null,
Null,
Null,
Null,
Null,
Null,
Null,
Null,
Null,
