Datos experimentales/DATOS 26-3-24/ALL0008/A0008CH1.CSV

Memory Length,4000,
Trigger Level,0.000E+00,
Source,CH1,
Vertical Units,V,
Vertical Scale,2.000E-02,
Vertical Position,-1.200E-02,
Horizontal Units,s,
Horizontal Scale,1.000E+00,
Horizontal Position,0.000E+00,
Horizontal Mode,Roll Mode,
Sampling Period,4.000E-03,
Firmware, V1.21,
Waveform Data,
9,
8,
9,
4,
7,
8,
8,
9,
12,
8,
8,
9,
10,
9,
11,
8,
9,
9,
11,
7,
8,
8,
9,
9,
9,
8,
9,
9,
7,
9,
9,
9,
9,
8,
11,
9,
9,
8,
15,
9,
9,
9,
9,
11,
9,
9,
9,
9,
9,
8,
8,
7,
11,
8,
9,
9,
8,
11,
8,
9,
9,
8,
10,
10,
9,
9,
8,
9,
8,
9,
8,
10,
8,
8,
9,
10,
10,
9,
8,
8,
9,
9,
11,
9,
7,
9,
9,
9,
9,
7,
7,
12,
12,
4,
7,
9,
9,
7,
8,
8,
11,
9,
7,
7,
9,
8,
10,
10,
9,
8,
9,
10,
11,
7,
10,
9,
7,
7,
8,
7,
8,
8,
8,
9,
11,
9,
9,
8,
8,
9,
9,
9,
13,
13,
8,
8,
9,
14,
11,
9,
8,
8,
14,
11,
12,
8,
8,
8,
8,
9,
8,
9,
9,
9,
8,
8,
10,
7,
9,
8,
8,
9,
11,
9,
9,
9,
9,
8,
8,
9,
9,
7,
8,
8,
8,
8,
8,
9,
9,
8,
8,
9,
9,
8,
8,
9,
9,
9,
10,
11,
8,
9,
9,
9,
8,
8,
12,
9,
8,
9,
10,
10,
9,
8,
11,
9,
8,
9,
8,
9,
9,
7,
8,
8,
8,
9,
8,
9,
9,
9,
9,
10,
7,
7,
11,
9,
9,
9,
9,
9,
8,
14,
11,
8,
9,
8,
7,
9,
7,
8,
8,
9,
9,
11,
9,
8,
4,
8,
8,
8,
10,
8,
10,
8,
9,
9,
9,
7,
8,
9,
9,
8,
12,
9,
8,
9,
9,
7,
9,
9,
9,
8,
9,
9,
9,
7,
9,
9,
9,
8,
9,
7,
9,
9,
9,
7,
10,
9,
9,
8,
9,
9,
8,
9,
10,
9,
9,
9,
9,
7,
11,
9,
9,
9,
9,
3,
9,
9,
8,
9,
9,
8,
8,
8,
9,
10,
8,
8,
9,
8,
7,
10,
8,
8,
11,
8,
8,
7,
10,
9,
7,
8,
8,
7,
9,
7,
9,
8,
9,
9,
7,
9,
8,
6,
10,
7,
7,
7,
9,
8,
7,
7,
8,
8,
9,
8,
8,
7,
9,
8,
8,
7,
11,
9,
9,
11,
11,
9,
9,
8,
6,
8,
8,
9,
8,
-3,
7,
8,
9,
8,
8,
10,
9,
9,
8,
7,
9,
9,
9,
9,
7,
9,
9,
8,
8,
8,
8,
9,
8,
11,
9,
8,
9,
9,
9,
9,
9,
9,
9,
8,
8,
9,
9,
8,
9,
9,
8,
8,
7,
8,
8,
9,
8,
8,
8,
9,
9,
9,
7,
12,
9,
12,
8,
9,
8,
9,
9,
9,
11,
8,
9,
9,
9,
8,
7,
9,
7,
9,
7,
9,
9,
9,
7,
8,
9,
9,
8,
11,
7,
11,
9,
8,
3,
9,
9,
9,
8,
8,
9,
10,
7,
8,
8,
7,
9,
8,
9,
9,
9,
8,
10,
8,
9,
9,
8,
9,
8,
9,
9,
7,
9,
9,
8,
8,
8,
8,
10,
8,
9,
5,
9,
9,
9,
9,
9,
9,
9,
8,
9,
8,
7,
9,
9,
8,
11,
11,
8,
9,
10,
6,
10,
9,
9,
9,
14,
7,
8,
9,
8,
7,
8,
9,
9,
9,
13,
8,
8,
9,
9,
7,
10,
9,
8,
6,
5,
8,
8,
10,
6,
6,
8,
8,
9,
9,
9,
9,
8,
9,
9,
9,
9,
8,
8,
8,
9,
9,
9,
9,
8,
8,
9,
8,
9,
8,
8,
9,
9,
9,
8,
8,
9,
8,
9,
10,
9,
7,
12,
8,
10,
8,
8,
9,
9,
9,
7,
8,
8,
11,
10,
10,
8,
8,
9,
8,
8,
8,
9,
8,
9,
9,
8,
8,
9,
9,
10,
7,
8,
9,
9,
9,
9,
8,
9,
11,
10,
9,
9,
8,
7,
9,
8,
9,
9,
9,
9,
8,
8,
9,
7,
9,
8,
9,
8,
8,
9,
9,
8,
8,
8,
11,
9,
8,
9,
11,
9,
7,
9,
9,
7,
9,
11,
11,
6,
10,
9,
9,
8,
8,
6,
9,
8,
8,
9,
14,
9,
9,
9,
8,
14,
11,
9,
8,
9,
13,
7,
9,
8,
9,
9,
8,
9,
11,
7,
11,
9,
10,
7,
8,
12,
9,
8,
8,
8,
2,
9,
9,
9,
9,
9,
9,
9,
10,
10,
0,
8,
9,
10,
9,
8,
8,
9,
8,
9,
9,
11,
8,
9,
8,
9,
10,
8,
9,
8,
8,
9,
9,
7,
8,
9,
9,
8,
9,
8,
8,
8,
9,
9,
7,
7,
8,
9,
8,
10,
9,
8,
9,
10,
10,
10,
8,
8,
9,
8,
9,
9,
9,
8,
9,
10,
8,
9,
9,
7,
8,
8,
9,
8,
7,
8,
8,
8,
11,
8,
8,
8,
8,
9,
9,
7,
8,
9,
9,
7,
9,
9,
8,
8,
7,
9,
8,
9,
9,
8,
7,
9,
8,
9,
8,
9,
10,
7,
8,
11,
9,
8,
9,
9,
9,
9,
9,
8,
8,
7,
8,
10,
9,
7,
9,
7,
7,
9,
8,
8,
5,
9,
9,
8,
8,
9,
9,
9,
9,
7,
9,
9,
9,
8,
7,
8,
9,
9,
7,
10,
8,
9,
8,
9,
8,
8,
8,
9,
8,
9,
9,
8,
9,
8,
7,
9,
9,
9,
9,
8,
8,
9,
9,
8,
2,
9,
9,
9,
9,
3,
9,
8,
8,
8,
9,
8,
8,
9,
9,
8,
9,
9,
9,
12,
5,
8,
9,
9,
8,
8,
8,
10,
8,
10,
8,
9,
9,
9,
8,
9,
9,
8,
8,
8,
8,
8,
9,
9,
8,
9,
9,
9,
7,
8,
9,
8,
9,
8,
8,
8,
10,
7,
8,
9,
8,
9,
7,
9,
10,
8,
10,
10,
13,
9,
10,
7,
8,
9,
8,
9,
9,
7,
9,
9,
8,
8,
9,
9,
6,
8,
9,
8,
9,
7,
8,
9,
8,
9,
7,
7,
8,
9,
9,
11,
6,
9,
8,
9,
5,
9,
9,
8,
10,
10,
7,
8,
8,
9,
6,
8,
9,
8,
1,
12,
9,
9,
9,
7,
13,
11,
9,
8,
8,
5,
10,
8,
10,
6,
10,
8,
9,
9,
7,
7,
7,
9,
9,
9,
12,
9,
9,
10,
6,
12,
9,
9,
12,
12,
15,
8,
9,
9,
9,
9,
9,
9,
7,
8,
4,
9,
9,
9,
9,
8,
9,
7,
8,
9,
9,
10,
9,
9,
7,
8,
11,
11,
9,
8,
8,
9,
9,
9,
8,
9,
11,
8,
8,
8,
8,
9,
8,
9,
9,
9,
8,
9,
8,
7,
9,
11,
9,
10,
10,
10,
3,
9,
8,
9,
8,
9,
9,
9,
11,
11,
7,
9,
9,
10,
7,
9,
9,
8,
11,
10,
8,
9,
8,
9,
9,
8,
8,
9,
8,
8,
8,
8,
9,
11,
8,
9,
9,
8,
9,
9,
8,
9,
9,
7,
9,
9,
8,
9,
9,
9,
8,
9,
9,
7,
8,
9,
9,
9,
8,
7,
8,
9,
11,
8,
9,
9,
9,
9,
8,
8,
8,
9,
10,
5,
8,
8,
8,
10,
6,
10,
9,
8,
9,
11,
11,
8,
6,
9,
9,
5,
8,
9,
9,
9,
9,
9,
9,
9,
11,
11,
9,
9,
9,
10,
9,
6,
9,
9,
10,
7,
8,
10,
10,
9,
7,
8,
9,
9,
9,
9,
9,
9,
9,
12,
11,
9,
8,
5,
5,
8,
9,
9,
9,
7,
8,
9,
9,
8,
3,
9,
10,
12,
12,
1,
9,
9,
8,
10,
11,
9,
9,
10,
9,
9,
8,
9,
9,
9,
8,
11,
8,
8,
7,
8,
9,
9,
9,
9,
8,
8,
9,
7,
9,
9,
8,
8,
9,
9,
8,
9,
9,
9,
8,
8,
9,
8,
9,
7,
9,
8,
9,
7,
12,
9,
11,
7,
9,
9,
9,
8,
8,
9,
9,
9,
9,
8,
8,
10,
7,
9,
8,
8,
7,
8,
7,
9,
8,
9,
8,
8,
9,
9,
9,
8,
9,
9,
8,
8,
8,
10,
8,
9,
7,
9,
8,
8,
9,
8,
11,
8,
8,
8,
7,
8,
8,
9,
9,
7,
9,
9,
8,
8,
9,
8,
8,
8,
9,
9,
8,
8,
9,
9,
8,
6,
8,
9,
8,
9,
9,
9,
7,
8,
8,
9,
8,
8,
8,
11,
8,
8,
9,
8,
9,
9,
7,
8,
9,
10,
9,
8,
9,
8,
13,
9,
8,
8,
8,
8,
8,
9,
9,
8,
8,
8,
8,
9,
8,
6,
8,
8,
8,
9,
8,
9,
9,
9,
7,
10,
10,
9,
8,
8,
7,
9,
9,
9,
7,
7,
10,
8,
8,
9,
11,
9,
10,
9,
9,
7,
8,
8,
9,
9,
8,
9,
9,
9,
9,
7,
9,
8,
9,
9,
9,
12,
12,
8,
9,
10,
7,
3,
9,
9,
7,
8,
9,
9,
7,
9,
9,
9,
8,
9,
11,
7,
8,
8,
8,
10,
5,
8,
8,
7,
7,
9,
8,
9,
9,
5,
9,
8,
9,
9,
8,
8,
9,
9,
9,
4,
8,
8,
9,
8,
13,
9,
9,
8,
9,
7,
8,
8,
8,
9,
13,
9,
8,
9,
8,
3,
9,
9,
8,
9,
8,
8,
8,
-1,
-1,
3,
9,
10,
9,
9,
9,
9,
9,
8,
8,
7,
9,
8,
8,
10,
12,
9,
9,
8,
8,
-1,
8,
8,
13,
8,
7,
8,
8,
4,
9,
13,
8,
9,
9,
8,
7,
8,
9,
9,
8,
7,
7,
9,
9,
10,
8,
9,
9,
9,
9,
8,
5,
10,
8,
12,
12,
9,
9,
9,
8,
9,
8,
8,
8,
8,
8,
9,
9,
9,
8,
11,
7,
9,
9,
7,
6,
10,
9,
9,
8,
13,
9,
9,
8,
8,
11,
8,
9,
8,
10,
9,
8,
8,
7,
10,
8,
11,
11,
7,
7,
13,
14,
12,
13,
14,
13,
17,
15,
15,
16,
20,
15,
17,
17,
19,
21,
21,
20,
23,
21,
24,
24,
26,
23,
35,
27,
27,
27,
32,
30,
29,
29,
32,
32,
35,
33,
36,
31,
35,
38,
38,
38,
40,
39,
41,
40,
41,
44,
44,
44,
44,
45,
48,
47,
47,
45,
49,
50,
52,
51,
53,
51,
55,
55,
56,
56,
59,
59,
59,
59,
63,
61,
63,
63,
62,
62,
66,
66,
65,
65,
71,
69,
69,
68,
70,
71,
71,
70,
71,
72,
73,
72,
73,
73,
72,
73,
72,
73,
73,
73,
75,
78,
75,
77,
75,
76,
73,
76,
78,
77,
76,
77,
77,
76,
77,
77,
75,
79,
77,
76,
77,
77,
73,
75,
77,
75,
75,
75,
78,
77,
74,
79,
77,
77,
77,
77,
76,
76,
77,
76,
76,
77,
77,
77,
77,
75,
76,
77,
76,
75,
76,
76,
76,
75,
75,
76,
75,
75,
73,
74,
73,
71,
74,
73,
73,
73,
72,
72,
71,
73,
72,
72,
72,
73,
71,
71,
71,
72,
71,
72,
71,
71,
71,
69,
69,
69,
69,
70,
65,
68,
67,
68,
68,
68,
69,
68,
68,
67,
69,
64,
66,
66,
63,
68,
67,
66,
67,
64,
68,
68,
65,
83,
65,
65,
65,
64,
63,
63,
66,
62,
63,
63,
60,
60,
63,
63,
62,
59,
67,
63,
63,
61,
61,
61,
60,
61,
62,
62,
59,
60,
59,
59,
59,
59,
57,
58,
57,
59,
58,
58,
56,
56,
58,
57,
57,
57,
57,
56,
57,
57,
56,
56,
55,
55,
57,
57,
55,
55,
55,
55,
54,
55,
53,
54,
53,
55,
53,
53,
55,
55,
50,
51,
52,
49,
55,
52,
52,
52,
49,
49,
56,
52,
52,
51,
49,
52,
51,
50,
52,
49,
48,
51,
50,
48,
49,
48,
50,
50,
49,
50,
49,
51,
47,
49,
49,
47,
48,
48,
47,
47,
48,
48,
47,
47,
43,
47,
48,
44,
47,
45,
45,
47,
46,
45,
47,
47,
47,
47,
47,
48,
44,
45,
45,
47,
48,
49,
44,
45,
45,
44,
44,
42,
45,
45,
45,
44,
45,
44,
43,
42,
47,
43,
43,
44,
45,
42,
44,
43,
42,
43,
43,
45,
43,
42,
43,
44,
44,
44,
44,
44,
45,
43,
43,
45,
39,
43,
43,
44,
43,
43,
43,
43,
43,
41,
43,
43,
41,
41,
42,
41,
41,
33,
41,
41,
41,
40,
40,
40,
40,
40,
40,
45,
35,
40,
40,
40,
42,
40,
40,
39,
40,
41,
41,
40,
39,
40,
41,
40,
39,
39,
40,
39,
39,
40,
39,
40,
39,
40,
39,
37,
36,
40,
39,
38,
41,
41,
39,
29,
37,
37,
38,
38,
38,
33,
35,
37,
35,
39,
36,
37,
37,
33,
35,
34,
35,
36,
36,
36,
33,
35,
37,
37,
37,
37,
35,
34,
35,
34,
38,
35,
35,
36,
37,
37,
36,
35,
35,
35,
35,
34,
35,
35,
33,
36,
35,
36,
34,
35,
29,
34,
33,
33,
33,
31,
31,
33,
24,
32,
33,
36,
32,
32,
32,
33,
17,
32,
32,
32,
31,
32,
32,
32,
34,
31,
33,
32,
32,
32,
31,
32,
32,
37,
32,
33,
34,
32,
31,
32,
30,
31,
31,
29,
30,
30,
36,
32,
32,
31,
33,
30,
32,
33,
32,
32,
40,
31,
33,
33,
30,
31,
32,
33,
32,
31,
32,
31,
29,
32,
31,
29,
29,
29,
31,
31,
30,
29,
29,
31,
29,
27,
31,
29,
31,
29,
29,
29,
30,
29,
30,
32,
33,
28,
28,
29,
31,
29,
28,
29,
29,
29,
28,
29,
30,
29,
29,
29,
31,
31,
29,
30,
25,
28,
29,
29,
29,
24,
30,
30,
28,
29,
26,
29,
29,
29,
28,
34,
29,
29,
29,
29,
25,
28,
28,
28,
29,
25,
27,
26,
26,
27,
26,
26,
27,
27,
25,
26,
25,
28,
27,
25,
25,
26,
25,
26,
25,
25,
29,
27,
25,
26,
26,
25,
24,
26,
27,
25,
24,
29,
24,
24,
27,
27,
25,
24,
25,
25,
24,
26,
24,
25,
24,
27,
25,
25,
25,
27,
25,
24,
23,
27,
25,
25,
25,
25,
23,
23,
24,
24,
24,
27,
24,
22,
24,
21,
24,
23,
23,
24,
24,
24,
26,
26,
23,
23,
25,
23,
24,
20,
24,
23,
23,
24,
17,
24,
23,
23,
23,
21,
23,
21,
22,
20,
23,
24,
23,
23,
21,
17,
17,
21,
23,
23,
21,
23,
21,
22,
20,
21,
21,
20,
23,
21,
21,
21,
21,
20,
21,
19,
21,
20,
21,
21,
19,
20,
20,
20,
20,
19,
21,
18,
20,
21,
21,
22,
20,
20,
21,
19,
18,
20,
20,
20,
19,
24,
17,
19,
20,
21,
21,
24,
19,
20,
20,
20,
20,
19,
19,
21,
17,
18,
20,
19,
20,
20,
19,
19,
18,
19,
19,
19,
20,
19,
19,
21,
20,
20,
19,
19,
19,
21,
18,
21,
21,
17,
20,
19,
20,
20,
19,
21,
19,
18,
19,
19,
17,
17,
19,
19,
19,
21,
17,
15,
19,
18,
18,
18,
19,
19,
19,
21,
21,
19,
18,
18,
19,
16,
19,
19,
18,
19,
19,
18,
17,
17,
16,
18,
17,
17,
17,
16,
17,
16,
17,
16,
15,
16,
17,
15,
15,
17,
16,
17,
16,
16,
15,
17,
15,
16,
16,
15,
16,
16,
16,
14,
16,
15,
16,
16,
15,
15,
14,
16,
15,
16,
15,
15,
15,
16,
15,
15,
16,
15,
10,
15,
15,
15,
14,
14,
15,
15,
15,
15,
15,
15,
15,
17,
13,
16,
15,
16,
15,
17,
13,
15,
15,
15,
13,
15,
15,
15,
15,
11,
15,
15,
13,
16,
17,
17,
15,
15,
15,
13,
13,
15,
15,
15,
16,
15,
15,
13,
16,
16,
15,
15,
15,
14,
14,
13,
15,
15,
14,
15,
14,
15,
15,
16,
15,
16,
17,
17,
16,
15,
14,
21,
15,
15,
13,
17,
14,
15,
16,
17,
17,
13,
15,
15,
14,
15,
19,
15,
14,
15,
15,
15,
15,
17,
17,
15,
16,
14,
15,
13,
15,
15,
16,
14,
16,
13,
15,
15,
15,
15,
13,
14,
16,
16,
15,
15,
8,
14,
14,
15,
15,
15,
15,
13,
15,
15,
15,
13,
14,
13,
15,
13,
14,
13,
13,
15,
13,
13,
13,
13,
14,
12,
13,
15,
13,
14,
11,
13,
12,
13,
13,
14,
13,
13,
13,
13,
12,
13,
12,
13,
13,
13,
12,
13,
17,
11,
11,
11,
11,
15,
14,
12,
17,
10,
12,
13,
14,
15,
11,
12,
12,
13,
11,
12,
11,
13,
13,
11,
13,
13,
11,
11,
13,
11,
12,
12,
12,
11,
12,
11,
11,
12,
10,
15,
12,
12,
11,
12,
11,
11,
11,
12,
12,
13,
12,
13,
12,
11,
12,
13,
12,
11,
8,
8,
11,
11,
13,
12,
13,
12,
13,
9,
9,
12,
11,
11,
10,
10,
11,
11,
11,
11,
11,
11,
9,
11,
13,
11,
11,
11,
11,
11,
11,
11,
15,
11,
11,
10,
12,
11,
11,
11,
12,
11,
11,
11,
11,
10,
10,
11,
11,
9,
9,
10,
15,
11,
11,
11,
11,
10,
10,
11,
11,
10,
9,
11,
12,
12,
11,
11,
11,
11,
11,
9,
10,
10,
10,
11,
10,
9,
11,
11,
8,
11,
11,
8,
10,
11,
10,
10,
9,
11,
10,
9,
9,
11,
10,
10,
9,
9,
9,
9,
11,
11,
11,
12,
9,
9,
10,
8,
10,
8,
15,
10,
10,
10,
10,
10,
10,
7,
15,
10,
11,
9,
9,
9,
8,
11,
10,
10,
10,
11,
11,
9,
9,
9,
11,
10,
12,
9,
9,
9,
11,
11,
11,
10,
15,
8,
8,
9,
9,
15,
11,
11,
10,
11,
11,
9,
12,
9,
9,
8,
8,
12,
10,
9,
9,
11,
9,
9,
9,
11,
9,
8,
10,
10,
9,
9,
11,
13,
11,
12,
10,
5,
10,
11,
11,
11,
11,
10,
9,
9,
11,
12,
11,
11,
12,
11,
13,
9,
11,
11,
10,
8,
9,
9,
10,
11,
11,
10,
11,
10,
11,
11,
9,
10,
11,
9,
9,
8,
11,
9,
9,
8,
11,
9,
9,
10,
9,
12,
10,
11,
11,
11,
6,
11,
10,
12,
11,
12,
10,
8,
9,
12,
9,
9,
10,
9,
9,
9,
9,
8,
11,
9,
8,
8,
9,
11,
11,
10,
11,
11,
12,
10,
10,
11,
9,
11,
11,
8,
12,
12,
9,
9,
9,
10,
9,
9,
10,
10,
10,
8,
9,
9,
9,
11,
8,
10,
9,
8,
10,
10,
8,
9,
9,
11,
10,
10,
8,
9,
9,
11,
11,
10,
12,
12,
12,
10,
9,
10,
9,
9,
9,
9,
9,
9,
9,
8,
8,
8,
8,
9,
9,
9,
9,
9,
8,
9,
10,
11,
9,
9,
10,
10,
9,
10,
11,
10,
9,
10,
9,
8,
16,
9,
8,
8,
11,
12,
10,
10,
10,
9,
11,
11,
10,
9,
10,
8,
10,
10,
9,
10,
11,
10,
9,
9,
9,
10,
9,
10,
9,
9,
9,
9,
10,
11,
10,
9,
9,
9,
10,
10,
10,
5,
10,
11,
9,
9,
8,
9,
9,
9,
9,
9,
9,
9,
9,
10,
11,
9,
9,
10,
9,
9,
9,
8,
8,
8,
8,
9,
9,
9,
13,
10,
4,
9,
9,
13,
9,
9,
9,
8,
10,
10,
10,
9,
10,
9,
9,
9,
10,
8,
9,
11,
11,
9,
8,
8,
9,
15,
12,
16,
10,
4,
9,
10,
9,
9,
9,
10,
9,
9,
9,
10,
8,
11,
9,
9,
8,
10,
11,
10,
9,
12,
9,
9,
10,
11,
11,
9,
9,
10,
10,
8,
9,
10,
9,
8,
8,
9,
10,
7,
8,
11,
11,
11,
9,
11,
10,
9,
11,
13,
11,
11,
9,
9,
9,
10,
9,
9,
9,
9,
9,
9,
10,
9,
7,
7,
9,
9,
9,
8,
13,
9,
11,
10,
10,
14,
12,
9,
11,
11,
12,
9,
11,
9,
11,
10,
9,
9,
9,
9,
11,
13,
9,
9,
9,
8,
9,
11,
9,
9,
9,
9,
5,
9,
8,
9,
9,
9,
8,
8,
8,
11,
10,
9,
8,
10,
12,
7,
8,
8,
9,
11,
7,
8,
8,
9,
7,
9,
9,
7,
11,
8,
8,
8,
8,
9,
9,
9,
9,
8,
9,
9,
8,
8,
9,
10,
9,
9,
11,
11,
10,
4,
4,
8,
8,
9,
9,
12,
11,
9,
9,
9,
8,
9,
8,
8,
9,
11,
4,
8,
8,
9,
8,
8,
9,
9,
8,
9,
9,
9,
9,
9,
11,
5,
8,
9,
9,
8,
8,
13,
8,
10,
11,
9,
9,
8,
10,
9,
9,
10,
9,
11,
9,
9,
9,
9,
9,
9,
7,
8,
9,
9,
9,
9,
12,
8,
9,
8,
8,
7,
9,
9,
9,
10,
9,
9,
8,
11,
8,
13,
11,
10,
10,
9,
7,
9,
9,
9,
9,
8,
10,
10,
8,
10,
9,
8,
9,
11,
10,
9,
11,
11,
9,
9,
9,
8,
8,
8,
8,
9,
10,
9,
10,
9,
9,
8,
10,
10,
10,
9,
9,
10,
9,
9,
9,
13,
-4,
2,
9,
7,
4,
4,
13,
9,
10,
9,
14,
9,
9,
8,
9,
8,
9,
9,
7,
7,
11,
9,
7,
9,
12,
11,
8,
10,
9,
11,
9,
9,
9,
9,
10,
8,
9,
9,
9,
9,
10,
8,
9,
9,
9,
9,
8,
11,
8,
9,
9,
9,
8,
8,
9,
9,
9,
8,
10,
9,
9,
8,
9,
9,
9,
10,
7,
10,
10,
9,
9,
11,
10,
9,
9,
8,
10,
8,
8,
9,
11,
6,
9,
9,
9,
9,
9,
9,
9,
8,
8,
9,
9,
9,
10,
8,
9,
8,
10,
10,
9,
8,
9,
9,
8,
12,
10,
10,
7,
9,
8,
9,
8,
9,
8,
9,
9,
10,
8,
10,
10,
8,
8,
9,
9,
8,
9,
11,
10,
8,
9,
10,
9,
7,
7,
10,
10,
10,
12,
9,
9,
9,
9,
8,
11,
9,
9,
8,
10,
8,
8,
9,
8,
9,
9,
9,
10,
9,
11,
10,
10,
9,
9,
11,
9,
9,
12,
8,
9,
12,
7,
9,
9,
9,
12,
9,
9,
9,
9,
9,
9,
9,
8,
8,
9,
8,
7,
9,
8,
9,
9,
9,
9,
9,
8,
8,
9,
9,
9,
9,
8,
9,
9,
9,
10,
12,
8,
8,
8,
8,
9,
9,
8,
9,
9,
5,
8,
8,
9,
9,
9,
10,
9,
8,
13,
11,
9,
9,
10,
7,
9,
8,
9,
9,
10,
10,
9,
9,
11,
8,
9,
7,
9,
10,
10,
9,
10,
10,
9,
9,
9,
7,
7,
8,
9,
11,
7,
9,
8,
8,
8,
11,
8,
9,
9,
9,
9,
9,
10,
9,
9,
7,
11,
9,
8,
8,
8,
9,
9,
9,
10,
8,
9,
10,
9,
7,
7,
10,
7,
9,
16,
17,
-2,
11,
11,
9,
10,
3,
9,
9,
8,
9,
5,
8,
8,
9,
8,
7,
7,
9,
4,
8,
8,
8,
8,
9,
9,
5,
7,
8,
9,
8,
8,
9,
9,
8,
8,
7,
10,
9,
8,
9,
8,
9,
8,
9,
9,
9,
9,
9,
9,
9,
8,
8,
9,
9,
9,
9,
9,
9,
8,
9,
9,
9,
9,
9,
9,
8,
12,
9,
9,
11,
8,
12,
8,
9,
9,
9,
11,
9,
8,
8,
9,
7,
8,
9,
9,
9,
9,
11,
11,
4,
10,
10,
8,
9,
9,
9,
7,
8,
10,
9,
9,
11,
11,
8,
9,
9,
10,
4,
11,
10,
9,
8,
13,
7,
9,
9,
9,
7,
7,
9,
10,
8,
4,
9,
9,
9,
8,
10,
8,
9,
9,
9,
8,
9,
10,
8,
8,
9,
9,
9,
12,
7,
9,
8,
15,
11,
9,
9,
9,
9,
8,
9,
9,
9,
8,
8,
10,
9,
9,
10,
9,
9,
8,
8,
10,
9,
8,
9,
8,
10,
8,
9,
9,
11,
9,
9,
8,
8,
9,
9,
4,
8,
9,
10,
10,
5,
9,
8,
9,
9,
9,
9,
8,
9,
10,
9,
8,
9,
9,
8,
8,
9,
7,
9,
9,
9,
9,
9,
9,
9,
8,
8,
9,
10,
9,
6,
10,
8,
8,
11,
7,
10,
9,
9,
9,
11,
9,
9,
9,
8,
9,
9,
9,
9,
10,
10,
9,
9,
9,
10,
9,
8,
9,
9,
