Datos experimentales/DATOS 26-3-24/ALL0012/A0012CH1.CSV

Memory Length,4000,
Trigger Level,0.000E+00,
Source,CH1,
Vertical Units,V,
Vertical Scale,2.000E-02,
Vertical Position,-1.200E-02,
Horizontal Units,s,
Horizontal Scale,1.000E+00,
Horizontal Position,-5.200E-01,
Horizontal Mode,Roll Mode,
Sampling Period,4.000E-03,
Firmware, V1.21,
Waveform Data,
7,
9,
9,
9,
7,
8,
9,
9,
9,
8,
8,
8,
9,
9,
9,
8,
6,
8,
9,
7,
9,
9,
11,
8,
9,
7,
8,
9,
7,
5,
8,
9,
8,
8,
8,
9,
9,
8,
7,
8,
5,
8,
8,
9,
13,
7,
7,
8,
8,
8,
8,
8,
7,
13,
9,
8,
9,
9,
8,
9,
8,
8,
9,
9,
9,
8,
11,
7,
8,
9,
9,
8,
8,
8,
8,
7,
11,
8,
8,
8,
8,
9,
7,
8,
9,
10,
8,
7,
7,
10,
7,
8,
8,
8,
9,
14,
8,
8,
8,
11,
6,
6,
6,
9,
7,
8,
9,
5,
10,
8,
8,
8,
8,
7,
7,
8,
8,
8,
9,
9,
9,
8,
9,
8,
8,
5,
8,
9,
9,
8,
8,
9,
8,
8,
8,
9,
11,
9,
9,
9,
8,
8,
9,
9,
9,
7,
9,
9,
9,
6,
9,
8,
9,
8,
8,
10,
9,
9,
8,
9,
8,
8,
9,
8,
8,
8,
8,
8,
3,
8,
8,
8,
9,
8,
10,
12,
9,
7,
9,
9,
9,
9,
7,
8,
8,
8,
10,
8,
9,
8,
7,
7,
9,
9,
9,
9,
8,
8,
9,
11,
7,
8,
9,
8,
8,
8,
9,
5,
5,
7,
9,
8,
8,
9,
5,
4,
9,
8,
7,
8,
9,
9,
13,
8,
9,
9,
8,
9,
8,
11,
8,
8,
9,
9,
8,
8,
10,
8,
8,
8,
8,
7,
7,
7,
8,
9,
8,
8,
8,
9,
9,
6,
9,
9,
9,
8,
9,
8,
9,
8,
8,
8,
8,
8,
9,
8,
9,
8,
9,
9,
9,
8,
9,
9,
9,
9,
9,
9,
9,
12,
8,
9,
9,
9,
8,
7,
12,
9,
8,
8,
8,
8,
8,
4,
9,
8,
9,
8,
8,
8,
9,
9,
9,
8,
8,
8,
11,
10,
8,
9,
8,
9,
8,
8,
10,
9,
8,
8,
8,
8,
8,
12,
8,
9,
8,
8,
8,
8,
8,
9,
8,
8,
8,
9,
9,
7,
9,
8,
8,
8,
7,
9,
8,
10,
10,
7,
8,
8,
10,
5,
8,
8,
8,
7,
6,
8,
8,
8,
9,
9,
8,
8,
9,
7,
9,
11,
9,
9,
7,
9,
8,
8,
9,
8,
8,
8,
9,
8,
9,
7,
8,
5,
11,
7,
1,
1,
10,
9,
7,
8,
9,
7,
7,
9,
8,
10,
7,
7,
7,
1,
9,
8,
9,
9,
9,
7,
5,
8,
9,
8,
7,
7,
7,
6,
7,
9,
9,
8,
8,
9,
5,
8,
8,
11,
9,
9,
9,
8,
9,
8,
8,
8,
7,
9,
8,
8,
9,
9,
9,
7,
8,
8,
7,
8,
9,
9,
8,
9,
9,
9,
11,
11,
8,
7,
8,
9,
9,
4,
7,
8,
9,
8,
9,
1,
8,
8,
3,
9,
10,
9,
3,
7,
7,
8,
9,
8,
7,
8,
7,
9,
9,
9,
8,
9,
8,
9,
9,
8,
8,
11,
8,
10,
8,
8,
8,
9,
8,
8,
7,
8,
9,
8,
9,
8,
8,
7,
8,
8,
8,
8,
9,
9,
5,
9,
8,
9,
8,
3,
9,
10,
7,
7,
9,
8,
8,
9,
8,
8,
9,
9,
8,
8,
9,
2,
2,
8,
8,
8,
9,
8,
9,
13,
8,
8,
8,
8,
8,
9,
9,
10,
8,
9,
8,
10,
10,
12,
8,
8,
8,
7,
8,
8,
8,
7,
8,
8,
9,
7,
12,
11,
8,
9,
8,
8,
8,
7,
9,
9,
8,
9,
9,
9,
7,
7,
5,
10,
9,
8,
9,
8,
9,
9,
7,
8,
9,
8,
11,
9,
7,
10,
9,
9,
8,
9,
9,
7,
9,
9,
8,
9,
9,
9,
11,
9,
8,
9,
8,
8,
8,
8,
8,
9,
9,
8,
8,
8,
7,
8,
8,
8,
8,
8,
9,
7,
9,
9,
8,
9,
10,
9,
9,
9,
5,
9,
9,
9,
8,
9,
8,
9,
9,
7,
9,
9,
7,
11,
7,
9,
9,
9,
9,
8,
4,
9,
8,
17,
9,
12,
8,
9,
11,
11,
9,
8,
8,
9,
11,
8,
9,
9,
8,
8,
9,
9,
9,
8,
8,
0,
12,
8,
7,
7,
9,
8,
9,
7,
8,
6,
12,
12,
8,
8,
8,
10,
11,
9,
9,
8,
8,
9,
9,
9,
2,
2,
8,
8,
9,
8,
7,
8,
9,
8,
8,
8,
8,
5,
5,
10,
8,
8,
8,
8,
8,
11,
9,
8,
8,
9,
8,
8,
8,
9,
8,
9,
9,
9,
7,
9,
7,
8,
7,
8,
8,
8,
8,
10,
9,
8,
9,
10,
9,
9,
9,
6,
11,
8,
9,
9,
8,
9,
7,
8,
8,
9,
9,
8,
17,
9,
7,
8,
8,
9,
9,
9,
9,
10,
9,
9,
9,
8,
10,
8,
11,
8,
8,
9,
9,
11,
9,
8,
8,
8,
8,
8,
7,
9,
9,
8,
9,
9,
8,
10,
8,
9,
9,
9,
9,
9,
10,
7,
13,
8,
9,
9,
9,
9,
13,
8,
8,
10,
9,
9,
7,
10,
9,
9,
9,
9,
9,
9,
15,
9,
10,
7,
8,
8,
9,
7,
9,
9,
9,
8,
7,
9,
5,
8,
7,
9,
9,
9,
8,
8,
7,
8,
8,
8,
8,
7,
8,
9,
9,
8,
8,
8,
10,
7,
11,
11,
8,
8,
8,
9,
8,
3,
9,
8,
9,
8,
7,
9,
8,
9,
8,
8,
8,
9,
9,
11,
8,
8,
8,
8,
8,
8,
13,
8,
7,
7,
9,
9,
8,
7,
8,
9,
8,
8,
8,
9,
7,
9,
8,
8,
9,
9,
8,
10,
10,
9,
9,
9,
8,
8,
8,
9,
9,
9,
8,
9,
9,
9,
7,
10,
8,
8,
8,
11,
7,
7,
7,
9,
7,
5,
8,
8,
6,
8,
8,
8,
9,
9,
8,
8,
8,
8,
8,
9,
9,
8,
12,
9,
8,
8,
8,
9,
8,
8,
8,
7,
7,
8,
8,
8,
9,
11,
8,
8,
9,
8,
9,
9,
9,
9,
8,
9,
9,
8,
7,
8,
8,
8,
9,
9,
8,
9,
9,
9,
11,
8,
9,
8,
8,
11,
9,
10,
8,
10,
8,
9,
9,
9,
9,
8,
8,
8,
9,
7,
7,
9,
8,
7,
8,
8,
8,
9,
12,
9,
8,
9,
8,
9,
8,
8,
7,
9,
8,
10,
10,
9,
8,
8,
8,
8,
9,
7,
13,
7,
8,
11,
9,
9,
7,
6,
8,
8,
8,
9,
8,
8,
5,
10,
8,
9,
8,
7,
9,
8,
8,
8,
9,
8,
7,
8,
11,
9,
7,
11,
8,
8,
8,
8,
8,
8,
8,
8,
9,
8,
9,
8,
9,
5,
9,
9,
10,
10,
9,
8,
8,
8,
9,
9,
11,
4,
10,
9,
8,
9,
9,
8,
13,
8,
8,
9,
9,
8,
7,
10,
8,
9,
8,
9,
9,
10,
9,
8,
9,
8,
9,
8,
8,
5,
9,
9,
8,
8,
8,
9,
3,
8,
8,
8,
8,
8,
8,
9,
9,
8,
9,
9,
9,
9,
9,
9,
11,
8,
9,
8,
8,
7,
10,
8,
8,
8,
8,
9,
9,
7,
8,
9,
8,
9,
9,
8,
7,
6,
8,
9,
8,
8,
9,
5,
9,
9,
8,
7,
8,
8,
8,
6,
9,
9,
8,
8,
8,
8,
8,
8,
9,
9,
8,
8,
9,
9,
13,
8,
9,
9,
9,
8,
8,
9,
7,
8,
8,
9,
7,
8,
9,
9,
9,
9,
8,
9,
11,
-1,
5,
7,
9,
8,
7,
5,
8,
9,
9,
9,
10,
9,
11,
7,
9,
8,
8,
8,
8,
9,
10,
10,
8,
9,
8,
6,
7,
8,
8,
9,
8,
8,
8,
9,
8,
8,
8,
10,
10,
9,
9,
8,
8,
8,
8,
9,
8,
7,
2,
11,
9,
12,
12,
8,
8,
7,
9,
9,
9,
8,
8,
7,
12,
9,
8,
8,
7,
8,
9,
10,
9,
12,
9,
8,
8,
9,
10,
9,
9,
9,
8,
7,
7,
7,
6,
4,
7,
7,
11,
10,
10,
8,
8,
8,
8,
9,
9,
10,
9,
11,
8,
9,
9,
9,
8,
7,
8,
8,
9,
9,
8,
9,
11,
9,
8,
8,
8,
8,
9,
8,
8,
9,
7,
9,
9,
8,
7,
8,
8,
9,
9,
8,
9,
10,
9,
4,
8,
8,
9,
9,
9,
3,
7,
9,
9,
9,
9,
9,
9,
10,
8,
8,
9,
9,
9,
13,
9,
9,
9,
9,
8,
9,
9,
5,
5,
8,
8,
8,
8,
5,
9,
8,
9,
8,
9,
8,
7,
12,
12,
9,
9,
8,
9,
9,
9,
13,
8,
8,
8,
8,
9,
5,
5,
8,
8,
9,
7,
9,
6,
11,
9,
6,
9,
9,
11,
11,
9,
10,
11,
11,
11,
9,
9,
14,
12,
13,
14,
13,
18,
18,
10,
15,
17,
19,
19,
19,
21,
23,
21,
23,
23,
23,
25,
24,
23,
25,
25,
25,
27,
27,
28,
27,
27,
31,
30,
30,
30,
31,
31,
31,
32,
33,
34,
35,
37,
38,
36,
36,
40,
40,
42,
42,
45,
45,
45,
47,
47,
48,
48,
49,
51,
51,
51,
53,
53,
55,
56,
56,
61,
57,
59,
59,
61,
60,
63,
59,
61,
65,
66,
65,
68,
68,
69,
69,
71,
69,
70,
71,
69,
72,
68,
71,
73,
72,
71,
71,
74,
75,
76,
73,
74,
75,
75,
74,
76,
75,
80,
75,
75,
75,
75,
75,
77,
75,
76,
77,
75,
72,
78,
76,
79,
77,
77,
77,
77,
77,
72,
76,
80,
76,
75,
76,
77,
75,
77,
76,
76,
77,
73,
76,
79,
73,
77,
77,
76,
76,
76,
75,
75,
73,
73,
76,
75,
75,
73,
75,
73,
72,
74,
75,
74,
72,
74,
72,
72,
74,
75,
72,
73,
73,
74,
72,
72,
73,
72,
71,
67,
71,
71,
69,
69,
71,
69,
69,
72,
71,
72,
68,
72,
71,
69,
74,
74,
69,
70,
69,
65,
67,
67,
69,
67,
66,
66,
65,
64,
64,
68,
65,
64,
65,
66,
65,
66,
65,
60,
64,
65,
66,
63,
63,
65,
67,
63,
64,
61,
62,
63,
61,
61,
63,
63,
62,
63,
63,
62,
60,
56,
61,
61,
60,
60,
61,
63,
62,
60,
61,
61,
61,
60,
59,
58,
58,
61,
61,
59,
53,
57,
56,
52,
57,
56,
56,
58,
55,
57,
57,
57,
56,
56,
56,
56,
55,
55,
56,
56,
58,
56,
55,
56,
55,
51,
55,
56,
55,
56,
55,
53,
55,
53,
53,
55,
53,
53,
55,
49,
52,
53,
51,
53,
53,
51,
52,
52,
53,
52,
52,
56,
51,
41,
57,
54,
51,
52,
61,
49,
52,
49,
49,
52,
51,
51,
51,
49,
47,
50,
50,
49,
50,
49,
49,
49,
49,
47,
47,
47,
49,
43,
48,
49,
48,
48,
47,
47,
47,
47,
47,
48,
53,
46,
48,
47,
47,
48,
43,
47,
46,
47,
47,
47,
46,
42,
47,
47,
45,
43,
45,
45,
46,
44,
45,
44,
43,
43,
43,
43,
40,
40,
44,
41,
43,
43,
45,
44,
43,
43,
42,
42,
40,
42,
40,
40,
41,
45,
43,
43,
41,
59,
45,
42,
42,
43,
43,
41,
40,
41,
42,
40,
41,
39,
44,
41,
38,
37,
39,
39,
40,
39,
39,
39,
41,
39,
37,
39,
37,
38,
38,
39,
37,
37,
37,
39,
38,
38,
38,
32,
39,
35,
37,
37,
37,
38,
38,
38,
37,
37,
37,
37,
37,
32,
37,
39,
39,
36,
37,
39,
31,
31,
33,
38,
37,
36,
37,
36,
40,
35,
35,
35,
36,
33,
33,
37,
35,
34,
33,
34,
35,
34,
32,
37,
35,
33,
33,
33,
33,
33,
31,
33,
32,
32,
32,
37,
32,
35,
33,
37,
29,
33,
33,
33,
32,
31,
36,
35,
33,
29,
33,
32,
36,
33,
34,
33,
32,
32,
34,
31,
39,
32,
32,
37,
33,
33,
33,
33,
32,
32,
32,
32,
31,
32,
32,
31,
32,
31,
30,
31,
33,
30,
27,
30,
30,
30,
31,
29,
31,
29,
31,
32,
31,
29,
30,
29,
31,
29,
29,
29,
30,
31,
31,
28,
31,
26,
31,
28,
31,
30,
31,
31,
31,
31,
29,
29,
32,
29,
33,
31,
27,
31,
31,
29,
32,
32,
31,
29,
33,
31,
29,
29,
30,
29,
29,
30,
27,
30,
29,
29,
30,
30,
31,
29,
29,
28,
30,
28,
32,
29,
29,
29,
29,
29,
29,
28,
30,
28,
28,
29,
27,
27,
30,
29,
23,
28,
27,
28,
28,
27,
27,
27,
29,
25,
27,
27,
28,
27,
27,
30,
27,
27,
27,
27,
26,
29,
29,
27,
29,
27,
28,
28,
29,
25,
26,
26,
28,
26,
26,
27,
28,
33,
25,
27,
27,
27,
23,
29,
27,
27,
27,
27,
27,
25,
25,
26,
26,
26,
25,
27,
27,
25,
25,
25,
25,
25,
25,
25,
23,
23,
25,
25,
24,
25,
22,
25,
25,
25,
24,
25,
19,
25,
25,
26,
28,
25,
24,
25,
23,
24,
24,
23,
24,
24,
24,
24,
23,
24,
25,
23,
24,
24,
24,
24,
23,
24,
22,
22,
23,
23,
23,
23,
23,
27,
23,
23,
23,
22,
24,
24,
23,
23,
23,
23,
23,
23,
23,
23,
23,
23,
19,
26,
23,
23,
21,
21,
22,
23,
23,
23,
23,
23,
23,
23,
21,
20,
23,
22,
21,
21,
21,
23,
23,
23,
23,
20,
22,
20,
21,
18,
21,
23,
23,
21,
22,
22,
21,
21,
21,
21,
21,
21,
17,
21,
21,
20,
20,
19,
21,
19,
16,
20,
17,
20,
19,
20,
20,
20,
21,
19,
20,
20,
20,
19,
17,
21,
19,
19,
19,
20,
20,
20,
19,
19,
19,
19,
18,
19,
18,
19,
19,
19,
18,
18,
19,
20,
18,
20,
20,
19,
17,
19,
19,
17,
20,
19,
18,
20,
19,
19,
20,
17,
17,
21,
18,
17,
19,
19,
19,
19,
18,
18,
19,
17,
18,
17,
17,
14,
16,
17,
19,
19,
18,
19,
19,
17,
19,
19,
18,
19,
19,
20,
17,
18,
17,
17,
17,
18,
17,
17,
20,
15,
16,
19,
19,
14,
17,
19,
19,
17,
17,
17,
16,
17,
16,
19,
17,
17,
16,
15,
16,
17,
17,
17,
15,
18,
16,
17,
17,
14,
16,
17,
19,
16,
16,
16,
15,
16,
17,
16,
16,
18,
16,
16,
16,
16,
16,
15,
15,
16,
16,
16,
15,
15,
14,
15,
17,
16,
14,
15,
17,
15,
15,
15,
20,
16,
14,
14,
16,
16,
16,
16,
15,
17,
15,
15,
17,
15,
15,
16,
15,
15,
14,
14,
15,
13,
16,
15,
13,
14,
14,
15,
15,
13,
8,
14,
15,
15,
14,
15,
14,
15,
17,
17,
13,
14,
13,
15,
13,
13,
13,
13,
15,
14,
15,
15,
15,
15,
15,
14,
14,
13,
12,
17,
14,
13,
12,
14,
13,
16,
14,
11,
13,
15,
15,
15,
14,
15,
13,
13,
14,
13,
14,
14,
15,
10,
13,
11,
11,
13,
13,
15,
13,
9,
12,
13,
12,
13,
11,
16,
13,
13,
13,
13,
14,
14,
13,
13,
13,
13,
13,
12,
14,
11,
13,
13,
13,
14,
12,
13,
13,
12,
12,
13,
11,
13,
11,
13,
13,
13,
12,
12,
12,
11,
12,
13,
13,
13,
13,
13,
12,
12,
12,
12,
11,
13,
10,
13,
12,
11,
11,
13,
13,
13,
12,
12,
11,
12,
12,
15,
15,
12,
13,
11,
12,
13,
13,
11,
13,
13,
12,
12,
13,
13,
10,
12,
13,
12,
12,
13,
12,
8,
12,
13,
13,
12,
12,
12,
10,
13,
12,
13,
13,
11,
14,
12,
8,
12,
13,
12,
20,
20,
13,
9,
12,
12,
23,
13,
13,
13,
12,
12,
14,
11,
12,
12,
12,
13,
13,
13,
11,
12,
12,
13,
12,
13,
14,
18,
11,
11,
12,
12,
11,
8,
4,
11,
12,
13,
11,
12,
12,
11,
11,
12,
13,
11,
11,
11,
12,
10,
11,
15,
12,
11,
10,
12,
12,
11,
11,
12,
12,
11,
12,
13,
11,
12,
12,
12,
9,
14,
11,
11,
11,
13,
12,
11,
9,
12,
11,
10,
10,
13,
11,
12,
11,
11,
10,
12,
11,
11,
9,
11,
11,
12,
10,
12,
12,
11,
11,
14,
12,
10,
12,
11,
11,
12,
8,
12,
11,
10,
12,
11,
13,
13,
13,
13,
11,
12,
12,
10,
11,
12,
11,
11,
11,
11,
11,
11,
12,
12,
9,
10,
11,
12,
12,
11,
14,
12,
11,
13,
13,
12,
11,
13,
13,
13,
12,
12,
9,
11,
10,
11,
12,
9,
9,
11,
10,
10,
11,
12,
10,
11,
11,
11,
11,
11,
10,
10,
11,
9,
9,
10,
11,
13,
10,
9,
12,
11,
11,
11,
11,
9,
11,
10,
10,
9,
5,
9,
4,
8,
9,
10,
9,
9,
7,
8,
10,
9,
9,
9,
10,
9,
8,
9,
11,
10,
10,
10,
10,
12,
9,
11,
11,
9,
11,
9,
11,
10,
11,
11,
8,
9,
9,
9,
8,
11,
11,
9,
8,
9,
10,
9,
7,
11,
8,
8,
10,
9,
9,
9,
9,
10,
9,
9,
9,
9,
9,
13,
11,
10,
9,
9,
7,
8,
8,
9,
16,
9,
9,
9,
10,
9,
9,
10,
10,
10,
9,
9,
9,
10,
9,
9,
9,
9,
9,
9,
8,
9,
8,
10,
11,
9,
9,
11,
11,
3,
7,
8,
9,
9,
10,
9,
11,
8,
9,
9,
8,
11,
11,
11,
8,
8,
9,
9,
8,
9,
9,
5,
7,
8,
7,
8,
8,
11,
10,
9,
8,
9,
8,
9,
8,
27,
8,
8,
9,
7,
7,
7,
9,
10,
10,
12,
10,
8,
9,
8,
8,
11,
8,
9,
9,
7,
8,
8,
8,
9,
9,
9,
9,
9,
9,
9,
9,
9,
9,
10,
9,
9,
10,
9,
8,
9,
8,
9,
10,
9,
9,
3,
8,
10,
10,
10,
9,
9,
8,
9,
9,
8,
10,
7,
9,
9,
10,
7,
7,
9,
8,
8,
7,
10,
8,
8,
9,
8,
8,
8,
5,
9,
9,
9,
10,
10,
8,
11,
10,
8,
8,
11,
9,
8,
9,
9,
10,
8,
9,
9,
9,
9,
9,
4,
9,
9,
9,
8,
9,
9,
10,
8,
9,
9,
9,
9,
11,
9,
9,
7,
8,
9,
8,
8,
10,
8,
8,
9,
8,
9,
9,
9,
7,
12,
9,
9,
9,
9,
7,
8,
8,
9,
9,
9,
8,
10,
11,
8,
5,
9,
10,
9,
11,
9,
9,
8,
8,
11,
9,
11,
10,
10,
9,
7,
9,
9,
9,
9,
9,
9,
9,
10,
9,
9,
9,
12,
9,
8,
6,
9,
9,
9,
9,
8,
9,
8,
9,
9,
9,
10,
9,
9,
9,
10,
9,
9,
8,
9,
9,
9,
7,
9,
8,
8,
9,
8,
9,
12,
8,
8,
10,
9,
11,
9,
9,
5,
9,
12,
9,
9,
9,
9,
9,
9,
9,
10,
8,
8,
9,
9,
9,
7,
8,
9,
9,
7,
7,
7,
8,
9,
9,
9,
9,
9,
8,
9,
9,
9,
9,
11,
10,
10,
10,
7,
9,
9,
9,
9,
11,
15,
8,
9,
9,
9,
10,
10,
10,
6,
8,
7,
8,
11,
10,
7,
12,
10,
9,
8,
8,
8,
9,
10,
10,
13,
9,
8,
9,
10,
9,
12,
9,
11,
9,
9,
9,
10,
9,
11,
9,
9,
9,
10,
9,
9,
9,
9,
9,
9,
9,
9,
10,
9,
11,
11,
8,
9,
9,
9,
9,
11,
9,
9,
9,
8,
8,
9,
8,
9,
9,
8,
7,
9,
9,
9,
11,
8,
8,
8,
8,
8,
7,
9,
9,
10,
9,
8,
10,
9,
8,
8,
9,
9,
9,
9,
9,
8,
11,
9,
7,
9,
9,
9,
7,
9,
14,
8,
8,
10,
9,
8,
8,
9,
9,
8,
8,
8,
8,
9,
8,
12,
8,
8,
8,
9,
9,
9,
7,
8,
7,
9,
9,
8,
9,
9,
9,
11,
9,
11,
9,
11,
9,
14,
9,
10,
9,
15,
8,
11,
11,
10,
6,
9,
9,
8,
9,
8,
10,
9,
8,
9,
8,
9,
9,
6,
8,
9,
9,
7,
8,
9,
9,
8,
9,
8,
8,
8,
8,
10,
8,
9,
11,
11,
8,
9,
9,
10,
7,
10,
9,
9,
9,
10,
9,
5,
9,
9,
10,
9,
9,
8,
10,
7,
10,
9,
9,
9,
9,
9,
10,
9,
9,
8,
9,
9,
9,
8,
11,
9,
9,
9,
7,
9,
11,
8,
9,
8,
9,
9,
9,
8,
10,
8,
8,
11,
7,
9,
9,
11,
8,
8,
9,
9,
8,
9,
9,
4,
4,
8,
11,
9,
9,
9,
8,
8,
8,
8,
8,
8,
8,
9,
6,
6,
8,
10,
9,
8,
9,
9,
8,
8,
8,
9,
9,
8,
8,
8,
9,
10,
8,
9,
7,
8,
8,
10,
11,
9,
10,
9,
9,
10,
9,
10,
11,
9,
8,
11,
10,
8,
8,
11,
10,
9,
9,
8,
5,
5,
9,
9,
8,
9,
9,
9,
9,
8,
9,
9,
8,
9,
9,
7,
7,
8,
8,
9,
9,
9,
9,
13,
7,
8,
7,
9,
9,
8,
8,
8,
9,
9,
8,
9,
9,
7,
5,
8,
9,
6,
9,
9,
9,
9,
8,
11,
8,
9,
8,
9,
7,
9,
9,
8,
7,
7,
9,
10,
9,
7,
8,
10,
9,
9,
9,
7,
8,
9,
8,
8,
9,
7,
7,
8,
8,
8,
8,
9,
7,
11,
9,
9,
8,
8,
8,
9,
7,
6,
9,
8,
8,
8,
11,
8,
8,
8,
9,
8,
8,
9,
9,
9,
4,
8,
9,
9,
8,
7,
9,
8,
8,
8,
8,
8,
7,
9,
9,
9,
9,
8,
9,
8,
8,
9,
4,
8,
8,
8,
8,
8,
9,
7,
8,
9,
9,
9,
8,
9,
9,
4,
8,
8,
9,
7,
9,
9,
9,
9,
9,
9,
8,
8,
8,
9,
9,
9,
8,
9,
9,
9,
7,
6,
9,
9,
8,
8,
9,
7,
7,
5,
8,
8,
8,
8,
9,
8,
7,
9,
9,
7,
8,
8,
8,
8,
10,
8,
8,
9,
8,
9,
9,
8,
8,
8,
9,
9,
9,
8,
8,
11,
7,
8,
9,
8,
7,
8,
8,
9,
8,
10,
76,
8,
8,
8,
0,
8,
9,
8,
8,
8,
8,
8,
8,
9,
8,
9,
9,
9,
9,
7,
9,
9,
7,
8,
8,
8,
7,
7,
9,
8,
7,
7,
12,
9,
8,
8,
9,
8,
8,
9,
9,
10,
7,
9,
8,
8,
7,
9,
6,
7,
9,
8,
8,
8,
8,
10,
9,
10,
8,
9,
9,
8,
8,
6,
9,
3,
9,
8,
9,
8,
8,
8,
8,
8,
10,
9,
9,
7,
9,
4,
9,
7,
9,
9,
8,
5,
9,
7,
8,
9,
9,
8,
8,
9,
8,
8,
9,
8,
4,
7,
9,
11,
8,
8,
8,
9,
-3,
9,
8,
8,
9,
12,
7,
9,
8,
10,
8,
8,
8,
8,
8,
8,
9,
8,
9,
7,
8,
9,
8,
8,
9,
9,
9,
8,
7,
9,
7,
8,
8,
8,
7,
9,
9,
9,
8,
8,
8,
9,
8,
9,
7,
3,
7,
8,
7,
9,
8,
9,
11,
10,
10,
9,
8,
9,
8,
9,
9,
9,
10,
8,
9,
9,
4,
4,
10,
9,
9,
9,
9,
9,
7,
9,
7,
8,
9,
8,
8,
5,
7,
9,
9,
9,
9,
9,
10,
9,
8,
9,
8,
8,
9,
11,
11,
9,
9,
9,
9,
8,
9,
11,
8,
8,
8,
9,
8,
6,
9,
8,
8,
11,
9,
9,
8,
8,
9,
11,
9,
9,
10,
7,
8,
9,
9,
9,
9,
8,
8,
9,
8,
9,
11,
9,
8,
9,
7,
8,
8,
9,
9,
11,
9,
8,
9,
9,
8,
11,
11,
9,
8,
8,
8,
8,
9,
9,
8,
8,
8,
8,
8,
9,
9,
10,
8,
8,
7,
7,
8,
11,
9,
7,
8,
9,
8,
9,
8,
15,
9,
8,
8,
9,
8,
9,
9,
9,
9,
8,
8,
8,
9,
5,
8,
7,
9,
8,
9,
9,
8,
5,
8,
9,
8,
9,
9,
9,
8,
5,
8,
9,
9,
