Datos experimentales/DATOS 26-3-24/ALL0047/A0047CH1.CSV

Memory Length,4000,
Trigger Level,1.600E-03,
Source,CH1,
Vertical Units,V,
Vertical Scale,2.000E-02,
Vertical Position,-1.200E-02,
Horizontal Units,s,
Horizontal Scale,1.000E+00,
Horizontal Position,-8.000E-02,
Horizontal Mode,Roll Mode,
Waveform Last Dot Address,3630,
Sampling Period,4.000E-03,
Firmware, V1.21,
Waveform Data,
15,
15,
11,
12,
11,
11,
12,
12,
12,
13,
12,
17,
13,
13,
11,
12,
9,
13,
13,
13,
11,
12,
11,
13,
11,
12,
12,
12,
13,
13,
11,
13,
13,
12,
12,
12,
12,
12,
11,
12,
12,
10,
13,
12,
13,
13,
11,
15,
11,
13,
12,
12,
12,
13,
12,
13,
13,
11,
11,
11,
13,
12,
12,
12,
12,
9,
11,
12,
11,
13,
7,
7,
13,
13,
13,
12,
13,
12,
13,
16,
12,
12,
12,
11,
11,
13,
11,
13,
12,
12,
12,
12,
11,
13,
15,
11,
11,
11,
12,
11,
13,
13,
12,
13,
12,
13,
12,
13,
11,
12,
12,
12,
12,
13,
10,
12,
12,
12,
13,
12,
12,
13,
13,
13,
12,
8,
14,
9,
11,
11,
13,
13,
13,
11,
12,
12,
12,
13,
12,
12,
12,
12,
9,
12,
11,
12,
12,
11,
15,
15,
11,
11,
7,
8,
8,
13,
9,
12,
12,
11,
13,
11,
11,
13,
13,
12,
12,
11,
12,
13,
11,
11,
12,
11,
17,
17,
11,
13,
11,
8,
14,
13,
13,
13,
11,
12,
12,
12,
12,
11,
11,
13,
12,
12,
15,
12,
12,
12,
13,
12,
12,
11,
12,
14,
8,
12,
11,
12,
17,
13,
11,
12,
13,
11,
11,
12,
12,
11,
13,
13,
13,
11,
11,
12,
13,
12,
11,
11,
12,
13,
12,
12,
15,
12,
12,
12,
10,
18,
8,
11,
11,
12,
11,
12,
11,
12,
11,
11,
12,
13,
11,
11,
13,
13,
13,
12,
12,
12,
13,
12,
11,
13,
11,
11,
13,
17,
17,
11,
13,
12,
13,
11,
12,
11,
13,
13,
11,
12,
12,
12,
11,
12,
12,
12,
12,
11,
11,
12,
12,
12,
12,
12,
12,
11,
12,
15,
12,
9,
12,
13,
12,
13,
12,
11,
13,
13,
12,
11,
13,
12,
13,
9,
12,
11,
11,
12,
12,
8,
8,
11,
12,
12,
11,
13,
13,
16,
12,
12,
12,
11,
13,
13,
11,
13,
11,
12,
13,
13,
11,
11,
12,
12,
11,
12,
11,
11,
13,
11,
17,
13,
14,
12,
11,
11,
13,
12,
11,
12,
12,
12,
11,
12,
11,
11,
13,
11,
12,
12,
12,
17,
17,
11,
13,
13,
3,
11,
9,
11,
11,
12,
12,
12,
12,
12,
12,
13,
12,
11,
12,
12,
13,
11,
11,
13,
13,
12,
12,
12,
15,
10,
12,
13,
15,
11,
13,
12,
13,
12,
12,
11,
11,
13,
14,
11,
11,
12,
14,
12,
13,
11,
12,
13,
9,
9,
12,
13,
13,
15,
13,
12,
12,
13,
13,
12,
12,
13,
13,
13,
11,
12,
11,
12,
12,
13,
9,
11,
12,
12,
13,
13,
13,
14,
13,
12,
12,
8,
9,
10,
11,
11,
13,
13,
13,
12,
11,
14,
12,
13,
12,
12,
12,
13,
10,
12,
11,
11,
13,
12,
12,
12,
11,
12,
12,
17,
17,
10,
13,
13,
13,
11,
12,
13,
13,
8,
12,
13,
13,
12,
12,
12,
14,
13,
13,
12,
12,
11,
13,
11,
10,
11,
13,
11,
4,
11,
13,
13,
11,
12,
12,
12,
13,
13,
12,
11,
12,
12,
12,
11,
11,
13,
12,
11,
12,
12,
12,
15,
11,
14,
11,
13,
11,
11,
11,
12,
11,
13,
13,
12,
12,
13,
11,
13,
15,
11,
11,
12,
13,
12,
11,
11,
12,
12,
12,
10,
17,
15,
12,
12,
11,
11,
15,
10,
13,
12,
11,
11,
12,
13,
11,
11,
11,
11,
12,
13,
13,
12,
11,
11,
11,
12,
13,
11,
13,
13,
12,
7,
13,
9,
13,
13,
11,
11,
12,
12,
12,
12,
13,
13,
13,
12,
12,
11,
12,
12,
12,
12,
13,
11,
9,
12,
12,
12,
9,
11,
12,
12,
11,
12,
12,
12,
11,
12,
13,
13,
12,
12,
12,
13,
12,
13,
9,
12,
12,
12,
11,
15,
14,
14,
13,
7,
11,
13,
13,
13,
12,
11,
13,
12,
12,
12,
12,
13,
11,
11,
12,
12,
11,
11,
12,
11,
12,
15,
13,
13,
11,
11,
12,
14,
12,
9,
14,
12,
13,
14,
12,
13,
13,
12,
12,
12,
14,
13,
12,
11,
12,
12,
12,
9,
10,
10,
11,
12,
12,
11,
15,
12,
14,
12,
13,
12,
12,
9,
11,
11,
12,
12,
11,
12,
11,
12,
11,
11,
12,
12,
11,
11,
11,
13,
11,
12,
11,
12,
12,
8,
11,
12,
12,
12,
14,
14,
12,
11,
11,
13,
12,
11,
9,
12,
13,
12,
11,
13,
13,
15,
12,
11,
14,
12,
11,
12,
11,
13,
13,
11,
11,
11,
12,
12,
13,
13,
13,
12,
12,
13,
13,
11,
12,
11,
11,
11,
12,
11,
12,
11,
13,
13,
11,
13,
11,
13,
10,
11,
11,
12,
12,
11,
11,
12,
13,
11,
11,
11,
13,
12,
10,
10,
13,
13,
13,
11,
13,
12,
13,
10,
12,
11,
13,
9,
9,
10,
12,
13,
11,
11,
13,
11,
13,
12,
12,
11,
12,
12,
12,
11,
12,
12,
12,
12,
12,
12,
15,
13,
13,
9,
9,
9,
12,
12,
13,
13,
11,
12,
11,
11,
12,
13,
13,
12,
12,
12,
12,
12,
8,
13,
13,
14,
13,
9,
13,
16,
13,
13,
15,
11,
13,
11,
5,
12,
12,
12,
12,
11,
12,
12,
12,
13,
12,
12,
12,
11,
11,
11,
12,
12,
11,
11,
15,
13,
13,
12,
13,
12,
13,
10,
12,
13,
11,
10,
12,
12,
11,
11,
13,
12,
12,
11,
12,
11,
11,
12,
12,
12,
12,
12,
14,
14,
13,
11,
13,
12,
13,
12,
13,
12,
11,
13,
11,
12,
12,
17,
13,
11,
11,
12,
12,
12,
9,
13,
12,
13,
15,
15,
11,
16,
12,
11,
12,
13,
12,
12,
12,
12,
12,
14,
12,
12,
11,
11,
12,
12,
12,
12,
12,
13,
13,
11,
10,
11,
11,
11,
9,
15,
12,
13,
12,
12,
11,
13,
11,
13,
13,
13,
13,
12,
10,
13,
12,
13,
11,
11,
12,
14,
10,
14,
14,
12,
12,
11,
11,
16,
10,
12,
11,
13,
12,
13,
11,
11,
11,
13,
12,
11,
12,
13,
12,
13,
11,
12,
13,
11,
8,
13,
13,
13,
13,
13,
11,
18,
9,
14,
11,
12,
12,
11,
12,
12,
12,
12,
12,
12,
13,
11,
13,
12,
13,
13,
13,
13,
13,
15,
15,
16,
16,
16,
16,
21,
19,
19,
20,
18,
19,
19,
21,
19,
19,
19,
19,
19,
23,
17,
21,
21,
20,
19,
19,
21,
18,
21,
21,
23,
21,
21,
21,
21,
23,
23,
20,
25,
25,
24,
23,
23,
23,
21,
24,
23,
22,
21,
23,
24,
20,
16,
16,
23,
23,
24,
24,
23,
23,
24,
22,
24,
23,
23,
23,
23,
23,
21,
23,
19,
23,
24,
23,
23,
27,
23,
24,
23,
23,
23,
23,
21,
26,
24,
23,
23,
23,
24,
24,
23,
21,
24,
24,
23,
23,
24,
24,
21,
23,
23,
21,
23,
23,
23,
23,
23,
21,
25,
28,
24,
23,
20,
20,
25,
23,
24,
24,
25,
25,
26,
27,
29,
24,
27,
24,
27,
29,
30,
31,
25,
31,
32,
32,
32,
35,
33,
34,
34,
32,
34,
36,
33,
36,
36,
40,
40,
40,
39,
40,
41,
42,
43,
43,
42,
43,
48,
43,
47,
47,
44,
48,
49,
49,
50,
47,
53,
54,
53,
55,
56,
57,
59,
59,
59,
58,
57,
60,
61,
62,
61,
63,
63,
64,
66,
68,
68,
67,
71,
72,
74,
75,
75,
76,
74,
77,
77,
79,
80,
81,
81,
87,
81,
81,
82,
83,
83,
83,
87,
85,
87,
88,
85,
85,
78,
85,
87,
89,
85,
88,
89,
89,
90,
89,
90,
88,
88,
88,
91,
88,
96,
91,
92,
93,
90,
92,
91,
91,
91,
90,
90,
91,
92,
89,
92,
92,
91,
91,
89,
90,
90,
88,
89,
89,
89,
89,
89,
88,
93,
88,
87,
87,
89,
87,
89,
88,
88,
88,
85,
88,
86,
85,
84,
89,
85,
88,
86,
84,
85,
85,
85,
85,
83,
84,
84,
83,
83,
79,
84,
83,
83,
83,
83,
83,
83,
81,
82,
82,
83,
82,
80,
81,
77,
81,
77,
80,
81,
81,
81,
80,
80,
81,
79,
80,
80,
80,
79,
80,
80,
78,
78,
76,
78,
76,
77,
77,
77,
75,
77,
77,
77,
76,
76,
77,
77,
76,
69,
73,
75,
74,
73,
74,
73,
79,
73,
73,
68,
68,
71,
72,
76,
72,
71,
72,
72,
72,
71,
70,
72,
72,
73,
73,
73,
71,
72,
70,
70,
71,
69,
69,
67,
68,
68,
69,
73,
73,
67,
67,
69,
68,
68,
71,
68,
68,
67,
69,
68,
67,
67,
67,
67,
68,
67,
67,
67,
66,
67,
64,
66,
64,
65,
65,
64,
60,
65,
61,
65,
65,
64,
64,
61,
63,
63,
64,
63,
63,
59,
63,
62,
63,
62,
63,
61,
61,
59,
60,
60,
60,
60,
60,
59,
60,
57,
57,
58,
58,
57,
59,
59,
59,
58,
58,
58,
58,
59,
53,
59,
59,
56,
61,
57,
57,
57,
56,
57,
53,
53,
56,
56,
56,
53,
53,
56,
51,
56,
53,
55,
53,
55,
55,
55,
52,
53,
55,
54,
53,
53,
53,
52,
52,
51,
53,
53,
53,
51,
53,
53,
55,
53,
53,
53,
52,
52,
56,
52,
51,
51,
49,
51,
47,
48,
50,
52,
49,
51,
50,
41,
52,
49,
48,
48,
48,
51,
49,
48,
50,
49,
49,
51,
49,
55,
53,
48,
48,
51,
48,
52,
51,
49,
49,
46,
48,
49,
48,
40,
48,
48,
51,
47,
47,
47,
48,
47,
47,
47,
48,
45,
45,
48,
55,
47,
47,
45,
45,
45,
46,
44,
45,
44,
43,
44,
40,
46,
47,
47,
45,
47,
45,
44,
43,
45,
47,
46,
44,
46,
45,
44,
53,
53,
43,
42,
41,
44,
56,
43,
43,
43,
44,
44,
43,
43,
43,
41,
42,
43,
41,
41,
39,
41,
41,
41,
40,
39,
40,
39,
39,
39,
39,
39,
39,
40,
41,
35,
41,
41,
41,
40,
40,
40,
46,
40,
34,
35,
40,
40,
40,
33,
40,
40,
40,
40,
40,
40,
47,
40,
40,
42,
40,
39,
39,
37,
38,
38,
39,
38,
37,
37,
38,
37,
37,
33,
35,
36,
34,
39,
37,
37,
37,
36,
36,
38,
37,
36,
36,
38,
34,
35,
35,
39,
37,
37,
38,
36,
36,
36,
36,
36,
38,
33,
33,
39,
36,
38,
38,
36,
36,
36,
36,
37,
37,
33,
38,
35,
40,
39,
35,
37,
36,
35,
35,
35,
36,
36,
36,
35,
34,
33,
33,
35,
35,
36,
33,
35,
36,
36,
34,
34,
35,
35,
34,
36,
31,
39,
37,
36,
33,
35,
40,
40,
34,
35,
35,
39,
36,
33,
29,
33,
31,
32,
34,
33,
33,
36,
34,
33,
35,
34,
35,
34,
29,
31,
32,
33,
35,
33,
33,
33,
35,
36,
34,
35,
35,
35,
35,
33,
40,
33,
32,
32,
32,
36,
34,
33,
33,
35,
31,
34,
31,
32,
32,
36,
32,
32,
33,
29,
32,
32,
31,
32,
32,
30,
35,
32,
32,
33,
33,
33,
32,
33,
33,
31,
30,
32,
31,
31,
31,
31,
32,
31,
31,
29,
30,
31,
31,
31,
30,
31,
29,
32,
31,
32,
28,
32,
31,
31,
30,
31,
32,
32,
32,
32,
31,
31,
32,
32,
32,
29,
29,
32,
31,
29,
30,
30,
29,
31,
29,
29,
27,
30,
29,
30,
30,
28,
25,
27,
29,
29,
29,
27,
29,
29,
29,
30,
28,
28,
27,
29,
24,
27,
28,
28,
25,
27,
27,
27,
27,
27,
29,
29,
29,
27,
28,
30,
31,
27,
27,
28,
27,
27,
27,
27,
27,
27,
28,
26,
27,
23,
27,
25,
28,
26,
27,
26,
27,
27,
27,
26,
27,
26,
27,
27,
32,
27,
25,
28,
24,
27,
26,
28,
27,
25,
25,
31,
24,
23,
20,
25,
25,
26,
27,
26,
25,
25,
25,
25,
25,
25,
28,
25,
27,
23,
27,
25,
24,
26,
25,
24,
25,
26,
26,
24,
25,
24,
23,
23,
22,
25,
23,
24,
23,
24,
24,
24,
23,
26,
24,
23,
24,
24,
21,
25,
24,
25,
26,
24,
24,
24,
23,
24,
25,
23,
19,
22,
19,
23,
21,
28,
23,
24,
17,
17,
23,
26,
23,
23,
23,
23,
22,
27,
21,
23,
23,
21,
21,
23,
21,
12,
21,
23,
21,
23,
22,
20,
23,
23,
23,
21,
21,
23,
21,
21,
21,
21,
25,
25,
21,
19,
18,
21,
21,
23,
17,
21,
21,
21,
21,
23,
21,
21,
22,
21,
19,
23,
22,
21,
21,
21,
21,
23,
22,
20,
22,
23,
20,
21,
23,
23,
21,
20,
19,
22,
22,
23,
21,
21,
21,
21,
22,
21,
17,
16,
21,
21,
21,
21,
21,
20,
21,
21,
21,
20,
21,
20,
21,
21,
23,
20,
21,
21,
21,
20,
23,
21,
20,
21,
20,
20,
20,
20,
21,
20,
20,
20,
19,
20,
20,
20,
19,
17,
19,
19,
18,
13,
17,
17,
19,
19,
19,
19,
18,
18,
19,
16,
17,
17,
17,
19,
22,
17,
17,
18,
18,
18,
16,
17,
17,
17,
19,
19,
14,
19,
15,
17,
13,
16,
16,
16,
17,
17,
17,
16,
15,
16,
18,
19,
16,
17,
17,
16,
16,
17,
16,
16,
16,
17,
14,
16,
15,
18,
16,
13,
18,
16,
16,
15,
17,
15,
16,
15,
16,
15,
17,
16,
14,
15,
15,
15,
15,
15,
16,
16,
14,
16,
15,
15,
16,
17,
17,
16,
17,
17,
16,
17,
15,
17,
15,
16,
17,
15,
15,
16,
17,
16,
16,
14,
15,
15,
15,
14,
17,
15,
16,
15,
17,
17,
15,
18,
17,
20,
18,
17,
17,
16,
16,
17,
16,
19,
16,
17,
15,
17,
16,
13,
14,
14,
16,
16,
16,
16,
16,
14,
16,
16,
16,
16,
15,
15,
17,
17,
17,
19,
15,
16,
16,
16,
16,
16,
15,
16,
15,
18,
19,
19,
15,
17,
16,
15,
16,
17,
16,
18,
16,
9,
16,
16,
14,
14,
15,
14,
19,
16,
17,
15,
16,
17,
17,
19,
15,
16,
16,
19,
16,
17,
18,
17,
17,
15,
16,
18,
15,
15,
15,
14,
15,
19,
15,
15,
15,
16,
15,
13,
15,
16,
15,
16,
14,
15,
15,
15,
15,
18,
15,
15,
14,
16,
12,
13,
13,
15,
13,
14,
12,
11,
11,
11,
15,
15,
15,
13,
15,
15,
15,
16,
13,
15,
15,
15,
15,
13,
14,
12,
12,
16,
14,
15,
14,
16,
15,
16,
14,
12,
12,
12,
13,
8,
12,
14,
14,
15,
15,
13,
13,
13,
15,
15,
15,
13,
16,
13,
15,
14,
13,
14,
15,
13,
13,
14,
15,
14,
14,
13,
15,
15,
14,
14,
15,
14,
13,
15,
13,
13,
14,
15,
8,
16,
16,
17,
14,
13,
15,
13,
13,
14,
12,
13,
13,
13,
14,
13,
13,
14,
15,
14,
16,
13,
13,
16,
15,
14,
14,
11,
11,
11,
15,
13,
13,
15,
15,
17,
14,
14,
14,
13,
14,
16,
13,
13,
13,
12,
13,
15,
15,
13,
14,
13,
15,
14,
14,
13,
15,
15,
15,
16,
15,
15,
13,
13,
15,
15,
13,
12,
14,
14,
13,
13,
11,
13,
14,
14,
13,
15,
15,
13,
15,
14,
15,
15,
13,
13,
7,
13,
13,
13,
13,
12,
13,
13,
13,
13,
14,
13,
16,
14,
13,
13,
15,
13,
15,
13,
15,
13,
13,
14,
13,
13,
12,
13,
12,
15,
15,
15,
15,
14,
15,
13,
14,
14,
13,
13,
14,
12,
16,
16,
12,
13,
12,
13,
13,
14,
14,
15,
13,
13,
13,
13,
17,
17,
14,
12,
13,
13,
13,
13,
13,
14,
12,
13,
13,
10,
10,
10,
15,
15,
13,
13,
15,
13,
15,
13,
15,
13,
13,
13,
13,
12,
13,
12,
12,
13,
13,
13,
14,
15,
12,
15,
13,
13,
13,
14,
11,
13,
14,
13,
12,
13,
13,
13,
12,
13,
13,
12,
12,
13,
12,
13,
12,
13,
15,
14,
13,
14,
14,
13,
14,
11,
13,
11,
11,
11,
13,
12,
13,
12,
13,
12,
16,
15,
15,
15,
12,
16,
17,
17,
16,
15,
14,
16,
12,
13,
15,
15,
14,
18,
14,
12,
12,
15,
12,
13,
13,
13,
15,
13,
13,
14,
12,
13,
14,
14,
14,
13,
13,
14,
13,
15,
14,
13,
13,
15,
13,
13,
15,
13,
13,
17,
13,
13,
13,
13,
13,
13,
13,
12,
13,
13,
17,
13,
13,
16,
15,
14,
13,
13,
13,
13,
14,
14,
13,
13,
9,
13,
12,
13,
13,
13,
13,
13,
13,
14,
11,
13,
13,
13,
12,
12,
13,
15,
15,
15,
14,
13,
13,
13,
13,
15,
13,
13,
13,
13,
12,
13,
13,
13,
13,
12,
13,
13,
13,
15,
12,
13,
13,
13,
12,
13,
13,
13,
13,
14,
13,
13,
12,
13,
13,
13,
14,
13,
10,
13,
13,
14,
15,
12,
13,
14,
13,
14,
12,
12,
15,
17,
13,
12,
12,
13,
13,
13,
13,
13,
13,
13,
11,
12,
16,
13,
12,
15,
15,
14,
13,
13,
16,
13,
12,
11,
12,
13,
13,
11,
12,
9,
17,
12,
12,
12,
13,
13,
12,
14,
11,
12,
12,
13,
11,
8,
11,
13,
13,
13,
13,
13,
12,
12,
15,
15,
17,
13,
14,
12,
9,
9,
11,
12,
13,
11,
13,
11,
15,
11,
12,
13,
12,
11,
12,
11,
11,
13,
12,
12,
13,
13,
11,
13,
11,
11,
11,
12,
13,
13,
13,
13,
14,
12,
12,
13,
13,
12,
13,
12,
12,
13,
15,
15,
14,
13,
15,
13,
13,
12,
13,
13,
13,
12,
13,
13,
15,
15,
15,
13,
13,
13,
13,
11,
12,
13,
11,
12,
8,
12,
11,
10,
11,
13,
13,
12,
13,
13,
13,
13,
12,
13,
11,
13,
14,
10,
13,
14,
14,
15,
13,
14,
13,
15,
13,
14,
16,
14,
12,
13,
12,
12,
13,
9,
14,
12,
13,
13,
13,
12,
13,
11,
21,
15,
12,
12,
13,
12,
13,
12,
11,
10,
12,
13,
12,
12,
11,
15,
13,
13,
12,
14,
14,
13,
13,
13,
13,
13,
13,
12,
13,
14,
11,
11,
13,
12,
12,
13,
13,
10,
12,
12,
13,
10,
11,
8,
11,
11,
13,
13,
13,
13,
11,
12,
12,
11,
13,
15,
13,
14,
14,
15,
13,
13,
13,
13,
13,
13,
13,
12,
13,
12,
13,
13,
13,
13,
12,
12,
9,
13,
13,
13,
13,
12,
12,
16,
12,
13,
8,
12,
12,
13,
15,
12,
12,
13,
13,
12,
12,
13,
13,
13,
12,
15,
13,
13,
13,
13,
13,
13,
13,
13,
13,
13,
14,
9,
11,
11,
13,
13,
12,
13,
13,
13,
12,
12,
12,
15,
12,
9,
11,
12,
12,
13,
12,
12,
12,
12,
11,
12,
13,
12,
12,
12,
13,
12,
12,
12,
13,
12,
13,
13,
12,
13,
13,
11,
13,
13,
13,
13,
13,
12,
15,
12,
13,
13,
13,
13,
14,
12,
13,
11,
13,
12,
12,
12,
15,
12,
11,
11,
12,
13,
13,
13,
11,
9,
11,
11,
11,
12,
11,
13,
12,
12,
12,
13,
12,
13,
14,
13,
13,
12,
12,
13,
11,
10,
12,
12,
11,
12,
12,
12,
12,
11,
17,
11,
11,
10,
13,
13,
13,
11,
12,
13,
13,
12,
12,
13,
12,
13,
13,
12,
12,
12,
12,
13,
11,
11,
11,
13,
13,
13,
11,
14,
14,
11,
11,
12,
12,
12,
12,
14,
12,
12,
13,
12,
9,
9,
13,
11,
12,
9,
10,
12,
12,
16,
13,
11,
11,
13,
10,
7,
9,
11,
11,
11,
13,
13,
13,
14,
11,
13,
15,
13,
13,
13,
13,
12,
12,
13,
12,
11,
11,
11,
12,
12,
14,
11,
12,
11,
11,
12,
12,
11,
12,
13,
12,
11,
12,
13,
13,
12,
13,
13,
15,
15,
11,
12,
13,
12,
12,
13,
12,
12,
11,
14,
10,
13,
13,
13,
13,
13,
14,
12,
12,
12,
12,
11,
13,
9,
12,
11,
16,
16,
9,
10,
13,
13,
11,
12,
11,
12,
11,
12,
12,
11,
12,
12,
9,
11,
11,
12,
11,
13,
11,
12,
11,
12,
12,
12,
10,
12,
13,
11,
11,
12,
11,
13,
11,
12,
12,
11,
13,
12,
11,
12,
9,
13,
13,
13,
12,
10,
10,
12,
13,
11,
11,
12,
13,
10,
14,
14,
13,
12,
13,
12,
13,
11,
13,
13,
12,
13,
11,
15,
14,
14,
13,
13,
12,
13,
9,
12,
11,
12,
11,
12,
11,
15,
10,
10,
10,
11,
11,
11,
10,
13,
13,
10,
12,
12,
12,
13,
12,
12,
15,
11,
13,
12,
13,
12,
12,
12,
13,
12,
13,
12,
11,
11,
10,
13,
13,
11,
14,
13,
12,
13,
12,
15,
11,
11,
11,
12,
12,
12,
11,
11,
12,
12,
12,
11,
13,
12,
11,
12,
13,
13,
9,
9,
12,
13,
12,
12,
13,
11,
12,
12,
11,
13,
12,
12,
10,
10,
13,
11,
10,
11,
12,
11,
10,
12,
12,
12,
12,
11,
11,
11,
12,
11,
11,
13,
12,
12,
13,
12,
12,
12,
13,
13,
13,
13,
16,
14,
12,
14,
11,
11,
11,
11,
11,
12,
11,
11,
11,
10,
16,
11,
12,
10,
15,
11,
15,
13,
12,
10,
11,
10,
10,
11,
7,
12,
13,
13,
12,
12,
11,
13,
12,
12,
11,
12,
13,
13,
15,
17,
13,
12,
10,
11,
12,
11,
12,
13,
12,
12,
12,
12,
12,
7,
13,
12,
12,
11,
12,
11,
11,
12,
11,
13,
10,
10,
10,
12,
11,
12,
12,
12,
11,
13,
12,
12,
10,
12,
14,
14,
11,
5,
11,
11,
14,
12,
12,
11,
Null,
Null,
Null,
Null,
Null,
Null,
Null,
Null,
Null,
Null,
Null,
Null,
Null,
Null,
Null,
Null,
Null,
Null,
Null,
Null,
Null,
Null,
Null,
Null,
Null,
Null,
Null,
Null,
Null,
Null,
Null,
Null,
Null,
Null,
Null,
Null,
Null,
Null,
Null,
Null,
Null,
Null,
Null,
Null,
Null,
Null,
Null,
Null,
Null,
Null,
Null,
Null,
Null,
Null,
Null,
Null,
Null,
Null,
Null,
Null,
Null,
Null,
Null,
Null,
Null,
Null,
Null,
Null,
Null,
Null,
Null,
Null,
Null,
Null,
Null,
Null,
Null,
Null,
Null,
Null,
Null,
Null,
Null,
Null,
Null,
Null,
Null,
Null,
Null,
Null,
Null,
Null,
Null,
Null,
Null,
Null,
Null,
Null,
Null,
Null,
Null,
Null,
Null,
Null,
Null,
Null,
Null,
Null,
Null,
Null,
Null,
Null,
Null,
Null,
Null,
Null,
Null,
Null,
Null,
Null,
Null,
Null,
Null,
Null,
Null,
Null,
Null,
Null,
Null,
Null,
Null,
Null,
Null,
Null,
Null,
Null,
Null,
Null,
Null,
Null,
Null,
Null,
Null,
Null,
Null,
Null,
Null,
Null,
Null,
Null,
Null,
Null,
Null,
Null,
Null,
Null,
Null,
Null,
Null,
Null,
Null,
Null,
Null,
Null,
Null,
Null,
Null,
Null,
Null,
Null,
Null,
Null,
Null,
Null,
Null,
Null,
Null,
Null,
Null,
Null,
Null,
Null,
Null,
Null,
Null,
Null,
Null,
Null,
Null,
Null,
Null,
Null,
Null,
Null,
Null,
Null,
Null,
Null,
Null,
Null,
Null,
Null,
Null,
Null,
Null,
Null,
Null,
Null,
Null,
Null,
Null,
Null,
Null,
Null,
Null,
Null,
Null,
Null,
Null,
Null,
Null,
Null,
Null,
Null,
Null,
Null,
Null,
Null,
Null,
Null,
Null,
Null,
Null,
Null,
Null,
Null,
Null,
Null,
Null,
Null,
Null,
Null,
Null,
Null,
Null,
Null,
Null,
Null,
Null,
Null,
Null,
Null,
Null,
Null,
Null,
Null,
Null,
Null,
Null,
Null,
Null,
Null,
Null,
Null,
Null,
Null,
Null,
Null,
Null,
Null,
Null,
Null,
Null,
Null,
Null,
Null,
Null,
Null,
Null,
Null,
Null,
Null,
Null,
Null,
Null,
Null,
Null,
Null,
Null,
Null,
Null,
Null,
Null,
Null,
Null,
Null,
Null,
Null,
Null,
Null,
Null,
Null,
Null,
Null,
Null,
Null,
Null,
Null,
Null,
Null,
Null,
Null,
Null,
Null,
Null,
Null,
Null,
Null,
Null,
Null,
Null,
Null,
Null,
Null,
Null,
Null,
Null,
Null,
Null,
Null,
Null,
Null,
Null,
Null,
Null,
Null,
Null,
Null,
Null,
Null,
Null,
Null,
Null,
Null,
Null,
Null,
Null,
Null,
Null,
Null,
Null,
Null,
Null,
Null,
Null,
Null,
Null,
Null,
Null,
Null,
Null,
Null,
Null,
Null,
Null,
Null,
Null,
Null,
Null,
Null,
