Datos experimentales/DATOS 26-3-24/ALL0021/A0021CH1.CSV

Memory Length,4000,
Trigger Level,0.000E+00,
Source,CH1,
Vertical Units,V,
Vertical Scale,2.000E-02,
Vertical Position,-1.200E-02,
Horizontal Units,s,
Horizontal Scale,1.000E+00,
Horizontal Position,0.000E+00,
Horizontal Mode,Roll Mode,
Waveform Last Dot Address,3860,
Sampling Period,4.000E-03,
Firmware, V1.21,
Waveform Data,
10,
10,
9,
9,
11,
11,
9,
9,
9,
8,
9,
9,
9,
12,
9,
9,
10,
9,
10,
10,
8,
13,
7,
8,
10,
8,
12,
9,
9,
10,
9,
9,
8,
9,
8,
10,
9,
9,
8,
9,
16,
9,
11,
9,
9,
11,
12,
10,
9,
10,
8,
9,
9,
9,
11,
9,
10,
10,
10,
10,
11,
10,
9,
9,
9,
10,
11,
10,
8,
9,
9,
11,
13,
9,
10,
8,
9,
9,
8,
9,
6,
9,
9,
9,
7,
12,
9,
7,
9,
9,
11,
8,
8,
9,
8,
9,
9,
11,
11,
11,
9,
9,
9,
9,
9,
9,
9,
9,
7,
9,
8,
9,
9,
9,
9,
8,
9,
9,
10,
9,
9,
8,
11,
6,
16,
16,
11,
8,
10,
10,
10,
9,
9,
12,
9,
10,
10,
10,
9,
9,
9,
10,
9,
11,
9,
9,
8,
11,
5,
7,
7,
7,
9,
8,
9,
9,
12,
9,
8,
9,
9,
9,
9,
9,
8,
10,
11,
11,
10,
10,
10,
11,
9,
9,
8,
11,
11,
10,
10,
10,
10,
10,
13,
9,
9,
8,
9,
9,
9,
9,
9,
8,
8,
10,
9,
9,
11,
8,
9,
8,
8,
5,
11,
3,
8,
8,
9,
10,
9,
7,
9,
9,
9,
8,
11,
10,
9,
9,
9,
9,
11,
11,
10,
8,
9,
8,
11,
5,
13,
9,
10,
10,
9,
11,
9,
9,
8,
8,
9,
9,
9,
9,
9,
9,
9,
9,
9,
9,
9,
9,
9,
9,
9,
6,
11,
10,
9,
9,
11,
8,
9,
11,
9,
8,
9,
11,
11,
10,
11,
9,
9,
9,
9,
9,
10,
9,
11,
9,
11,
8,
11,
6,
9,
9,
11,
9,
8,
8,
11,
8,
9,
8,
9,
11,
9,
9,
9,
9,
9,
8,
9,
9,
8,
9,
8,
10,
7,
8,
9,
9,
10,
10,
7,
9,
9,
9,
7,
9,
17,
9,
7,
9,
9,
9,
9,
12,
12,
9,
11,
6,
9,
8,
9,
8,
9,
19,
8,
8,
9,
12,
11,
11,
9,
8,
8,
9,
9,
9,
7,
9,
9,
9,
8,
9,
10,
8,
7,
8,
9,
9,
13,
3,
10,
10,
9,
8,
8,
11,
11,
9,
9,
9,
9,
9,
11,
10,
10,
9,
11,
9,
12,
10,
10,
8,
11,
9,
5,
9,
9,
12,
8,
9,
9,
8,
9,
9,
9,
9,
9,
9,
9,
9,
9,
8,
8,
8,
9,
9,
9,
8,
7,
13,
16,
13,
10,
11,
10,
13,
13,
8,
11,
9,
9,
9,
9,
9,
8,
9,
9,
11,
10,
10,
9,
10,
12,
9,
9,
11,
7,
9,
9,
10,
5,
9,
9,
9,
9,
8,
10,
9,
11,
8,
9,
9,
9,
9,
9,
9,
9,
9,
11,
11,
9,
7,
9,
12,
11,
9,
10,
11,
11,
13,
9,
9,
9,
9,
9,
9,
9,
8,
10,
9,
10,
10,
9,
10,
9,
11,
8,
10,
7,
10,
18,
9,
9,
9,
9,
9,
9,
9,
3,
8,
8,
9,
11,
8,
9,
9,
10,
9,
8,
9,
9,
9,
8,
11,
5,
12,
3,
8,
8,
8,
11,
7,
8,
8,
8,
8,
8,
9,
9,
9,
9,
13,
9,
10,
11,
10,
11,
11,
9,
11,
9,
8,
15,
9,
10,
10,
9,
9,
9,
9,
9,
10,
10,
9,
9,
8,
9,
9,
9,
9,
9,
9,
7,
7,
9,
8,
14,
10,
10,
9,
9,
9,
7,
9,
9,
9,
9,
9,
10,
10,
11,
11,
9,
10,
11,
10,
9,
9,
9,
9,
8,
14,
8,
9,
10,
9,
12,
9,
8,
9,
9,
10,
-1,
1,
8,
8,
9,
3,
7,
9,
7,
9,
9,
9,
8,
9,
6,
9,
9,
9,
9,
8,
14,
11,
10,
9,
9,
10,
9,
10,
10,
10,
11,
9,
9,
10,
10,
10,
9,
9,
11,
8,
11,
8,
8,
9,
5,
10,
8,
7,
12,
11,
9,
11,
11,
10,
10,
10,
11,
9,
10,
9,
9,
9,
11,
9,
11,
9,
11,
8,
8,
9,
9,
10,
9,
6,
11,
11,
12,
8,
11,
11,
13,
13,
10,
9,
10,
10,
9,
9,
8,
9,
11,
9,
11,
8,
9,
9,
8,
10,
10,
9,
10,
8,
10,
11,
8,
10,
9,
8,
8,
9,
10,
10,
9,
10,
10,
10,
9,
11,
7,
9,
9,
9,
9,
6,
6,
10,
11,
9,
9,
10,
10,
8,
9,
10,
9,
9,
9,
9,
9,
4,
9,
8,
10,
8,
9,
5,
10,
12,
11,
9,
9,
11,
9,
10,
9,
9,
9,
9,
8,
10,
12,
13,
12,
12,
9,
9,
9,
10,
9,
9,
9,
9,
9,
9,
7,
3,
3,
8,
8,
11,
9,
9,
9,
9,
7,
9,
8,
8,
9,
8,
8,
4,
9,
7,
9,
9,
9,
9,
9,
9,
9,
8,
9,
9,
9,
9,
8,
9,
8,
9,
9,
8,
7,
8,
10,
9,
7,
7,
8,
9,
8,
12,
10,
9,
8,
8,
10,
9,
8,
8,
8,
8,
11,
9,
13,
8,
9,
9,
9,
8,
9,
8,
9,
9,
8,
9,
8,
8,
9,
9,
10,
8,
10,
9,
13,
8,
8,
9,
7,
9,
9,
8,
4,
4,
10,
15,
8,
9,
9,
9,
9,
9,
10,
9,
8,
8,
8,
5,
9,
8,
9,
9,
9,
9,
8,
8,
7,
9,
8,
9,
7,
8,
11,
8,
9,
9,
9,
7,
9,
9,
8,
9,
8,
8,
5,
5,
11,
9,
8,
8,
8,
3,
8,
9,
10,
9,
9,
9,
5,
4,
9,
5,
7,
7,
8,
10,
8,
9,
8,
8,
9,
10,
7,
10,
8,
8,
8,
8,
8,
8,
8,
9,
8,
9,
8,
8,
7,
7,
9,
8,
8,
8,
8,
9,
8,
8,
9,
9,
9,
9,
11,
9,
14,
14,
4,
9,
9,
9,
8,
9,
8,
9,
6,
9,
8,
7,
7,
9,
9,
9,
8,
9,
8,
9,
8,
8,
9,
8,
8,
8,
8,
10,
9,
9,
8,
8,
9,
9,
8,
8,
8,
8,
8,
8,
9,
9,
8,
9,
9,
8,
10,
7,
9,
9,
9,
8,
8,
11,
8,
8,
8,
9,
8,
9,
9,
9,
9,
8,
8,
7,
7,
9,
8,
10,
6,
10,
9,
9,
8,
9,
8,
9,
9,
9,
8,
8,
8,
9,
9,
9,
9,
9,
9,
9,
8,
8,
8,
13,
13,
8,
9,
8,
8,
5,
8,
8,
6,
9,
9,
9,
9,
8,
9,
11,
9,
9,
10,
9,
9,
8,
7,
9,
9,
9,
9,
9,
12,
9,
9,
8,
8,
9,
9,
8,
10,
10,
10,
8,
9,
7,
8,
7,
7,
9,
7,
11,
7,
9,
10,
9,
9,
10,
8,
9,
9,
9,
8,
8,
8,
9,
8,
9,
8,
8,
8,
8,
9,
9,
9,
9,
8,
11,
8,
8,
9,
9,
8,
8,
9,
8,
8,
8,
9,
8,
8,
9,
9,
9,
9,
8,
8,
8,
4,
8,
9,
8,
9,
9,
10,
9,
9,
8,
9,
9,
9,
3,
12,
8,
8,
8,
8,
7,
9,
1,
11,
5,
10,
10,
10,
9,
10,
11,
8,
7,
9,
8,
8,
8,
9,
9,
9,
8,
9,
8,
9,
9,
11,
12,
9,
8,
9,
9,
10,
8,
8,
9,
8,
9,
9,
3,
10,
8,
10,
8,
5,
8,
8,
10,
9,
9,
9,
9,
8,
8,
8,
9,
7,
8,
9,
8,
9,
9,
9,
9,
9,
9,
9,
9,
8,
9,
10,
8,
10,
9,
13,
7,
7,
10,
10,
9,
11,
10,
9,
9,
9,
7,
9,
8,
8,
8,
8,
9,
7,
8,
9,
9,
8,
12,
9,
8,
9,
5,
9,
9,
8,
9,
9,
9,
9,
9,
9,
8,
9,
9,
9,
8,
8,
10,
10,
10,
7,
0,
9,
8,
9,
11,
12,
8,
9,
7,
10,
9,
9,
9,
8,
8,
9,
9,
9,
7,
9,
8,
7,
10,
5,
8,
8,
7,
9,
9,
8,
9,
9,
9,
9,
8,
8,
9,
8,
8,
9,
9,
9,
8,
10,
9,
8,
7,
9,
8,
10,
9,
9,
9,
8,
9,
9,
9,
9,
8,
9,
9,
8,
9,
9,
9,
9,
9,
7,
9,
7,
10,
8,
9,
8,
9,
13,
8,
11,
11,
9,
9,
8,
9,
9,
9,
9,
8,
8,
9,
8,
9,
11,
11,
11,
5,
9,
8,
10,
8,
8,
8,
8,
8,
9,
8,
8,
10,
9,
9,
8,
11,
9,
9,
9,
8,
9,
8,
13,
5,
7,
9,
9,
9,
10,
9,
8,
8,
9,
8,
9,
8,
8,
8,
7,
8,
8,
8,
8,
10,
8,
13,
5,
9,
10,
9,
10,
8,
8,
8,
8,
9,
8,
9,
9,
9,
9,
9,
9,
9,
8,
6,
8,
8,
10,
8,
13,
9,
12,
11,
13,
12,
17,
13,
13,
16,
16,
16,
16,
17,
17,
18,
19,
20,
21,
21,
20,
23,
23,
21,
21,
30,
26,
27,
28,
28,
31,
28,
32,
31,
30,
32,
33,
33,
33,
34,
39,
35,
37,
41,
36,
38,
37,
38,
40,
36,
42,
42,
43,
43,
43,
44,
46,
47,
47,
47,
48,
49,
51,
52,
54,
54,
54,
56,
57,
57,
58,
58,
59,
63,
61,
67,
61,
65,
65,
64,
64,
67,
68,
69,
69,
68,
71,
71,
72,
72,
73,
73,
73,
75,
74,
75,
72,
76,
76,
79,
79,
77,
76,
77,
75,
75,
73,
79,
79,
79,
78,
79,
79,
77,
83,
79,
80,
78,
80,
80,
80,
78,
81,
79,
83,
79,
75,
76,
79,
79,
77,
79,
79,
80,
81,
77,
80,
80,
79,
79,
78,
77,
77,
78,
80,
77,
77,
79,
79,
77,
77,
80,
80,
79,
77,
79,
77,
78,
76,
77,
77,
77,
78,
79,
77,
77,
79,
80,
76,
76,
76,
74,
76,
76,
76,
75,
77,
78,
73,
75,
74,
74,
75,
75,
74,
74,
73,
73,
74,
74,
73,
75,
73,
74,
74,
73,
67,
73,
72,
69,
69,
69,
72,
67,
73,
70,
71,
69,
69,
69,
69,
68,
68,
69,
69,
69,
68,
68,
69,
69,
67,
67,
67,
67,
67,
65,
67,
67,
65,
60,
64,
67,
65,
67,
65,
66,
65,
64,
65,
65,
65,
60,
64,
64,
66,
61,
64,
63,
62,
65,
64,
61,
65,
62,
62,
62,
60,
60,
60,
64,
61,
60,
60,
60,
61,
61,
60,
60,
60,
60,
59,
59,
60,
59,
59,
59,
61,
59,
57,
61,
59,
63,
63,
55,
55,
57,
53,
55,
56,
56,
53,
55,
59,
56,
54,
54,
56,
54,
54,
54,
54,
53,
49,
53,
52,
54,
53,
53,
57,
57,
54,
52,
52,
52,
52,
51,
49,
52,
52,
51,
52,
51,
51,
51,
49,
50,
50,
53,
50,
50,
49,
47,
49,
46,
47,
48,
48,
48,
47,
46,
48,
47,
48,
48,
47,
47,
47,
47,
47,
47,
47,
45,
45,
43,
44,
41,
45,
45,
47,
45,
45,
45,
43,
44,
44,
45,
44,
43,
43,
44,
43,
43,
47,
43,
41,
43,
45,
42,
42,
41,
47,
42,
41,
44,
41,
43,
43,
45,
47,
43,
42,
42,
41,
41,
39,
43,
43,
43,
44,
44,
44,
43,
41,
38,
38,
45,
35,
40,
41,
38,
39,
40,
39,
36,
40,
40,
39,
39,
39,
39,
39,
42,
39,
39,
39,
39,
39,
37,
40,
37,
40,
39,
39,
39,
39,
39,
44,
39,
39,
38,
38,
39,
39,
39,
38,
39,
39,
38,
39,
37,
38,
38,
39,
39,
42,
36,
33,
39,
37,
37,
38,
40,
38,
38,
37,
36,
37,
37,
36,
35,
36,
36,
34,
34,
34,
35,
35,
36,
32,
34,
33,
32,
35,
35,
33,
32,
32,
33,
35,
35,
34,
33,
35,
35,
32,
34,
33,
35,
36,
35,
35,
34,
33,
33,
33,
35,
38,
36,
35,
33,
35,
33,
35,
33,
33,
33,
34,
32,
33,
33,
32,
32,
33,
33,
33,
32,
32,
31,
31,
31,
32,
32,
31,
32,
33,
32,
32,
31,
32,
39,
32,
32,
32,
33,
32,
32,
30,
30,
32,
32,
31,
30,
41,
33,
32,
32,
32,
32,
31,
31,
34,
35,
31,
33,
32,
31,
31,
32,
30,
30,
32,
21,
31,
31,
32,
29,
32,
32,
30,
32,
30,
31,
31,
31,
28,
30,
30,
29,
33,
31,
29,
30,
31,
31,
30,
31,
31,
29,
30,
31,
30,
31,
31,
29,
31,
29,
29,
29,
31,
29,
29,
30,
31,
29,
29,
30,
31,
31,
30,
29,
31,
31,
31,
30,
30,
31,
31,
30,
31,
29,
29,
32,
29,
32,
27,
28,
31,
29,
29,
32,
34,
27,
29,
31,
30,
30,
30,
30,
31,
65,
31,
29,
29,
29,
28,
29,
27,
29,
28,
28,
29,
25,
29,
27,
27,
27,
25,
28,
27,
27,
25,
27,
27,
27,
25,
26,
25,
27,
25,
25,
25,
27,
24,
24,
24,
25,
23,
21,
25,
25,
25,
25,
25,
25,
25,
25,
26,
25,
26,
23,
25,
24,
25,
25,
26,
25,
25,
24,
25,
24,
26,
23,
24,
27,
24,
26,
27,
25,
25,
25,
25,
25,
25,
24,
24,
25,
25,
25,
25,
24,
24,
27,
25,
24,
24,
24,
23,
26,
24,
27,
25,
25,
23,
23,
24,
25,
24,
25,
25,
25,
24,
25,
23,
24,
24,
23,
21,
23,
23,
24,
25,
22,
22,
27,
24,
23,
23,
23,
23,
23,
23,
23,
23,
23,
23,
20,
20,
23,
23,
21,
21,
21,
23,
21,
21,
21,
21,
22,
20,
20,
21,
19,
21,
19,
21,
21,
20,
19,
19,
20,
20,
20,
19,
19,
19,
20,
20,
18,
21,
19,
18,
21,
17,
15,
17,
15,
15,
17,
19,
19,
18,
15,
19,
19,
18,
16,
18,
18,
19,
19,
19,
19,
18,
17,
19,
19,
17,
19,
17,
19,
15,
21,
17,
17,
17,
17,
16,
16,
19,
18,
17,
19,
18,
19,
18,
17,
17,
16,
18,
18,
18,
18,
18,
19,
16,
17,
17,
20,
12,
17,
19,
16,
16,
16,
15,
16,
16,
19,
20,
17,
17,
18,
15,
17,
17,
17,
17,
17,
16,
17,
17,
19,
14,
17,
19,
17,
17,
16,
16,
16,
16,
15,
17,
16,
16,
16,
18,
17,
16,
16,
16,
17,
15,
14,
14,
17,
16,
16,
18,
16,
16,
16,
17,
20,
16,
17,
17,
17,
16,
17,
16,
17,
15,
15,
17,
19,
15,
17,
16,
15,
15,
17,
14,
17,
17,
16,
17,
16,
20,
16,
16,
16,
15,
16,
17,
16,
16,
16,
16,
17,
16,
16,
16,
15,
15,
16,
15,
17,
16,
17,
19,
17,
17,
15,
15,
17,
16,
16,
16,
18,
13,
16,
17,
17,
17,
17,
17,
17,
14,
17,
17,
16,
17,
17,
17,
16,
13,
17,
17,
17,
18,
17,
16,
8,
17,
16,
18,
18,
17,
16,
16,
15,
16,
16,
17,
15,
16,
12,
16,
16,
21,
17,
15,
15,
17,
19,
15,
15,
15,
15,
15,
14,
13,
15,
15,
15,
13,
13,
14,
14,
13,
15,
13,
13,
13,
13,
15,
13,
13,
13,
13,
13,
13,
13,
8,
14,
13,
13,
15,
13,
12,
13,
13,
12,
11,
12,
12,
11,
13,
12,
11,
11,
13,
9,
12,
9,
12,
12,
12,
12,
13,
12,
13,
12,
12,
12,
12,
15,
11,
11,
10,
10,
10,
11,
11,
8,
12,
12,
13,
13,
10,
10,
16,
12,
12,
10,
11,
11,
12,
12,
12,
12,
12,
12,
9,
12,
13,
11,
11,
9,
12,
13,
11,
13,
11,
12,
12,
11,
10,
10,
10,
12,
14,
11,
12,
12,
15,
11,
9,
11,
11,
11,
11,
11,
10,
11,
11,
12,
12,
13,
11,
11,
10,
9,
12,
10,
10,
11,
10,
15,
13,
11,
12,
11,
12,
11,
10,
11,
12,
11,
11,
11,
11,
10,
11,
9,
12,
13,
12,
9,
16,
7,
11,
8,
8,
11,
11,
12,
11,
11,
7,
9,
11,
7,
10,
13,
13,
13,
13,
11,
5,
11,
9,
17,
8,
10,
11,
12,
9,
11,
10,
8,
8,
12,
9,
11,
9,
9,
10,
11,
11,
10,
11,
11,
10,
12,
13,
10,
11,
11,
11,
11,
11,
11,
11,
11,
11,
12,
11,
11,
10,
12,
12,
10,
11,
11,
11,
11,
10,
11,
11,
10,
11,
11,
11,
11,
11,
9,
13,
9,
12,
9,
10,
1,
10,
10,
9,
12,
11,
11,
11,
11,
12,
11,
11,
11,
11,
11,
9,
10,
10,
11,
11,
11,
11,
10,
11,
6,
13,
10,
11,
10,
9,
11,
10,
9,
11,
9,
9,
11,
8,
9,
9,
8,
9,
11,
11,
9,
8,
9,
10,
8,
8,
13,
7,
9,
11,
11,
8,
9,
9,
11,
9,
9,
9,
11,
10,
10,
10,
11,
10,
10,
10,
8,
10,
11,
11,
10,
10,
12,
11,
9,
9,
11,
11,
9,
9,
9,
9,
9,
10,
10,
9,
11,
8,
11,
11,
9,
9,
10,
11,
11,
12,
11,
9,
12,
7,
9,
4,
7,
7,
9,
10,
9,
10,
9,
9,
9,
10,
9,
10,
9,
9,
9,
9,
10,
10,
9,
12,
10,
9,
10,
9,
11,
9,
7,
9,
9,
12,
9,
9,
9,
9,
11,
9,
9,
10,
12,
9,
9,
11,
11,
9,
9,
9,
9,
9,
9,
10,
9,
10,
7,
12,
7,
8,
10,
9,
15,
15,
9,
9,
8,
10,
9,
8,
10,
8,
8,
8,
8,
8,
8,
8,
9,
9,
9,
8,
9,
9,
9,
5,
9,
10,
10,
9,
9,
11,
10,
9,
8,
10,
10,
9,
8,
11,
9,
10,
8,
11,
11,
9,
10,
9,
8,
8,
9,
3,
11,
8,
6,
11,
9,
10,
10,
8,
9,
9,
10,
9,
8,
9,
9,
10,
10,
10,
10,
9,
9,
3,
12,
9,
11,
13,
9,
10,
9,
11,
9,
9,
13,
13,
9,
9,
18,
8,
9,
9,
10,
8,
8,
9,
10,
10,
10,
8,
10,
12,
12,
8,
8,
9,
11,
7,
8,
9,
6,
9,
8,
9,
11,
8,
8,
8,
9,
9,
8,
9,
11,
10,
9,
9,
11,
9,
8,
9,
9,
9,
9,
10,
9,
8,
8,
9,
8,
7,
9,
9,
9,
8,
8,
9,
10,
10,
9,
10,
11,
11,
10,
11,
11,
13,
15,
15,
9,
9,
11,
9,
12,
10,
10,
9,
9,
9,
10,
10,
9,
9,
9,
9,
9,
8,
11,
9,
9,
8,
8,
9,
7,
10,
10,
10,
9,
9,
11,
12,
10,
10,
11,
9,
11,
10,
11,
11,
10,
10,
11,
9,
9,
9,
8,
4,
9,
9,
12,
9,
15,
4,
11,
8,
8,
8,
8,
9,
9,
8,
9,
9,
8,
10,
9,
10,
11,
11,
11,
9,
9,
10,
11,
9,
11,
9,
11,
4,
13,
9,
10,
10,
7,
9,
9,
7,
8,
9,
10,
9,
10,
9,
10,
9,
11,
11,
8,
9,
8,
9,
9,
8,
11,
11,
9,
9,
10,
11,
10,
10,
10,
11,
10,
9,
11,
10,
9,
8,
9,
12,
9,
9,
8,
8,
10,
8,
11,
9,
9,
8,
11,
-1,
9,
8,
9,
8,
8,
9,
9,
10,
9,
10,
11,
11,
9,
11,
11,
10,
9,
9,
9,
12,
10,
10,
8,
9,
5,
12,
12,
9,
8,
10,
8,
11,
10,
9,
9,
9,
9,
9,
9,
9,
9,
19,
9,
9,
8,
9,
15,
12,
10,
10,
11,
8,
9,
5,
10,
10,
10,
9,
9,
9,
9,
13,
9,
9,
9,
9,
10,
9,
9,
9,
9,
9,
11,
10,
9,
9,
9,
9,
14,
9,
8,
8,
9,
9,
9,
10,
10,
10,
10,
11,
9,
9,
9,
11,
11,
9,
10,
9,
7,
9,
10,
8,
8,
10,
5,
5,
9,
11,
7,
8,
13,
9,
11,
9,
8,
8,
10,
9,
9,
9,
10,
9,
9,
9,
10,
9,
10,
8,
8,
9,
9,
8,
7,
9,
5,
5,
9,
9,
10,
10,
8,
11,
9,
7,
9,
9,
11,
10,
10,
9,
9,
8,
9,
8,
11,
9,
9,
8,
9,
9,
9,
9,
7,
7,
11,
9,
9,
9,
10,
10,
8,
9,
9,
9,
9,
10,
10,
10,
8,
9,
11,
9,
9,
9,
10,
11,
8,
8,
10,
9,
9,
9,
11,
4,
10,
11,
10,
12,
9,
11,
10,
10,
9,
10,
10,
9,
9,
8,
10,
8,
10,
8,
10,
5,
13,
10,
8,
9,
11,
11,
11,
9,
11,
11,
9,
11,
8,
10,
9,
10,
10,
9,
10,
9,
9,
9,
10,
9,
10,
9,
7,
4,
9,
9,
9,
11,
9,
9,
9,
9,
11,
9,
10,
10,
11,
12,
9,
11,
10,
8,
9,
9,
9,
9,
9,
11,
11,
5,
9,
10,
10,
9,
10,
10,
10,
9,
9,
8,
11,
11,
11,
10,
9,
12,
10,
10,
9,
9,
11,
9,
9,
11,
7,
10,
7,
9,
10,
11,
8,
10,
11,
9,
9,
9,
9,
9,
9,
9,
9,
9,
9,
11,
10,
10,
10,
11,
9,
10,
8,
11,
11,
13,
11,
10,
9,
11,
9,
11,
13,
8,
11,
9,
8,
10,
10,
11,
5,
11,
9,
11,
4,
9,
10,
10,
10,
11,
8,
9,
9,
10,
3,
10,
9,
9,
11,
9,
10,
12,
10,
11,
10,
12,
12,
10,
11,
9,
10,
10,
9,
9,
9,
10,
10,
8,
12,
12,
12,
14,
10,
11,
11,
8,
11,
11,
11,
10,
11,
9,
10,
10,
10,
4,
11,
11,
9,
8,
11,
9,
12,
11,
10,
9,
5,
5,
10,
11,
10,
8,
9,
9,
10,
9,
9,
10,
10,
10,
9,
9,
11,
10,
6,
9,
9,
10,
9,
8,
8,
11,
12,
9,
11,
10,
10,
9,
7,
9,
10,
11,
11,
10,
11,
11,
11,
12,
11,
9,
9,
9,
10,
9,
9,
9,
8,
9,
12,
12,
8,
12,
11,
9,
9,
12,
10,
11,
11,
10,
8,
10,
12,
11,
11,
11,
12,
12,
10,
11,
10,
9,
9,
12,
11,
12,
10,
11,
11,
12,
10,
11,
11,
12,
11,
11,
11,
9,
9,
11,
11,
9,
10,
11,
11,
11,
9,
11,
11,
11,
11,
12,
10,
11,
11,
9,
10,
9,
11,
11,
10,
9,
11,
15,
11,
10,
11,
9,
10,
10,
10,
9,
10,
9,
9,
9,
10,
9,
9,
11,
11,
11,
11,
8,
11,
10,
8,
8,
10,
11,
12,
11,
9,
10,
9,
9,
13,
11,
12,
10,
10,
11,
11,
11,
8,
11,
9,
10,
7,
13,
10,
9,
12,
9,
11,
11,
11,
11,
10,
10,
12,
15,
10,
10,
10,
7,
10,
10,
12,
12,
11,
11,
11,
12,
11,
13,
15,
12,
10,
11,
11,
10,
9,
9,
10,
10,
11,
11,
11,
11,
11,
13,
13,
5,
11,
11,
11,
11,
13,
10,
9,
10,
7,
11,
10,
11,
8,
11,
11,
10,
10,
9,
11,
11,
11,
9,
9,
11,
12,
10,
10,
7,
11,
10,
11,
9,
9,
9,
13,
14,
3,
9,
8,
11,
10,
12,
13,
11,
11,
11,
10,
10,
8,
15,
10,
9,
11,
9,
11,
11,
10,
9,
11,
10,
10,
10,
7,
9,
11,
9,
12,
13,
13,
13,
12,
11,
11,
Null,
Null,
Null,
Null,
Null,
Null,
Null,
Null,
Null,
Null,
Null,
Null,
Null,
Null,
Null,
Null,
Null,
Null,
Null,
Null,
Null,
Null,
Null,
Null,
Null,
Null,
Null,
Null,
Null,
Null,
Null,
Null,
Null,
Null,
Null,
Null,
Null,
Null,
Null,
Null,
Null,
Null,
Null,
Null,
Null,
Null,
Null,
Null,
Null,
Null,
Null,
Null,
Null,
Null,
Null,
Null,
Null,
Null,
Null,
Null,
Null,
Null,
Null,
Null,
Null,
Null,
Null,
Null,
Null,
Null,
Null,
Null,
Null,
Null,
Null,
Null,
Null,
Null,
Null,
Null,
Null,
Null,
Null,
Null,
Null,
Null,
Null,
Null,
Null,
Null,
Null,
Null,
Null,
Null,
Null,
Null,
Null,
Null,
Null,
Null,
Null,
Null,
Null,
Null,
Null,
Null,
Null,
Null,
Null,
Null,
Null,
Null,
Null,
Null,
Null,
Null,
Null,
Null,
Null,
Null,
Null,
Null,
Null,
Null,
Null,
Null,
Null,
Null,
Null,
Null,
Null,
Null,
Null,
Null,
Null,
Null,
Null,
Null,
Null,
Null,
