Datos experimentales/DATOS 26-3-24/ALL0023/A0023CH1.CSV

Memory Length,4000,
Trigger Level,0.000E+00,
Source,CH1,
Vertical Units,V,
Vertical Scale,2.000E-02,
Vertical Position,-1.200E-02,
Horizontal Units,s,
Horizontal Scale,1.000E+00,
Horizontal Position,0.000E+00,
Horizontal Mode,Roll Mode,
Sampling Period,4.000E-03,
Firmware, V1.21,
Waveform Data,
8,
9,
7,
8,
9,
9,
8,
8,
8,
8,
10,
8,
9,
9,
8,
2,
10,
8,
9,
7,
7,
8,
8,
9,
8,
8,
8,
8,
8,
9,
8,
10,
9,
9,
7,
7,
11,
4,
8,
8,
9,
9,
9,
9,
9,
8,
8,
7,
9,
8,
9,
8,
9,
8,
7,
7,
8,
8,
5,
8,
8,
8,
7,
9,
9,
9,
8,
9,
9,
9,
8,
10,
9,
8,
12,
8,
10,
9,
8,
9,
10,
8,
8,
9,
8,
9,
8,
7,
8,
9,
9,
8,
11,
11,
8,
5,
5,
8,
9,
9,
8,
9,
8,
8,
7,
9,
7,
8,
8,
8,
8,
7,
11,
9,
9,
8,
8,
8,
8,
8,
8,
9,
8,
11,
11,
9,
7,
9,
8,
9,
7,
12,
10,
8,
9,
8,
9,
8,
8,
9,
9,
9,
8,
9,
8,
9,
8,
8,
12,
7,
8,
8,
7,
5,
9,
8,
8,
9,
8,
8,
9,
9,
7,
8,
7,
7,
8,
9,
7,
8,
8,
9,
8,
8,
9,
8,
8,
7,
8,
8,
8,
8,
9,
8,
9,
8,
9,
8,
7,
7,
11,
9,
8,
8,
8,
9,
8,
7,
9,
8,
9,
7,
9,
9,
6,
7,
9,
9,
10,
9,
9,
9,
8,
8,
8,
8,
9,
9,
10,
9,
7,
7,
8,
7,
11,
8,
9,
8,
8,
8,
11,
9,
8,
7,
9,
9,
9,
9,
8,
9,
9,
11,
9,
8,
7,
12,
8,
9,
8,
8,
9,
8,
9,
8,
7,
9,
8,
8,
9,
9,
9,
9,
7,
7,
7,
9,
8,
9,
9,
8,
9,
8,
8,
8,
7,
8,
8,
6,
6,
9,
8,
5,
8,
8,
8,
8,
8,
8,
9,
8,
9,
9,
8,
9,
10,
8,
7,
11,
7,
4,
8,
9,
10,
8,
8,
8,
7,
8,
8,
8,
8,
11,
8,
8,
7,
9,
8,
3,
9,
9,
8,
9,
9,
11,
7,
8,
8,
8,
8,
8,
8,
7,
7,
8,
9,
9,
7,
9,
8,
6,
7,
8,
9,
10,
8,
9,
9,
8,
8,
8,
8,
8,
8,
9,
8,
6,
8,
9,
5,
8,
8,
8,
8,
8,
9,
8,
8,
10,
8,
8,
8,
9,
7,
11,
11,
3,
8,
9,
8,
11,
8,
8,
8,
8,
8,
8,
8,
9,
9,
9,
9,
8,
9,
11,
3,
11,
12,
13,
9,
9,
9,
8,
8,
8,
8,
9,
8,
8,
8,
8,
7,
9,
9,
9,
9,
7,
7,
9,
8,
9,
10,
9,
8,
8,
8,
9,
9,
8,
8,
8,
8,
8,
9,
6,
8,
7,
8,
8,
9,
9,
9,
8,
9,
8,
8,
9,
7,
8,
11,
7,
8,
8,
11,
8,
8,
8,
9,
9,
8,
9,
8,
8,
8,
8,
8,
8,
8,
6,
7,
9,
8,
8,
9,
8,
8,
8,
8,
9,
9,
8,
9,
9,
9,
8,
9,
5,
5,
9,
9,
8,
8,
8,
8,
7,
8,
7,
9,
13,
9,
9,
8,
4,
9,
7,
5,
10,
9,
8,
8,
11,
9,
8,
9,
9,
9,
8,
8,
6,
8,
8,
8,
8,
18,
8,
7,
11,
8,
8,
7,
6,
9,
8,
8,
8,
9,
8,
8,
8,
8,
9,
14,
14,
9,
8,
11,
8,
9,
7,
8,
9,
8,
7,
8,
9,
8,
8,
9,
8,
9,
9,
7,
8,
8,
8,
8,
11,
8,
8,
8,
8,
9,
8,
8,
8,
8,
9,
7,
8,
9,
6,
8,
7,
8,
8,
9,
9,
11,
9,
8,
9,
8,
8,
8,
8,
9,
8,
10,
10,
8,
8,
8,
9,
8,
8,
9,
8,
8,
9,
8,
9,
8,
8,
8,
9,
9,
8,
8,
9,
9,
8,
6,
8,
8,
9,
8,
8,
7,
8,
8,
9,
8,
8,
9,
9,
10,
13,
5,
9,
8,
8,
7,
9,
11,
8,
8,
8,
8,
10,
9,
9,
9,
9,
9,
9,
9,
7,
7,
8,
8,
8,
9,
8,
9,
10,
8,
7,
7,
7,
9,
9,
9,
9,
8,
10,
8,
5,
8,
9,
8,
8,
9,
9,
8,
9,
9,
8,
8,
8,
8,
9,
9,
7,
9,
8,
8,
10,
8,
8,
8,
9,
9,
9,
8,
8,
8,
7,
9,
8,
8,
8,
8,
11,
9,
9,
7,
6,
9,
8,
8,
9,
9,
8,
8,
8,
4,
8,
9,
11,
8,
9,
10,
8,
7,
15,
8,
8,
9,
9,
9,
8,
9,
8,
8,
9,
8,
9,
8,
9,
7,
8,
9,
9,
8,
9,
9,
8,
9,
8,
8,
8,
8,
9,
9,
9,
9,
11,
9,
7,
9,
8,
8,
9,
8,
8,
9,
8,
9,
10,
8,
8,
9,
9,
9,
9,
8,
3,
8,
8,
9,
12,
8,
8,
11,
11,
8,
8,
9,
11,
8,
8,
9,
8,
9,
7,
7,
8,
9,
9,
9,
12,
9,
7,
9,
9,
8,
9,
9,
8,
8,
8,
9,
9,
8,
9,
9,
8,
8,
8,
9,
9,
8,
9,
8,
8,
10,
10,
9,
9,
9,
8,
8,
9,
6,
8,
9,
8,
6,
8,
9,
9,
7,
9,
9,
8,
11,
8,
8,
10,
7,
8,
10,
8,
8,
8,
9,
11,
8,
8,
9,
8,
8,
9,
8,
9,
9,
9,
9,
9,
4,
7,
8,
13,
9,
9,
6,
8,
6,
8,
9,
8,
7,
7,
9,
10,
9,
8,
9,
8,
7,
11,
9,
12,
9,
8,
12,
9,
9,
8,
8,
9,
8,
10,
8,
9,
9,
9,
9,
8,
10,
17,
17,
7,
8,
9,
7,
8,
8,
8,
8,
8,
8,
9,
8,
9,
9,
8,
10,
5,
5,
4,
9,
9,
9,
7,
8,
9,
7,
7,
9,
8,
8,
8,
9,
8,
8,
11,
10,
4,
7,
7,
9,
9,
8,
7,
8,
9,
10,
9,
9,
7,
9,
7,
8,
9,
9,
9,
9,
10,
11,
9,
9,
8,
8,
7,
9,
8,
9,
7,
8,
9,
8,
8,
8,
11,
7,
8,
7,
9,
8,
7,
8,
9,
8,
9,
9,
9,
8,
7,
10,
9,
8,
12,
9,
5,
8,
8,
12,
8,
8,
8,
7,
9,
8,
9,
12,
9,
8,
8,
7,
8,
9,
9,
9,
9,
9,
8,
8,
9,
7,
8,
8,
9,
8,
9,
9,
8,
8,
8,
9,
9,
7,
5,
8,
8,
6,
9,
11,
9,
8,
8,
7,
7,
7,
9,
8,
8,
9,
8,
9,
9,
9,
12,
9,
9,
8,
8,
9,
8,
8,
9,
9,
8,
8,
9,
8,
9,
8,
10,
11,
11,
13,
8,
7,
8,
9,
9,
11,
7,
9,
8,
8,
10,
8,
8,
8,
7,
10,
10,
9,
6,
8,
9,
9,
9,
8,
8,
8,
9,
9,
8,
9,
9,
8,
9,
9,
9,
8,
9,
11,
8,
7,
7,
9,
9,
8,
8,
8,
9,
9,
9,
8,
9,
9,
8,
9,
9,
9,
8,
8,
8,
8,
8,
9,
7,
7,
9,
9,
9,
13,
8,
8,
7,
9,
8,
8,
8,
13,
8,
9,
10,
11,
9,
9,
9,
9,
9,
8,
8,
10,
8,
9,
8,
8,
9,
9,
11,
8,
5,
5,
9,
9,
8,
8,
8,
8,
9,
8,
7,
7,
9,
9,
9,
9,
7,
8,
8,
11,
8,
9,
8,
8,
9,
8,
8,
8,
8,
7,
9,
7,
9,
11,
6,
6,
9,
7,
5,
9,
11,
8,
9,
9,
9,
8,
9,
8,
8,
9,
8,
8,
11,
11,
8,
9,
8,
8,
9,
9,
8,
8,
9,
9,
9,
8,
8,
9,
8,
7,
8,
8,
9,
8,
9,
9,
9,
8,
8,
8,
9,
8,
8,
8,
8,
8,
9,
8,
8,
8,
8,
9,
9,
8,
8,
7,
8,
8,
8,
8,
9,
8,
8,
8,
9,
9,
9,
8,
8,
7,
9,
9,
9,
8,
8,
8,
8,
8,
9,
8,
9,
9,
8,
9,
9,
9,
9,
11,
11,
9,
8,
7,
7,
8,
8,
8,
8,
9,
8,
9,
8,
8,
8,
9,
8,
8,
11,
11,
7,
8,
8,
10,
8,
8,
8,
8,
8,
8,
9,
8,
9,
8,
8,
8,
9,
8,
7,
9,
7,
11,
11,
5,
8,
7,
9,
8,
9,
9,
8,
11,
9,
8,
5,
7,
7,
7,
7,
8,
9,
9,
9,
9,
8,
8,
7,
8,
10,
9,
9,
5,
8,
8,
8,
9,
7,
9,
7,
9,
9,
8,
9,
8,
8,
8,
9,
9,
8,
8,
8,
9,
9,
9,
9,
9,
8,
8,
8,
8,
7,
8,
8,
9,
9,
13,
7,
9,
8,
7,
10,
8,
9,
9,
8,
9,
7,
8,
11,
8,
8,
8,
8,
6,
9,
9,
12,
12,
8,
9,
8,
7,
7,
8,
10,
7,
8,
10,
7,
5,
5,
9,
10,
9,
9,
7,
8,
9,
8,
8,
9,
11,
8,
9,
7,
7,
8,
8,
8,
9,
7,
9,
8,
7,
8,
8,
8,
11,
9,
7,
7,
5,
7,
11,
8,
5,
8,
8,
9,
11,
7,
8,
6,
6,
8,
7,
9,
9,
8,
9,
7,
8,
8,
8,
9,
9,
8,
8,
8,
8,
8,
10,
8,
8,
7,
8,
12,
9,
9,
5,
9,
9,
7,
9,
9,
5,
7,
8,
10,
9,
8,
8,
8,
9,
8,
8,
8,
8,
8,
9,
9,
10,
8,
9,
9,
8,
8,
10,
9,
1,
1,
8,
8,
8,
15,
9,
9,
9,
11,
8,
8,
9,
9,
9,
9,
8,
8,
8,
8,
10,
9,
9,
9,
8,
8,
9,
8,
8,
7,
8,
8,
9,
8,
8,
9,
7,
9,
9,
8,
8,
7,
1,
8,
9,
9,
11,
9,
9,
11,
11,
10,
11,
11,
11,
12,
14,
13,
13,
15,
14,
15,
17,
17,
15,
17,
19,
19,
21,
19,
24,
22,
24,
24,
24,
24,
29,
23,
27,
28,
28,
29,
28,
30,
31,
30,
32,
32,
32,
33,
33,
33,
33,
36,
34,
36,
39,
39,
41,
39,
40,
40,
40,
43,
44,
46,
46,
46,
47,
47,
48,
50,
47,
52,
52,
47,
53,
55,
56,
56,
57,
60,
57,
60,
61,
63,
63,
64,
63,
61,
64,
67,
67,
67,
69,
66,
69,
72,
72,
72,
72,
72,
73,
73,
75,
73,
73,
77,
76,
77,
81,
79,
77,
81,
82,
70,
80,
79,
79,
79,
79,
80,
79,
79,
80,
78,
79,
79,
79,
80,
79,
79,
80,
80,
79,
81,
79,
80,
80,
83,
80,
79,
80,
80,
81,
78,
82,
82,
81,
81,
82,
79,
81,
84,
79,
74,
81,
81,
80,
79,
80,
82,
82,
79,
82,
80,
81,
81,
80,
81,
81,
80,
80,
81,
81,
80,
79,
79,
79,
77,
76,
79,
78,
77,
77,
77,
77,
77,
74,
77,
77,
76,
75,
78,
73,
73,
75,
73,
74,
75,
72,
73,
75,
73,
73,
73,
73,
69,
71,
71,
67,
69,
71,
72,
71,
71,
65,
71,
72,
72,
69,
71,
71,
71,
67,
69,
79,
67,
65,
70,
71,
68,
67,
67,
71,
69,
65,
69,
69,
73,
67,
67,
64,
67,
65,
67,
67,
68,
67,
66,
66,
67,
66,
65,
64,
64,
64,
64,
63,
63,
63,
64,
62,
63,
60,
62,
61,
61,
62,
60,
60,
63,
60,
60,
60,
61,
60,
60,
61,
57,
61,
59,
57,
57,
56,
57,
57,
55,
56,
56,
57,
55,
53,
55,
55,
55,
54,
55,
55,
55,
55,
55,
55,
55,
55,
53,
53,
55,
55,
57,
53,
60,
55,
55,
53,
51,
53,
53,
55,
55,
53,
53,
55,
53,
53,
53,
53,
53,
55,
52,
55,
55,
53,
52,
53,
54,
55,
57,
55,
55,
54,
53,
55,
55,
56,
56,
56,
53,
53,
55,
59,
55,
53,
54,
51,
54,
53,
52,
49,
49,
51,
48,
49,
51,
52,
53,
50,
52,
52,
49,
49,
49,
45,
51,
51,
49,
48,
47,
45,
48,
49,
47,
47,
47,
47,
45,
47,
44,
44,
45,
47,
44,
47,
46,
45,
45,
45,
45,
44,
44,
43,
43,
43,
44,
43,
45,
44,
43,
42,
44,
45,
44,
44,
43,
44,
44,
43,
43,
44,
44,
43,
44,
44,
44,
45,
44,
43,
43,
42,
45,
45,
49,
45,
43,
43,
44,
43,
43,
45,
40,
42,
41,
36,
42,
42,
44,
41,
43,
43,
41,
41,
43,
43,
41,
40,
42,
42,
45,
45,
43,
41,
44,
44,
42,
43,
41,
44,
42,
44,
41,
40,
40,
40,
44,
44,
43,
42,
41,
43,
39,
41,
40,
40,
40,
39,
40,
37,
37,
37,
37,
38,
36,
36,
37,
36,
37,
35,
37,
37,
37,
33,
33,
35,
37,
35,
35,
36,
34,
35,
37,
33,
33,
34,
38,
36,
36,
35,
34,
33,
34,
35,
33,
34,
36,
33,
32,
33,
32,
32,
33,
35,
32,
31,
31,
32,
32,
32,
32,
32,
33,
32,
31,
34,
34,
32,
31,
30,
31,
31,
32,
32,
28,
31,
29,
31,
32,
30,
30,
31,
30,
30,
32,
31,
31,
32,
32,
29,
31,
32,
32,
30,
30,
31,
30,
31,
32,
31,
31,
31,
31,
32,
31,
31,
31,
32,
32,
31,
31,
32,
31,
31,
33,
29,
34,
33,
33,
34,
31,
31,
31,
33,
32,
31,
21,
28,
30,
29,
32,
30,
31,
32,
31,
27,
29,
29,
27,
31,
30,
29,
31,
31,
29,
31,
29,
31,
29,
29,
29,
31,
28,
32,
31,
29,
25,
33,
31,
29,
30,
29,
30,
31,
31,
31,
29,
31,
31,
31,
29,
29,
31,
29,
30,
32,
31,
31,
31,
32,
31,
33,
31,
31,
31,
32,
31,
31,
32,
31,
29,
31,
31,
29,
31,
29,
33,
33,
26,
31,
30,
29,
28,
30,
19,
29,
28,
28,
28,
28,
27,
27,
26,
26,
28,
27,
26,
25,
25,
23,
25,
25,
24,
24,
28,
24,
23,
23,
24,
23,
22,
21,
23,
24,
21,
21,
26,
20,
24,
25,
19,
21,
21,
20,
23,
20,
20,
20,
20,
21,
20,
20,
20,
20,
20,
19,
18,
21,
20,
20,
17,
20,
20,
20,
20,
20,
20,
20,
19,
19,
20,
20,
20,
20,
22,
20,
19,
19,
20,
18,
23,
16,
16,
20,
19,
19,
20,
19,
15,
19,
19,
19,
19,
19,
19,
18,
19,
19,
19,
19,
19,
17,
19,
19,
19,
19,
17,
17,
17,
19,
17,
19,
19,
17,
17,
19,
17,
16,
19,
17,
19,
19,
20,
17,
19,
17,
19,
19,
17,
17,
17,
19,
19,
21,
16,
16,
16,
17,
17,
17,
19,
16,
17,
17,
16,
15,
18,
16,
17,
17,
17,
17,
17,
15,
17,
17,
16,
16,
19,
17,
17,
20,
16,
15,
15,
14,
18,
17,
18,
18,
16,
16,
16,
17,
17,
16,
19,
19,
16,
17,
17,
16,
18,
17,
15,
15,
17,
17,
16,
19,
17,
17,
17,
17,
17,
17,
17,
18,
17,
19,
17,
19,
18,
10,
17,
17,
18,
18,
19,
16,
16,
17,
17,
19,
18,
16,
17,
17,
17,
18,
19,
19,
18,
18,
19,
17,
17,
19,
17,
18,
19,
19,
18,
18,
19,
19,
17,
19,
20,
19,
18,
23,
17,
14,
23,
16,
18,
19,
19,
19,
23,
18,
19,
17,
17,
19,
19,
19,
18,
19,
18,
18,
11,
11,
18,
19,
27,
17,
17,
22,
13,
18,
17,
18,
17,
17,
17,
17,
13,
17,
17,
21,
16,
15,
17,
16,
16,
19,
18,
19,
16,
16,
15,
15,
18,
19,
17,
18,
20,
17,
17,
17,
17,
17,
17,
19,
17,
17,
17,
16,
17,
17,
16,
19,
19,
18,
17,
17,
16,
17,
17,
21,
21,
18,
16,
19,
19,
13,
17,
17,
19,
18,
17,
18,
20,
17,
17,
18,
19,
17,
16,
17,
17,
19,
17,
17,
18,
17,
17,
17,
19,
17,
17,
17,
17,
18,
19,
19,
17,
19,
17,
17,
16,
16,
16,
19,
16,
14,
17,
18,
18,
18,
17,
17,
21,
18,
18,
18,
17,
18,
18,
18,
17,
17,
17,
17,
18,
16,
19,
17,
19,
21,
19,
17,
19,
19,
18,
20,
19,
18,
17,
19,
17,
16,
19,
17,
21,
13,
13,
19,
19,
16,
18,
19,
16,
19,
19,
19,
19,
19,
18,
17,
17,
19,
19,
19,
19,
20,
19,
17,
18,
17,
19,
19,
19,
17,
17,
17,
19,
17,
17,
18,
19,
17,
20,
18,
16,
13,
17,
16,
19,
19,
17,
17,
16,
17,
16,
17,
17,
17,
16,
16,
16,
15,
15,
15,
13,
13,
14,
14,
13,
15,
15,
13,
13,
13,
12,
12,
12,
13,
12,
11,
13,
13,
9,
12,
10,
11,
15,
11,
8,
11,
11,
10,
11,
11,
9,
11,
11,
11,
10,
9,
9,
9,
9,
9,
9,
9,
9,
8,
9,
9,
10,
9,
9,
9,
9,
9,
9,
9,
10,
11,
9,
9,
11,
11,
9,
8,
12,
9,
9,
9,
12,
8,
8,
7,
9,
9,
8,
10,
10,
9,
9,
9,
12,
9,
8,
7,
9,
9,
9,
9,
12,
15,
11,
8,
5,
5,
7,
8,
8,
7,
7,
8,
8,
8,
9,
8,
9,
8,
9,
9,
8,
9,
8,
8,
9,
9,
9,
9,
9,
9,
8,
10,
9,
8,
7,
7,
8,
9,
8,
8,
8,
8,
9,
7,
9,
9,
8,
9,
8,
12,
8,
9,
9,
8,
9,
9,
8,
8,
9,
9,
9,
8,
9,
7,
9,
9,
8,
9,
9,
9,
8,
8,
9,
9,
8,
9,
9,
9,
7,
9,
7,
11,
8,
9,
9,
9,
11,
9,
9,
8,
8,
11,
9,
8,
9,
9,
9,
9,
8,
8,
8,
9,
8,
8,
9,
12,
8,
8,
7,
9,
8,
10,
9,
9,
9,
9,
7,
7,
7,
5,
8,
5,
8,
8,
8,
9,
9,
9,
7,
7,
8,
8,
9,
8,
8,
9,
8,
8,
7,
9,
9,
8,
8,
8,
8,
7,
7,
9,
8,
9,
9,
9,
8,
9,
8,
7,
9,
8,
8,
8,
9,
8,
7,
9,
9,
9,
8,
8,
8,
7,
8,
9,
8,
8,
8,
8,
9,
9,
8,
8,
7,
8,
8,
8,
10,
7,
7,
9,
8,
8,
9,
11,
8,
11,
8,
8,
8,
10,
7,
9,
9,
7,
8,
9,
8,
9,
8,
9,
8,
8,
8,
9,
9,
8,
8,
9,
8,
8,
8,
8,
9,
8,
8,
9,
8,
7,
9,
8,
12,
12,
15,
9,
9,
9,
8,
10,
14,
9,
8,
9,
8,
7,
8,
9,
9,
9,
12,
8,
8,
8,
4,
9,
8,
9,
10,
8,
8,
8,
9,
9,
9,
11,
8,
8,
11,
13,
5,
9,
9,
9,
7,
8,
8,
8,
11,
9,
9,
7,
7,
9,
9,
9,
8,
9,
9,
9,
8,
9,
9,
9,
9,
8,
8,
8,
8,
0,
11,
7,
9,
11,
4,
4,
10,
6,
8,
8,
5,
9,
8,
8,
13,
8,
9,
9,
8,
8,
8,
8,
8,
9,
8,
9,
9,
8,
8,
8,
8,
9,
9,
8,
8,
10,
8,
9,
9,
7,
10,
7,
9,
7,
3,
9,
9,
9,
8,
8,
9,
8,
8,
8,
7,
8,
9,
9,
9,
9,
8,
9,
7,
8,
8,
8,
9,
12,
8,
8,
7,
9,
8,
9,
8,
7,
10,
9,
9,
9,
3,
8,
9,
9,
9,
7,
7,
9,
8,
9,
9,
8,
8,
9,
9,
6,
8,
9,
8,
11,
9,
9,
8,
11,
8,
8,
8,
9,
9,
10,
9,
8,
9,
8,
9,
4,
13,
9,
8,
9,
7,
7,
9,
8,
9,
8,
8,
8,
8,
8,
8,
9,
8,
9,
7,
7,
8,
9,
9,
10,
9,
9,
8,
8,
8,
8,
9,
9,
9,
9,
8,
8,
6,
8,
9,
9,
8,
9,
9,
5,
9,
9,
9,
9,
7,
7,
8,
8,
9,
8,
9,
9,
8,
7,
8,
8,
9,
8,
8,
8,
9,
8,
8,
8,
7,
7,
9,
8,
8,
7,
8,
8,
9,
10,
10,
9,
9,
8,
8,
7,
8,
8,
9,
9,
9,
8,
8,
8,
9,
9,
9,
9,
8,
9,
9,
8,
9,
9,
9,
7,
7,
7,
11,
7,
9,
9,
8,
6,
9,
8,
9,
9,
8,
4,
8,
8,
9,
8,
9,
7,
9,
8,
8,
9,
8,
7,
8,
8,
9,
8,
9,
9,
8,
9,
8,
8,
8,
8,
9,
9,
9,
7,
7,
8,
9,
8,
8,
9,
9,
7,
9,
8,
8,
8,
8,
9,
9,
7,
10,
4,
4,
10,
1,
10,
9,
8,
8,
7,
8,
8,
9,
9,
8,
9,
9,
7,
8,
7,
10,
11,
12,
9,
8,
7,
9,
9,
11,
11,
9,
9,
8,
7,
8,
7,
9,
9,
8,
8,
8,
8,
9,
9,
9,
9,
8,
7,
9,
8,
9,
8,
9,
8,
8,
9,
7,
7,
7,
9,
8,
9,
9,
7,
9,
8,
9,
8,
9,
9,
8,
7,
7,
9,
7,
8,
8,
9,
9,
9,
9,
11,
9,
7,
8,
8,
8,
8,
8,
10,
8,
9,
7,
8,
9,
16,
9,
8,
9,
9,
7,
8,
8,
8,
8,
9,
9,
8,
9,
9,
8,
9,
8,
8,
7,
8,
9,
9,
8,
8,
8,
7,
8,
8,
9,
11,
8,
9,
9,
7,
9,
9,
7,
9,
8,
8,
8,
7,
8,
7,
9,
9,
8,
8,
8,
9,
9,
9,
9,
9,
9,
8,
9,
8,
8,
8,
8,
9,
9,
8,
8,
8,
8,
9,
8,
8,
7,
8,
10,
17,
8,
8,
8,
8,
6,
10,
8,
10,
11,
8,
9,
7,
10,
7,
8,
9,
9,
9,
9,
9,
9,
9,
9,
7,
7,
7,
9,
8,
11,
8,
8,
8,
8,
7,
7,
11,
19,
9,
8,
9,
9,
8,
8,
9,
9,
9,
9,
8,
9,
8,
8,
9,
7,
8,
9,
9,
9,
8,
8,
8,
7,
8,
8,
9,
9,
9,
8,
9,
9,
9,
8,
6,
7,
8,
8,
9,
8,
8,
7,
6,
8,
8,
9,
8,
9,
8,
9,
8,
8,
8,
9,
8,
7,
9,
8,
9,
8,
8,
8,
9,
8,
8,
8,
8,
8,
8,
8,
9,
8,
5,
13,
15,
8,
7,
7,
7,
13,
8,
8,
-14,
11,
11,
8,
9,
6,
5,
8,
9,
9,
9,
8,
8,
9,
9,
8,
8,
9,
8,
8,
9,
9,
8,
9,
9,
8,
7,
4,
4,
11,
7,
8,
8,
8,
8,
9,
9,
11,
8,
9,
9,
8,
8,
8,
9,
7,
7,
9,
9,
9,
9,
9,
8,
9,
9,
9,
8,
9,
8,
9,
9,
9,
8,
9,
8,
12,
13,
8,
9,
9,
8,
9,
9,
9,
7,
7,
8,
8,
9,
8,
9,
9,
7,
8,
8,
9,
8,
9,
8,
8,
10,
8,
8,
8,
8,
5,
7,
9,
11,
11,
9,
9,
3,
13,
8,
8,
9,
7,
9,
9,
7,
8,
8,
7,
9,
11,
8,
8,
8,
7,
8,
8,
9,
9,
8,
8,
8,
11,
8,
8,
8,
10,
8,
8,
8,
9,
7,
8,
9,
8,
8,
8,
8,
9,
9,
9,
9,
11,
7,
9,
8,
11,
9,
9,
9,
9,
9,
9,
8,
9,
8,
8,
8,
7,
8,
9,
8,
9,
9,
9,
7,
8,
9,
8,
10,
9,
7,
11,
7,
9,
9,
8,
8,
8,
7,
8,
8,
8,
8,
8,
8,
9,
8,
8,
8,
8,
8,
8,
9,
9,
8,
8,
8,
9,
8,
8,
8,
8,
9,
9,
8,
9,
9,
8,
8,
3,
8,
8,
8,
9,
9,
9,
9,
7,
9,
8,
8,
8,
8,
9,
9,
7,
8,
9,
8,
9,
9,
8,
8,
7,
8,
9,
9,
10,
9,
8,
9,
7,
7,
8,
7,
9,
13,
5,
7,
7,
8,
9,
8,
9,
8,
9,
8,
9,
8,
8,
8,
9,
9,
9,
9,
9,
9,
9,
8,
8,
8,
8,
8,
8,
27,
13,
9,
4,
8,
7,
9,
9,
10,
4,
14,
8,
8,
9,
8,
10,
10,
8,
8,
9,
7,
7,
8,
8,
8,
8,
9,
8,
8,
7,
9,
7,
8,
7,
