Datos experimentales/DATOS 26-3-24/ALL0017/A0017CH1.CSV

Memory Length,4000,
Trigger Level,0.000E+00,
Source,CH1,
Vertical Units,V,
Vertical Scale,2.000E-02,
Vertical Position,-1.200E-02,
Horizontal Units,s,
Horizontal Scale,1.000E+00,
Horizontal Position,0.000E+00,
Horizontal Mode,Roll Mode,
Sampling Period,4.000E-03,
Firmware, V1.21,
Waveform Data,
8,
6,
6,
8,
9,
8,
7,
12,
9,
9,
8,
9,
9,
8,
9,
9,
9,
9,
8,
7,
8,
8,
9,
8,
8,
8,
9,
10,
8,
8,
11,
11,
7,
9,
9,
9,
9,
8,
9,
8,
11,
13,
9,
8,
8,
9,
8,
9,
9,
9,
9,
8,
8,
9,
7,
6,
7,
7,
9,
17,
9,
6,
6,
9,
7,
8,
8,
7,
8,
8,
13,
8,
0,
9,
7,
8,
8,
9,
9,
9,
7,
8,
8,
9,
9,
10,
8,
9,
9,
8,
8,
8,
9,
9,
9,
8,
8,
9,
8,
8,
9,
7,
8,
8,
8,
9,
8,
8,
9,
8,
8,
8,
8,
9,
9,
10,
7,
7,
7,
9,
9,
8,
8,
9,
8,
9,
9,
9,
9,
8,
7,
6,
7,
8,
8,
8,
8,
8,
9,
9,
7,
8,
7,
9,
15,
9,
8,
7,
8,
8,
8,
9,
10,
8,
15,
8,
8,
8,
8,
8,
8,
8,
8,
8,
8,
9,
8,
8,
9,
9,
9,
9,
9,
8,
7,
9,
8,
8,
9,
8,
8,
9,
9,
8,
9,
9,
9,
10,
8,
6,
6,
7,
9,
8,
8,
9,
9,
8,
8,
9,
7,
8,
7,
10,
10,
9,
9,
8,
8,
9,
8,
8,
9,
10,
7,
9,
8,
8,
9,
9,
9,
8,
8,
8,
8,
11,
10,
8,
8,
9,
10,
8,
9,
9,
8,
9,
9,
9,
9,
8,
8,
8,
8,
7,
8,
9,
9,
9,
11,
11,
7,
8,
7,
8,
9,
9,
8,
8,
9,
8,
10,
7,
8,
8,
6,
9,
8,
8,
7,
9,
8,
8,
8,
6,
9,
14,
14,
9,
8,
9,
9,
9,
8,
9,
8,
10,
7,
9,
8,
8,
8,
9,
9,
8,
9,
7,
10,
9,
10,
10,
9,
7,
8,
7,
7,
7,
8,
8,
9,
6,
8,
10,
12,
8,
9,
9,
9,
9,
8,
8,
9,
7,
9,
8,
9,
9,
8,
9,
8,
9,
9,
9,
9,
9,
8,
9,
9,
8,
8,
9,
7,
9,
5,
9,
9,
9,
9,
8,
9,
7,
9,
9,
9,
9,
7,
4,
8,
9,
7,
5,
9,
8,
8,
8,
8,
8,
9,
7,
10,
8,
8,
10,
9,
8,
8,
9,
8,
9,
9,
3,
8,
9,
8,
8,
10,
8,
6,
8,
9,
10,
8,
9,
9,
9,
9,
7,
9,
5,
8,
8,
8,
8,
8,
8,
5,
5,
8,
9,
9,
9,
8,
8,
8,
9,
8,
8,
9,
8,
8,
8,
8,
8,
8,
13,
8,
8,
8,
8,
9,
8,
9,
11,
9,
8,
8,
9,
8,
9,
8,
7,
7,
7,
9,
9,
10,
9,
9,
9,
9,
7,
8,
10,
8,
9,
8,
9,
9,
8,
6,
8,
8,
9,
9,
8,
9,
8,
9,
8,
8,
9,
9,
8,
8,
9,
8,
8,
8,
8,
9,
11,
9,
8,
9,
8,
9,
9,
9,
8,
9,
9,
10,
10,
11,
8,
7,
9,
8,
8,
9,
9,
8,
9,
8,
9,
9,
8,
8,
8,
9,
10,
8,
9,
9,
8,
9,
9,
9,
8,
8,
8,
9,
6,
8,
9,
9,
8,
8,
8,
9,
8,
9,
10,
10,
9,
8,
9,
8,
9,
8,
6,
11,
9,
8,
7,
8,
9,
7,
7,
8,
13,
8,
9,
11,
8,
9,
9,
7,
9,
13,
10,
9,
9,
8,
8,
8,
9,
9,
7,
8,
11,
8,
8,
9,
9,
8,
8,
10,
10,
8,
8,
9,
7,
5,
8,
8,
5,
9,
8,
8,
8,
9,
8,
8,
8,
7,
9,
9,
8,
9,
9,
9,
8,
8,
9,
9,
8,
8,
9,
9,
8,
8,
8,
8,
8,
8,
8,
9,
9,
9,
7,
8,
7,
11,
8,
8,
9,
8,
10,
7,
8,
11,
9,
9,
7,
9,
9,
9,
8,
9,
8,
9,
9,
9,
9,
8,
8,
7,
8,
10,
7,
5,
8,
9,
8,
6,
9,
9,
7,
8,
8,
8,
9,
8,
8,
11,
8,
9,
9,
8,
8,
8,
11,
8,
7,
7,
9,
9,
8,
9,
9,
8,
8,
10,
7,
7,
9,
9,
8,
8,
8,
8,
8,
7,
11,
9,
8,
8,
9,
9,
8,
11,
9,
9,
8,
9,
8,
8,
8,
9,
11,
8,
8,
8,
9,
8,
9,
9,
8,
8,
8,
9,
9,
7,
8,
8,
8,
8,
3,
9,
8,
8,
8,
9,
9,
10,
8,
9,
9,
9,
10,
8,
9,
9,
10,
8,
8,
12,
9,
8,
8,
9,
9,
9,
9,
8,
8,
9,
8,
10,
10,
7,
8,
9,
8,
7,
9,
8,
8,
7,
8,
8,
7,
7,
7,
8,
8,
8,
8,
9,
7,
8,
9,
8,
8,
10,
9,
9,
10,
10,
7,
9,
8,
9,
9,
9,
8,
8,
9,
3,
7,
8,
8,
8,
9,
8,
9,
9,
7,
9,
9,
9,
10,
10,
8,
10,
10,
4,
9,
9,
8,
6,
9,
8,
9,
7,
13,
8,
8,
9,
8,
8,
9,
8,
8,
7,
9,
9,
7,
8,
9,
9,
6,
8,
7,
7,
10,
8,
8,
8,
9,
7,
9,
9,
4,
9,
8,
9,
9,
9,
8,
8,
8,
9,
7,
8,
8,
8,
7,
8,
8,
8,
14,
8,
8,
9,
9,
8,
8,
9,
9,
11,
9,
13,
9,
6,
9,
9,
8,
8,
8,
8,
7,
9,
8,
9,
9,
8,
8,
11,
8,
8,
11,
9,
8,
9,
9,
8,
9,
8,
9,
8,
8,
9,
6,
6,
8,
7,
8,
7,
8,
9,
9,
8,
8,
8,
9,
9,
8,
8,
7,
8,
8,
9,
9,
8,
6,
8,
5,
8,
9,
8,
8,
8,
11,
5,
8,
9,
7,
8,
8,
8,
8,
8,
6,
7,
7,
7,
9,
8,
9,
8,
9,
7,
8,
13,
8,
8,
8,
8,
9,
9,
5,
8,
6,
9,
8,
8,
8,
8,
9,
8,
9,
8,
8,
8,
9,
10,
8,
8,
8,
7,
8,
9,
8,
8,
9,
9,
9,
12,
12,
7,
9,
9,
9,
8,
8,
9,
7,
9,
8,
8,
8,
8,
8,
9,
9,
7,
7,
13,
10,
8,
9,
9,
9,
8,
9,
10,
10,
8,
9,
8,
9,
9,
10,
8,
9,
10,
9,
9,
9,
9,
8,
6,
8,
8,
8,
8,
8,
8,
9,
9,
8,
7,
5,
5,
9,
9,
9,
9,
7,
8,
9,
6,
8,
9,
8,
8,
8,
9,
9,
8,
9,
9,
8,
9,
9,
9,
9,
8,
8,
9,
9,
9,
8,
9,
8,
9,
8,
9,
9,
8,
8,
10,
9,
9,
9,
9,
9,
9,
8,
11,
8,
6,
8,
9,
7,
9,
9,
8,
9,
9,
8,
7,
9,
8,
7,
10,
10,
9,
11,
8,
9,
9,
8,
10,
10,
7,
7,
8,
10,
9,
9,
8,
9,
8,
12,
12,
9,
9,
9,
9,
8,
9,
8,
11,
9,
8,
8,
8,
8,
9,
8,
7,
7,
8,
7,
8,
9,
8,
8,
8,
9,
7,
9,
11,
9,
9,
9,
9,
8,
8,
8,
8,
8,
8,
9,
9,
9,
8,
10,
10,
5,
9,
11,
8,
8,
8,
8,
8,
7,
7,
9,
8,
7,
9,
9,
8,
8,
9,
8,
7,
8,
9,
8,
9,
8,
9,
8,
8,
8,
8,
8,
10,
8,
8,
9,
8,
7,
8,
9,
8,
10,
13,
8,
8,
10,
8,
9,
9,
8,
6,
8,
7,
7,
5,
8,
8,
8,
7,
8,
8,
8,
13,
11,
11,
8,
9,
8,
8,
8,
11,
11,
8,
9,
8,
8,
8,
8,
8,
8,
7,
8,
8,
9,
11,
8,
8,
9,
8,
8,
8,
9,
8,
9,
9,
9,
7,
7,
9,
7,
7,
8,
9,
9,
8,
10,
10,
9,
11,
7,
8,
7,
9,
9,
8,
9,
8,
8,
8,
9,
8,
9,
9,
13,
9,
9,
7,
7,
9,
8,
9,
8,
9,
8,
5,
9,
9,
8,
9,
8,
7,
8,
8,
9,
11,
9,
9,
9,
9,
8,
8,
8,
8,
9,
8,
9,
9,
9,
5,
8,
8,
10,
8,
8,
8,
9,
9,
8,
8,
8,
9,
9,
9,
10,
7,
8,
9,
9,
9,
8,
8,
5,
8,
8,
8,
9,
8,
9,
8,
8,
8,
11,
8,
9,
9,
9,
8,
9,
9,
8,
8,
8,
8,
8,
7,
8,
7,
9,
7,
9,
8,
8,
8,
8,
9,
7,
4,
8,
9,
9,
10,
8,
8,
10,
8,
8,
11,
11,
8,
7,
9,
9,
8,
9,
9,
9,
8,
7,
13,
6,
8,
9,
8,
8,
8,
9,
9,
9,
8,
9,
8,
3,
9,
7,
8,
7,
8,
8,
8,
7,
8,
7,
6,
8,
9,
8,
8,
9,
7,
8,
9,
8,
8,
9,
5,
10,
7,
9,
8,
8,
8,
8,
8,
8,
9,
9,
7,
8,
7,
8,
9,
9,
8,
9,
8,
8,
7,
8,
8,
8,
6,
10,
9,
13,
9,
8,
7,
9,
10,
9,
7,
9,
9,
9,
9,
8,
8,
8,
8,
5,
8,
3,
9,
9,
9,
8,
9,
9,
9,
8,
8,
7,
7,
7,
9,
8,
7,
8,
9,
9,
9,
9,
9,
8,
5,
9,
8,
9,
3,
7,
9,
7,
9,
10,
7,
11,
11,
9,
9,
7,
9,
9,
11,
8,
8,
8,
10,
6,
8,
6,
6,
8,
9,
9,
8,
8,
8,
8,
4,
8,
8,
9,
8,
8,
9,
8,
8,
10,
8,
8,
5,
8,
9,
10,
8,
8,
11,
11,
11,
11,
13,
11,
13,
15,
14,
11,
15,
16,
19,
17,
18,
19,
19,
18,
17,
21,
23,
21,
21,
24,
23,
21,
25,
25,
25,
24,
24,
25,
29,
27,
29,
31,
31,
32,
33,
34,
33,
34,
37,
37,
39,
36,
40,
40,
38,
41,
43,
43,
43,
43,
45,
45,
44,
45,
47,
48,
48,
49,
52,
53,
51,
52,
53,
53,
55,
57,
58,
58,
61,
62,
64,
64,
61,
64,
64,
66,
69,
67,
68,
68,
69,
68,
71,
71,
70,
70,
71,
64,
73,
74,
73,
73,
73,
73,
73,
75,
74,
75,
76,
76,
75,
79,
76,
71,
112,
78,
74,
76,
76,
80,
80,
76,
76,
72,
80,
77,
72,
78,
78,
74,
77,
76,
79,
78,
78,
79,
79,
79,
77,
79,
77,
77,
78,
77,
77,
75,
76,
79,
81,
76,
77,
77,
76,
77,
73,
77,
78,
76,
74,
79,
75,
77,
75,
77,
77,
77,
77,
76,
76,
76,
77,
77,
74,
75,
75,
78,
73,
75,
76,
76,
74,
76,
77,
75,
74,
75,
70,
73,
73,
72,
72,
72,
72,
72,
76,
71,
71,
68,
69,
70,
68,
70,
70,
68,
69,
10,
69,
69,
71,
71,
69,
67,
68,
69,
63,
67,
66,
67,
63,
65,
63,
63,
65,
65,
67,
65,
65,
64,
63,
62,
61,
71,
61,
61,
61,
64,
61,
63,
62,
63,
62,
61,
59,
61,
60,
61,
61,
61,
58,
58,
60,
60,
60,
59,
59,
59,
53,
59,
58,
57,
56,
57,
57,
56,
58,
58,
58,
57,
58,
56,
58,
57,
59,
61,
57,
57,
58,
58,
57,
57,
56,
56,
55,
56,
55,
55,
52,
54,
53,
53,
57,
57,
54,
53,
54,
53,
55,
53,
53,
54,
53,
53,
52,
47,
53,
53,
53,
52,
51,
53,
51,
51,
51,
52,
50,
49,
51,
51,
50,
50,
49,
50,
49,
49,
52,
48,
48,
49,
48,
48,
48,
49,
47,
49,
49,
49,
49,
49,
50,
50,
49,
47,
48,
47,
48,
46,
48,
46,
46,
48,
47,
47,
47,
47,
45,
45,
46,
45,
45,
47,
45,
43,
43,
46,
48,
45,
44,
44,
43,
43,
45,
44,
44,
44,
44,
41,
41,
41,
43,
47,
44,
43,
45,
44,
50,
43,
44,
45,
40,
40,
43,
47,
45,
43,
44,
44,
47,
42,
43,
42,
46,
44,
43,
42,
42,
42,
41,
42,
41,
41,
40,
42,
39,
39,
40,
43,
42,
41,
41,
41,
40,
40,
42,
42,
41,
41,
40,
43,
37,
39,
41,
40,
40,
39,
41,
41,
40,
40,
39,
40,
40,
40,
39,
39,
39,
39,
40,
40,
37,
37,
36,
42,
39,
39,
37,
41,
39,
39,
34,
37,
37,
37,
37,
38,
36,
37,
37,
37,
40,
35,
37,
38,
35,
37,
39,
39,
36,
36,
37,
37,
37,
37,
37,
37,
39,
37,
37,
33,
39,
39,
37,
37,
38,
35,
37,
36,
36,
36,
35,
34,
36,
37,
35,
35,
34,
35,
37,
33,
34,
34,
37,
35,
32,
30,
33,
33,
33,
33,
33,
33,
32,
32,
32,
29,
33,
31,
32,
32,
33,
33,
33,
33,
33,
33,
32,
33,
32,
32,
33,
36,
35,
32,
33,
33,
33,
32,
32,
32,
28,
33,
31,
32,
31,
33,
32,
32,
31,
31,
32,
30,
30,
31,
29,
31,
31,
31,
31,
31,
32,
31,
31,
31,
32,
32,
31,
27,
30,
31,
29,
30,
30,
28,
29,
32,
27,
29,
31,
31,
31,
30,
29,
31,
31,
29,
31,
29,
34,
31,
32,
30,
31,
31,
31,
29,
32,
30,
29,
30,
29,
30,
30,
31,
31,
30,
29,
30,
30,
30,
29,
28,
35,
31,
29,
30,
29,
28,
29,
29,
28,
28,
29,
28,
28,
33,
28,
25,
29,
28,
25,
27,
28,
28,
28,
28,
28,
24,
27,
29,
28,
28,
27,
28,
28,
28,
27,
31,
27,
27,
27,
27,
27,
27,
27,
26,
26,
25,
27,
25,
28,
29,
25,
25,
24,
24,
25,
26,
27,
25,
27,
27,
26,
24,
26,
27,
27,
25,
26,
26,
28,
27,
26,
28,
27,
28,
29,
25,
26,
25,
25,
25,
25,
25,
25,
25,
27,
24,
21,
24,
23,
25,
25,
24,
25,
24,
24,
23,
24,
24,
25,
25,
24,
23,
23,
24,
23,
23,
21,
21,
23,
23,
22,
20,
23,
25,
23,
21,
23,
23,
22,
22,
23,
20,
20,
19,
22,
28,
20,
21,
23,
20,
21,
22,
21,
20,
21,
19,
23,
23,
21,
21,
23,
21,
23,
21,
22,
22,
23,
23,
23,
22,
21,
21,
22,
23,
21,
23,
21,
24,
24,
20,
22,
21,
21,
21,
21,
21,
20,
21,
20,
21,
21,
27,
20,
20,
22,
21,
21,
22,
21,
21,
20,
20,
20,
15,
17,
14,
23,
21,
21,
21,
19,
21,
19,
19,
20,
17,
16,
20,
21,
18,
19,
20,
19,
17,
18,
19,
20,
20,
19,
19,
18,
18,
19,
17,
19,
18,
19,
19,
17,
19,
20,
19,
16,
16,
17,
19,
17,
17,
18,
17,
21,
17,
17,
17,
17,
14,
17,
19,
19,
17,
17,
14,
17,
16,
17,
17,
17,
16,
17,
17,
17,
17,
17,
17,
18,
17,
16,
16,
18,
19,
18,
17,
19,
17,
18,
18,
18,
17,
15,
17,
17,
16,
17,
18,
16,
16,
16,
19,
15,
15,
15,
15,
15,
16,
21,
13,
15,
17,
16,
17,
16,
17,
19,
19,
17,
15,
15,
16,
15,
15,
15,
15,
15,
16,
15,
13,
17,
17,
15,
13,
14,
13,
15,
14,
13,
15,
15,
16,
15,
21,
15,
15,
15,
16,
16,
15,
15,
16,
14,
16,
14,
13,
13,
14,
15,
14,
15,
15,
15,
16,
17,
17,
14,
19,
15,
14,
15,
15,
16,
15,
15,
15,
16,
16,
15,
12,
16,
15,
9,
16,
15,
15,
13,
15,
16,
15,
14,
14,
14,
15,
15,
15,
16,
16,
16,
17,
15,
16,
16,
13,
13,
15,
16,
15,
15,
15,
15,
15,
16,
16,
16,
16,
15,
16,
16,
16,
15,
16,
15,
15,
15,
15,
15,
16,
15,
13,
15,
15,
14,
11,
15,
14,
14,
15,
15,
13,
19,
15,
15,
15,
14,
15,
13,
13,
13,
14,
15,
14,
13,
12,
12,
13,
13,
12,
13,
12,
12,
12,
12,
12,
16,
11,
11,
11,
12,
12,
11,
11,
12,
11,
11,
10,
10,
10,
11,
13,
12,
12,
12,
11,
11,
11,
9,
16,
12,
12,
13,
13,
12,
11,
12,
11,
11,
11,
12,
10,
11,
13,
12,
11,
11,
12,
9,
11,
11,
9,
11,
11,
11,
11,
11,
10,
12,
11,
9,
9,
12,
11,
11,
12,
11,
11,
14,
9,
9,
10,
9,
9,
11,
11,
11,
11,
13,
11,
11,
11,
11,
11,
13,
11,
11,
10,
11,
11,
9,
12,
13,
12,
11,
8,
10,
11,
11,
8,
9,
9,
9,
11,
11,
11,
11,
12,
10,
10,
11,
12,
10,
9,
9,
11,
9,
10,
11,
11,
11,
10,
11,
10,
9,
11,
11,
11,
11,
13,
11,
9,
10,
9,
9,
11,
11,
11,
10,
10,
9,
8,
11,
11,
13,
11,
9,
10,
10,
9,
10,
11,
11,
11,
17,
13,
9,
11,
10,
9,
9,
11,
11,
11,
10,
9,
9,
12,
10,
15,
10,
9,
9,
11,
9,
9,
12,
9,
9,
9,
11,
11,
11,
9,
9,
8,
10,
9,
9,
8,
8,
9,
11,
13,
11,
10,
10,
11,
9,
10,
11,
11,
8,
5,
11,
11,
12,
12,
10,
11,
9,
11,
11,
9,
9,
1,
11,
13,
14,
14,
11,
11,
11,
11,
10,
11,
9,
11,
10,
12,
12,
11,
11,
11,
11,
10,
8,
9,
11,
13,
11,
11,
11,
10,
10,
11,
11,
11,
11,
10,
11,
9,
9,
13,
10,
12,
9,
10,
12,
11,
12,
12,
11,
11,
11,
12,
12,
11,
11,
11,
12,
11,
11,
12,
11,
11,
12,
11,
11,
11,
11,
12,
11,
12,
12,
12,
11,
10,
10,
13,
11,
11,
11,
11,
11,
11,
12,
11,
11,
11,
11,
13,
11,
13,
13,
13,
12,
11,
12,
12,
12,
10,
9,
8,
9,
12,
12,
13,
12,
11,
11,
14,
12,
11,
10,
13,
7,
11,
11,
12,
11,
11,
11,
11,
11,
12,
13,
12,
12,
11,
11,
12,
14,
12,
12,
13,
12,
12,
12,
13,
11,
11,
13,
11,
11,
5,
11,
11,
11,
11,
13,
13,
12,
16,
11,
11,
10,
10,
11,
11,
11,
12,
9,
9,
9,
9,
8,
11,
9,
10,
9,
9,
10,
10,
9,
9,
9,
9,
11,
9,
9,
9,
9,
9,
10,
8,
11,
10,
9,
11,
12,
13,
7,
11,
11,
9,
11,
11,
12,
9,
9,
9,
9,
9,
11,
9,
5,
11,
11,
9,
9,
9,
10,
11,
9,
9,
7,
8,
8,
9,
9,
9,
9,
8,
9,
8,
8,
8,
11,
9,
11,
10,
11,
9,
11,
9,
9,
9,
9,
9,
7,
13,
10,
10,
9,
9,
9,
7,
8,
9,
8,
8,
8,
12,
9,
9,
9,
9,
9,
9,
3,
9,
9,
8,
8,
8,
16,
8,
10,
8,
8,
8,
8,
8,
8,
9,
10,
9,
9,
9,
10,
8,
9,
9,
9,
9,
9,
9,
9,
12,
13,
9,
9,
9,
9,
9,
9,
9,
10,
9,
8,
8,
8,
9,
9,
9,
9,
8,
8,
8,
8,
8,
9,
10,
10,
8,
8,
9,
8,
8,
9,
9,
9,
9,
11,
9,
8,
9,
9,
9,
7,
9,
9,
8,
9,
9,
8,
8,
9,
9,
9,
8,
9,
9,
10,
9,
9,
8,
9,
8,
7,
7,
5,
9,
10,
9,
9,
10,
8,
9,
8,
10,
11,
10,
8,
8,
11,
10,
9,
10,
9,
9,
9,
8,
8,
8,
8,
8,
7,
7,
9,
9,
9,
9,
9,
9,
9,
11,
11,
7,
8,
9,
9,
12,
12,
9,
-4,
9,
9,
10,
8,
7,
9,
9,
9,
9,
9,
7,
7,
8,
8,
9,
8,
9,
10,
9,
11,
11,
10,
10,
10,
10,
10,
8,
8,
9,
7,
3,
11,
12,
9,
8,
10,
9,
9,
8,
8,
9,
10,
11,
9,
8,
9,
11,
9,
9,
9,
10,
10,
9,
9,
9,
6,
8,
11,
9,
5,
9,
9,
9,
9,
10,
9,
9,
9,
7,
10,
9,
9,
9,
9,
8,
10,
8,
9,
9,
7,
9,
9,
9,
7,
8,
8,
9,
8,
10,
8,
9,
9,
9,
11,
8,
8,
8,
9,
8,
9,
9,
10,
11,
11,
10,
9,
8,
9,
11,
10,
9,
9,
9,
9,
8,
10,
9,
7,
8,
10,
9,
7,
10,
8,
8,
8,
9,
9,
9,
9,
10,
3,
9,
11,
9,
9,
9,
9,
9,
9,
10,
10,
10,
8,
10,
7,
8,
9,
9,
9,
8,
8,
8,
8,
8,
12,
9,
11,
10,
9,
8,
4,
9,
9,
7,
7,
9,
11,
10,
8,
11,
9,
9,
8,
9,
9,
8,
8,
8,
8,
13,
8,
9,
9,
9,
9,
9,
9,
8,
11,
12,
10,
9,
9,
11,
11,
10,
10,
9,
7,
9,
9,
8,
8,
11,
8,
9,
9,
9,
9,
10,
10,
9,
8,
9,
9,
11,
5,
9,
12,
9,
9,
9,
9,
9,
8,
9,
9,
8,
8,
8,
12,
9,
10,
10,
9,
9,
8,
9,
9,
10,
8,
10,
10,
9,
11,
12,
9,
9,
9,
8,
10,
9,
9,
1,
9,
9,
9,
8,
9,
8,
9,
8,
9,
8,
8,
11,
11,
9,
9,
9,
9,
9,
9,
9,
9,
10,
9,
11,
13,
16,
1,
8,
8,
6,
8,
2,
7,
8,
6,
10,
8,
8,
8,
8,
8,
8,
11,
11,
9,
11,
10,
9,
9,
11,
9,
8,
9,
10,
9,
7,
7,
9,
8,
10,
9,
8,
13,
9,
9,
9,
8,
9,
9,
8,
8,
10,
7,
8,
8,
16,
9,
8,
9,
9,
9,
9,
9,
9,
9,
8,
10,
9,
9,
3,
9,
9,
9,
6,
9,
9,
8,
10,
10,
9,
9,
7,
9,
9,
7,
9,
9,
8,
8,
8,
7,
8,
9,
9,
9,
9,
8,
8,
11,
9,
8,
8,
9,
8,
7,
9,
9,
11,
9,
8,
8,
7,
8,
8,
9,
8,
9,
7,
8,
8,
11,
9,
9,
9,
11,
10,
9,
9,
11,
10,
7,
9,
9,
9,
9,
9,
9,
9,
9,
9,
9,
11,
12,
10,
8,
9,
9,
8,
9,
9,
9,
9,
9,
9,
8,
7,
8,
7,
7,
9,
8,
8,
8,
9,
9,
9,
8,
10,
8,
8,
8,
8,
8,
9,
9,
8,
8,
8,
3,
3,
9,
9,
7,
9,
8,
9,
9,
11,
9,
9,
10,
8,
9,
9,
9,
11,
9,
9,
11,
9,
9,
8,
9,
11,
6,
8,
8,
9,
8,
8,
9,
8,
8,
9,
8,
8,
7,
4,
9,
11,
8,
8,
8,
8,
8,
9,
10,
9,
9,
12,
11,
8,
9,
10,
10,
8,
8,
9,
9,
9,
9,
10,
10,
9,
10,
10,
8,
8,
9,
9,
8,
9,
9,
8,
6,
8,
9,
13,
8,
8,
10,
8,
9,
9,
9,
9,
10,
9,
11,
8,
8,
8,
9,
8,
9,
9,
7,
9,
8,
8,
7,
9,
9,
8,
4,
7,
9,
8,
8,
6,
11,
7,
5,
8,
8,
7,
9,
9,
9,
8,
8,
7,
9,
9,
9,
10,
5,
8,
9,
9,
9,
9,
9,
9,
9,
9,
9,
10,
13,
13,
8,
9,
10,
9,
9,
9,
9,
11,
9,
9,
8,
8,
8,
10,
10,
8,
11,
9,
9,
10,
10,
9,
8,
9,
8,
9,
7,
11,
9,
10,
8,
10,
12,
12,
11,
11,
5,
7,
7,
9,
9,
9,
7,
8,
8,
9,
8,
8,
8,
9,
9,
5,
9,
10,
9,
8,
9,
9,
8,
9,
9,
10,
8,
10,
8,
8,
8,
10,
10,
8,
9,
8,
9,
10,
10,
12,
9,
8,
9,
9,
9,
8,
9,
9,
9,
8,
6,
9,
7,
9,
9,
8,
8,
9,
9,
9,
8,
9,
12,
8,
7,
9,
8,
8,
8,
9,
9,
9,
9,
9,
8,
9,
9,
11,
9,
7,
9,
11,
9,
9,
9,
9,
7,
9,
10,
9,
9,
8,
9,
9,
7,
9,
9,
9,
9,
8,
8,
7,
8,
8,
10,
8,
9,
9,
8,
8,
5,
5,
9,
9,
9,
10,
9,
9,
9,
9,
8,
9,
10,
11,
5,
8,
8,
8,
8,
8,
9,
9,
8,
8,
8,
7,
9,
9,
