Datos experimentales/DATOS 26-3-24/ALL0003/A0003CH1.CSV

Memory Length,4000,
Trigger Level,0.000E+00,
Source,CH1,
Vertical Units,V,
Vertical Scale,2.000E-02,
Vertical Position,-1.200E-02,
Horizontal Units,s,
Horizontal Scale,1.000E+00,
Horizontal Position,0.000E+00,
Horizontal Mode,Roll Mode,
Sampling Period,4.000E-03,
Firmware, V1.21,
Waveform Data,
7,
11,
11,
10,
11,
10,
10,
10,
7,
11,
10,
9,
11,
11,
11,
11,
11,
10,
9,
10,
9,
12,
10,
10,
10,
11,
11,
8,
10,
11,
11,
11,
11,
11,
9,
11,
11,
9,
12,
11,
10,
10,
9,
11,
11,
10,
11,
9,
11,
11,
10,
9,
9,
13,
11,
6,
11,
9,
9,
11,
9,
9,
11,
10,
11,
11,
13,
11,
11,
11,
10,
9,
9,
11,
11,
11,
9,
12,
10,
9,
9,
10,
9,
10,
10,
11,
11,
11,
11,
11,
13,
9,
9,
10,
11,
11,
11,
11,
12,
9,
10,
11,
10,
11,
11,
11,
7,
10,
11,
9,
10,
12,
11,
11,
7,
10,
11,
9,
9,
11,
9,
12,
11,
11,
9,
15,
9,
10,
10,
11,
11,
11,
11,
3,
9,
-11,
11,
12,
8,
10,
11,
11,
11,
13,
9,
9,
12,
11,
7,
11,
11,
16,
11,
9,
10,
11,
10,
10,
10,
11,
11,
11,
9,
10,
9,
13,
10,
12,
11,
11,
8,
10,
12,
9,
9,
12,
9,
11,
9,
11,
9,
11,
11,
11,
10,
9,
15,
9,
9,
10,
10,
11,
11,
11,
11,
10,
11,
12,
12,
10,
11,
10,
9,
16,
16,
10,
11,
11,
11,
8,
11,
10,
9,
11,
11,
10,
9,
9,
11,
11,
9,
11,
11,
12,
9,
8,
11,
10,
10,
10,
9,
13,
8,
8,
10,
11,
11,
10,
11,
11,
11,
13,
10,
10,
10,
9,
10,
10,
11,
10,
11,
11,
9,
11,
9,
10,
11,
6,
12,
10,
10,
11,
13,
12,
8,
11,
11,
9,
12,
11,
9,
10,
9,
11,
11,
11,
10,
10,
7,
11,
9,
10,
11,
11,
11,
12,
13,
11,
10,
10,
11,
10,
10,
11,
11,
11,
9,
11,
10,
9,
10,
10,
12,
10,
11,
10,
10,
11,
11,
11,
9,
10,
11,
12,
10,
8,
10,
9,
11,
11,
10,
12,
10,
10,
10,
11,
11,
11,
9,
11,
10,
12,
8,
8,
11,
11,
11,
11,
9,
13,
10,
13,
9,
11,
11,
11,
11,
11,
11,
11,
11,
11,
9,
11,
11,
7,
11,
11,
8,
10,
11,
11,
11,
10,
10,
11,
11,
9,
11,
11,
11,
10,
11,
10,
11,
11,
9,
10,
11,
10,
10,
11,
11,
10,
11,
10,
11,
11,
10,
10,
12,
10,
7,
11,
12,
10,
10,
9,
11,
9,
9,
9,
13,
10,
10,
13,
11,
11,
9,
10,
11,
11,
12,
9,
10,
11,
11,
10,
14,
14,
0,
11,
11,
11,
12,
10,
10,
12,
12,
8,
10,
10,
11,
11,
13,
7,
11,
12,
9,
9,
11,
9,
8,
11,
11,
10,
10,
10,
11,
10,
9,
10,
12,
8,
11,
11,
9,
11,
10,
9,
9,
10,
10,
7,
9,
10,
11,
9,
10,
11,
11,
9,
9,
11,
11,
11,
10,
11,
10,
11,
11,
11,
9,
11,
9,
13,
11,
11,
9,
11,
7,
10,
10,
10,
11,
10,
11,
10,
13,
11,
11,
11,
13,
10,
10,
8,
8,
10,
9,
10,
10,
10,
9,
14,
9,
11,
9,
8,
12,
11,
11,
9,
10,
10,
10,
9,
11,
12,
11,
11,
11,
11,
12,
12,
12,
10,
10,
10,
10,
9,
11,
11,
10,
13,
10,
9,
9,
11,
11,
10,
10,
10,
12,
11,
9,
10,
12,
11,
11,
8,
10,
10,
10,
5,
9,
10,
10,
16,
9,
10,
11,
9,
11,
11,
10,
10,
10,
11,
10,
11,
8,
10,
10,
9,
9,
13,
11,
11,
9,
9,
11,
4,
10,
11,
9,
11,
10,
11,
11,
10,
10,
9,
10,
10,
9,
9,
9,
10,
10,
10,
8,
11,
10,
8,
10,
11,
11,
9,
11,
11,
12,
9,
10,
11,
8,
11,
10,
11,
11,
11,
10,
12,
10,
10,
11,
10,
8,
11,
12,
10,
10,
9,
11,
11,
16,
10,
10,
10,
10,
10,
11,
11,
11,
11,
10,
8,
12,
8,
11,
10,
11,
11,
10,
9,
10,
12,
11,
10,
9,
11,
12,
10,
11,
9,
10,
10,
10,
10,
11,
12,
11,
11,
9,
11,
10,
12,
11,
11,
11,
9,
11,
10,
10,
10,
10,
11,
12,
7,
10,
11,
8,
10,
10,
9,
9,
11,
11,
11,
11,
10,
11,
12,
11,
0,
11,
11,
11,
11,
10,
10,
11,
10,
10,
11,
9,
11,
11,
11,
9,
10,
11,
11,
12,
10,
11,
11,
11,
11,
10,
12,
12,
11,
11,
9,
10,
11,
6,
11,
11,
10,
8,
9,
11,
10,
11,
10,
16,
11,
11,
11,
10,
11,
11,
12,
11,
10,
13,
11,
10,
10,
9,
10,
9,
11,
11,
11,
11,
12,
11,
13,
11,
11,
7,
9,
12,
9,
11,
9,
11,
12,
12,
11,
11,
10,
10,
9,
11,
10,
11,
11,
11,
9,
11,
9,
10,
11,
11,
11,
11,
10,
10,
13,
11,
10,
11,
10,
11,
11,
10,
11,
11,
11,
13,
8,
10,
11,
10,
8,
10,
11,
12,
9,
8,
9,
12,
12,
10,
11,
10,
11,
11,
12,
11,
19,
11,
9,
10,
11,
11,
11,
10,
3,
11,
10,
8,
9,
15,
11,
10,
10,
11,
11,
9,
8,
8,
11,
12,
9,
10,
10,
10,
11,
10,
9,
9,
11,
10,
12,
12,
11,
13,
9,
11,
11,
11,
10,
11,
11,
13,
9,
9,
11,
11,
10,
10,
11,
8,
10,
11,
9,
13,
11,
12,
10,
11,
11,
11,
9,
9,
12,
12,
9,
11,
11,
10,
11,
12,
10,
10,
10,
10,
10,
10,
8,
11,
11,
11,
10,
10,
11,
11,
12,
9,
7,
11,
12,
9,
9,
11,
16,
10,
10,
11,
11,
11,
10,
11,
11,
10,
11,
11,
11,
12,
11,
12,
9,
11,
10,
10,
9,
11,
11,
11,
10,
10,
9,
9,
11,
10,
11,
10,
10,
10,
7,
11,
11,
11,
12,
12,
10,
10,
17,
12,
11,
9,
10,
9,
23,
9,
3,
11,
9,
13,
10,
10,
10,
11,
11,
11,
7,
11,
11,
8,
11,
10,
10,
10,
11,
8,
8,
10,
10,
9,
9,
10,
12,
11,
10,
12,
10,
11,
11,
11,
11,
11,
11,
12,
8,
11,
11,
11,
9,
10,
11,
10,
11,
11,
11,
10,
9,
11,
9,
13,
11,
11,
11,
10,
13,
11,
6,
9,
9,
11,
9,
11,
9,
9,
11,
3,
11,
11,
10,
11,
13,
11,
11,
11,
11,
10,
12,
11,
11,
12,
10,
11,
9,
10,
8,
11,
11,
11,
9,
13,
11,
11,
10,
11,
9,
10,
11,
10,
11,
11,
6,
11,
11,
11,
10,
11,
10,
11,
10,
10,
11,
13,
10,
11,
10,
11,
10,
10,
15,
11,
11,
11,
5,
10,
9,
10,
13,
12,
10,
10,
11,
11,
11,
10,
11,
11,
10,
11,
8,
11,
10,
11,
12,
9,
10,
10,
9,
11,
11,
11,
9,
11,
11,
9,
10,
12,
10,
10,
11,
11,
7,
8,
10,
12,
9,
11,
11,
11,
10,
12,
9,
12,
11,
11,
11,
11,
10,
13,
10,
9,
10,
12,
8,
11,
12,
10,
10,
10,
11,
10,
11,
10,
8,
12,
11,
10,
11,
11,
11,
10,
10,
10,
11,
13,
9,
11,
11,
10,
10,
12,
5,
14,
11,
11,
11,
11,
11,
10,
11,
8,
12,
9,
8,
11,
9,
11,
11,
9,
10,
10,
9,
11,
11,
10,
11,
10,
10,
10,
9,
9,
11,
10,
11,
11,
10,
10,
11,
9,
9,
10,
10,
11,
11,
11,
8,
10,
11,
11,
11,
9,
10,
11,
12,
9,
11,
10,
10,
11,
9,
11,
11,
8,
8,
11,
11,
9,
9,
9,
8,
15,
13,
21,
11,
13,
11,
9,
9,
13,
8,
11,
11,
13,
11,
10,
12,
11,
7,
9,
11,
11,
11,
9,
10,
10,
8,
11,
11,
10,
11,
12,
11,
11,
10,
13,
9,
11,
11,
12,
10,
10,
10,
11,
10,
11,
10,
8,
11,
12,
9,
11,
14,
14,
10,
9,
11,
9,
11,
9,
11,
12,
11,
13,
10,
11,
9,
9,
11,
11,
10,
10,
10,
11,
9,
10,
9,
11,
11,
8,
8,
10,
10,
10,
9,
8,
8,
9,
11,
11,
11,
11,
9,
11,
11,
15,
10,
11,
9,
9,
11,
11,
10,
11,
11,
11,
10,
11,
11,
10,
11,
10,
11,
9,
8,
10,
12,
8,
13,
11,
10,
11,
10,
10,
8,
11,
11,
11,
11,
9,
9,
9,
9,
10,
10,
10,
11,
11,
10,
11,
2,
11,
11,
10,
10,
11,
11,
11,
13,
10,
9,
9,
9,
11,
12,
11,
8,
11,
10,
10,
10,
11,
12,
10,
11,
11,
9,
11,
11,
10,
10,
10,
11,
10,
10,
11,
10,
11,
14,
9,
9,
11,
12,
10,
10,
9,
11,
10,
7,
10,
11,
11,
10,
14,
14,
11,
7,
10,
11,
9,
11,
10,
11,
10,
9,
9,
10,
10,
11,
11,
11,
11,
4,
9,
11,
9,
12,
12,
10,
11,
9,
9,
11,
10,
9,
11,
10,
15,
10,
12,
10,
13,
11,
12,
12,
10,
11,
9,
9,
9,
10,
9,
9,
11,
11,
10,
9,
11,
11,
8,
10,
11,
10,
10,
11,
7,
12,
9,
11,
10,
9,
11,
12,
11,
9,
11,
11,
9,
11,
10,
10,
12,
11,
12,
11,
11,
11,
11,
11,
11,
11,
14,
7,
11,
10,
21,
8,
11,
9,
9,
11,
11,
12,
10,
10,
11,
11,
13,
11,
11,
11,
10,
9,
8,
11,
13,
10,
9,
8,
8,
12,
10,
10,
11,
10,
11,
9,
11,
12,
11,
9,
11,
10,
10,
9,
12,
12,
11,
10,
11,
10,
11,
11,
10,
9,
10,
9,
10,
11,
11,
8,
12,
9,
11,
11,
10,
11,
10,
11,
11,
8,
10,
11,
11,
11,
11,
9,
10,
10,
10,
10,
9,
10,
12,
11,
11,
11,
10,
12,
8,
11,
11,
10,
11,
12,
11,
12,
12,
12,
13,
11,
17,
17,
14,
16,
17,
16,
17,
19,
19,
17,
23,
21,
24,
24,
24,
23,
24,
25,
24,
26,
25,
28,
27,
29,
28,
27,
30,
30,
30,
29,
32,
34,
33,
31,
32,
34,
36,
33,
37,
37,
39,
37,
39,
40,
40,
43,
42,
43,
44,
39,
46,
47,
48,
48,
45,
52,
52,
50,
55,
55,
54,
55,
55,
56,
57,
59,
59,
60,
59,
59,
62,
63,
67,
67,
65,
66,
68,
65,
70,
66,
71,
113,
71,
72,
72,
74,
74,
74,
73,
75,
75,
75,
77,
77,
77,
75,
77,
79,
78,
76,
76,
77,
80,
78,
77,
78,
79,
77,
76,
79,
79,
78,
77,
80,
80,
80,
76,
80,
80,
78,
79,
79,
76,
80,
77,
78,
121,
79,
80,
80,
78,
79,
80,
78,
78,
75,
78,
80,
82,
84,
79,
79,
79,
78,
80,
77,
77,
83,
77,
76,
76,
76,
74,
75,
72,
76,
75,
75,
75,
74,
73,
76,
75,
69,
73,
73,
74,
71,
73,
72,
72,
71,
71,
71,
73,
68,
71,
72,
72,
72,
70,
71,
71,
71,
71,
71,
68,
71,
68,
69,
68,
68,
69,
68,
67,
67,
67,
67,
63,
63,
63,
65,
65,
63,
65,
65,
64,
66,
63,
63,
65,
65,
65,
65,
63,
66,
63,
66,
61,
64,
64,
63,
62,
63,
63,
60,
60,
57,
61,
64,
61,
62,
61,
61,
61,
61,
61,
61,
61,
62,
57,
57,
61,
60,
61,
61,
59,
59,
59,
59,
64,
58,
59,
59,
57,
57,
57,
58,
59,
58,
57,
57,
57,
60,
57,
57,
59,
59,
56,
57,
57,
57,
58,
51,
59,
88,
56,
54,
56,
57,
56,
56,
56,
56,
55,
55,
56,
56,
51,
53,
53,
54,
53,
53,
54,
53,
54,
54,
52,
53,
53,
53,
50,
53,
52,
53,
54,
53,
53,
54,
52,
52,
54,
52,
53,
52,
53,
52,
53,
51,
52,
52,
49,
51,
51,
50,
50,
49,
51,
51,
49,
49,
50,
51,
49,
49,
49,
48,
49,
48,
48,
46,
48,
48,
49,
49,
47,
46,
49,
44,
48,
48,
49,
47,
47,
47,
48,
46,
47,
47,
48,
46,
47,
46,
46,
46,
47,
46,
46,
46,
44,
47,
45,
47,
45,
43,
43,
45,
45,
45,
42,
44,
44,
45,
48,
45,
45,
45,
43,
44,
44,
44,
49,
43,
43,
43,
43,
44,
45,
43,
44,
44,
45,
43,
43,
44,
42,
43,
41,
42,
42,
41,
41,
41,
41,
41,
40,
40,
40,
40,
41,
44,
42,
40,
40,
42,
40,
41,
41,
41,
40,
40,
39,
41,
38,
41,
41,
41,
39,
39,
41,
40,
40,
47,
39,
41,
41,
40,
41,
40,
40,
44,
41,
41,
39,
40,
39,
40,
39,
34,
39,
40,
35,
39,
39,
38,
39,
39,
37,
41,
37,
38,
37,
36,
37,
36,
39,
35,
37,
36,
36,
35,
39,
36,
36,
36,
42,
40,
76,
33,
35,
38,
35,
29,
29,
35,
36,
36,
35,
36,
37,
37,
41,
35,
36,
36,
36,
35,
35,
35,
32,
36,
36,
36,
34,
33,
36,
33,
33,
34,
34,
34,
30,
30,
33,
34,
39,
33,
33,
33,
31,
37,
33,
32,
29,
33,
32,
32,
33,
31,
31,
32,
25,
31,
32,
32,
32,
31,
32,
32,
31,
31,
34,
31,
32,
32,
32,
31,
35,
32,
33,
31,
31,
31,
32,
32,
29,
31,
31,
31,
33,
32,
32,
32,
32,
31,
32,
32,
31,
32,
32,
33,
29,
31,
31,
32,
29,
31,
30,
31,
32,
30,
31,
31,
31,
30,
33,
29,
32,
32,
29,
29,
33,
29,
32,
30,
31,
31,
25,
29,
29,
30,
29,
29,
31,
30,
29,
31,
31,
28,
30,
30,
27,
29,
30,
29,
31,
28,
31,
29,
23,
29,
29,
27,
29,
29,
29,
29,
28,
29,
30,
27,
29,
30,
30,
31,
29,
29,
29,
29,
29,
28,
30,
28,
28,
29,
28,
31,
28,
28,
29,
28,
26,
27,
27,
28,
29,
28,
29,
27,
27,
26,
27,
26,
27,
27,
28,
25,
25,
27,
27,
29,
26,
25,
26,
26,
25,
25,
27,
26,
27,
26,
26,
26,
25,
26,
25,
27,
25,
25,
21,
23,
25,
25,
26,
25,
25,
25,
25,
25,
25,
25,
30,
24,
26,
25,
37,
26,
25,
24,
24,
27,
24,
24,
20,
24,
25,
23,
27,
24,
24,
25,
29,
26,
25,
25,
24,
24,
25,
25,
21,
25,
25,
25,
24,
23,
25,
24,
24,
24,
24,
25,
25,
24,
25,
25,
24,
24,
24,
24,
27,
24,
24,
23,
23,
23,
25,
23,
23,
23,
23,
24,
20,
24,
23,
23,
23,
23,
23,
23,
24,
23,
23,
17,
24,
24,
22,
21,
23,
22,
24,
24,
21,
20,
16,
21,
21,
23,
21,
23,
20,
21,
21,
21,
19,
19,
20,
24,
21,
21,
23,
20,
21,
20,
21,
20,
16,
20,
20,
19,
19,
21,
21,
20,
20,
20,
22,
20,
19,
20,
20,
21,
20,
20,
21,
20,
20,
19,
20,
19,
20,
19,
20,
23,
20,
21,
20,
19,
19,
20,
23,
19,
20,
19,
21,
20,
20,
19,
23,
20,
18,
18,
19,
19,
19,
19,
22,
19,
19,
19,
17,
19,
19,
19,
19,
19,
19,
19,
19,
19,
20,
19,
17,
18,
19,
19,
19,
19,
20,
20,
17,
19,
21,
19,
19,
18,
20,
19,
18,
19,
19,
19,
18,
20,
20,
18,
17,
18,
19,
19,
19,
17,
18,
19,
15,
19,
14,
14,
21,
17,
17,
17,
17,
19,
20,
17,
17,
18,
16,
18,
17,
16,
16,
21,
20,
12,
17,
17,
17,
16,
17,
17,
18,
17,
16,
19,
19,
17,
17,
17,
17,
19,
15,
17,
15,
17,
16,
19,
18,
18,
17,
17,
16,
17,
16,
13,
17,
16,
16,
16,
17,
16,
17,
14,
14,
16,
15,
18,
16,
15,
15,
15,
15,
15,
15,
13,
16,
16,
16,
15,
15,
15,
16,
16,
15,
16,
15,
14,
16,
15,
16,
16,
14,
14,
15,
15,
16,
14,
15,
15,
15,
17,
14,
13,
14,
14,
15,
14,
15,
13,
16,
17,
14,
19,
13,
14,
13,
15,
14,
15,
15,
11,
11,
13,
13,
14,
14,
13,
15,
13,
13,
14,
13,
15,
13,
15,
15,
15,
14,
13,
13,
15,
13,
14,
13,
15,
10,
15,
14,
13,
13,
13,
17,
13,
13,
13,
13,
12,
13,
15,
18,
12,
12,
13,
13,
14,
13,
13,
13,
13,
14,
14,
13,
16,
14,
13,
13,
13,
13,
13,
14,
8,
13,
12,
13,
13,
13,
13,
13,
15,
14,
13,
15,
15,
14,
15,
12,
8,
13,
14,
13,
13,
13,
13,
12,
10,
15,
15,
12,
13,
13,
13,
12,
10,
13,
12,
13,
13,
9,
14,
14,
15,
13,
12,
14,
14,
14,
15,
13,
15,
13,
13,
13,
13,
12,
14,
15,
15,
14,
15,
12,
13,
12,
13,
12,
11,
12,
12,
7,
14,
12,
12,
12,
12,
12,
15,
16,
13,
13,
13,
13,
14,
12,
13,
18,
12,
12,
13,
13,
13,
13,
13,
12,
13,
12,
12,
12,
13,
13,
13,
10,
12,
13,
13,
11,
13,
15,
14,
13,
12,
14,
14,
3,
3,
13,
16,
15,
13,
13,
14,
14,
11,
8,
12,
13,
13,
6,
6,
13,
14,
13,
12,
13,
13,
13,
8,
12,
17,
13,
12,
14,
12,
12,
21,
13,
13,
15,
12,
15,
13,
9,
9,
12,
14,
13,
13,
13,
13,
14,
13,
13,
13,
13,
12,
13,
13,
13,
12,
13,
13,
13,
12,
13,
12,
13,
13,
12,
13,
15,
14,
12,
12,
12,
13,
13,
12,
19,
12,
13,
13,
13,
12,
13,
13,
13,
13,
11,
11,
13,
13,
12,
13,
12,
13,
13,
12,
11,
12,
12,
13,
16,
12,
13,
13,
13,
13,
12,
12,
16,
15,
14,
13,
13,
12,
11,
13,
12,
12,
12,
13,
11,
12,
13,
13,
13,
13,
12,
13,
12,
12,
12,
13,
12,
12,
14,
18,
13,
13,
13,
12,
12,
12,
12,
17,
12,
13,
12,
12,
12,
12,
13,
15,
13,
11,
13,
13,
13,
13,
11,
12,
11,
12,
12,
11,
11,
8,
13,
12,
12,
11,
8,
12,
13,
12,
16,
16,
12,
11,
7,
12,
12,
12,
12,
12,
12,
13,
13,
12,
13,
13,
11,
13,
12,
11,
12,
11,
13,
15,
13,
12,
13,
13,
12,
12,
12,
12,
12,
11,
8,
11,
13,
11,
11,
8,
11,
11,
11,
11,
10,
16,
12,
12,
11,
11,
13,
12,
12,
11,
12,
14,
12,
12,
11,
11,
11,
11,
12,
8,
11,
10,
9,
13,
10,
11,
10,
12,
12,
10,
12,
11,
11,
11,
8,
12,
11,
12,
11,
12,
11,
12,
12,
12,
13,
11,
11,
11,
12,
13,
10,
13,
13,
12,
11,
11,
13,
11,
11,
12,
11,
12,
11,
11,
11,
11,
12,
12,
11,
11,
11,
11,
11,
11,
11,
10,
1,
11,
12,
11,
11,
12,
11,
12,
12,
10,
13,
11,
11,
11,
11,
11,
12,
10,
14,
11,
11,
11,
11,
12,
11,
12,
10,
11,
11,
11,
11,
10,
11,
9,
8,
11,
11,
11,
11,
9,
15,
10,
12,
11,
9,
11,
11,
11,
11,
12,
11,
9,
9,
11,
11,
11,
2,
11,
11,
10,
10,
11,
11,
10,
7,
10,
11,
11,
11,
9,
11,
10,
11,
11,
11,
11,
12,
11,
11,
11,
11,
11,
12,
12,
12,
12,
12,
11,
11,
12,
11,
11,
12,
11,
11,
11,
11,
12,
11,
8,
13,
10,
11,
10,
10,
12,
10,
11,
11,
11,
11,
12,
10,
12,
12,
12,
12,
12,
11,
12,
12,
11,
10,
10,
12,
9,
10,
11,
12,
17,
11,
9,
11,
11,
11,
11,
11,
11,
11,
9,
11,
11,
10,
11,
11,
11,
9,
13,
11,
4,
11,
9,
9,
9,
12,
12,
10,
9,
15,
11,
10,
12,
11,
12,
13,
15,
15,
12,
11,
11,
10,
9,
11,
11,
13,
9,
13,
11,
10,
11,
11,
11,
12,
11,
9,
11,
11,
9,
7,
11,
9,
10,
10,
11,
10,
10,
9,
10,
9,
10,
10,
11,
10,
11,
8,
10,
10,
10,
11,
11,
10,
10,
10,
11,
8,
11,
11,
9,
10,
9,
9,
10,
9,
9,
9,
13,
9,
9,
9,
9,
9,
9,
11,
11,
11,
9,
9,
10,
11,
10,
11,
7,
9,
10,
10,
9,
11,
9,
9,
9,
9,
9,
10,
10,
9,
12,
9,
11,
13,
11,
9,
11,
11,
11,
9,
11,
11,
4,
4,
9,
10,
10,
10,
9,
8,
10,
13,
10,
12,
9,
9,
9,
11,
9,
9,
14,
11,
9,
10,
11,
9,
10,
9,
9,
11,
11,
8,
10,
9,
10,
11,
9,
9,
9,
11,
9,
11,
10,
11,
11,
11,
15,
11,
12,
11,
9,
11,
12,
11,
12,
10,
12,
9,
11,
11,
11,
10,
13,
11,
10,
10,
11,
9,
10,
10,
13,
9,
9,
4,
11,
10,
7,
9,
7,
11,
4,
13,
10,
11,
9,
10,
10,
10,
10,
13,
11,
9,
8,
10,
11,
11,
8,
8,
10,
10,
9,
11,
9,
9,
10,
11,
11,
10,
12,
11,
10,
10,
8,
11,
9,
10,
9,
11,
11,
11,
9,
7,
11,
9,
12,
9,
9,
11,
9,
11,
10,
10,
10,
11,
8,
9,
10,
9,
11,
8,
9,
10,
10,
9,
11,
9,
9,
11,
11,
9,
10,
11,
11,
9,
12,
9,
13,
10,
8,
8,
8,
13,
9,
10,
8,
10,
11,
9,
10,
9,
11,
10,
11,
11,
11,
12,
10,
10,
11,
10,
12,
11,
10,
14,
10,
10,
11,
12,
12,
11,
11,
9,
9,
12,
8,
11,
9,
10,
11,
11,
11,
10,
11,
11,
10,
8,
10,
11,
11,
11,
12,
10,
11,
10,
10,
8,
8,
10,
19,
9,
12,
11,
10,
9,
9,
11,
11,
10,
10,
10,
10,
9,
12,
10,
9,
9,
10,
11,
9,
9,
11,
11,
10,
10,
10,
10,
9,
9,
11,
10,
11,
10,
9,
16,
8,
11,
8,
9,
9,
9,
11,
13,
11,
11,
11,
12,
9,
10,
9,
11,
10,
9,
8,
8,
11,
10,
4,
9,
11,
11,
11,
10,
9,
16,
10,
11,
11,
9,
11,
10,
10,
10,
11,
12,
11,
10,
9,
9,
9,
9,
9,
11,
14,
14,
7,
11,
12,
11,
11,
11,
12,
11,
15,
12,
12,
9,
10,
9,
9,
11,
14,
12,
12,
10,
11,
14,
12,
12,
10,
11,
9,
12,
12,
9,
11,
12,
13,
11,
10,
7,
12,
7,
10,
11,
9,
10,
10,
15,
11,
11,
9,
9,
12,
11,
9,
9,
9,
11,
11,
11,
11,
10,
11,
10,
11,
10,
9,
11,
9,
9,
9,
10,
11,
11,
4,
9,
11,
9,
10,
13,
10,
9,
10,
10,
11,
11,
9,
10,
10,
11,
14,
10,
11,
8,
11,
12,
10,
9,
9,
9,
10,
9,
11,
11,
10,
10,
10,
9,
9,
10,
10,
9,
12,
9,
9,
9,
9,
9,
10,
9,
11,
12,
12,
9,
9,
13,
9,
11,
10,
9,
9,
9,
9,
9,
11,
9,
10,
9,
7,
9,
10,
10,
10,
9,
11,
11,
11,
16,
11,
9,
11,
10,
11,
11,
10,
9,
10,
10,
10,
9,
14,
10,
10,
9,
10,
12,
10,
11,
10,
12,
9,
11,
11,
12,
9,
11,
11,
11,
11,
10,
9,
11,
10,
10,
12,
11,
11,
8,
10,
11,
10,
11,
10,
10,
11,
10,
9,
11,
10,
11,
9,
9,
8,
8,
9,
11,
9,
10,
11,
9,
10,
9,
10,
11,
11,
11,
9,
9,
11,
11,
9,
9,
9,
10,
13,
11,
9,
11,
9,
12,
10,
10,
9,
10,
9,
6,
10,
10,
11,
9,
9,
8,
9,
11,
10,
10,
11,
9,
11,
7,
11,
11,
11,
11,
11,
11,
11,
11,
11,
10,
11,
11,
11,
11,
11,
7,
11,
9,
12,
11,
11,
11,
12,
12,
10,
9,
11,
10,
11,
11,
11,
7,
10,
12,
13,
8,
9,
13,
15,
