Datos experimentales/DATOS 26-3-24/ALL0028/A0028CH2.CSV

Memory Length,4000,
Trigger Level,0.000E+00,
Source,CH2,
Vertical Units,V,
Vertical Scale,1.000E+00,
Vertical Position,-2.000E+00,
Horizontal Units,s,
Horizontal Scale,1.000E+00,
Horizontal Position,0.000E+00,
Horizontal Mode,Roll Mode,
Waveform Last Dot Address,3710,
Sampling Period,4.000E-03,
Firmware, V1.21,
Waveform Data,
2,
2,
1,
1,
1,
1,
1,
0,
1,
1,
0,
1,
1,
1,
1,
1,
1,
1,
1,
1,
1,
1,
1,
1,
1,
2,
1,
1,
1,
0,
1,
1,
2,
0,
1,
1,
1,
0,
0,
2,
2,
0,
1,
1,
1,
1,
1,
1,
1,
1,
0,
0,
1,
2,
0,
1,
1,
1,
0,
2,
1,
1,
1,
1,
1,
1,
1,
1,
1,
1,
1,
1,
0,
1,
1,
1,
1,
2,
0,
2,
1,
1,
1,
1,
2,
0,
1,
1,
2,
0,
1,
1,
2,
1,
2,
1,
1,
0,
0,
2,
0,
1,
0,
0,
1,
1,
0,
0,
1,
1,
0,
1,
1,
1,
0,
0,
1,
2,
1,
1,
1,
1,
1,
1,
0,
0,
1,
1,
0,
1,
1,
0,
0,
1,
1,
0,
1,
1,
2,
1,
0,
2,
2,
0,
1,
1,
1,
1,
2,
1,
1,
1,
2,
1,
1,
1,
1,
0,
1,
1,
1,
1,
1,
1,
1,
0,
1,
1,
1,
0,
0,
0,
2,
1,
1,
0,
0,
1,
1,
0,
1,
2,
2,
1,
0,
2,
2,
0,
0,
1,
1,
1,
1,
1,
2,
1,
1,
1,
1,
1,
0,
1,
2,
1,
1,
1,
2,
0,
1,
1,
0,
0,
1,
1,
1,
0,
1,
1,
1,
2,
1,
2,
0,
1,
2,
1,
0,
2,
2,
1,
1,
1,
2,
1,
0,
1,
1,
1,
0,
2,
1,
1,
1,
0,
0,
0,
1,
1,
1,
0,
1,
1,
2,
1,
0,
0,
2,
2,
0,
1,
1,
2,
1,
0,
1,
1,
1,
0,
1,
0,
0,
0,
0,
2,
1,
0,
0,
1,
2,
1,
1,
1,
1,
1,
1,
1,
0,
1,
1,
1,
2,
2,
0,
1,
2,
1,
1,
0,
0,
1,
2,
1,
2,
0,
1,
1,
0,
2,
2,
-1,
0,
2,
2,
2,
1,
2,
0,
1,
1,
0,
0,
1,
1,
1,
0,
0,
1,
1,
1,
2,
1,
2,
0,
0,
1,
1,
1,
1,
1,
1,
1,
1,
1,
1,
2,
0,
1,
1,
1,
1,
1,
1,
0,
2,
1,
2,
1,
1,
1,
1,
1,
1,
1,
0,
0,
1,
0,
1,
1,
1,
0,
1,
1,
0,
1,
1,
1,
1,
2,
1,
1,
1,
0,
2,
1,
0,
0,
1,
0,
1,
2,
0,
1,
1,
1,
1,
2,
0,
1,
2,
0,
0,
2,
1,
1,
0,
0,
2,
0,
1,
1,
1,
1,
1,
0,
1,
2,
2,
0,
0,
2,
1,
1,
2,
1,
2,
1,
1,
1,
0,
0,
1,
1,
0,
2,
1,
0,
1,
1,
1,
1,
1,
1,
2,
1,
1,
1,
1,
1,
2,
1,
1,
1,
1,
1,
1,
0,
2,
2,
0,
1,
0,
0,
2,
1,
1,
1,
1,
2,
1,
0,
0,
1,
1,
2,
2,
1,
1,
0,
1,
1,
1,
1,
1,
1,
1,
2,
1,
0,
1,
1,
2,
2,
1,
1,
1,
0,
1,
2,
2,
2,
1,
1,
2,
0,
0,
1,
0,
1,
2,
0,
0,
1,
1,
2,
2,
1,
1,
1,
2,
2,
1,
1,
1,
0,
2,
2,
1,
0,
0,
1,
1,
1,
1,
1,
0,
1,
1,
1,
1,
2,
1,
1,
1,
1,
1,
1,
1,
1,
1,
1,
0,
0,
1,
2,
0,
1,
0,
1,
1,
2,
0,
1,
1,
2,
2,
1,
1,
1,
1,
1,
1,
1,
1,
1,
1,
1,
1,
1,
1,
1,
1,
1,
1,
1,
1,
1,
1,
1,
0,
2,
2,
0,
1,
2,
0,
1,
0,
0,
1,
0,
2,
1,
1,
1,
0,
1,
1,
2,
1,
1,
2,
2,
1,
0,
1,
-1,
2,
0,
1,
1,
2,
1,
1,
1,
1,
1,
2,
2,
0,
1,
1,
1,
1,
1,
1,
1,
1,
0,
1,
1,
0,
2,
1,
1,
0,
0,
1,
1,
1,
1,
2,
1,
1,
2,
1,
0,
1,
0,
2,
2,
0,
1,
1,
1,
2,
2,
1,
1,
1,
1,
1,
1,
1,
0,
1,
1,
2,
0,
0,
1,
1,
2,
1,
0,
0,
0,
0,
1,
2,
1,
1,
1,
0,
1,
1,
1,
1,
0,
0,
1,
0,
1,
2,
2,
2,
0,
1,
1,
1,
1,
0,
1,
2,
0,
0,
1,
1,
2,
1,
1,
1,
1,
1,
2,
1,
1,
2,
2,
0,
0,
1,
1,
0,
1,
1,
1,
1,
0,
1,
0,
0,
1,
1,
1,
1,
1,
1,
1,
1,
1,
0,
2,
0,
0,
0,
1,
1,
2,
1,
1,
1,
0,
1,
1,
1,
1,
2,
2,
0,
0,
1,
2,
0,
1,
0,
0,
1,
1,
1,
1,
1,
1,
1,
1,
1,
1,
2,
0,
0,
1,
2,
1,
1,
1,
1,
2,
2,
0,
1,
1,
1,
1,
0,
1,
1,
2,
2,
1,
1,
2,
0,
0,
0,
2,
1,
2,
0,
1,
1,
1,
1,
2,
2,
1,
2,
2,
2,
0,
0,
1,
2,
2,
2,
1,
1,
1,
0,
0,
1,
1,
0,
1,
0,
1,
1,
1,
1,
1,
1,
1,
0,
0,
1,
1,
1,
2,
1,
1,
1,
1,
1,
1,
1,
0,
0,
2,
1,
2,
0,
1,
1,
1,
2,
0,
2,
2,
2,
1,
0,
0,
1,
2,
1,
1,
1,
0,
1,
1,
1,
0,
1,
1,
1,
2,
1,
0,
1,
2,
0,
0,
1,
1,
0,
1,
2,
1,
1,
2,
2,
0,
1,
1,
2,
1,
1,
1,
0,
2,
1,
1,
0,
1,
1,
1,
2,
1,
1,
1,
1,
2,
0,
0,
2,
2,
0,
1,
0,
0,
2,
2,
0,
0,
2,
1,
1,
1,
1,
1,
1,
2,
2,
2,
0,
1,
1,
0,
1,
1,
2,
1,
0,
1,
2,
1,
0,
0,
1,
1,
1,
1,
1,
0,
1,
1,
0,
1,
2,
2,
0,
0,
1,
1,
2,
1,
2,
1,
2,
1,
1,
1,
0,
0,
1,
1,
1,
1,
2,
0,
0,
1,
0,
2,
1,
1,
2,
1,
1,
1,
0,
1,
1,
2,
1,
1,
1,
2,
0,
1,
1,
2,
0,
0,
2,
2,
0,
0,
2,
1,
0,
1,
0,
2,
1,
1,
1,
2,
2,
1,
1,
1,
1,
1,
0,
1,
2,
0,
1,
0,
0,
0,
1,
1,
2,
1,
1,
1,
1,
1,
1,
2,
1,
1,
0,
1,
1,
0,
1,
1,
1,
1,
1,
2,
1,
1,
1,
0,
0,
1,
1,
1,
1,
1,
1,
1,
1,
1,
2,
2,
2,
2,
1,
1,
2,
1,
0,
1,
2,
1,
0,
1,
1,
1,
0,
1,
1,
1,
0,
1,
1,
1,
1,
1,
0,
1,
1,
0,
1,
2,
0,
0,
1,
0,
1,
1,
1,
0,
2,
1,
1,
0,
1,
2,
1,
1,
0,
2,
1,
1,
1,
1,
2,
2,
1,
1,
0,
2,
2,
1,
2,
1,
2,
0,
1,
1,
1,
1,
1,
1,
1,
1,
1,
1,
2,
1,
1,
0,
2,
0,
0,
0,
1,
1,
1,
1,
1,
2,
1,
1,
2,
1,
0,
2,
2,
1,
1,
1,
0,
1,
1,
1,
0,
2,
2,
1,
0,
0,
2,
2,
2,
1,
1,
1,
2,
1,
0,
2,
1,
2,
2,
0,
1,
1,
1,
1,
0,
2,
1,
0,
1,
2,
1,
1,
1,
1,
0,
0,
2,
0,
0,
2,
2,
0,
2,
1,
1,
0,
0,
0,
1,
1,
1,
1,
1,
-1,
1,
1,
2,
0,
2,
2,
1,
1,
1,
1,
1,
0,
2,
1,
0,
1,
1,
1,
1,
1,
2,
0,
0,
1,
0,
0,
1,
2,
1,
2,
19,
20,
20,
20,
20,
19,
19,
19,
19,
20,
20,
18,
20,
20,
19,
19,
18,
20,
19,
19,
19,
20,
20,
18,
18,
20,
20,
18,
18,
20,
20,
20,
20,
20,
19,
20,
19,
20,
19,
20,
20,
20,
20,
19,
20,
20,
20,
19,
20,
19,
20,
19,
20,
20,
20,
20,
20,
19,
19,
19,
20,
19,
20,
20,
20,
20,
20,
19,
20,
18,
18,
19,
20,
20,
20,
20,
20,
20,
20,
19,
19,
20,
19,
19,
20,
18,
19,
19,
20,
19,
19,
20,
20,
20,
19,
19,
19,
20,
19,
19,
19,
20,
20,
20,
18,
18,
20,
19,
18,
18,
20,
20,
19,
20,
19,
19,
19,
20,
18,
19,
20,
20,
20,
20,
18,
19,
19,
19,
18,
19,
20,
20,
20,
20,
18,
20,
20,
19,
19,
20,
20,
19,
20,
19,
18,
20,
20,
19,
18,
14,
14,
14,
14,
14,
14,
14,
14,
14,
14,
15,
14,
14,
15,
15,
14,
14,
14,
15,
15,
15,
14,
14,
15,
15,
14,
14,
15,
15,
14,
14,
14,
14,
14,
15,
14,
14,
15,
15,
14,
15,
14,
14,
14,
14,
14,
15,
15,
14,
14,
15,
14,
14,
14,
14,
14,
14,
15,
14,
14,
14,
14,
14,
14,
14,
14,
14,
14,
15,
15,
14,
14,
14,
14,
14,
14,
14,
14,
14,
14,
14,
15,
15,
14,
14,
14,
15,
15,
14,
14,
14,
14,
14,
14,
15,
15,
14,
14,
14,
14,
14,
15,
14,
14,
14,
14,
14,
14,
14,
14,
14,
14,
14,
14,
15,
14,
14,
15,
14,
14,
15,
15,
14,
14,
14,
14,
14,
14,
10,
10,
10,
10,
10,
10,
9,
10,
9,
9,
10,
8,
9,
10,
9,
10,
10,
10,
9,
10,
10,
9,
9,
10,
9,
10,
10,
9,
9,
10,
9,
9,
10,
10,
10,
10,
10,
10,
10,
10,
10,
9,
10,
10,
9,
9,
9,
9,
10,
10,
9,
9,
9,
9,
10,
10,
9,
9,
10,
10,
9,
10,
9,
9,
9,
9,
9,
9,
9,
10,
10,
9,
10,
9,
9,
9,
9,
10,
11,
10,
10,
10,
9,
9,
9,
9,
10,
9,
9,
10,
10,
9,
9,
10,
9,
10,
10,
9,
10,
10,
9,
10,
10,
10,
10,
9,
8,
10,
9,
10,
10,
9,
10,
10,
10,
9,
9,
9,
10,
10,
9,
10,
10,
9,
10,
10,
9,
9,
10,
10,
10,
10,
9,
9,
10,
9,
10,
10,
10,
10,
9,
10,
10,
9,
9,
10,
9,
10,
10,
10,
10,
10,
9,
9,
10,
9,
9,
8,
8,
10,
10,
10,
9,
10,
9,
9,
10,
10,
9,
10,
10,
10,
10,
10,
9,
9,
10,
9,
9,
9,
9,
9,
10,
10,
9,
10,
10,
10,
10,
9,
10,
9,
10,
10,
10,
9,
10,
9,
10,
10,
10,
9,
10,
10,
10,
10,
9,
9,
9,
4,
5,
4,
4,
5,
5,
4,
5,
5,
4,
5,
6,
4,
4,
6,
4,
6,
6,
4,
4,
4,
4,
5,
5,
4,
4,
6,
4,
5,
5,
5,
5,
4,
5,
5,
4,
4,
5,
6,
4,
4,
5,
5,
6,
6,
4,
4,
5,
5,
5,
6,
4,
4,
6,
5,
4,
4,
4,
4,
5,
5,
4,
4,
5,
4,
5,
5,
5,
5,
5,
5,
5,
5,
5,
5,
5,
6,
6,
4,
4,
4,
4,
5,
5,
5,
5,
6,
4,
5,
6,
5,
4,
6,
6,
4,
5,
5,
4,
5,
5,
5,
5,
5,
5,
5,
5,
5,
4,
4,
6,
6,
4,
4,
4,
4,
5,
6,
4,
5,
5,
5,
4,
5,
4,
5,
5,
5,
4,
5,
5,
4,
5,
6,
6,
4,
5,
6,
5,
4,
4,
4,
4,
5,
6,
5,
4,
4,
4,
5,
6,
4,
6,
5,
5,
5,
5,
5,
4,
4,
5,
5,
5,
4,
5,
6,
6,
5,
6,
6,
5,
6,
4,
5,
5,
4,
5,
5,
5,
5,
4,
5,
5,
5,
4,
4,
5,
5,
5,
5,
4,
4,
6,
5,
5,
5,
5,
5,
4,
5,
5,
5,
5,
5,
4,
5,
5,
4,
5,
5,
5,
4,
4,
5,
4,
5,
5,
4,
5,
5,
5,
4,
5,
5,
4,
5,
5,
5,
4,
6,
5,
5,
5,
5,
5,
5,
5,
5,
5,
4,
5,
5,
5,
4,
6,
6,
6,
6,
6,
5,
5,
5,
5,
5,
5,
4,
5,
6,
4,
4,
4,
5,
4,
4,
5,
5,
4,
4,
5,
4,
5,
4,
6,
4,
4,
6,
6,
4,
5,
4,
4,
5,
5,
4,
5,
5,
5,
4,
5,
5,
4,
5,
5,
5,
5,
5,
5,
5,
5,
4,
5,
5,
4,
4,
6,
4,
6,
5,
5,
4,
4,
6,
5,
4,
4,
4,
5,
5,
5,
6,
4,
4,
5,
6,
5,
6,
5,
5,
5,
5,
4,
6,
5,
4,
5,
5,
4,
6,
6,
4,
4,
5,
6,
5,
5,
5,
5,
5,
4,
4,
5,
5,
4,
5,
5,
4,
4,
5,
5,
5,
5,
5,
6,
6,
4,
4,
5,
5,
5,
6,
5,
4,
5,
6,
4,
4,
5,
5,
5,
5,
4,
4,
4,
5,
5,
4,
5,
5,
6,
4,
4,
5,
5,
5,
6,
4,
4,
5,
5,
4,
4,
6,
6,
6,
6,
4,
4,
5,
6,
4,
4,
5,
5,
5,
5,
4,
5,
5,
4,
5,
1,
1,
2,
2,
0,
0,
1,
2,
1,
1,
1,
1,
1,
1,
1,
0,
1,
2,
1,
1,
2,
1,
1,
1,
1,
1,
1,
1,
1,
1,
0,
1,
2,
1,
0,
1,
1,
1,
0,
0,
1,
1,
2,
0,
1,
1,
1,
1,
1,
1,
2,
2,
0,
0,
2,
1,
1,
1,
1,
1,
2,
2,
1,
0,
1,
1,
1,
2,
0,
1,
2,
1,
1,
0,
1,
1,
1,
1,
1,
2,
2,
1,
2,
1,
1,
1,
1,
1,
1,
2,
1,
0,
1,
1,
1,
2,
1,
0,
0,
1,
2,
1,
1,
1,
2,
1,
1,
1,
0,
1,
1,
1,
1,
1,
1,
1,
1,
1,
1,
1,
0,
1,
1,
1,
1,
2,
0,
0,
2,
2,
2,
1,
1,
2,
0,
0,
1,
1,
1,
1,
1,
0,
1,
0,
1,
2,
2,
0,
0,
1,
2,
1,
1,
0,
0,
1,
1,
0,
1,
0,
2,
1,
1,
1,
1,
1,
1,
1,
1,
1,
1,
1,
2,
1,
1,
1,
0,
0,
2,
2,
0,
1,
1,
1,
0,
1,
1,
1,
1,
1,
1,
1,
2,
2,
0,
1,
1,
1,
2,
2,
1,
1,
2,
1,
0,
1,
0,
0,
0,
1,
2,
1,
1,
2,
2,
1,
0,
0,
1,
1,
2,
1,
1,
1,
0,
1,
0,
1,
1,
2,
1,
0,
1,
1,
1,
0,
1,
1,
1,
1,
1,
2,
1,
1,
0,
1,
0,
1,
0,
2,
1,
1,
1,
0,
1,
0,
1,
2,
1,
1,
1,
1,
1,
0,
0,
1,
0,
1,
1,
1,
1,
2,
2,
0,
1,
1,
1,
1,
1,
0,
1,
2,
0,
1,
1,
1,
1,
1,
2,
1,
1,
1,
1,
1,
1,
1,
1,
1,
0,
2,
2,
0,
0,
1,
1,
0,
0,
2,
1,
1,
1,
1,
2,
2,
1,
1,
1,
1,
1,
1,
1,
2,
2,
1,
1,
1,
1,
1,
1,
1,
1,
1,
0,
1,
2,
2,
2,
2,
0,
1,
1,
2,
1,
1,
1,
1,
1,
1,
1,
1,
1,
1,
1,
1,
2,
1,
0,
1,
2,
1,
0,
0,
1,
1,
1,
2,
1,
1,
2,
2,
0,
0,
1,
2,
2,
2,
1,
1,
1,
1,
1,
1,
1,
1,
2,
2,
1,
0,
0,
2,
0,
0,
0,
1,
2,
1,
1,
0,
0,
1,
2,
1,
2,
2,
2,
2,
0,
1,
1,
0,
2,
1,
1,
0,
1,
1,
2,
1,
1,
0,
1,
1,
1,
1,
1,
1,
1,
1,
1,
1,
1,
2,
1,
0,
1,
1,
1,
0,
0,
1,
2,
2,
1,
1,
1,
2,
0,
1,
1,
1,
1,
0,
2,
2,
0,
0,
1,
2,
0,
1,
1,
1,
2,
2,
2,
1,
0,
1,
2,
1,
1,
1,
0,
1,
2,
1,
0,
0,
1,
1,
1,
2,
0,
1,
1,
1,
1,
1,
1,
1,
1,
1,
1,
2,
1,
1,
1,
2,
1,
1,
1,
0,
2,
0,
0,
1,
1,
1,
1,
1,
1,
0,
2,
0,
1,
2,
2,
1,
0,
1,
0,
0,
0,
0,
1,
2,
1,
1,
1,
1,
1,
0,
2,
2,
0,
0,
0,
2,
1,
2,
1,
0,
1,
2,
0,
0,
1,
1,
0,
0,
1,
2,
1,
1,
0,
1,
2,
1,
1,
1,
0,
2,
0,
0,
1,
1,
1,
1,
1,
1,
1,
1,
1,
1,
0,
0,
0,
0,
1,
1,
0,
1,
1,
1,
1,
1,
0,
1,
2,
1,
1,
1,
2,
1,
1,
1,
1,
0,
2,
1,
1,
0,
1,
1,
1,
0,
1,
1,
1,
1,
1,
1,
1,
1,
1,
0,
1,
2,
2,
0,
1,
0,
1,
0,
1,
1,
2,
0,
0,
2,
2,
1,
1,
1,
2,
2,
2,
0,
0,
2,
2,
0,
1,
0,
0,
1,
1,
1,
1,
0,
1,
2,
0,
0,
1,
1,
1,
2,
1,
1,
1,
1,
1,
1,
1,
1,
1,
1,
0,
1,
2,
1,
0,
0,
1,
1,
1,
0,
1,
1,
1,
2,
0,
1,
1,
2,
1,
0,
1,
2,
2,
0,
1,
1,
2,
2,
0,
0,
1,
1,
1,
1,
1,
2,
2,
0,
0,
1,
2,
0,
0,
1,
1,
1,
1,
1,
0,
1,
2,
1,
1,
1,
1,
1,
1,
1,
1,
2,
0,
1,
1,
0,
1,
2,
0,
0,
1,
0,
1,
1,
2,
1,
1,
0,
1,
1,
1,
0,
0,
1,
0,
1,
2,
1,
0,
1,
1,
1,
1,
0,
1,
0,
0,
0,
2,
2,
0,
1,
1,
0,
1,
1,
1,
1,
1,
1,
0,
1,
1,
1,
2,
1,
0,
2,
2,
0,
1,
1,
0,
1,
1,
0,
1,
0,
1,
2,
1,
0,
2,
2,
0,
0,
1,
1,
2,
2,
1,
0,
1,
1,
2,
1,
1,
1,
1,
1,
0,
2,
1,
0,
0,
2,
1,
0,
0,
1,
1,
1,
1,
2,
1,
0,
0,
2,
2,
1,
1,
1,
1,
1,
1,
1,
1,
0,
2,
2,
1,
1,
2,
1,
1,
1,
1,
1,
1,
1,
0,
1,
2,
1,
0,
2,
2,
2,
1,
0,
0,
1,
2,
0,
0,
2,
1,
1,
1,
1,
1,
1,
2,
1,
1,
2,
0,
0,
2,
2,
1,
2,
2,
2,
1,
1,
1,
1,
1,
2,
0,
1,
2,
1,
0,
1,
0,
0,
0,
1,
1,
1,
2,
1,
1,
1,
1,
1,
1,
1,
1,
1,
1,
1,
1,
1,
2,
1,
1,
2,
1,
0,
1,
2,
1,
1,
1,
1,
1,
0,
1,
1,
0,
1,
2,
0,
0,
1,
2,
2,
1,
1,
1,
1,
2,
1,
0,
0,
2,
1,
1,
2,
1,
1,
0,
2,
0,
0,
2,
1,
1,
1,
0,
1,
1,
0,
2,
2,
1,
2,
2,
2,
2,
1,
0,
1,
1,
1,
0,
1,
0,
0,
1,
2,
1,
0,
1,
1,
2,
0,
1,
0,
1,
1,
1,
1,
0,
0,
2,
2,
1,
0,
1,
2,
1,
1,
1,
2,
0,
0,
1,
1,
1,
0,
0,
1,
1,
1,
2,
0,
0,
2,
0,
0,
0,
1,
1,
1,
1,
1,
1,
0,
0,
2,
1,
1,
1,
1,
2,
2,
0,
1,
0,
1,
2,
1,
1,
0,
2,
1,
1,
1,
1,
1,
1,
0,
1,
1,
2,
1,
1,
1,
1,
1,
1,
1,
1,
1,
0,
0,
1,
1,
0,
1,
1,
1,
0,
2,
1,
1,
1,
2,
1,
1,
1,
1,
0,
1,
1,
0,
0,
0,
0,
2,
2,
0,
1,
2,
0,
0,
1,
2,
1,
0,
0,
2,
2,
2,
2,
1,
0,
0,
0,
1,
0,
1,
1,
1,
1,
1,
1,
1,
2,
2,
2,
0,
0,
1,
0,
0,
1,
1,
0,
1,
1,
1,
1,
1,
0,
0,
0,
1,
1,
1,
1,
1,
1,
2,
1,
0,
1,
1,
1,
2,
2,
0,
2,
1,
1,
1,
1,
1,
0,
1,
1,
1,
2,
1,
1,
1,
1,
1,
1,
1,
1,
1,
1,
1,
2,
2,
0,
1,
2,
1,
0,
1,
0,
1,
2,
1,
0,
1,
1,
0,
1,
2,
0,
1,
2,
1,
1,
1,
1,
1,
2,
1,
1,
1,
1,
1,
2,
2,
1,
1,
1,
2,
1,
1,
1,
0,
1,
2,
0,
0,
1,
1,
1,
1,
1,
1,
1,
0,
2,
2,
1,
1,
1,
1,
1,
1,
1,
0,
1,
2,
1,
1,
1,
1,
1,
1,
1,
1,
1,
1,
1,
2,
0,
1,
2,
1,
0,
1,
1,
2,
2,
1,
0,
1,
1,
1,
2,
1,
0,
1,
1,
1,
1,
1,
1,
0,
2,
1,
1,
1,
1,
1,
1,
1,
1,
2,
2,
2,
0,
0,
1,
0,
2,
1,
1,
1,
1,
0,
2,
1,
1,
0,
0,
0,
1,
1,
2,
1,
1,
2,
1,
1,
1,
1,
1,
0,
0,
1,
0,
2,
2,
1,
1,
1,
1,
1,
0,
2,
0,
1,
1,
1,
1,
1,
1,
0,
0,
1,
0,
2,
2,
0,
0,
0,
0,
2,
1,
1,
1,
1,
1,
0,
0,
1,
1,
1,
1,
2,
2,
1,
1,
1,
1,
2,
1,
0,
1,
1,
1,
1,
0,
1,
1,
1,
1,
1,
1,
1,
0,
1,
0,
1,
1,
1,
2,
2,
-1,
1,
0,
0,
1,
0,
1,
0,
2,
1,
0,
2,
2,
2,
1,
0,
0,
0,
2,
1,
2,
2,
1,
2,
1,
1,
0,
15,
1,
1,
1,
0,
1,
0,
1,
1,
1,
1,
1,
1,
1,
1,
1,
1,
1,
1,
2,
1,
1,
1,
1,
1,
1,
1,
0,
1,
1,
0,
0,
1,
2,
0,
1,
1,
1,
1,
0,
1,
0,
1,
2,
2,
1,
2,
2,
0,
2,
0,
2,
1,
1,
0,
0,
1,
0,
0,
0,
1,
0,
1,
2,
2,
2,
1,
2,
0,
1,
0,
1,
1,
1,
1,
0,
2,
1,
2,
2,
2,
2,
1,
1,
0,
1,
1,
1,
1,
0,
0,
0,
2,
1,
1,
1,
0,
1,
1,
0,
0,
2,
1,
2,
1,
1,
1,
Null,
Null,
Null,
Null,
Null,
Null,
Null,
Null,
Null,
Null,
Null,
Null,
Null,
Null,
Null,
Null,
Null,
Null,
Null,
Null,
Null,
Null,
Null,
Null,
Null,
Null,
Null,
Null,
Null,
Null,
Null,
Null,
Null,
Null,
Null,
Null,
Null,
Null,
Null,
Null,
Null,
Null,
Null,
Null,
Null,
Null,
Null,
Null,
Null,
Null,
Null,
Null,
Null,
Null,
Null,
Null,
Null,
Null,
Null,
Null,
Null,
Null,
Null,
Null,
Null,
Null,
Null,
Null,
Null,
Null,
Null,
Null,
Null,
Null,
Null,
Null,
Null,
Null,
Null,
Null,
Null,
Null,
Null,
Null,
Null,
Null,
Null,
Null,
Null,
Null,
Null,
Null,
Null,
Null,
Null,
Null,
Null,
Null,
Null,
Null,
Null,
Null,
Null,
Null,
Null,
Null,
Null,
Null,
Null,
Null,
Null,
Null,
Null,
Null,
Null,
Null,
Null,
Null,
Null,
Null,
Null,
Null,
Null,
Null,
Null,
Null,
Null,
Null,
Null,
Null,
Null,
Null,
Null,
Null,
Null,
Null,
Null,
Null,
Null,
Null,
Null,
Null,
Null,
Null,
Null,
Null,
Null,
Null,
Null,
Null,
Null,
Null,
Null,
Null,
Null,
Null,
Null,
Null,
Null,
Null,
Null,
Null,
Null,
Null,
Null,
Null,
Null,
Null,
Null,
Null,
Null,
Null,
Null,
Null,
Null,
Null,
Null,
Null,
Null,
Null,
Null,
Null,
Null,
Null,
Null,
Null,
Null,
Null,
Null,
Null,
Null,
Null,
Null,
Null,
Null,
Null,
Null,
Null,
Null,
Null,
Null,
Null,
Null,
Null,
Null,
Null,
Null,
Null,
Null,
Null,
Null,
Null,
Null,
Null,
Null,
Null,
Null,
Null,
Null,
Null,
Null,
Null,
Null,
Null,
Null,
Null,
Null,
Null,
Null,
Null,
Null,
Null,
Null,
Null,
Null,
Null,
Null,
Null,
Null,
Null,
Null,
Null,
Null,
Null,
Null,
Null,
Null,
Null,
Null,
Null,
Null,
Null,
Null,
Null,
Null,
Null,
Null,
Null,
Null,
Null,
Null,
Null,
Null,
Null,
Null,
Null,
Null,
Null,
Null,
Null,
Null,
Null,
Null,
Null,
Null,
Null,
Null,
Null,
Null,
Null,
Null,
Null,
Null,
Null,
Null,
Null,
Null,
Null,
Null,
Null,
