Datos experimentales/DATOS 26-3-24/ALL0001/A0001CH1.CSV

Memory Length,4000,
Trigger Level,0.000E+00,
Source,CH1,
Vertical Units,V,
Vertical Scale,2.000E-02,
Vertical Position,-1.200E-02,
Horizontal Units,s,
Horizontal Scale,1.000E+00,
Horizontal Position,0.000E+00,
Horizontal Mode,Roll Mode,
Waveform Last Dot Address,3530,
Sampling Period,4.000E-03,
Firmware, V1.21,
Waveform Data,
11,
11,
10,
10,
8,
8,
8,
9,
9,
9,
9,
8,
10,
15,
8,
9,
7,
9,
9,
9,
11,
9,
6,
8,
5,
9,
10,
10,
9,
11,
12,
9,
9,
9,
10,
10,
9,
12,
10,
7,
9,
10,
10,
9,
9,
9,
13,
7,
9,
10,
11,
9,
10,
9,
8,
10,
9,
15,
15,
9,
11,
9,
9,
10,
8,
10,
9,
11,
9,
6,
8,
8,
9,
9,
9,
10,
9,
9,
9,
10,
9,
11,
9,
13,
13,
10,
9,
9,
9,
9,
12,
10,
7,
8,
9,
10,
10,
11,
9,
9,
9,
9,
10,
9,
10,
10,
12,
11,
10,
8,
9,
8,
8,
10,
9,
9,
9,
10,
9,
11,
10,
8,
9,
9,
9,
9,
8,
11,
10,
9,
9,
9,
9,
9,
7,
8,
9,
9,
9,
9,
9,
8,
9,
7,
9,
7,
10,
9,
9,
11,
12,
12,
10,
9,
8,
9,
9,
11,
10,
13,
8,
9,
15,
5,
5,
12,
9,
11,
10,
8,
9,
11,
9,
7,
10,
9,
8,
8,
10,
14,
9,
9,
10,
11,
9,
8,
9,
9,
12,
12,
12,
8,
10,
12,
15,
11,
12,
10,
9,
9,
9,
9,
10,
9,
9,
9,
11,
10,
10,
8,
9,
12,
9,
11,
9,
7,
10,
9,
9,
9,
9,
13,
9,
9,
11,
10,
11,
9,
11,
9,
9,
9,
4,
7,
9,
11,
10,
8,
15,
9,
10,
9,
10,
9,
9,
10,
9,
8,
10,
11,
9,
8,
9,
9,
8,
9,
10,
10,
11,
9,
9,
9,
11,
9,
8,
9,
7,
9,
9,
9,
9,
9,
9,
9,
9,
10,
9,
12,
9,
9,
9,
9,
15,
15,
11,
8,
9,
11,
9,
7,
9,
9,
10,
10,
9,
9,
9,
9,
9,
9,
9,
8,
10,
10,
9,
8,
7,
11,
10,
9,
9,
10,
10,
9,
10,
10,
9,
11,
9,
9,
8,
8,
9,
9,
11,
11,
11,
11,
10,
9,
11,
9,
11,
9,
9,
9,
8,
9,
9,
9,
10,
10,
13,
9,
9,
11,
9,
9,
9,
9,
12,
12,
9,
8,
10,
10,
9,
9,
8,
8,
11,
10,
10,
11,
11,
10,
11,
9,
8,
9,
15,
9,
9,
9,
9,
9,
9,
9,
9,
10,
8,
7,
9,
9,
9,
8,
9,
10,
12,
9,
9,
9,
9,
8,
9,
12,
9,
9,
10,
9,
11,
11,
10,
11,
9,
8,
8,
9,
9,
11,
11,
10,
9,
9,
11,
11,
8,
9,
9,
9,
9,
8,
9,
13,
9,
9,
9,
9,
10,
9,
9,
9,
9,
11,
9,
9,
9,
10,
10,
10,
10,
9,
10,
11,
10,
10,
10,
11,
11,
9,
10,
10,
11,
9,
9,
10,
10,
9,
9,
12,
9,
9,
11,
9,
10,
12,
9,
9,
9,
8,
9,
9,
9,
9,
8,
10,
15,
9,
9,
9,
11,
9,
9,
9,
9,
11,
9,
10,
10,
8,
10,
9,
11,
9,
10,
9,
10,
10,
10,
8,
10,
9,
9,
9,
9,
9,
8,
9,
12,
10,
13,
10,
9,
9,
9,
10,
9,
10,
8,
9,
9,
9,
11,
11,
9,
11,
11,
11,
10,
12,
9,
9,
9,
9,
8,
8,
10,
9,
10,
10,
12,
9,
9,
9,
7,
11,
11,
9,
8,
10,
12,
6,
6,
10,
9,
10,
9,
8,
9,
9,
9,
9,
10,
11,
11,
9,
9,
9,
10,
9,
10,
10,
9,
9,
9,
10,
9,
9,
10,
10,
9,
9,
4,
9,
9,
11,
10,
9,
9,
9,
9,
9,
9,
9,
9,
8,
9,
10,
9,
8,
10,
11,
13,
11,
9,
8,
9,
9,
9,
9,
9,
9,
10,
9,
11,
11,
9,
9,
15,
9,
9,
9,
10,
9,
10,
9,
10,
10,
9,
11,
8,
9,
10,
9,
9,
13,
9,
8,
9,
11,
9,
9,
9,
11,
10,
9,
10,
10,
10,
8,
10,
9,
13,
9,
8,
12,
8,
11,
10,
16,
16,
9,
10,
10,
9,
10,
10,
9,
11,
11,
9,
0,
9,
9,
9,
8,
9,
6,
9,
9,
11,
10,
10,
9,
9,
8,
8,
10,
8,
11,
9,
10,
9,
9,
10,
9,
9,
9,
12,
10,
9,
9,
9,
9,
9,
11,
9,
9,
9,
9,
11,
9,
10,
8,
11,
11,
8,
9,
10,
10,
11,
9,
7,
8,
10,
9,
8,
13,
13,
9,
10,
11,
9,
11,
8,
6,
9,
10,
10,
7,
13,
13,
10,
9,
10,
9,
9,
7,
9,
9,
10,
10,
9,
11,
11,
9,
11,
9,
7,
9,
10,
9,
9,
11,
9,
13,
12,
12,
9,
10,
10,
9,
9,
9,
9,
9,
9,
8,
9,
9,
11,
11,
9,
9,
11,
10,
9,
7,
7,
10,
9,
10,
9,
9,
9,
9,
9,
9,
10,
13,
10,
10,
6,
9,
7,
9,
8,
10,
10,
12,
9,
9,
9,
9,
10,
7,
9,
9,
8,
10,
10,
10,
8,
9,
12,
11,
9,
6,
9,
11,
11,
8,
9,
10,
10,
11,
3,
11,
8,
9,
9,
9,
9,
9,
9,
9,
11,
9,
9,
9,
9,
10,
9,
9,
11,
11,
9,
8,
9,
8,
10,
10,
9,
9,
9,
11,
11,
9,
9,
10,
9,
9,
10,
11,
11,
9,
9,
9,
10,
9,
9,
9,
9,
13,
12,
9,
8,
8,
11,
7,
8,
10,
9,
10,
9,
9,
9,
10,
8,
10,
9,
9,
8,
11,
10,
10,
10,
10,
9,
10,
9,
11,
8,
9,
9,
9,
10,
11,
9,
7,
11,
10,
9,
9,
10,
11,
9,
12,
12,
10,
7,
9,
9,
9,
9,
11,
10,
7,
10,
10,
9,
9,
9,
11,
11,
10,
10,
9,
11,
7,
11,
9,
9,
10,
10,
12,
9,
5,
10,
8,
9,
9,
9,
9,
10,
11,
10,
10,
7,
9,
10,
11,
13,
9,
7,
8,
10,
10,
9,
10,
10,
9,
9,
9,
9,
13,
11,
9,
11,
9,
10,
12,
9,
11,
11,
9,
9,
10,
9,
10,
11,
11,
11,
10,
5,
9,
9,
9,
9,
8,
8,
9,
9,
11,
11,
11,
11,
9,
9,
9,
16,
16,
8,
6,
9,
8,
10,
11,
9,
9,
9,
9,
9,
11,
11,
11,
11,
9,
7,
9,
7,
8,
10,
10,
10,
10,
9,
9,
9,
11,
10,
8,
9,
9,
9,
9,
11,
8,
9,
9,
8,
8,
10,
9,
9,
7,
9,
9,
11,
9,
9,
10,
9,
8,
8,
9,
14,
8,
9,
10,
8,
11,
10,
11,
11,
9,
9,
9,
9,
10,
9,
9,
10,
9,
10,
7,
11,
10,
6,
9,
8,
13,
9,
9,
11,
9,
9,
11,
9,
9,
9,
11,
11,
10,
9,
9,
9,
9,
8,
8,
11,
12,
9,
9,
9,
11,
9,
10,
10,
10,
10,
10,
9,
9,
9,
10,
9,
10,
9,
9,
11,
11,
9,
9,
9,
8,
8,
9,
8,
7,
11,
10,
9,
11,
12,
11,
11,
9,
9,
10,
9,
8,
9,
8,
9,
11,
8,
8,
8,
8,
11,
7,
11,
12,
9,
11,
11,
10,
13,
11,
11,
12,
11,
13,
16,
13,
13,
16,
16,
17,
16,
17,
17,
19,
24,
20,
21,
22,
24,
24,
23,
24,
25,
24,
29,
26,
27,
28,
29,
29,
30,
31,
31,
31,
32,
35,
33,
33,
33,
35,
35,
36,
36,
37,
41,
40,
40,
40,
43,
41,
37,
44,
44,
45,
45,
45,
47,
49,
48,
48,
52,
51,
52,
57,
53,
56,
55,
57,
59,
57,
58,
61,
61,
62,
63,
63,
61,
65,
107,
65,
69,
68,
69,
70,
68,
71,
71,
73,
73,
69,
72,
73,
75,
73,
72,
74,
75,
76,
77,
77,
76,
81,
77,
80,
77,
77,
77,
77,
77,
77,
77,
78,
78,
78,
78,
79,
79,
81,
80,
78,
74,
79,
76,
79,
79,
78,
78,
79,
73,
81,
79,
76,
77,
74,
81,
79,
77,
77,
76,
76,
75,
84,
78,
75,
79,
78,
77,
78,
78,
77,
78,
76,
76,
76,
77,
77,
77,
76,
71,
77,
76,
75,
75,
75,
75,
72,
72,
77,
72,
75,
74,
75,
74,
74,
73,
75,
72,
73,
73,
73,
72,
72,
72,
71,
71,
69,
71,
69,
70,
70,
69,
69,
71,
71,
70,
69,
68,
69,
69,
67,
63,
67,
65,
67,
67,
66,
64,
64,
66,
67,
67,
63,
64,
67,
65,
67,
64,
65,
65,
64,
64,
64,
64,
64,
64,
64,
64,
64,
64,
63,
61,
62,
58,
58,
61,
61,
60,
60,
59,
58,
55,
59,
59,
61,
60,
61,
59,
59,
61,
60,
60,
59,
59,
59,
59,
64,
57,
63,
59,
59,
59,
57,
56,
58,
57,
58,
56,
57,
57,
57,
55,
56,
54,
56,
56,
55,
57,
56,
53,
55,
49,
55,
55,
56,
98,
55,
55,
55,
56,
54,
53,
53,
54,
55,
55,
53,
54,
55,
55,
53,
52,
52,
48,
51,
51,
51,
52,
52,
51,
52,
51,
51,
55,
52,
52,
52,
47,
51,
51,
51,
51,
48,
53,
51,
52,
52,
52,
52,
52,
51,
50,
52,
51,
46,
49,
51,
51,
48,
49,
49,
50,
50,
49,
47,
48,
47,
48,
48,
48,
48,
45,
48,
47,
49,
47,
47,
49,
47,
51,
48,
45,
48,
47,
47,
47,
47,
47,
47,
47,
47,
47,
45,
47,
49,
45,
43,
47,
45,
45,
45,
45,
43,
43,
46,
44,
44,
44,
44,
44,
45,
45,
43,
47,
45,
46,
44,
44,
43,
45,
44,
42,
41,
43,
43,
43,
42,
44,
45,
45,
45,
44,
39,
43,
42,
43,
43,
39,
43,
42,
41,
42,
41,
44,
44,
40,
41,
43,
41,
39,
40,
41,
39,
39,
40,
40,
39,
39,
39,
40,
41,
39,
38,
40,
40,
40,
40,
39,
39,
39,
39,
39,
39,
39,
33,
40,
39,
39,
40,
39,
39,
39,
40,
40,
39,
39,
38,
40,
40,
39,
40,
38,
38,
35,
38,
40,
37,
37,
37,
36,
37,
37,
35,
36,
37,
37,
37,
35,
35,
37,
36,
35,
35,
35,
33,
36,
34,
36,
35,
35,
31,
33,
35,
36,
33,
33,
33,
34,
35,
35,
34,
37,
36,
32,
36,
34,
35,
36,
34,
34,
35,
37,
35,
35,
33,
34,
35,
34,
37,
35,
33,
32,
33,
33,
36,
34,
33,
33,
32,
32,
32,
31,
32,
33,
33,
31,
31,
35,
33,
33,
32,
37,
33,
32,
33,
34,
31,
31,
32,
32,
32,
33,
31,
31,
31,
32,
31,
29,
31,
31,
38,
30,
31,
31,
32,
32,
31,
35,
28,
32,
32,
32,
33,
30,
31,
31,
29,
31,
31,
38,
32,
32,
35,
32,
32,
31,
32,
29,
32,
31,
28,
28,
31,
31,
29,
31,
30,
31,
32,
39,
31,
31,
31,
29,
29,
31,
32,
30,
29,
30,
29,
23,
29,
31,
29,
27,
29,
29,
29,
25,
29,
29,
29,
27,
29,
27,
28,
29,
29,
29,
27,
27,
29,
27,
29,
29,
27,
29,
33,
29,
29,
29,
29,
27,
29,
29,
28,
27,
28,
27,
23,
28,
29,
27,
28,
27,
28,
28,
23,
23,
26,
26,
24,
27,
28,
27,
28,
26,
27,
27,
25,
27,
24,
24,
28,
27,
27,
27,
27,
26,
25,
27,
25,
25,
24,
25,
24,
24,
24,
25,
25,
25,
23,
23,
24,
25,
24,
26,
25,
24,
24,
25,
25,
24,
23,
23,
26,
23,
25,
24,
24,
23,
21,
25,
25,
24,
17,
23,
23,
24,
23,
23,
25,
23,
24,
24,
23,
23,
24,
23,
24,
23,
24,
23,
21,
24,
24,
24,
23,
22,
24,
24,
24,
26,
23,
24,
21,
21,
23,
23,
21,
23,
22,
23,
23,
23,
23,
21,
22,
23,
21,
21,
23,
23,
23,
22,
23,
23,
23,
23,
23,
21,
25,
24,
21,
23,
22,
23,
23,
19,
23,
23,
23,
23,
21,
24,
23,
17,
21,
21,
24,
21,
23,
22,
16,
21,
21,
21,
21,
21,
27,
21,
21,
21,
20,
21,
21,
19,
21,
20,
20,
16,
20,
15,
16,
19,
20,
20,
19,
21,
19,
16,
20,
20,
18,
20,
20,
19,
20,
20,
18,
19,
21,
20,
19,
18,
19,
19,
21,
19,
19,
19,
19,
17,
17,
16,
19,
20,
19,
20,
20,
24,
18,
18,
18,
18,
18,
16,
18,
19,
17,
20,
18,
19,
19,
18,
17,
17,
20,
17,
15,
17,
19,
19,
19,
17,
17,
18,
17,
20,
20,
19,
17,
19,
17,
17,
16,
15,
17,
17,
19,
18,
17,
19,
19,
18,
18,
19,
18,
17,
17,
16,
16,
18,
16,
19,
19,
15,
15,
17,
17,
15,
19,
17,
18,
16,
17,
19,
18,
17,
18,
18,
18,
17,
16,
16,
17,
16,
26,
20,
17,
18,
17,
16,
16,
16,
16,
23,
17,
16,
15,
17,
17,
16,
16,
17,
23,
18,
17,
17,
25,
17,
16,
15,
17,
16,
16,
17,
16,
18,
17,
17,
17,
17,
17,
15,
16,
15,
17,
17,
13,
11,
15,
16,
17,
17,
21,
21,
15,
17,
15,
16,
16,
15,
15,
16,
17,
13,
13,
16,
16,
16,
17,
14,
16,
16,
16,
16,
15,
17,
15,
16,
15,
16,
16,
17,
15,
14,
16,
13,
15,
16,
16,
16,
15,
15,
14,
15,
15,
15,
14,
15,
15,
15,
14,
16,
12,
13,
10,
13,
8,
13,
13,
14,
12,
14,
15,
13,
14,
13,
13,
13,
12,
12,
12,
12,
13,
18,
13,
13,
14,
13,
13,
13,
14,
14,
14,
15,
13,
13,
13,
13,
13,
13,
13,
13,
13,
13,
9,
12,
14,
13,
14,
14,
14,
14,
13,
13,
13,
7,
13,
15,
13,
15,
13,
13,
13,
13,
13,
13,
13,
13,
13,
15,
13,
12,
13,
13,
13,
11,
13,
13,
13,
13,
12,
12,
12,
13,
10,
13,
14,
13,
13,
13,
12,
12,
13,
13,
13,
11,
12,
13,
13,
14,
13,
10,
13,
13,
13,
12,
12,
12,
11,
12,
13,
12,
13,
15,
12,
12,
13,
12,
12,
11,
8,
9,
11,
12,
11,
14,
17,
9,
12,
12,
12,
12,
13,
13,
15,
14,
13,
13,
12,
14,
14,
12,
13,
11,
13,
13,
13,
13,
13,
13,
12,
16,
13,
12,
12,
15,
13,
13,
11,
13,
13,
12,
12,
12,
6,
11,
12,
14,
14,
13,
11,
12,
13,
13,
13,
13,
13,
9,
13,
14,
13,
11,
12,
10,
11,
12,
13,
12,
12,
12,
12,
13,
13,
13,
13,
13,
12,
13,
13,
13,
12,
14,
11,
13,
13,
13,
13,
13,
13,
13,
13,
13,
13,
13,
13,
13,
13,
13,
13,
11,
11,
9,
11,
12,
13,
12,
11,
12,
12,
16,
11,
14,
15,
13,
13,
13,
12,
13,
13,
11,
13,
12,
8,
11,
17,
13,
13,
13,
12,
13,
13,
13,
9,
13,
12,
13,
13,
12,
11,
12,
13,
13,
12,
13,
13,
13,
13,
13,
12,
14,
13,
16,
13,
12,
12,
12,
13,
13,
13,
12,
7,
13,
15,
13,
13,
11,
11,
11,
13,
13,
13,
13,
13,
12,
13,
13,
12,
12,
13,
13,
11,
11,
14,
14,
13,
14,
13,
13,
13,
11,
13,
13,
12,
13,
15,
15,
15,
13,
13,
12,
13,
13,
13,
12,
11,
13,
17,
13,
12,
13,
13,
13,
13,
11,
15,
12,
14,
13,
13,
14,
13,
12,
13,
14,
15,
15,
12,
12,
12,
13,
13,
12,
13,
12,
12,
12,
12,
12,
11,
11,
11,
12,
12,
12,
13,
13,
9,
13,
10,
12,
13,
13,
12,
12,
11,
12,
17,
12,
12,
11,
12,
10,
12,
11,
11,
12,
12,
13,
11,
11,
12,
13,
11,
13,
13,
13,
11,
9,
12,
11,
13,
13,
11,
12,
11,
12,
17,
13,
7,
9,
7,
15,
11,
12,
12,
11,
13,
11,
11,
19,
9,
9,
11,
11,
14,
12,
11,
11,
11,
10,
11,
11,
11,
11,
12,
11,
12,
10,
9,
12,
12,
11,
11,
11,
12,
12,
12,
10,
11,
11,
11,
12,
16,
14,
10,
13,
11,
11,
11,
12,
12,
12,
11,
11,
11,
11,
11,
3,
11,
12,
11,
11,
11,
12,
11,
8,
10,
10,
11,
10,
13,
15,
11,
12,
12,
11,
11,
12,
12,
11,
12,
12,
11,
11,
13,
11,
4,
9,
11,
10,
10,
8,
9,
9,
10,
9,
10,
10,
10,
10,
13,
13,
11,
11,
12,
12,
10,
12,
11,
12,
13,
12,
11,
10,
9,
11,
9,
10,
10,
11,
9,
10,
12,
12,
10,
11,
13,
11,
12,
12,
9,
11,
11,
14,
14,
11,
12,
12,
11,
12,
11,
11,
11,
12,
11,
8,
11,
10,
10,
11,
11,
11,
11,
9,
11,
9,
9,
9,
11,
9,
9,
12,
12,
11,
12,
9,
9,
9,
12,
12,
12,
12,
11,
11,
12,
12,
12,
11,
11,
14,
11,
11,
11,
12,
11,
11,
12,
9,
11,
11,
11,
8,
9,
9,
11,
11,
11,
12,
9,
9,
9,
9,
10,
10,
12,
11,
11,
11,
15,
11,
11,
10,
6,
12,
11,
13,
11,
11,
13,
11,
10,
11,
10,
11,
11,
11,
11,
10,
12,
11,
10,
12,
13,
13,
10,
11,
12,
10,
9,
11,
12,
11,
9,
11,
12,
11,
10,
10,
9,
9,
12,
14,
11,
10,
11,
11,
11,
10,
12,
10,
9,
9,
16,
10,
9,
8,
10,
11,
10,
9,
11,
10,
11,
14,
7,
7,
12,
9,
9,
10,
9,
7,
15,
9,
11,
9,
10,
13,
11,
11,
10,
11,
13,
12,
13,
11,
5,
11,
11,
12,
12,
11,
11,
10,
11,
12,
11,
12,
10,
8,
10,
9,
11,
8,
9,
12,
12,
6,
10,
10,
9,
10,
9,
10,
9,
11,
12,
10,
11,
9,
12,
10,
10,
10,
12,
11,
8,
10,
11,
10,
11,
9,
11,
10,
10,
11,
11,
11,
11,
12,
11,
12,
12,
9,
11,
11,
12,
13,
11,
5,
5,
11,
10,
10,
10,
9,
10,
11,
11,
11,
10,
10,
13,
9,
9,
10,
11,
11,
8,
8,
12,
9,
10,
9,
11,
10,
9,
13,
13,
9,
11,
11,
10,
9,
11,
11,
12,
11,
10,
6,
10,
9,
9,
9,
10,
9,
9,
9,
10,
11,
10,
11,
9,
11,
9,
9,
10,
9,
9,
10,
13,
8,
8,
10,
10,
9,
9,
9,
11,
11,
12,
9,
9,
11,
11,
10,
10,
10,
10,
11,
9,
9,
11,
8,
11,
11,
11,
9,
10,
10,
12,
13,
11,
11,
13,
12,
10,
11,
12,
12,
12,
8,
10,
11,
8,
10,
11,
11,
8,
11,
12,
9,
10,
10,
10,
9,
11,
9,
9,
11,
10,
8,
10,
10,
10,
12,
9,
9,
11,
9,
11,
12,
11,
13,
9,
11,
12,
10,
9,
10,
9,
9,
9,
9,
8,
11,
11,
10,
6,
9,
9,
8,
9,
10,
10,
10,
11,
10,
11,
9,
10,
10,
10,
9,
9,
8,
10,
11,
13,
13,
9,
9,
10,
11,
10,
11,
9,
11,
9,
11,
9,
9,
11,
9,
9,
9,
11,
10,
11,
10,
21,
9,
11,
11,
10,
10,
13,
10,
12,
12,
11,
9,
11,
11,
10,
1,
10,
9,
11,
13,
-11,
16,
9,
9,
12,
12,
12,
10,
11,
12,
9,
11,
10,
8,
15,
10,
9,
9,
9,
11,
13,
12,
7,
10,
9,
10,
10,
11,
8,
10,
10,
10,
11,
10,
9,
10,
10,
11,
10,
10,
9,
8,
10,
9,
9,
11,
11,
11,
10,
13,
10,
10,
10,
11,
10,
12,
11,
9,
9,
10,
11,
11,
13,
10,
13,
10,
9,
10,
9,
9,
9,
9,
10,
11,
9,
9,
9,
11,
11,
10,
9,
11,
10,
11,
9,
17,
11,
8,
8,
10,
10,
7,
8,
9,
10,
10,
11,
10,
10,
11,
9,
11,
11,
10,
11,
12,
9,
11,
12,
11,
10,
11,
13,
10,
8,
11,
11,
11,
10,
9,
11,
10,
9,
13,
10,
8,
11,
12,
12,
11,
11,
13,
11,
11,
12,
11,
11,
11,
12,
11,
11,
12,
9,
13,
13,
11,
12,
11,
16,
11,
7,
12,
10,
11,
12,
9,
9,
12,
10,
10,
10,
10,
11,
9,
12,
8,
11,
12,
11,
7,
10,
10,
11,
10,
10,
10,
10,
8,
11,
11,
10,
10,
12,
9,
8,
11,
9,
9,
11,
11,
5,
11,
10,
10,
11,
10,
9,
10,
11,
11,
7,
10,
10,
10,
11,
10,
9,
12,
11,
12,
9,
11,
10,
9,
10,
10,
10,
12,
10,
9,
11,
10,
9,
11,
11,
10,
8,
11,
11,
11,
13,
9,
5,
11,
11,
9,
10,
10,
7,
10,
10,
10,
11,
11,
9,
11,
9,
9,
9,
9,
13,
12,
10,
8,
10,
10,
9,
10,
8,
8,
9,
9,
11,
11,
11,
11,
9,
10,
9,
11,
9,
9,
11,
11,
7,
9,
9,
9,
11,
13,
7,
19,
16,
11,
8,
10,
10,
10,
10,
9,
11,
13,
11,
8,
9,
8,
10,
11,
9,
12,
9,
9,
10,
10,
11,
9,
9,
9,
10,
9,
9,
11,
8,
9,
9,
29,
15,
11,
11,
11,
12,
10,
9,
10,
11,
10,
11,
12,
9,
9,
11,
11,
11,
11,
11,
9,
11,
Null,
Null,
Null,
Null,
Null,
Null,
Null,
Null,
Null,
Null,
Null,
Null,
Null,
Null,
Null,
Null,
Null,
Null,
Null,
Null,
Null,
Null,
Null,
Null,
Null,
Null,
Null,
Null,
Null,
Null,
Null,
Null,
Null,
Null,
Null,
Null,
Null,
Null,
Null,
Null,
Null,
Null,
Null,
Null,
Null,
Null,
Null,
Null,
Null,
Null,
Null,
Null,
Null,
Null,
Null,
Null,
Null,
Null,
Null,
Null,
Null,
Null,
Null,
Null,
Null,
Null,
Null,
Null,
Null,
Null,
Null,
Null,
Null,
Null,
Null,
Null,
Null,
Null,
Null,
Null,
Null,
Null,
Null,
Null,
Null,
Null,
Null,
Null,
Null,
Null,
Null,
Null,
Null,
Null,
Null,
Null,
Null,
Null,
Null,
Null,
Null,
Null,
Null,
Null,
Null,
Null,
Null,
Null,
Null,
Null,
Null,
Null,
Null,
Null,
Null,
Null,
Null,
Null,
Null,
Null,
Null,
Null,
Null,
Null,
Null,
Null,
Null,
Null,
Null,
Null,
Null,
Null,
Null,
Null,
Null,
Null,
Null,
Null,
Null,
Null,
Null,
Null,
Null,
Null,
Null,
Null,
Null,
Null,
Null,
Null,
Null,
Null,
Null,
Null,
Null,
Null,
Null,
Null,
Null,
Null,
Null,
Null,
Null,
Null,
Null,
Null,
Null,
Null,
Null,
Null,
Null,
Null,
Null,
Null,
Null,
Null,
Null,
Null,
Null,
Null,
Null,
Null,
Null,
Null,
Null,
Null,
Null,
Null,
Null,
Null,
Null,
Null,
Null,
Null,
Null,
Null,
Null,
Null,
Null,
Null,
Null,
Null,
Null,
Null,
Null,
Null,
Null,
Null,
Null,
Null,
Null,
Null,
Null,
Null,
Null,
Null,
Null,
Null,
Null,
Null,
Null,
Null,
Null,
Null,
Null,
Null,
Null,
Null,
Null,
Null,
Null,
Null,
Null,
Null,
Null,
Null,
Null,
Null,
Null,
Null,
Null,
Null,
Null,
Null,
Null,
Null,
Null,
Null,
Null,
Null,
Null,
Null,
Null,
Null,
Null,
Null,
Null,
Null,
Null,
Null,
Null,
Null,
Null,
Null,
Null,
Null,
Null,
Null,
Null,
Null,
Null,
Null,
Null,
Null,
Null,
Null,
Null,
Null,
Null,
Null,
Null,
Null,
Null,
Null,
Null,
Null,
Null,
Null,
Null,
Null,
Null,
Null,
Null,
Null,
Null,
Null,
Null,
Null,
Null,
Null,
Null,
Null,
Null,
Null,
Null,
Null,
Null,
Null,
Null,
Null,
Null,
Null,
Null,
Null,
Null,
Null,
Null,
Null,
Null,
Null,
Null,
Null,
Null,
Null,
Null,
Null,
Null,
Null,
Null,
Null,
Null,
Null,
Null,
Null,
Null,
Null,
Null,
Null,
Null,
Null,
Null,
Null,
Null,
Null,
Null,
Null,
Null,
Null,
Null,
Null,
Null,
Null,
Null,
Null,
Null,
Null,
Null,
Null,
Null,
Null,
Null,
Null,
Null,
Null,
Null,
Null,
Null,
Null,
Null,
Null,
Null,
Null,
Null,
Null,
Null,
Null,
Null,
Null,
Null,
Null,
Null,
Null,
Null,
Null,
Null,
Null,
Null,
Null,
Null,
Null,
Null,
Null,
Null,
Null,
Null,
Null,
Null,
Null,
Null,
Null,
Null,
Null,
Null,
Null,
Null,
Null,
Null,
Null,
Null,
Null,
Null,
Null,
Null,
Null,
Null,
Null,
Null,
Null,
Null,
Null,
Null,
Null,
Null,
Null,
Null,
Null,
Null,
Null,
Null,
Null,
Null,
Null,
Null,
Null,
Null,
Null,
Null,
Null,
Null,
Null,
Null,
Null,
Null,
Null,
Null,
Null,
Null,
Null,
Null,
Null,
Null,
Null,
Null,
Null,
Null,
Null,
Null,
Null,
Null,
Null,
Null,
Null,
Null,
Null,
Null,
Null,
Null,
Null,
Null,
Null,
