Datos experimentales/DATOS 26-3-24/ALL0044/A0044CH1.CSV

Memory Length,4000,
Trigger Level,1.600E-03,
Source,CH1,
Vertical Units,V,
Vertical Scale,2.000E-02,
Vertical Position,-1.200E-02,
Horizontal Units,s,
Horizontal Scale,1.000E+00,
Horizontal Position,0.000E+00,
Horizontal Mode,Roll Mode,
Waveform Last Dot Address,3540,
Sampling Period,4.000E-03,
Firmware, V1.21,
Waveform Data,
13,
13,
13,
8,
11,
11,
13,
16,
12,
11,
11,
12,
11,
11,
11,
12,
12,
11,
11,
11,
13,
11,
11,
11,
11,
11,
11,
9,
12,
11,
11,
11,
11,
12,
12,
12,
12,
11,
12,
10,
12,
11,
12,
11,
12,
12,
11,
12,
13,
11,
13,
11,
14,
5,
13,
11,
12,
12,
11,
10,
11,
11,
12,
11,
11,
11,
13,
11,
11,
12,
12,
11,
11,
11,
13,
12,
11,
8,
13,
10,
12,
12,
11,
11,
11,
12,
12,
10,
12,
12,
13,
12,
12,
11,
9,
13,
11,
11,
7,
14,
12,
14,
12,
11,
13,
11,
12,
12,
11,
12,
12,
11,
12,
10,
12,
15,
11,
13,
11,
13,
13,
12,
13,
13,
12,
12,
11,
12,
12,
15,
10,
12,
12,
12,
11,
11,
10,
12,
11,
9,
12,
13,
11,
9,
12,
12,
11,
13,
13,
12,
9,
11,
11,
12,
11,
11,
13,
14,
11,
11,
11,
11,
11,
12,
10,
11,
11,
13,
14,
11,
12,
11,
12,
11,
11,
11,
11,
11,
12,
11,
11,
10,
12,
11,
12,
13,
13,
13,
12,
8,
9,
11,
15,
11,
11,
12,
12,
12,
11,
11,
11,
11,
11,
12,
11,
12,
9,
12,
11,
11,
9,
11,
12,
13,
13,
11,
13,
11,
11,
11,
11,
9,
11,
13,
11,
11,
11,
13,
12,
9,
13,
13,
11,
15,
10,
11,
12,
4,
11,
11,
13,
11,
11,
13,
13,
12,
11,
11,
12,
11,
12,
12,
12,
11,
12,
11,
11,
14,
11,
12,
10,
13,
12,
11,
12,
12,
8,
11,
12,
11,
11,
12,
12,
8,
11,
11,
11,
12,
12,
11,
12,
8,
11,
11,
12,
8,
11,
11,
11,
12,
13,
13,
11,
11,
11,
11,
10,
11,
11,
12,
10,
13,
12,
11,
12,
12,
12,
12,
11,
11,
12,
11,
13,
12,
12,
11,
12,
11,
11,
10,
11,
13,
12,
11,
11,
11,
9,
10,
11,
11,
11,
11,
12,
8,
11,
11,
11,
11,
11,
12,
9,
11,
11,
11,
11,
12,
11,
12,
11,
11,
12,
12,
9,
14,
9,
11,
10,
10,
12,
11,
12,
11,
11,
11,
14,
12,
11,
11,
12,
11,
11,
11,
10,
13,
12,
13,
13,
9,
10,
12,
11,
12,
11,
11,
12,
11,
9,
11,
13,
11,
11,
11,
12,
11,
10,
13,
13,
12,
9,
8,
13,
12,
12,
12,
11,
12,
11,
13,
12,
11,
11,
12,
12,
11,
12,
12,
10,
13,
11,
11,
11,
12,
12,
9,
12,
10,
10,
12,
11,
11,
12,
11,
9,
12,
11,
11,
11,
11,
13,
9,
11,
13,
11,
13,
11,
16,
11,
10,
11,
11,
12,
12,
11,
12,
11,
12,
12,
10,
10,
12,
11,
12,
12,
12,
12,
13,
11,
10,
11,
9,
15,
10,
11,
11,
12,
12,
11,
9,
11,
12,
12,
11,
11,
11,
11,
13,
11,
11,
11,
11,
11,
13,
11,
5,
11,
11,
13,
11,
10,
11,
11,
11,
10,
13,
12,
11,
11,
12,
12,
11,
12,
12,
12,
11,
11,
11,
11,
8,
15,
11,
12,
11,
11,
14,
12,
11,
12,
12,
11,
11,
11,
11,
11,
12,
11,
11,
10,
13,
15,
12,
12,
16,
10,
13,
11,
7,
12,
12,
11,
12,
12,
11,
12,
12,
12,
11,
11,
12,
12,
11,
8,
11,
13,
13,
11,
13,
13,
12,
11,
12,
11,
11,
12,
11,
12,
12,
12,
11,
11,
11,
8,
12,
15,
10,
12,
11,
8,
16,
12,
9,
13,
12,
12,
10,
9,
11,
12,
11,
12,
12,
12,
14,
11,
12,
12,
11,
11,
11,
12,
16,
11,
12,
11,
11,
11,
13,
11,
11,
11,
11,
11,
12,
11,
13,
11,
11,
11,
11,
9,
11,
11,
12,
12,
9,
10,
12,
12,
13,
12,
9,
12,
12,
13,
10,
11,
11,
14,
12,
12,
11,
11,
12,
13,
9,
8,
9,
13,
11,
11,
11,
10,
10,
11,
12,
11,
12,
12,
12,
8,
12,
12,
12,
11,
12,
11,
13,
13,
12,
9,
13,
11,
12,
14,
11,
11,
12,
12,
11,
13,
12,
12,
11,
9,
12,
12,
11,
13,
13,
12,
10,
10,
11,
13,
11,
13,
11,
12,
11,
11,
11,
11,
11,
12,
12,
12,
11,
12,
13,
12,
10,
14,
12,
5,
5,
8,
12,
14,
11,
11,
11,
11,
11,
11,
12,
9,
10,
10,
13,
12,
12,
11,
13,
11,
11,
10,
13,
11,
8,
12,
12,
12,
12,
12,
12,
11,
13,
11,
12,
12,
12,
11,
13,
13,
11,
11,
11,
11,
11,
15,
11,
11,
5,
13,
11,
12,
12,
11,
12,
12,
12,
10,
12,
13,
9,
12,
12,
11,
12,
13,
13,
15,
13,
11,
13,
11,
16,
9,
11,
12,
12,
11,
12,
12,
11,
11,
11,
12,
11,
11,
11,
12,
11,
12,
11,
13,
13,
12,
6,
13,
11,
12,
12,
10,
13,
12,
9,
12,
10,
10,
12,
12,
11,
14,
11,
12,
10,
11,
11,
12,
11,
11,
11,
13,
10,
12,
11,
12,
11,
12,
12,
11,
11,
11,
11,
11,
11,
10,
12,
11,
8,
12,
11,
14,
15,
14,
11,
13,
12,
12,
12,
9,
12,
12,
11,
12,
12,
11,
13,
11,
11,
11,
11,
13,
11,
5,
13,
11,
10,
11,
11,
12,
13,
11,
11,
11,
12,
12,
11,
10,
12,
12,
11,
10,
8,
11,
12,
11,
11,
11,
13,
10,
11,
11,
12,
12,
11,
11,
12,
11,
11,
11,
11,
12,
12,
12,
11,
12,
11,
12,
11,
10,
9,
12,
11,
12,
12,
12,
11,
11,
12,
13,
13,
11,
12,
11,
11,
11,
11,
11,
11,
11,
11,
11,
13,
9,
12,
11,
11,
10,
12,
12,
12,
10,
11,
11,
9,
12,
11,
11,
11,
12,
12,
12,
12,
12,
12,
12,
9,
12,
11,
11,
12,
13,
12,
11,
10,
13,
12,
12,
11,
12,
12,
12,
11,
11,
12,
11,
13,
9,
11,
16,
16,
11,
11,
10,
12,
12,
12,
9,
11,
12,
12,
11,
11,
14,
14,
11,
11,
11,
11,
9,
12,
9,
12,
9,
13,
11,
10,
10,
9,
13,
11,
11,
12,
12,
12,
9,
11,
11,
11,
13,
13,
13,
16,
15,
15,
16,
15,
15,
16,
19,
17,
16,
15,
14,
14,
17,
16,
17,
17,
18,
19,
18,
19,
20,
19,
19,
20,
20,
19,
17,
18,
20,
20,
21,
21,
21,
20,
21,
21,
21,
21,
20,
21,
17,
23,
21,
21,
21,
13,
21,
22,
20,
23,
23,
23,
23,
17,
22,
23,
23,
23,
21,
23,
23,
23,
21,
23,
23,
23,
23,
23,
21,
23,
23,
20,
21,
16,
25,
22,
24,
23,
23,
23,
24,
24,
23,
23,
23,
23,
25,
25,
24,
23,
22,
22,
24,
23,
23,
24,
24,
24,
21,
26,
27,
31,
29,
28,
28,
29,
27,
27,
29,
28,
29,
29,
31,
31,
27,
29,
32,
45,
45,
32,
33,
32,
35,
35,
35,
36,
33,
39,
44,
37,
40,
40,
41,
38,
42,
42,
47,
45,
47,
48,
49,
49,
49,
51,
51,
53,
53,
52,
53,
55,
55,
56,
57,
58,
60,
61,
62,
62,
64,
63,
64,
65,
65,
68,
68,
71,
71,
72,
72,
73,
76,
76,
76,
77,
79,
77,
79,
79,
80,
81,
83,
82,
83,
83,
83,
77,
84,
85,
91,
87,
87,
87,
86,
87,
88,
87,
89,
89,
89,
89,
89,
90,
92,
93,
91,
91,
96,
92,
89,
90,
92,
92,
92,
89,
93,
91,
93,
92,
93,
93,
92,
93,
91,
92,
92,
91,
91,
92,
90,
91,
93,
91,
89,
100,
91,
93,
93,
90,
90,
91,
91,
89,
90,
90,
91,
89,
87,
89,
89,
90,
91,
91,
91,
88,
89,
87,
88,
89,
127,
88,
87,
88,
88,
86,
87,
87,
88,
89,
85,
86,
87,
84,
88,
84,
86,
85,
85,
84,
84,
84,
83,
82,
122,
82,
83,
80,
81,
81,
82,
81,
81,
80,
80,
81,
81,
80,
79,
79,
76,
80,
81,
79,
79,
77,
77,
77,
77,
77,
78,
77,
75,
79,
76,
76,
75,
75,
73,
75,
75,
75,
73,
75,
74,
73,
72,
76,
77,
75,
73,
72,
72,
71,
71,
69,
71,
72,
71,
71,
69,
71,
70,
68,
72,
71,
71,
71,
69,
69,
69,
69,
68,
68,
67,
67,
68,
68,
70,
67,
67,
67,
68,
65,
67,
65,
65,
65,
65,
63,
64,
64,
68,
63,
64,
64,
65,
64,
64,
55,
60,
62,
64,
62,
72,
63,
64,
63,
63,
67,
63,
65,
60,
61,
61,
59,
61,
60,
59,
61,
61,
61,
58,
56,
61,
61,
60,
61,
60,
61,
59,
57,
60,
61,
60,
60,
59,
57,
59,
60,
60,
59,
62,
57,
57,
57,
57,
56,
56,
56,
59,
56,
57,
58,
59,
56,
60,
55,
57,
55,
56,
59,
59,
57,
56,
55,
57,
57,
58,
57,
55,
56,
53,
56,
56,
56,
56,
54,
55,
55,
51,
54,
49,
52,
53,
54,
53,
55,
53,
53,
53,
55,
53,
53,
47,
54,
52,
48,
54,
45,
51,
56,
53,
53,
52,
53,
51,
53,
52,
50,
52,
52,
47,
52,
51,
51,
51,
49,
49,
47,
50,
51,
49,
49,
50,
49,
49,
51,
51,
51,
52,
48,
48,
49,
49,
48,
48,
45,
49,
49,
48,
43,
49,
49,
52,
48,
48,
48,
49,
48,
48,
44,
47,
47,
48,
47,
45,
45,
47,
46,
45,
45,
46,
45,
45,
45,
44,
45,
46,
44,
44,
41,
43,
44,
45,
44,
45,
45,
45,
44,
44,
44,
44,
45,
45,
43,
40,
44,
45,
45,
45,
45,
44,
44,
44,
43,
43,
43,
45,
45,
43,
45,
41,
40,
41,
41,
40,
41,
41,
42,
41,
41,
41,
43,
39,
40,
41,
43,
41,
39,
40,
41,
40,
39,
41,
41,
40,
40,
39,
41,
40,
41,
41,
41,
41,
41,
41,
40,
40,
40,
40,
40,
40,
40,
40,
35,
39,
39,
38,
39,
39,
39,
41,
39,
37,
37,
40,
40,
47,
36,
37,
38,
40,
35,
37,
37,
39,
36,
35,
37,
37,
36,
33,
34,
37,
39,
35,
37,
35,
35,
35,
40,
36,
37,
35,
35,
37,
37,
35,
33,
33,
35,
37,
37,
34,
34,
35,
36,
36,
35,
35,
34,
38,
35,
32,
35,
35,
34,
36,
37,
35,
36,
34,
35,
35,
35,
32,
35,
35,
33,
33,
36,
32,
32,
33,
33,
33,
35,
33,
33,
35,
34,
32,
32,
35,
33,
33,
32,
33,
32,
31,
32,
32,
33,
31,
32,
33,
33,
32,
31,
31,
34,
33,
32,
31,
33,
33,
33,
33,
33,
33,
33,
35,
32,
31,
30,
33,
32,
31,
27,
29,
33,
33,
32,
29,
29,
33,
32,
35,
31,
30,
33,
33,
32,
32,
33,
32,
32,
32,
33,
31,
32,
31,
32,
32,
32,
31,
32,
29,
31,
32,
29,
29,
31,
32,
29,
29,
29,
29,
32,
31,
30,
30,
30,
29,
29,
31,
29,
31,
29,
30,
30,
29,
29,
28,
30,
27,
29,
30,
30,
29,
29,
29,
28,
30,
28,
31,
29,
29,
29,
29,
28,
28,
28,
28,
28,
28,
30,
28,
27,
28,
27,
26,
28,
29,
29,
29,
29,
29,
29,
26,
29,
28,
29,
26,
27,
27,
29,
25,
29,
28,
28,
27,
28,
27,
28,
27,
27,
28,
25,
27,
27,
26,
26,
26,
25,
27,
27,
28,
26,
25,
26,
26,
27,
26,
25,
24,
24,
24,
25,
25,
25,
25,
25,
25,
26,
26,
24,
25,
26,
29,
29,
22,
24,
24,
25,
23,
25,
23,
24,
24,
23,
24,
25,
25,
25,
24,
24,
25,
24,
24,
23,
29,
21,
29,
24,
24,
25,
25,
23,
30,
24,
24,
24,
23,
27,
23,
24,
23,
24,
24,
23,
23,
24,
24,
21,
19,
23,
24,
24,
23,
23,
23,
24,
23,
23,
23,
23,
23,
23,
18,
21,
23,
23,
23,
24,
23,
20,
24,
23,
23,
24,
21,
23,
23,
24,
22,
23,
23,
21,
37,
19,
24,
24,
20,
29,
21,
21,
21,
16,
17,
24,
19,
23,
22,
23,
22,
22,
21,
22,
21,
21,
19,
20,
20,
23,
23,
21,
21,
21,
20,
20,
21,
22,
21,
21,
22,
15,
21,
25,
27,
21,
20,
19,
19,
20,
20,
20,
20,
20,
21,
19,
20,
14,
16,
19,
19,
20,
19,
19,
19,
19,
20,
19,
20,
18,
19,
20,
12,
17,
17,
20,
19,
17,
17,
20,
18,
19,
19,
19,
19,
17,
18,
15,
16,
16,
17,
16,
16,
16,
17,
19,
19,
17,
20,
15,
20,
19,
20,
21,
19,
19,
17,
17,
17,
18,
20,
20,
18,
18,
17,
19,
14,
17,
19,
19,
19,
19,
17,
19,
17,
17,
17,
19,
17,
19,
17,
19,
19,
19,
18,
17,
19,
19,
17,
15,
19,
19,
18,
17,
20,
17,
20,
20,
19,
19,
19,
18,
20,
17,
19,
17,
18,
19,
19,
19,
17,
21,
21,
21,
19,
18,
19,
20,
18,
18,
17,
19,
20,
19,
17,
14,
19,
19,
18,
17,
17,
18,
19,
17,
16,
19,
19,
19,
17,
20,
20,
19,
19,
18,
17,
17,
17,
17,
17,
11,
18,
16,
17,
17,
17,
15,
16,
17,
17,
16,
16,
16,
17,
16,
15,
16,
17,
16,
16,
18,
14,
15,
15,
16,
17,
17,
17,
19,
16,
16,
16,
16,
16,
17,
13,
15,
15,
16,
15,
16,
15,
16,
16,
16,
16,
16,
15,
15,
16,
16,
15,
13,
15,
15,
15,
15,
16,
17,
16,
16,
16,
13,
13,
14,
16,
16,
15,
15,
16,
15,
15,
15,
16,
16,
15,
13,
13,
15,
21,
12,
15,
14,
15,
16,
16,
16,
16,
17,
14,
13,
13,
14,
9,
15,
17,
15,
17,
14,
15,
16,
15,
13,
15,
15,
19,
17,
15,
20,
13,
15,
15,
15,
15,
16,
14,
16,
16,
16,
14,
17,
16,
15,
16,
15,
14,
15,
13,
10,
15,
13,
13,
13,
15,
16,
13,
15,
14,
16,
13,
15,
16,
13,
13,
13,
13,
13,
14,
17,
15,
16,
13,
13,
17,
15,
12,
13,
13,
12,
13,
12,
12,
12,
13,
13,
15,
15,
15,
16,
16,
13,
15,
12,
13,
13,
13,
12,
13,
13,
14,
11,
13,
12,
11,
15,
13,
13,
11,
15,
15,
16,
14,
13,
14,
13,
15,
14,
15,
16,
14,
16,
11,
15,
15,
15,
13,
13,
13,
13,
13,
13,
18,
13,
12,
13,
13,
13,
13,
12,
13,
13,
14,
14,
11,
13,
13,
11,
16,
15,
14,
14,
13,
14,
13,
14,
13,
13,
17,
16,
13,
13,
15,
13,
13,
13,
13,
16,
12,
14,
13,
13,
13,
16,
13,
15,
11,
14,
14,
13,
15,
15,
13,
13,
12,
13,
16,
15,
12,
9,
13,
17,
15,
13,
13,
13,
13,
13,
13,
13,
13,
12,
13,
15,
15,
22,
11,
13,
15,
15,
15,
14,
14,
13,
13,
13,
13,
14,
12,
15,
16,
13,
13,
13,
14,
14,
14,
12,
13,
13,
13,
12,
12,
13,
15,
14,
13,
13,
13,
13,
13,
13,
11,
13,
14,
15,
15,
13,
15,
19,
14,
14,
14,
14,
14,
14,
11,
14,
13,
15,
14,
14,
14,
13,
15,
15,
13,
15,
13,
15,
13,
13,
13,
13,
13,
12,
12,
13,
11,
14,
15,
15,
13,
13,
13,
14,
13,
13,
14,
13,
13,
12,
15,
15,
13,
13,
14,
12,
14,
12,
15,
16,
13,
12,
13,
14,
8,
11,
11,
11,
13,
15,
14,
12,
12,
12,
13,
13,
13,
12,
12,
14,
11,
11,
13,
13,
13,
13,
13,
13,
13,
13,
13,
13,
13,
13,
12,
12,
13,
13,
13,
13,
13,
7,
12,
12,
13,
13,
12,
15,
15,
15,
13,
13,
13,
12,
12,
13,
13,
13,
12,
13,
13,
17,
17,
13,
12,
11,
13,
12,
13,
13,
12,
12,
13,
13,
7,
13,
13,
16,
14,
12,
12,
13,
12,
13,
13,
9,
12,
12,
13,
15,
8,
8,
13,
11,
13,
12,
14,
13,
13,
12,
13,
12,
13,
13,
11,
11,
12,
11,
12,
12,
12,
12,
12,
13,
12,
11,
14,
13,
13,
13,
15,
11,
13,
12,
13,
12,
11,
12,
12,
12,
13,
13,
13,
12,
10,
13,
13,
13,
14,
13,
12,
15,
13,
13,
11,
13,
13,
12,
17,
9,
12,
12,
12,
12,
13,
10,
12,
12,
13,
9,
9,
11,
4,
11,
11,
12,
10,
12,
12,
12,
13,
12,
12,
12,
11,
13,
12,
10,
12,
13,
12,
11,
11,
11,
11,
10,
12,
11,
11,
12,
12,
5,
13,
13,
13,
13,
12,
12,
10,
13,
13,
13,
13,
12,
12,
11,
9,
11,
13,
11,
11,
13,
12,
13,
11,
12,
13,
12,
12,
14,
10,
11,
12,
13,
11,
12,
12,
12,
12,
11,
12,
12,
11,
11,
12,
13,
13,
13,
13,
12,
13,
13,
13,
11,
12,
12,
12,
13,
11,
12,
9,
11,
13,
12,
13,
12,
12,
12,
11,
11,
15,
13,
9,
12,
17,
14,
15,
16,
14,
16,
15,
16,
13,
15,
15,
15,
16,
12,
16,
13,
15,
14,
15,
11,
13,
13,
12,
13,
12,
12,
12,
7,
13,
12,
14,
15,
12,
13,
12,
13,
11,
13,
15,
15,
13,
13,
17,
12,
12,
12,
13,
11,
13,
12,
13,
12,
13,
13,
11,
12,
9,
12,
11,
13,
12,
11,
13,
12,
13,
11,
13,
13,
21,
13,
13,
14,
15,
13,
13,
14,
12,
12,
11,
15,
12,
12,
11,
12,
12,
9,
9,
11,
11,
13,
12,
13,
12,
12,
12,
12,
11,
10,
11,
15,
12,
11,
12,
13,
11,
11,
12,
11,
12,
11,
11,
11,
13,
13,
16,
12,
12,
12,
9,
13,
13,
13,
13,
13,
12,
12,
12,
13,
16,
10,
11,
12,
14,
13,
13,
11,
13,
13,
13,
12,
11,
12,
13,
15,
11,
12,
12,
12,
12,
12,
8,
12,
12,
12,
13,
12,
13,
11,
10,
11,
13,
13,
13,
12,
13,
11,
11,
15,
12,
13,
11,
15,
12,
13,
11,
12,
13,
13,
13,
12,
12,
13,
11,
13,
13,
15,
11,
13,
13,
11,
12,
12,
13,
13,
13,
13,
20,
13,
13,
11,
17,
16,
13,
11,
13,
14,
13,
12,
13,
13,
13,
12,
13,
13,
8,
11,
13,
13,
12,
12,
12,
11,
13,
13,
13,
10,
13,
12,
15,
13,
13,
13,
11,
12,
14,
11,
12,
12,
12,
13,
13,
13,
12,
11,
11,
14,
13,
13,
12,
13,
13,
11,
11,
12,
13,
13,
13,
13,
13,
13,
12,
12,
13,
12,
12,
12,
11,
14,
12,
12,
13,
8,
9,
12,
13,
13,
12,
13,
13,
13,
13,
12,
13,
11,
14,
9,
11,
14,
14,
13,
13,
12,
12,
12,
13,
11,
12,
4,
13,
13,
13,
14,
11,
12,
13,
13,
13,
13,
13,
13,
12,
13,
13,
13,
19,
9,
12,
13,
13,
13,
14,
21,
11,
12,
12,
12,
12,
13,
13,
8,
10,
11,
12,
12,
12,
13,
13,
13,
12,
13,
14,
15,
15,
17,
10,
8,
12,
13,
13,
13,
13,
14,
14,
11,
13,
15,
13,
13,
9,
12,
13,
13,
13,
13,
15,
15,
13,
13,
13,
13,
11,
13,
6,
13,
13,
13,
13,
13,
13,
13,
13,
13,
13,
12,
11,
12,
12,
13,
13,
12,
11,
11,
13,
13,
12,
15,
12,
13,
15,
12,
11,
13,
10,
11,
12,
10,
11,
12,
12,
12,
12,
11,
13,
12,
13,
14,
11,
11,
14,
13,
12,
12,
12,
12,
12,
12,
11,
11,
11,
12,
14,
11,
11,
10,
12,
12,
8,
8,
12,
12,
12,
12,
12,
11,
11,
13,
13,
12,
13,
13,
12,
12,
11,
11,
12,
12,
11,
9,
12,
13,
13,
11,
11,
11,
11,
11,
10,
12,
11,
12,
11,
11,
12,
6,
9,
11,
14,
12,
11,
11,
12,
12,
12,
11,
12,
12,
11,
11,
19,
12,
10,
12,
13,
13,
11,
11,
11,
12,
12,
12,
12,
11,
14,
11,
11,
12,
12,
11,
11,
11,
11,
10,
11,
12,
11,
11,
11,
15,
13,
12,
12,
11,
12,
12,
11,
12,
12,
12,
13,
12,
11,
9,
11,
10,
11,
12,
11,
11,
12,
12,
12,
12,
11,
13,
11,
11,
9,
12,
12,
11,
12,
12,
12,
13,
11,
12,
12,
11,
12,
9,
11,
11,
11,
12,
12,
15,
11,
12,
11,
11,
12,
13,
12,
13,
13,
11,
12,
11,
11,
9,
12,
11,
13,
13,
12,
12,
11,
11,
-3,
3,
12,
12,
12,
12,
11,
11,
11,
11,
10,
12,
9,
13,
13,
11,
13,
12,
12,
13,
12,
12,
11,
14,
11,
11,
11,
12,
11,
11,
12,
11,
10,
11,
11,
12,
11,
12,
12,
11,
12,
14,
12,
12,
13,
11,
13,
9,
9,
11,
12,
9,
12,
12,
12,
11,
11,
11,
16,
10,
11,
12,
12,
12,
13,
11,
13,
11,
11,
12,
12,
12,
12,
9,
12,
12,
12,
14,
11,
11,
13,
12,
12,
13,
13,
11,
12,
8,
11,
11,
11,
13,
13,
12,
11,
11,
11,
12,
15,
10,
Null,
Null,
Null,
Null,
Null,
Null,
Null,
Null,
Null,
Null,
Null,
Null,
Null,
Null,
Null,
Null,
Null,
Null,
Null,
Null,
Null,
Null,
Null,
Null,
Null,
Null,
Null,
Null,
Null,
Null,
Null,
Null,
Null,
Null,
Null,
Null,
Null,
Null,
Null,
Null,
Null,
Null,
Null,
Null,
Null,
Null,
Null,
Null,
Null,
Null,
Null,
Null,
Null,
Null,
Null,
Null,
Null,
Null,
Null,
Null,
Null,
Null,
Null,
Null,
Null,
Null,
Null,
Null,
Null,
Null,
Null,
Null,
Null,
Null,
Null,
Null,
Null,
Null,
Null,
Null,
Null,
Null,
Null,
Null,
Null,
Null,
Null,
Null,
Null,
Null,
Null,
Null,
Null,
Null,
Null,
Null,
Null,
Null,
Null,
Null,
Null,
Null,
Null,
Null,
Null,
Null,
Null,
Null,
Null,
Null,
Null,
Null,
Null,
Null,
Null,
Null,
Null,
Null,
Null,
Null,
Null,
Null,
Null,
Null,
Null,
Null,
Null,
Null,
Null,
Null,
Null,
Null,
Null,
Null,
Null,
Null,
Null,
Null,
Null,
Null,
Null,
Null,
Null,
Null,
Null,
Null,
Null,
Null,
Null,
Null,
Null,
Null,
Null,
Null,
Null,
Null,
Null,
Null,
Null,
Null,
Null,
Null,
Null,
Null,
Null,
Null,
Null,
Null,
Null,
Null,
Null,
Null,
Null,
Null,
Null,
Null,
Null,
Null,
Null,
Null,
Null,
Null,
Null,
Null,
Null,
Null,
Null,
Null,
Null,
Null,
Null,
Null,
Null,
Null,
Null,
Null,
Null,
Null,
Null,
Null,
Null,
Null,
Null,
Null,
Null,
Null,
Null,
Null,
Null,
Null,
Null,
Null,
Null,
Null,
Null,
Null,
Null,
Null,
Null,
Null,
Null,
Null,
Null,
Null,
Null,
Null,
Null,
Null,
Null,
Null,
Null,
Null,
Null,
Null,
Null,
Null,
Null,
Null,
Null,
Null,
Null,
Null,
Null,
Null,
Null,
Null,
Null,
Null,
Null,
Null,
Null,
Null,
Null,
Null,
Null,
Null,
Null,
Null,
Null,
Null,
Null,
Null,
Null,
Null,
Null,
Null,
Null,
Null,
Null,
Null,
Null,
Null,
Null,
Null,
Null,
Null,
Null,
Null,
Null,
Null,
Null,
Null,
Null,
Null,
Null,
Null,
Null,
Null,
Null,
Null,
Null,
Null,
Null,
Null,
Null,
Null,
Null,
Null,
Null,
Null,
Null,
Null,
Null,
Null,
Null,
Null,
Null,
Null,
Null,
Null,
Null,
Null,
Null,
Null,
Null,
Null,
Null,
Null,
Null,
Null,
Null,
Null,
Null,
Null,
Null,
Null,
Null,
Null,
Null,
Null,
Null,
Null,
Null,
Null,
Null,
Null,
Null,
Null,
Null,
Null,
Null,
Null,
Null,
Null,
Null,
Null,
Null,
Null,
Null,
Null,
Null,
Null,
Null,
Null,
Null,
Null,
Null,
Null,
Null,
Null,
Null,
Null,
Null,
Null,
Null,
Null,
Null,
Null,
Null,
Null,
Null,
Null,
Null,
Null,
Null,
Null,
Null,
Null,
Null,
Null,
Null,
Null,
Null,
Null,
Null,
Null,
Null,
Null,
Null,
Null,
Null,
Null,
Null,
Null,
Null,
Null,
Null,
Null,
Null,
Null,
Null,
Null,
Null,
Null,
Null,
Null,
Null,
Null,
Null,
Null,
Null,
Null,
Null,
Null,
Null,
Null,
Null,
Null,
Null,
Null,
Null,
Null,
Null,
Null,
Null,
Null,
Null,
Null,
Null,
Null,
Null,
Null,
Null,
Null,
Null,
Null,
Null,
Null,
Null,
Null,
Null,
Null,
Null,
Null,
Null,
Null,
Null,
Null,
Null,
Null,
Null,
Null,
Null,
Null,
Null,
Null,
Null,
Null,
Null,
Null,
