Datos experimentales/DATOS 26-3-24/ALL0000/A0000CH1.CSV

Memory Length,4000,
Trigger Level,0.000E+00,
Source,CH1,
Vertical Units,V,
Vertical Scale,2.000E-02,
Vertical Position,-1.200E-02,
Horizontal Units,s,
Horizontal Scale,1.000E+00,
Horizontal Position,0.000E+00,
Horizontal Mode,Roll Mode,
Sampling Period,4.000E-03,
Firmware, V1.21,
Waveform Data,
15,
10,
10,
9,
15,
15,
9,
9,
9,
9,
8,
11,
9,
10,
9,
11,
8,
10,
10,
10,
11,
9,
10,
9,
9,
9,
10,
9,
9,
9,
10,
9,
9,
9,
9,
8,
8,
8,
11,
12,
11,
9,
7,
10,
7,
9,
9,
10,
9,
9,
9,
9,
5,
10,
10,
9,
9,
10,
9,
10,
10,
5,
11,
9,
10,
9,
9,
11,
10,
10,
9,
9,
10,
10,
8,
8,
9,
9,
9,
9,
9,
11,
9,
11,
10,
8,
11,
9,
10,
10,
10,
9,
9,
9,
9,
9,
11,
11,
9,
7,
15,
8,
8,
7,
8,
9,
10,
10,
10,
9,
11,
9,
9,
9,
9,
11,
11,
9,
9,
9,
9,
11,
11,
10,
9,
8,
9,
8,
9,
11,
11,
9,
9,
9,
9,
10,
9,
7,
8,
9,
9,
9,
11,
10,
11,
9,
9,
11,
9,
9,
10,
9,
8,
9,
11,
9,
10,
10,
7,
7,
10,
15,
10,
9,
6,
10,
8,
9,
9,
11,
8,
10,
9,
9,
9,
9,
9,
9,
10,
9,
9,
8,
9,
11,
9,
9,
9,
9,
9,
9,
8,
10,
11,
11,
9,
11,
8,
8,
9,
9,
9,
11,
11,
9,
9,
9,
9,
8,
9,
11,
8,
11,
9,
7,
7,
7,
9,
9,
9,
9,
9,
8,
10,
9,
9,
9,
9,
9,
10,
13,
13,
9,
10,
9,
9,
11,
9,
11,
8,
9,
8,
9,
9,
9,
9,
9,
14,
9,
9,
11,
11,
9,
9,
9,
9,
8,
7,
7,
9,
15,
9,
11,
8,
9,
9,
9,
9,
10,
8,
9,
9,
8,
8,
9,
8,
9,
9,
10,
9,
9,
9,
9,
9,
10,
9,
9,
9,
10,
10,
11,
9,
8,
9,
9,
8,
9,
9,
9,
10,
10,
10,
10,
8,
9,
8,
9,
11,
13,
9,
9,
9,
13,
11,
11,
11,
11,
7,
9,
11,
9,
10,
9,
9,
6,
10,
9,
9,
10,
10,
9,
4,
10,
9,
9,
10,
9,
8,
10,
11,
9,
9,
9,
9,
9,
9,
8,
12,
9,
9,
9,
10,
9,
8,
10,
13,
9,
9,
9,
9,
9,
11,
11,
9,
9,
10,
8,
9,
8,
10,
9,
9,
9,
9,
9,
8,
9,
10,
9,
9,
9,
9,
9,
10,
3,
3,
8,
9,
9,
10,
10,
10,
11,
11,
13,
8,
9,
11,
9,
11,
11,
11,
9,
9,
9,
9,
10,
6,
10,
9,
9,
9,
9,
9,
8,
9,
10,
10,
10,
8,
9,
10,
10,
11,
14,
6,
8,
9,
9,
10,
10,
7,
8,
9,
10,
10,
10,
9,
9,
9,
10,
9,
9,
10,
11,
10,
5,
9,
7,
9,
9,
9,
10,
6,
8,
14,
14,
9,
9,
9,
8,
9,
11,
11,
9,
9,
9,
10,
9,
9,
10,
10,
9,
11,
9,
9,
9,
10,
9,
7,
8,
9,
9,
9,
9,
11,
9,
11,
9,
9,
8,
8,
9,
8,
8,
11,
10,
9,
9,
10,
9,
9,
12,
9,
9,
9,
9,
9,
9,
9,
9,
12,
12,
9,
9,
8,
9,
9,
11,
11,
9,
9,
7,
9,
11,
9,
11,
11,
9,
7,
10,
8,
11,
9,
10,
9,
8,
8,
9,
9,
12,
12,
10,
10,
3,
10,
9,
11,
10,
9,
9,
10,
10,
9,
9,
9,
11,
9,
9,
8,
9,
8,
9,
10,
12,
9,
6,
9,
9,
9,
10,
7,
9,
9,
10,
9,
10,
9,
11,
10,
8,
10,
10,
9,
9,
10,
10,
8,
9,
9,
11,
10,
9,
10,
8,
11,
9,
9,
9,
9,
17,
8,
9,
10,
9,
9,
10,
7,
9,
9,
9,
9,
9,
9,
9,
9,
9,
9,
10,
9,
9,
9,
10,
10,
10,
10,
11,
10,
9,
10,
9,
9,
11,
10,
2,
8,
9,
9,
12,
12,
9,
7,
13,
10,
10,
8,
10,
9,
11,
9,
7,
8,
10,
10,
10,
10,
11,
9,
9,
9,
9,
9,
9,
9,
11,
11,
11,
11,
9,
9,
9,
9,
9,
11,
11,
9,
9,
8,
11,
10,
9,
9,
10,
9,
9,
9,
10,
9,
8,
8,
9,
11,
9,
10,
7,
7,
9,
11,
9,
9,
10,
9,
9,
11,
11,
9,
10,
9,
9,
9,
9,
9,
8,
9,
12,
11,
9,
9,
9,
11,
9,
9,
9,
9,
9,
9,
9,
9,
10,
4,
9,
9,
9,
9,
9,
9,
10,
10,
8,
8,
9,
9,
8,
9,
9,
9,
9,
9,
9,
10,
5,
5,
10,
9,
9,
9,
7,
9,
9,
11,
7,
9,
9,
10,
10,
10,
8,
9,
8,
9,
9,
10,
10,
12,
9,
9,
9,
10,
10,
9,
7,
11,
7,
10,
7,
10,
9,
9,
9,
9,
12,
9,
10,
10,
9,
15,
9,
9,
9,
11,
12,
9,
9,
9,
9,
9,
9,
9,
9,
11,
9,
10,
9,
9,
9,
11,
9,
12,
9,
11,
10,
10,
9,
8,
9,
10,
9,
9,
11,
9,
9,
10,
9,
9,
8,
8,
11,
9,
9,
12,
9,
11,
9,
10,
10,
10,
15,
9,
10,
9,
9,
7,
9,
9,
9,
9,
9,
10,
10,
9,
9,
9,
7,
7,
9,
9,
9,
9,
8,
8,
13,
9,
9,
8,
9,
9,
11,
11,
10,
10,
9,
9,
9,
11,
10,
9,
9,
9,
8,
10,
9,
9,
8,
9,
9,
10,
9,
8,
10,
8,
11,
10,
7,
8,
8,
9,
9,
9,
10,
9,
9,
9,
10,
9,
9,
9,
9,
9,
9,
9,
9,
9,
9,
8,
9,
10,
9,
9,
10,
8,
8,
11,
10,
10,
10,
9,
8,
9,
9,
9,
9,
10,
9,
9,
10,
9,
9,
5,
5,
9,
9,
9,
9,
7,
9,
10,
9,
9,
9,
9,
9,
9,
9,
7,
10,
8,
9,
9,
9,
9,
8,
10,
11,
11,
8,
8,
10,
9,
10,
9,
10,
11,
11,
10,
9,
10,
10,
8,
9,
9,
9,
9,
11,
9,
10,
9,
8,
8,
10,
11,
10,
9,
8,
9,
9,
11,
9,
9,
9,
9,
10,
9,
9,
10,
7,
10,
9,
10,
10,
10,
9,
11,
9,
9,
8,
10,
9,
8,
9,
8,
10,
10,
10,
9,
11,
9,
6,
10,
8,
9,
10,
8,
8,
9,
11,
9,
9,
9,
5,
9,
9,
11,
11,
11,
9,
9,
9,
9,
11,
8,
8,
10,
10,
10,
9,
10,
9,
8,
8,
9,
9,
9,
10,
10,
10,
9,
9,
9,
8,
10,
11,
9,
9,
9,
11,
9,
9,
9,
9,
10,
9,
7,
10,
9,
5,
9,
9,
9,
9,
6,
9,
10,
10,
9,
10,
9,
11,
11,
9,
9,
9,
8,
10,
11,
9,
7,
9,
9,
8,
9,
9,
8,
10,
9,
10,
9,
9,
10,
5,
9,
5,
5,
9,
9,
10,
9,
9,
9,
8,
9,
10,
10,
8,
9,
9,
8,
9,
12,
9,
10,
9,
10,
11,
8,
8,
10,
10,
9,
9,
9,
9,
11,
8,
9,
9,
9,
9,
10,
9,
8,
11,
9,
9,
10,
7,
9,
15,
9,
9,
9,
9,
9,
9,
9,
8,
9,
10,
10,
10,
9,
10,
15,
11,
9,
8,
9,
8,
9,
9,
9,
9,
9,
10,
9,
9,
9,
9,
9,
6,
9,
11,
9,
10,
9,
9,
6,
9,
9,
11,
8,
11,
9,
9,
10,
8,
10,
9,
11,
8,
8,
9,
9,
13,
10,
9,
8,
9,
11,
10,
11,
7,
9,
10,
9,
9,
10,
9,
13,
10,
9,
9,
9,
10,
9,
11,
9,
9,
9,
9,
9,
9,
9,
9,
10,
11,
8,
10,
9,
9,
10,
9,
9,
10,
7,
9,
10,
10,
9,
9,
9,
10,
10,
9,
11,
9,
9,
10,
10,
10,
8,
14,
10,
11,
10,
9,
9,
9,
14,
9,
9,
8,
10,
9,
11,
9,
8,
10,
9,
11,
9,
9,
9,
8,
9,
9,
9,
9,
8,
9,
11,
9,
8,
9,
9,
8,
11,
11,
8,
8,
9,
9,
9,
9,
8,
8,
16,
10,
8,
9,
10,
9,
9,
9,
9,
13,
9,
9,
8,
9,
9,
9,
9,
10,
10,
10,
10,
10,
8,
10,
9,
7,
11,
6,
11,
11,
9,
12,
8,
8,
9,
9,
13,
9,
9,
9,
9,
10,
8,
9,
9,
9,
9,
10,
8,
8,
10,
10,
9,
10,
11,
9,
8,
10,
9,
10,
9,
9,
8,
8,
9,
11,
9,
11,
9,
9,
8,
18,
12,
7,
15,
10,
9,
9,
10,
9,
10,
5,
8,
9,
10,
9,
8,
11,
10,
10,
9,
9,
9,
9,
10,
10,
11,
10,
10,
8,
9,
9,
9,
8,
10,
10,
10,
9,
10,
9,
8,
9,
9,
6,
8,
9,
10,
8,
12,
12,
9,
7,
9,
10,
9,
9,
10,
8,
9,
9,
8,
9,
10,
10,
9,
5,
9,
11,
10,
8,
9,
8,
8,
9,
9,
10,
9,
9,
8,
9,
9,
11,
9,
9,
9,
9,
9,
8,
9,
9,
9,
9,
8,
9,
10,
11,
13,
9,
9,
9,
8,
10,
10,
11,
8,
9,
9,
9,
9,
9,
9,
8,
9,
9,
9,
9,
9,
8,
10,
13,
8,
11,
11,
9,
9,
9,
9,
9,
9,
9,
5,
9,
10,
10,
9,
9,
9,
11,
10,
8,
9,
9,
9,
12,
9,
9,
9,
10,
9,
9,
11,
11,
10,
11,
9,
9,
10,
12,
9,
9,
9,
10,
10,
8,
8,
9,
13,
13,
9,
10,
9,
9,
9,
10,
11,
11,
9,
9,
9,
8,
10,
9,
8,
10,
11,
9,
9,
9,
9,
10,
10,
10,
9,
9,
9,
9,
10,
9,
9,
9,
9,
9,
7,
9,
18,
11,
9,
10,
10,
9,
9,
9,
11,
7,
10,
9,
9,
10,
9,
9,
9,
9,
9,
10,
10,
9,
9,
9,
9,
9,
9,
11,
9,
9,
9,
9,
13,
13,
11,
8,
4,
11,
13,
10,
9,
9,
8,
8,
9,
9,
9,
9,
9,
13,
9,
9,
9,
9,
10,
9,
9,
9,
8,
9,
9,
10,
10,
8,
8,
11,
9,
9,
9,
10,
11,
9,
11,
12,
12,
11,
11,
12,
11,
12,
11,
13,
14,
12,
14,
15,
13,
15,
19,
19,
17,
18,
19,
20,
19,
20,
23,
23,
24,
22,
24,
25,
25,
23,
26,
23,
27,
28,
28,
28,
29,
29,
29,
31,
32,
31,
32,
34,
31,
31,
37,
36,
37,
37,
39,
41,
41,
44,
40,
43,
42,
44,
46,
46,
48,
53,
49,
49,
51,
51,
51,
53,
53,
49,
56,
53,
57,
57,
59,
59,
61,
61,
56,
62,
62,
66,
65,
68,
68,
65,
68,
69,
69,
70,
68,
73,
69,
73,
72,
73,
73,
74,
75,
76,
75,
75,
76,
75,
77,
79,
77,
77,
75,
75,
77,
77,
78,
77,
78,
78,
79,
79,
79,
79,
79,
78,
80,
79,
76,
80,
79,
80,
79,
79,
77,
87,
81,
79,
77,
79,
80,
79,
80,
79,
77,
79,
79,
77,
77,
77,
77,
77,
79,
80,
78,
77,
79,
77,
79,
77,
80,
77,
77,
73,
77,
76,
77,
77,
77,
77,
76,
76,
76,
79,
76,
77,
77,
75,
73,
75,
75,
64,
74,
72,
73,
65,
76,
72,
73,
71,
71,
71,
72,
71,
73,
72,
73,
71,
71,
66,
70,
70,
69,
69,
70,
68,
68,
71,
68,
71,
67,
66,
67,
67,
69,
65,
68,
67,
67,
66,
67,
66,
64,
64,
67,
66,
64,
66,
64,
65,
63,
63,
63,
63,
64,
62,
62,
63,
62,
61,
61,
61,
63,
58,
61,
61,
61,
60,
61,
56,
61,
61,
61,
61,
64,
60,
61,
60,
58,
60,
60,
59,
50,
58,
57,
57,
57,
58,
56,
57,
59,
58,
56,
56,
56,
57,
57,
57,
60,
56,
57,
56,
57,
55,
57,
55,
56,
59,
55,
55,
55,
56,
56,
54,
52,
55,
53,
53,
53,
55,
53,
53,
53,
51,
52,
46,
51,
49,
51,
52,
51,
51,
48,
51,
52,
51,
51,
51,
49,
51,
50,
52,
51,
51,
51,
50,
49,
51,
51,
49,
49,
51,
51,
48,
48,
49,
51,
47,
48,
47,
48,
48,
47,
48,
46,
45,
45,
41,
47,
45,
45,
47,
45,
45,
45,
46,
44,
47,
46,
46,
41,
47,
47,
48,
45,
46,
47,
44,
47,
47,
45,
46,
46,
46,
45,
43,
48,
46,
45,
45,
48,
45,
42,
45,
45,
42,
44,
44,
43,
44,
42,
45,
44,
44,
45,
43,
41,
43,
45,
44,
44,
43,
42,
43,
60,
47,
45,
44,
44,
45,
45,
45,
44,
8,
44,
44,
44,
44,
42,
42,
43,
44,
44,
41,
43,
45,
41,
43,
42,
44,
44,
41,
43,
43,
43,
41,
40,
43,
42,
44,
47,
40,
41,
43,
43,
37,
40,
40,
41,
41,
42,
40,
41,
40,
42,
40,
39,
39,
38,
38,
41,
41,
40,
40,
39,
37,
40,
41,
40,
39,
39,
38,
38,
40,
39,
37,
38,
37,
39,
39,
34,
37,
38,
35,
36,
32,
32,
35,
36,
37,
37,
38,
35,
33,
39,
36,
34,
36,
37,
37,
37,
39,
38,
35,
35,
33,
35,
36,
37,
40,
37,
37,
36,
36,
36,
37,
39,
33,
33,
35,
35,
37,
35,
34,
32,
35,
34,
34,
33,
34,
31,
33,
34,
36,
31,
33,
32,
33,
33,
32,
32,
32,
31,
31,
32,
33,
32,
32,
33,
32,
31,
33,
32,
32,
32,
33,
33,
33,
31,
33,
31,
31,
33,
29,
31,
32,
32,
33,
32,
33,
33,
31,
35,
31,
44,
33,
33,
32,
33,
32,
32,
31,
33,
31,
31,
32,
32,
28,
32,
32,
32,
31,
29,
31,
31,
31,
31,
31,
31,
32,
31,
32,
29,
32,
35,
23,
31,
30,
30,
31,
31,
30,
27,
27,
29,
31,
31,
31,
29,
29,
32,
29,
29,
29,
29,
30,
31,
31,
31,
28,
31,
29,
34,
31,
29,
29,
33,
29,
29,
29,
29,
29,
28,
29,
29,
27,
29,
29,
29,
28,
30,
30,
32,
29,
29,
29,
31,
29,
29,
28,
29,
27,
28,
28,
28,
29,
27,
28,
28,
28,
28,
27,
27,
28,
29,
27,
27,
21,
26,
22,
27,
27,
27,
27,
25,
28,
26,
27,
25,
27,
25,
26,
25,
27,
25,
26,
22,
22,
24,
24,
25,
27,
25,
25,
25,
23,
25,
27,
24,
27,
24,
24,
24,
24,
25,
25,
25,
25,
24,
25,
24,
20,
24,
24,
24,
23,
25,
24,
24,
23,
29,
29,
25,
24,
28,
24,
23,
9,
24,
24,
25,
24,
24,
23,
23,
25,
26,
23,
24,
27,
20,
24,
23,
23,
23,
23,
24,
23,
25,
23,
20,
24,
24,
24,
21,
23,
24,
24,
23,
23,
23,
24,
24,
27,
23,
23,
21,
22,
21,
26,
21,
21,
19,
26,
23,
20,
23,
21,
20,
21,
21,
21,
20,
21,
21,
20,
22,
23,
21,
21,
21,
16,
19,
20,
21,
20,
21,
19,
20,
20,
21,
20,
21,
20,
20,
20,
20,
21,
19,
21,
19,
17,
18,
18,
16,
20,
20,
19,
21,
20,
17,
18,
24,
19,
20,
20,
17,
17,
21,
24,
19,
20,
19,
18,
19,
19,
17,
21,
21,
19,
19,
19,
19,
20,
19,
20,
20,
17,
19,
18,
18,
19,
18,
16,
18,
19,
19,
20,
19,
17,
17,
19,
16,
19,
14,
19,
19,
17,
19,
19,
20,
19,
17,
20,
17,
17,
17,
17,
19,
17,
17,
19,
17,
17,
18,
17,
18,
15,
17,
17,
17,
19,
17,
18,
19,
17,
16,
16,
23,
20,
18,
17,
19,
17,
17,
18,
17,
16,
17,
18,
18,
15,
16,
18,
15,
15,
18,
17,
17,
31,
17,
17,
16,
17,
17,
17,
17,
17,
16,
16,
19,
17,
16,
17,
16,
16,
16,
16,
19,
15,
15,
16,
17,
16,
17,
17,
16,
17,
14,
16,
16,
17,
15,
16,
16,
16,
16,
16,
16,
15,
15,
16,
15,
15,
15,
15,
13,
13,
16,
14,
14,
17,
15,
15,
13,
15,
16,
16,
23,
15,
15,
15,
15,
14,
15,
13,
12,
16,
13,
13,
15,
16,
13,
15,
19,
16,
16,
14,
20,
13,
15,
16,
14,
16,
14,
13,
15,
17,
13,
15,
15,
13,
12,
14,
14,
13,
16,
14,
16,
14,
16,
14,
13,
15,
14,
13,
13,
12,
14,
14,
15,
15,
13,
13,
15,
13,
15,
14,
10,
14,
14,
14,
12,
15,
13,
13,
15,
16,
13,
12,
13,
15,
13,
9,
13,
13,
13,
13,
13,
13,
13,
13,
12,
13,
14,
12,
13,
15,
13,
13,
13,
13,
12,
10,
13,
13,
11,
12,
7,
12,
13,
13,
13,
13,
13,
12,
12,
16,
12,
15,
14,
13,
13,
14,
12,
11,
13,
13,
8,
15,
15,
13,
12,
13,
15,
14,
13,
14,
12,
13,
13,
13,
13,
13,
13,
12,
13,
13,
13,
12,
11,
11,
13,
13,
13,
11,
15,
15,
14,
13,
13,
12,
12,
13,
12,
13,
13,
13,
15,
11,
11,
11,
13,
13,
11,
13,
12,
14,
13,
7,
13,
13,
11,
13,
13,
13,
12,
14,
12,
9,
12,
11,
21,
13,
21,
10,
14,
14,
13,
7,
12,
13,
13,
11,
13,
13,
11,
13,
13,
12,
11,
13,
13,
9,
12,
13,
12,
13,
13,
15,
13,
14,
13,
13,
13,
13,
13,
16,
13,
13,
12,
13,
13,
12,
13,
13,
14,
13,
14,
11,
11,
13,
12,
12,
9,
10,
12,
13,
12,
13,
11,
13,
12,
12,
9,
9,
14,
14,
13,
9,
13,
14,
12,
12,
12,
11,
13,
12,
15,
12,
11,
13,
13,
13,
11,
15,
16,
14,
13,
12,
12,
13,
15,
15,
14,
13,
13,
13,
11,
13,
12,
14,
13,
13,
13,
12,
13,
12,
12,
12,
12,
13,
13,
13,
13,
14,
13,
11,
11,
13,
12,
13,
11,
11,
11,
13,
13,
12,
13,
12,
12,
12,
12,
13,
11,
13,
13,
13,
10,
13,
5,
12,
14,
12,
11,
11,
12,
11,
12,
11,
12,
12,
13,
13,
12,
12,
13,
11,
11,
11,
9,
13,
12,
12,
13,
12,
12,
13,
12,
11,
12,
13,
12,
11,
11,
12,
12,
12,
12,
12,
12,
12,
11,
12,
12,
12,
11,
12,
12,
10,
11,
13,
13,
11,
11,
9,
11,
12,
11,
12,
13,
11,
11,
11,
13,
11,
13,
13,
12,
14,
12,
7,
11,
13,
11,
13,
11,
11,
15,
11,
9,
11,
11,
11,
11,
12,
13,
11,
11,
11,
11,
11,
12,
11,
8,
11,
11,
11,
12,
11,
9,
9,
12,
11,
12,
11,
11,
11,
12,
11,
11,
13,
12,
11,
11,
10,
11,
11,
11,
11,
10,
10,
16,
9,
11,
13,
10,
10,
11,
11,
9,
15,
9,
21,
12,
11,
12,
8,
13,
8,
9,
9,
11,
11,
11,
11,
11,
11,
11,
10,
9,
9,
12,
13,
9,
9,
7,
10,
11,
10,
10,
9,
31,
10,
8,
4,
12,
8,
12,
12,
12,
11,
11,
9,
9,
11,
11,
11,
9,
10,
9,
10,
10,
10,
12,
10,
10,
10,
12,
10,
9,
10,
10,
11,
10,
10,
10,
11,
11,
11,
10,
9,
10,
9,
9,
10,
5,
9,
8,
10,
9,
11,
11,
10,
11,
15,
10,
11,
13,
11,
11,
11,
11,
11,
12,
11,
10,
10,
9,
9,
10,
11,
13,
11,
8,
9,
9,
9,
9,
10,
10,
10,
11,
10,
9,
11,
9,
10,
11,
9,
10,
10,
10,
10,
10,
9,
10,
15,
9,
9,
9,
11,
10,
9,
11,
12,
11,
11,
9,
9,
10,
11,
11,
10,
11,
9,
11,
7,
11,
11,
9,
11,
10,
10,
10,
11,
11,
11,
15,
10,
10,
9,
8,
11,
10,
9,
10,
10,
11,
5,
11,
11,
10,
11,
12,
11,
8,
9,
11,
10,
10,
10,
10,
9,
10,
9,
9,
10,
10,
13,
11,
11,
10,
12,
11,
10,
11,
11,
12,
11,
13,
11,
11,
10,
11,
10,
10,
11,
11,
9,
9,
9,
9,
12,
9,
9,
11,
10,
9,
11,
11,
9,
9,
9,
11,
9,
9,
10,
12,
11,
9,
13,
8,
9,
10,
10,
9,
11,
9,
9,
9,
10,
9,
11,
11,
8,
10,
10,
10,
9,
9,
11,
10,
10,
9,
11,
9,
10,
10,
7,
11,
11,
6,
9,
9,
9,
9,
10,
10,
9,
11,
11,
9,
9,
12,
9,
10,
11,
10,
10,
11,
11,
8,
6,
6,
11,
11,
11,
10,
9,
8,
9,
10,
10,
11,
11,
11,
8,
8,
9,
10,
9,
10,
10,
9,
-10,
11,
11,
12,
10,
8,
10,
10,
9,
13,
22,
11,
11,
8,
9,
11,
10,
9,
9,
7,
17,
17,
11,
9,
9,
10,
9,
9,
9,
11,
8,
11,
7,
10,
9,
10,
10,
9,
9,
11,
7,
9,
12,
11,
10,
9,
10,
11,
11,
11,
9,
11,
4,
9,
12,
11,
10,
10,
11,
11,
10,
9,
11,
11,
11,
11,
9,
9,
10,
11,
10,
10,
8,
8,
11,
8,
9,
9,
9,
7,
10,
10,
9,
10,
10,
9,
11,
12,
10,
9,
10,
10,
11,
11,
7,
8,
11,
10,
11,
10,
10,
10,
11,
8,
11,
11,
11,
11,
10,
13,
10,
4,
9,
10,
10,
10,
9,
9,
7,
9,
9,
10,
9,
11,
10,
15,
10,
9,
11,
12,
9,
10,
8,
13,
13,
11,
9,
10,
11,
8,
11,
11,
13,
9,
10,
8,
9,
10,
10,
9,
8,
9,
10,
10,
9,
9,
8,
11,
12,
11,
8,
11,
11,
11,
11,
9,
9,
12,
11,
10,
10,
10,
10,
11,
13,
11,
9,
10,
9,
11,
11,
9,
8,
10,
11,
9,
9,
11,
10,
7,
7,
11,
11,
11,
10,
10,
11,
9,
9,
9,
10,
10,
10,
11,
9,
9,
9,
9,
9,
9,
9,
11,
9,
10,
10,
9,
11,
10,
9,
10,
16,
9,
9,
11,
9,
9,
11,
9,
10,
10,
10,
9,
9,
11,
9,
10,
10,
11,
9,
9,
8,
9,
9,
10,
11,
11,
9,
9,
10,
10,
9,
12,
9,
11,
9,
11,
10,
10,
9,
9,
9,
10,
11,
11,
11,
11,
10,
13,
9,
11,
12,
13,
9,
2,
10,
11,
11,
11,
11,
11,
9,
9,
8,
11,
9,
11,
10,
9,
9,
9,
12,
11,
7,
7,
9,
9,
11,
7,
17,
12,
7,
9,
11,
10,
9,
11,
11,
10,
10,
10,
10,
10,
10,
11,
9,
8,
10,
11,
8,
10,
10,
9,
13,
11,
12,
9,
9,
10,
13,
10,
7,
8,
9,
9,
9,
9,
10,
9,
13,
15,
9,
9,
10,
11,
11,
11,
11,
11,
10,
10,
11,
11,
10,
10,
9,
10,
10,
0,
11,
10,
11,
13,
12,
12,
10,
9,
8,
9,
9,
12,
11,
11,
9,
11,
9,
11,
11,
7,
10,
10,
10,
12,
11,
10,
10,
10,
9,
9,
9,
9,
11,
9,
10,
10,
11,
9,
12,
8,
9,
12,
12,
9,
9,
11,
9,
9,
11,
11,
13,
11,
6,
9,
9,
10,
8,
9,
11,
9,
9,
11,
9,
9,
9,
10,
11,
10,
10,
9,
9,
9,
9,
10,
0,
9,
10,
10,
9,
11,
9,
8,
9,
8,
9,
9,
10,
9,
10,
11,
9,
9,
9,
9,
9,
9,
9,
9,
10,
11,
11,
11,
10,
13,
3,
3,
11,
11,
11,
10,
11,
9,
10,
11,
8,
10,
10,
10,
9,
10,
9,
9,
11,
9,
10,
11,
10,
9,
9,
8,
9,
9,
9,
10,
10,
12,
12,
13,
9,
9,
8,
9,
9,
11,
11,
11,
10,
16,
9,
9,
9,
10,
10,
10,
11,
9,
8,
9,
9,
10,
9,
9,
9,
11,
11,
9,
10,
9,
11,
9,
10,
9,
9,
10,
9,
9,
9,
9,
10,
9,
9,
9,
9,
10,
9,
8,
9,
8,
9,
12,
9,
10,
10,
9,
9,
0,
9,
8,
10,
11,
15,
12,
11,
10,
9,
11,
11,
12,
10,
9,
11,
4,
11,
13,
11,
12,
10,
10,
9,
