Datos experimentales/DATOS 26-3-24/ALL0019/A0019CH1.CSV

Memory Length,4000,
Trigger Level,0.000E+00,
Source,CH1,
Vertical Units,V,
Vertical Scale,2.000E-02,
Vertical Position,-1.200E-02,
Horizontal Units,s,
Horizontal Scale,1.000E+00,
Horizontal Position,0.000E+00,
Horizontal Mode,Roll Mode,
Sampling Period,4.000E-03,
Firmware, V1.21,
Waveform Data,
9,
7,
3,
9,
9,
9,
8,
8,
8,
8,
8,
8,
8,
7,
9,
8,
7,
9,
8,
8,
8,
9,
9,
8,
6,
8,
8,
9,
7,
8,
8,
8,
9,
8,
9,
9,
9,
9,
9,
9,
7,
10,
9,
9,
9,
11,
7,
9,
8,
9,
9,
9,
7,
8,
9,
9,
9,
8,
10,
8,
8,
8,
6,
8,
8,
9,
9,
9,
3,
9,
8,
8,
9,
9,
10,
8,
9,
9,
3,
3,
8,
8,
9,
13,
8,
8,
9,
9,
9,
8,
4,
8,
8,
9,
8,
7,
8,
9,
8,
9,
9,
8,
8,
8,
8,
8,
8,
8,
8,
8,
8,
14,
9,
11,
9,
9,
8,
8,
8,
10,
10,
7,
7,
9,
9,
8,
8,
7,
9,
9,
9,
7,
8,
8,
8,
8,
7,
10,
8,
8,
7,
7,
8,
11,
8,
8,
8,
8,
8,
8,
9,
9,
8,
11,
11,
9,
8,
8,
9,
7,
9,
9,
8,
8,
6,
8,
12,
8,
8,
9,
9,
8,
8,
8,
9,
9,
9,
8,
8,
8,
8,
9,
9,
8,
8,
9,
9,
8,
8,
9,
9,
9,
9,
8,
9,
9,
9,
8,
11,
9,
8,
8,
8,
9,
9,
9,
9,
5,
9,
9,
8,
9,
9,
8,
8,
8,
9,
6,
6,
9,
8,
8,
8,
8,
9,
7,
9,
11,
9,
10,
8,
9,
9,
9,
9,
9,
8,
9,
9,
8,
3,
7,
8,
9,
7,
8,
8,
8,
8,
7,
4,
8,
6,
7,
8,
9,
8,
9,
7,
8,
8,
8,
8,
8,
9,
8,
9,
7,
9,
8,
9,
9,
13,
9,
10,
10,
9,
9,
7,
11,
9,
8,
7,
9,
7,
10,
9,
8,
8,
8,
8,
8,
8,
9,
7,
8,
11,
8,
8,
8,
9,
9,
9,
9,
8,
7,
9,
8,
9,
8,
8,
7,
9,
8,
9,
11,
11,
8,
8,
8,
8,
9,
8,
8,
9,
9,
8,
8,
7,
5,
8,
8,
8,
7,
8,
8,
9,
7,
6,
8,
8,
8,
9,
8,
8,
8,
9,
8,
8,
7,
3,
8,
9,
9,
9,
8,
9,
9,
6,
6,
8,
9,
9,
9,
8,
9,
8,
8,
8,
8,
9,
8,
9,
9,
8,
9,
8,
8,
7,
10,
8,
10,
7,
7,
9,
9,
9,
8,
8,
8,
9,
6,
10,
8,
9,
8,
7,
7,
9,
8,
8,
8,
8,
10,
11,
9,
8,
9,
8,
8,
9,
9,
10,
9,
8,
8,
8,
8,
8,
9,
7,
9,
9,
9,
9,
8,
9,
9,
8,
8,
9,
7,
9,
8,
9,
8,
7,
9,
7,
9,
8,
9,
7,
7,
9,
8,
8,
12,
8,
8,
11,
8,
9,
9,
11,
9,
8,
8,
8,
9,
9,
9,
10,
8,
8,
9,
8,
9,
8,
8,
8,
8,
8,
8,
8,
8,
8,
5,
8,
9,
8,
7,
9,
8,
7,
7,
9,
8,
6,
9,
8,
8,
5,
8,
8,
7,
8,
9,
8,
8,
8,
7,
9,
8,
9,
8,
9,
8,
9,
8,
9,
8,
8,
8,
9,
8,
8,
7,
9,
9,
8,
4,
9,
7,
8,
8,
9,
8,
8,
8,
8,
8,
8,
7,
9,
9,
8,
9,
7,
9,
8,
9,
11,
11,
8,
11,
7,
9,
9,
8,
10,
9,
9,
9,
11,
9,
9,
8,
9,
11,
9,
8,
8,
11,
7,
8,
8,
9,
9,
8,
8,
8,
9,
7,
9,
9,
12,
7,
8,
9,
8,
8,
8,
8,
5,
8,
9,
8,
7,
9,
8,
8,
8,
8,
8,
8,
7,
9,
8,
8,
8,
8,
8,
7,
7,
11,
8,
8,
7,
9,
9,
8,
8,
8,
9,
8,
8,
8,
8,
8,
10,
9,
11,
9,
9,
7,
7,
8,
8,
7,
7,
5,
7,
8,
7,
8,
8,
8,
7,
8,
8,
9,
8,
9,
8,
8,
8,
8,
9,
7,
8,
7,
8,
7,
9,
9,
8,
8,
8,
9,
8,
9,
9,
9,
7,
8,
8,
9,
9,
9,
8,
10,
8,
7,
1,
8,
8,
7,
8,
8,
9,
8,
8,
8,
9,
8,
10,
10,
8,
9,
8,
9,
8,
7,
9,
9,
9,
10,
9,
7,
9,
8,
8,
8,
8,
8,
8,
7,
9,
8,
8,
7,
9,
9,
13,
8,
11,
8,
12,
8,
8,
8,
7,
10,
8,
8,
7,
9,
9,
9,
8,
9,
8,
8,
7,
9,
9,
9,
3,
8,
8,
9,
7,
7,
8,
8,
8,
8,
9,
4,
9,
7,
8,
8,
9,
8,
8,
8,
9,
11,
5,
8,
8,
10,
8,
7,
9,
9,
9,
9,
8,
11,
9,
8,
9,
9,
10,
8,
8,
9,
9,
8,
8,
8,
13,
8,
8,
9,
9,
10,
9,
8,
9,
5,
8,
9,
9,
8,
9,
8,
8,
8,
9,
9,
8,
10,
12,
8,
8,
8,
9,
9,
8,
9,
9,
10,
8,
8,
8,
9,
8,
9,
8,
8,
8,
8,
10,
9,
9,
9,
9,
11,
7,
8,
9,
9,
8,
8,
8,
8,
8,
8,
8,
8,
8,
10,
8,
9,
7,
9,
8,
9,
9,
9,
7,
9,
6,
8,
9,
9,
9,
12,
8,
9,
8,
9,
9,
9,
9,
8,
8,
7,
8,
10,
8,
9,
10,
9,
8,
8,
8,
8,
9,
2,
9,
7,
8,
8,
9,
8,
8,
8,
7,
7,
5,
8,
7,
9,
8,
9,
9,
7,
11,
9,
8,
8,
8,
8,
8,
7,
7,
8,
8,
8,
8,
8,
8,
7,
8,
8,
9,
8,
8,
7,
9,
8,
5,
6,
6,
8,
8,
9,
8,
8,
8,
8,
8,
9,
7,
7,
8,
8,
8,
7,
9,
8,
8,
8,
6,
9,
9,
8,
7,
8,
8,
9,
8,
8,
9,
9,
7,
8,
9,
8,
8,
2,
9,
8,
8,
7,
8,
9,
11,
7,
8,
9,
9,
7,
9,
9,
10,
7,
9,
8,
9,
8,
5,
9,
8,
8,
8,
7,
9,
9,
8,
9,
9,
10,
8,
9,
8,
9,
10,
5,
9,
6,
8,
8,
8,
8,
9,
7,
7,
8,
9,
9,
6,
8,
8,
8,
8,
9,
8,
10,
8,
6,
8,
8,
7,
8,
8,
8,
8,
8,
8,
8,
8,
9,
7,
7,
7,
8,
9,
8,
5,
9,
9,
9,
7,
10,
10,
9,
7,
8,
9,
8,
7,
5,
8,
7,
8,
5,
8,
8,
8,
8,
9,
8,
8,
7,
9,
9,
6,
10,
8,
8,
9,
9,
8,
8,
7,
9,
11,
8,
8,
8,
11,
8,
8,
7,
8,
8,
7,
5,
8,
8,
9,
8,
8,
8,
8,
9,
9,
6,
6,
9,
11,
3,
8,
9,
8,
11,
8,
8,
10,
9,
9,
11,
9,
9,
9,
8,
9,
9,
9,
11,
7,
8,
9,
9,
8,
8,
8,
9,
9,
8,
8,
11,
9,
8,
7,
9,
8,
9,
7,
8,
8,
8,
13,
9,
8,
9,
9,
9,
8,
8,
8,
9,
8,
8,
13,
13,
8,
8,
9,
11,
7,
8,
8,
7,
5,
9,
8,
9,
8,
8,
8,
8,
9,
9,
8,
10,
8,
8,
8,
9,
9,
9,
8,
8,
7,
9,
9,
9,
9,
8,
8,
8,
9,
8,
9,
8,
9,
9,
9,
8,
9,
11,
8,
8,
8,
8,
8,
10,
8,
9,
8,
8,
8,
8,
9,
7,
8,
7,
8,
7,
9,
8,
10,
8,
8,
8,
5,
8,
9,
8,
7,
9,
8,
9,
8,
8,
9,
8,
9,
7,
7,
8,
8,
9,
8,
8,
8,
9,
8,
9,
8,
8,
9,
8,
8,
9,
9,
9,
9,
9,
8,
9,
7,
11,
9,
8,
9,
8,
8,
8,
8,
8,
7,
9,
6,
7,
8,
9,
8,
8,
9,
9,
8,
8,
8,
9,
7,
10,
8,
8,
8,
8,
8,
7,
8,
11,
11,
8,
10,
9,
9,
9,
8,
8,
9,
9,
6,
7,
8,
8,
8,
9,
8,
8,
9,
8,
10,
9,
11,
5,
9,
9,
10,
8,
8,
8,
8,
7,
8,
9,
7,
9,
5,
8,
9,
9,
8,
9,
9,
8,
8,
8,
7,
5,
8,
8,
9,
8,
9,
8,
7,
7,
8,
8,
7,
8,
8,
8,
8,
9,
8,
8,
8,
10,
9,
5,
7,
7,
9,
8,
8,
8,
8,
8,
13,
9,
7,
10,
9,
7,
7,
8,
8,
9,
8,
4,
9,
12,
8,
7,
9,
8,
8,
8,
8,
8,
7,
8,
5,
9,
8,
9,
8,
9,
8,
9,
9,
8,
8,
9,
9,
8,
8,
9,
11,
9,
8,
7,
11,
8,
8,
8,
8,
9,
9,
9,
8,
9,
8,
8,
7,
8,
8,
9,
9,
9,
9,
9,
8,
7,
10,
9,
8,
11,
9,
8,
9,
9,
8,
8,
7,
7,
9,
8,
8,
8,
9,
9,
9,
8,
6,
7,
7,
8,
8,
8,
9,
8,
12,
7,
8,
8,
11,
8,
8,
11,
9,
9,
9,
8,
9,
9,
8,
8,
9,
11,
11,
4,
9,
10,
9,
8,
9,
9,
8,
7,
7,
8,
8,
8,
8,
7,
7,
6,
8,
9,
8,
8,
8,
9,
9,
8,
9,
9,
9,
8,
8,
8,
4,
8,
9,
8,
8,
8,
8,
9,
9,
8,
8,
8,
9,
8,
9,
15,
9,
9,
4,
9,
9,
8,
8,
9,
9,
8,
8,
8,
8,
11,
9,
9,
9,
11,
8,
8,
9,
9,
9,
8,
8,
9,
13,
9,
8,
7,
7,
8,
8,
8,
9,
8,
8,
8,
8,
8,
8,
8,
7,
10,
10,
11,
9,
8,
10,
8,
7,
7,
8,
8,
9,
9,
8,
8,
10,
9,
8,
13,
7,
8,
8,
8,
7,
8,
8,
8,
9,
9,
9,
9,
8,
8,
11,
9,
9,
9,
9,
10,
10,
11,
11,
12,
12,
11,
15,
15,
15,
16,
16,
16,
16,
17,
20,
18,
23,
16,
19,
18,
21,
21,
23,
23,
25,
27,
27,
27,
27,
25,
30,
19,
29,
30,
33,
33,
34,
32,
32,
36,
40,
38,
37,
39,
40,
40,
41,
43,
43,
41,
44,
45,
45,
45,
47,
47,
49,
47,
49,
49,
51,
53,
53,
53,
53,
56,
56,
56,
57,
59,
59,
60,
59,
70,
70,
64,
67,
67,
67,
66,
67,
69,
69,
69,
71,
72,
71,
71,
72,
76,
75,
75,
76,
74,
75,
75,
77,
77,
77,
73,
77,
79,
78,
77,
80,
80,
83,
78,
77,
79,
79,
79,
79,
79,
76,
79,
80,
79,
79,
79,
79,
79,
81,
81,
80,
80,
80,
81,
80,
80,
80,
79,
79,
81,
80,
79,
79,
79,
80,
78,
78,
76,
73,
78,
78,
78,
79,
79,
78,
77,
77,
77,
77,
79,
77,
77,
73,
76,
77,
75,
76,
76,
75,
71,
75,
74,
73,
73,
73,
73,
76,
73,
74,
71,
72,
72,
72,
73,
72,
72,
72,
71,
72,
69,
71,
71,
70,
71,
71,
70,
70,
70,
71,
69,
69,
69,
69,
69,
70,
106,
69,
67,
68,
64,
64,
64,
68,
67,
67,
69,
65,
65,
65,
66,
64,
64,
65,
65,
65,
60,
64,
65,
63,
64,
64,
65,
64,
63,
63,
63,
64,
63,
63,
57,
62,
63,
68,
63,
57,
61,
56,
61,
60,
63,
59,
59,
59,
96,
60,
58,
56,
59,
60,
60,
59,
60,
58,
57,
58,
58,
59,
57,
58,
59,
57,
53,
59,
59,
59,
56,
55,
55,
56,
57,
57,
54,
57,
56,
56,
57,
55,
57,
56,
52,
57,
56,
55,
55,
55,
52,
55,
54,
54,
55,
52,
53,
53,
53,
54,
55,
51,
51,
52,
51,
52,
51,
51,
51,
51,
51,
49,
51,
51,
49,
51,
50,
50,
51,
52,
51,
52,
51,
48,
51,
49,
52,
50,
52,
51,
51,
48,
48,
48,
49,
50,
49,
49,
48,
48,
51,
49,
39,
48,
48,
48,
48,
48,
46,
49,
47,
48,
47,
46,
48,
47,
48,
45,
48,
48,
48,
48,
47,
47,
47,
49,
48,
46,
47,
46,
47,
45,
46,
46,
44,
46,
44,
45,
44,
45,
44,
45,
43,
43,
44,
44,
44,
44,
43,
43,
44,
43,
42,
43,
42,
41,
44,
41,
43,
42,
42,
43,
43,
43,
43,
42,
42,
43,
42,
42,
43,
43,
41,
40,
40,
39,
39,
43,
41,
41,
40,
41,
41,
40,
40,
39,
40,
40,
40,
41,
36,
36,
39,
35,
38,
39,
37,
39,
39,
39,
37,
39,
39,
39,
39,
35,
37,
42,
39,
39,
40,
39,
39,
39,
39,
39,
40,
39,
39,
39,
40,
40,
41,
35,
39,
38,
37,
39,
38,
38,
38,
38,
36,
36,
37,
35,
36,
35,
36,
33,
34,
33,
36,
37,
34,
33,
33,
33,
33,
35,
31,
35,
33,
34,
35,
37,
33,
35,
33,
33,
33,
33,
33,
34,
33,
33,
33,
33,
35,
33,
33,
32,
36,
34,
34,
35,
34,
34,
33,
33,
34,
34,
33,
35,
37,
36,
33,
35,
35,
35,
32,
33,
33,
33,
32,
33,
33,
32,
32,
32,
32,
31,
30,
30,
29,
32,
38,
31,
31,
29,
31,
29,
29,
29,
28,
29,
29,
29,
27,
30,
30,
32,
29,
31,
30,
31,
28,
30,
30,
31,
29,
29,
29,
30,
29,
32,
30,
31,
29,
24,
30,
28,
30,
30,
30,
30,
30,
30,
29,
29,
29,
31,
29,
29,
29,
35,
32,
30,
31,
28,
28,
28,
29,
28,
28,
29,
29,
28,
28,
30,
27,
25,
29,
29,
29,
29,
29,
29,
29,
28,
27,
27,
27,
28,
32,
26,
31,
31,
21,
27,
28,
27,
28,
29,
28,
27,
29,
29,
28,
27,
29,
29,
27,
25,
29,
29,
27,
28,
27,
28,
30,
28,
27,
27,
25,
24,
24,
27,
27,
26,
25,
27,
25,
26,
23,
26,
25,
25,
26,
24,
24,
26,
24,
25,
24,
24,
23,
21,
25,
23,
24,
24,
25,
25,
25,
24,
24,
25,
23,
24,
24,
23,
22,
21,
24,
24,
24,
24,
23,
23,
23,
24,
24,
23,
22,
23,
23,
25,
22,
27,
18,
21,
22,
23,
23,
21,
23,
23,
23,
23,
24,
23,
24,
23,
23,
24,
24,
23,
21,
21,
23,
23,
24,
21,
23,
23,
23,
23,
25,
22,
23,
23,
23,
23,
23,
24,
25,
23,
23,
24,
24,
24,
23,
24,
23,
22,
22,
24,
25,
25,
23,
25,
23,
24,
23,
23,
24,
22,
21,
22,
22,
23,
21,
23,
18,
21,
23,
21,
24,
23,
24,
20,
21,
21,
21,
21,
26,
20,
21,
20,
20,
24,
21,
19,
19,
20,
21,
18,
19,
19,
20,
18,
19,
19,
20,
19,
20,
17,
19,
19,
19,
19,
19,
19,
17,
17,
16,
16,
17,
17,
18,
20,
15,
15,
15,
16,
16,
17,
17,
17,
17,
16,
17,
17,
17,
18,
17,
17,
16,
17,
17,
14,
17,
16,
14,
16,
17,
16,
17,
15,
17,
17,
16,
15,
18,
18,
16,
16,
17,
17,
13,
16,
17,
17,
19,
16,
17,
17,
15,
15,
17,
17,
17,
20,
13,
17,
18,
17,
17,
18,
17,
17,
17,
17,
17,
16,
17,
17,
15,
15,
17,
20,
18,
16,
18,
17,
17,
15,
17,
17,
17,
19,
17,
19,
17,
17,
17,
20,
17,
17,
16,
17,
17,
17,
17,
19,
17,
17,
16,
18,
17,
17,
17,
16,
19,
17,
15,
18,
18,
17,
17,
19,
17,
17,
17,
17,
17,
17,
17,
16,
17,
17,
18,
20,
18,
17,
18,
17,
17,
17,
19,
18,
16,
18,
19,
19,
20,
17,
17,
18,
23,
17,
17,
17,
17,
17,
17,
18,
17,
17,
17,
16,
15,
24,
17,
17,
17,
15,
18,
15,
15,
17,
16,
14,
14,
13,
14,
15,
17,
18,
16,
14,
14,
14,
15,
15,
13,
14,
15,
13,
13,
13,
15,
13,
14,
17,
13,
13,
13,
13,
15,
12,
12,
12,
12,
11,
11,
13,
13,
12,
13,
12,
13,
12,
11,
11,
13,
11,
11,
11,
11,
11,
10,
13,
12,
12,
12,
11,
11,
9,
12,
11,
11,
10,
12,
13,
11,
11,
11,
11,
11,
11,
13,
12,
12,
11,
9,
9,
11,
13,
7,
11,
10,
12,
11,
13,
12,
12,
12,
11,
9,
9,
13,
11,
11,
10,
11,
9,
11,
11,
12,
12,
12,
11,
11,
14,
9,
9,
12,
10,
6,
11,
4,
12,
12,
10,
11,
8,
9,
11,
11,
11,
11,
10,
12,
13,
11,
10,
8,
9,
12,
10,
11,
12,
13,
11,
11,
9,
10,
9,
10,
8,
8,
11,
10,
11,
10,
11,
10,
10,
10,
11,
12,
11,
11,
11,
11,
11,
9,
7,
11,
10,
10,
10,
11,
11,
10,
9,
11,
11,
11,
14,
9,
11,
11,
9,
9,
9,
8,
10,
11,
11,
11,
12,
10,
11,
11,
9,
12,
13,
13,
13,
13,
8,
11,
10,
9,
11,
11,
11,
9,
10,
11,
11,
12,
12,
12,
11,
8,
11,
9,
9,
15,
11,
12,
11,
11,
9,
11,
11,
11,
10,
10,
9,
9,
11,
9,
12,
9,
10,
11,
11,
9,
11,
9,
12,
12,
9,
11,
9,
8,
19,
9,
11,
11,
11,
11,
9,
9,
9,
9,
10,
10,
11,
11,
11,
12,
11,
5,
11,
9,
11,
11,
10,
12,
12,
11,
11,
9,
11,
6,
10,
9,
13,
16,
7,
10,
14,
14,
11,
10,
11,
12,
12,
10,
12,
11,
11,
11,
11,
12,
10,
10,
12,
12,
11,
11,
11,
10,
11,
10,
11,
11,
11,
10,
10,
10,
10,
13,
11,
12,
12,
11,
12,
10,
13,
11,
11,
12,
13,
10,
13,
13,
14,
9,
12,
11,
10,
11,
11,
10,
9,
11,
12,
13,
11,
12,
12,
11,
11,
11,
16,
12,
12,
11,
12,
12,
13,
11,
11,
11,
11,
12,
12,
12,
9,
15,
13,
11,
12,
11,
13,
12,
10,
10,
11,
11,
11,
12,
12,
12,
11,
11,
9,
13,
12,
11,
10,
10,
11,
12,
12,
12,
13,
11,
10,
11,
12,
13,
9,
13,
17,
9,
9,
15,
12,
11,
12,
11,
11,
11,
11,
12,
11,
13,
11,
13,
13,
12,
13,
13,
11,
11,
13,
12,
11,
11,
12,
12,
10,
11,
10,
14,
14,
15,
11,
11,
11,
11,
13,
9,
11,
12,
12,
12,
12,
12,
12,
11,
7,
11,
13,
11,
11,
11,
11,
11,
15,
11,
10,
11,
11,
11,
12,
9,
9,
10,
15,
11,
11,
13,
11,
11,
10,
11,
9,
9,
10,
11,
12,
11,
11,
15,
10,
11,
13,
11,
12,
11,
11,
12,
10,
11,
12,
11,
11,
10,
11,
13,
11,
10,
11,
12,
12,
11,
11,
10,
6,
11,
11,
12,
13,
10,
10,
9,
13,
11,
11,
10,
11,
11,
11,
11,
10,
10,
10,
10,
11,
11,
12,
11,
12,
12,
10,
4,
9,
7,
11,
11,
10,
12,
12,
11,
11,
12,
11,
11,
12,
12,
11,
11,
9,
10,
10,
9,
9,
10,
11,
10,
10,
11,
11,
11,
10,
10,
9,
10,
9,
11,
13,
8,
11,
8,
11,
11,
9,
9,
11,
11,
10,
10,
8,
9,
11,
10,
11,
9,
10,
11,
11,
11,
11,
11,
11,
11,
10,
8,
11,
12,
11,
10,
9,
11,
11,
12,
12,
9,
11,
11,
11,
13,
11,
11,
10,
9,
8,
11,
8,
8,
9,
11,
11,
11,
9,
11,
11,
11,
10,
9,
9,
10,
11,
7,
12,
11,
11,
10,
11,
10,
8,
10,
11,
11,
9,
9,
9,
9,
14,
12,
12,
11,
9,
10,
11,
11,
9,
11,
10,
10,
12,
11,
9,
12,
12,
12,
9,
9,
11,
13,
9,
14,
10,
11,
11,
11,
9,
11,
11,
12,
13,
12,
11,
12,
9,
11,
9,
11,
11,
11,
11,
11,
11,
11,
10,
9,
9,
10,
11,
9,
8,
12,
10,
11,
11,
11,
9,
11,
11,
9,
8,
10,
10,
11,
9,
10,
11,
13,
11,
11,
12,
10,
11,
10,
10,
9,
11,
9,
10,
9,
12,
9,
11,
6,
9,
8,
9,
9,
9,
11,
11,
9,
10,
9,
10,
9,
9,
9,
9,
9,
11,
11,
11,
8,
11,
11,
9,
10,
10,
11,
11,
9,
9,
11,
9,
9,
11,
17,
10,
11,
9,
12,
8,
11,
11,
11,
11,
11,
11,
11,
12,
10,
9,
13,
12,
12,
11,
11,
11,
11,
10,
11,
11,
11,
11,
10,
12,
9,
11,
10,
11,
15,
13,
9,
9,
10,
11,
11,
9,
11,
9,
9,
9,
10,
9,
10,
11,
11,
9,
9,
9,
9,
9,
8,
10,
10,
9,
9,
9,
8,
9,
9,
9,
9,
9,
12,
9,
9,
7,
9,
9,
7,
8,
9,
9,
8,
9,
9,
9,
9,
11,
11,
5,
8,
11,
8,
8,
8,
9,
9,
9,
9,
8,
9,
9,
9,
8,
7,
9,
9,
9,
11,
8,
8,
9,
11,
9,
9,
10,
10,
9,
9,
7,
5,
9,
8,
8,
9,
8,
9,
9,
9,
8,
8,
8,
8,
8,
8,
9,
12,
7,
8,
8,
9,
11,
8,
8,
8,
7,
9,
8,
8,
7,
8,
9,
13,
8,
8,
9,
9,
8,
9,
9,
9,
9,
8,
8,
8,
11,
13,
9,
3,
8,
6,
9,
9,
8,
7,
9,
9,
9,
7,
9,
8,
7,
7,
9,
8,
8,
6,
9,
8,
8,
8,
9,
8,
9,
9,
9,
8,
8,
8,
11,
8,
7,
0,
0,
8,
8,
8,
6,
8,
8,
9,
8,
8,
10,
9,
8,
8,
8,
8,
9,
9,
8,
8,
8,
9,
8,
8,
8,
9,
9,
5,
5,
8,
7,
8,
8,
9,
8,
8,
9,
9,
8,
9,
8,
9,
9,
6,
2,
8,
8,
8,
9,
8,
8,
8,
9,
8,
8,
8,
8,
9,
7,
11,
8,
8,
7,
8,
8,
8,
9,
8,
9,
8,
9,
8,
8,
7,
7,
8,
8,
8,
10,
8,
8,
8,
8,
9,
8,
9,
8,
8,
8,
8,
6,
8,
8,
8,
8,
8,
8,
9,
9,
8,
8,
8,
8,
9,
9,
9,
10,
8,
7,
8,
8,
7,
8,
9,
9,
9,
7,
9,
9,
7,
11,
8,
12,
8,
9,
11,
9,
8,
8,
8,
9,
8,
8,
9,
8,
8,
9,
7,
12,
8,
9,
8,
8,
8,
10,
8,
8,
8,
9,
10,
8,
8,
8,
8,
5,
8,
7,
7,
8,
9,
9,
9,
8,
8,
8,
9,
8,
8,
7,
7,
5,
8,
9,
8,
8,
8,
9,
8,
9,
9,
8,
9,
9,
9,
8,
6,
9,
9,
9,
7,
8,
8,
8,
8,
8,
8,
8,
8,
8,
9,
9,
9,
6,
8,
8,
9,
8,
9,
8,
8,
10,
9,
8,
9,
8,
7,
7,
7,
21,
9,
8,
13,
9,
8,
9,
9,
8,
8,
7,
9,
9,
9,
7,
7,
13,
8,
8,
8,
8,
9,
9,
9,
8,
6,
6,
8,
9,
7,
5,
7,
11,
7,
9,
8,
9,
8,
8,
8,
9,
9,
9,
9,
9,
9,
9,
7,
4,
8,
9,
12,
9,
8,
9,
7,
7,
7,
8,
9,
8,
9,
9,
11,
2,
13,
5,
13,
9,
9,
9,
9,
0,
8,
10,
9,
6,
8,
9,
11,
9,
8,
9,
8,
8,
9,
8,
7,
8,
9,
8,
9,
8,
7,
9,
9,
8,
9,
9,
9,
9,
7,
7,
8,
7,
10,
9,
8,
10,
8,
6,
8,
8,
10,
9,
9,
9,
9,
9,
9,
9,
9,
7,
9,
8,
8,
9,
7,
8,
7,
9,
9,
8,
8,
9,
8,
9,
8,
8,
7,
7,
7,
9,
10,
9,
9,
9,
7,
7,
7,
8,
8,
9,
8,
8,
7,
7,
8,
10,
5,
9,
8,
6,
8,
8,
9,
9,
7,
8,
8,
8,
9,
9,
7,
8,
9,
8,
10,
8,
9,
8,
8,
9,
8,
8,
8,
8,
8,
8,
10,
4,
12,
8,
8,
8,
7,
8,
7,
7,
7,
7,
9,
7,
9,
10,
9,
6,
5,
8,
8,
8,
8,
9,
9,
9,
7,
8,
8,
8,
8,
9,
8,
11,
5,
8,
9,
