Datos experimentales/DATOS 26-3-24/ALL0007/A0007CH1.CSV

Memory Length,4000,
Trigger Level,0.000E+00,
Source,CH1,
Vertical Units,V,
Vertical Scale,2.000E-02,
Vertical Position,-1.200E-02,
Horizontal Units,s,
Horizontal Scale,1.000E+00,
Horizontal Position,0.000E+00,
Horizontal Mode,Roll Mode,
Sampling Period,4.000E-03,
Firmware, V1.21,
Waveform Data,
12,
11,
11,
12,
14,
11,
11,
11,
9,
9,
10,
12,
12,
11,
12,
11,
11,
11,
11,
11,
11,
12,
10,
9,
12,
10,
10,
12,
12,
11,
11,
12,
14,
13,
11,
11,
12,
12,
11,
12,
12,
11,
8,
12,
11,
10,
12,
21,
11,
11,
10,
11,
11,
11,
9,
11,
9,
10,
11,
12,
11,
15,
12,
12,
12,
12,
11,
11,
11,
8,
11,
11,
9,
11,
11,
11,
8,
12,
11,
10,
11,
11,
11,
11,
11,
12,
11,
13,
13,
13,
11,
11,
11,
12,
16,
16,
11,
10,
12,
10,
12,
11,
9,
11,
11,
11,
11,
11,
11,
11,
11,
10,
10,
9,
11,
12,
11,
11,
11,
11,
11,
10,
11,
12,
12,
11,
11,
11,
9,
11,
12,
12,
8,
11,
12,
12,
10,
10,
11,
11,
11,
11,
11,
12,
9,
11,
8,
12,
12,
11,
11,
12,
10,
12,
12,
11,
12,
11,
12,
11,
12,
12,
11,
11,
11,
12,
11,
11,
11,
11,
11,
15,
15,
12,
9,
12,
13,
9,
11,
15,
12,
12,
11,
11,
11,
11,
11,
11,
11,
11,
11,
12,
11,
13,
11,
11,
11,
10,
15,
11,
11,
11,
11,
9,
11,
11,
11,
12,
11,
11,
13,
11,
12,
12,
12,
11,
11,
11,
12,
12,
11,
10,
11,
10,
8,
11,
11,
11,
11,
11,
11,
9,
11,
12,
12,
7,
12,
4,
15,
12,
12,
11,
11,
11,
12,
11,
13,
11,
10,
11,
13,
11,
13,
11,
11,
11,
11,
11,
12,
10,
11,
11,
11,
12,
15,
12,
13,
13,
11,
11,
14,
11,
11,
11,
11,
12,
11,
12,
9,
13,
9,
11,
11,
11,
10,
13,
11,
11,
11,
11,
11,
11,
11,
9,
12,
11,
11,
8,
12,
9,
12,
12,
12,
11,
11,
11,
13,
11,
11,
11,
11,
8,
13,
13,
11,
11,
5,
9,
11,
9,
10,
10,
12,
11,
12,
9,
11,
11,
11,
11,
12,
11,
11,
11,
11,
11,
11,
11,
11,
12,
14,
14,
11,
12,
10,
12,
12,
11,
12,
8,
12,
12,
12,
10,
8,
8,
11,
10,
10,
11,
11,
12,
11,
9,
11,
11,
11,
12,
12,
12,
9,
11,
11,
12,
7,
11,
11,
11,
9,
11,
11,
11,
11,
11,
11,
11,
11,
11,
16,
11,
12,
10,
12,
11,
11,
11,
8,
11,
11,
12,
11,
11,
11,
11,
11,
12,
13,
11,
11,
12,
7,
7,
11,
12,
11,
11,
10,
11,
11,
13,
11,
11,
10,
11,
11,
11,
11,
12,
10,
8,
11,
11,
11,
12,
11,
11,
12,
11,
12,
11,
11,
11,
12,
10,
11,
11,
11,
11,
11,
11,
11,
11,
12,
12,
7,
7,
8,
7,
12,
13,
10,
12,
14,
11,
11,
11,
11,
13,
11,
11,
11,
13,
9,
12,
11,
12,
8,
9,
11,
12,
12,
12,
12,
12,
12,
10,
11,
11,
11,
11,
12,
9,
5,
10,
8,
9,
9,
11,
11,
12,
11,
10,
11,
11,
12,
8,
11,
11,
11,
11,
11,
11,
12,
11,
13,
11,
11,
11,
12,
13,
11,
11,
11,
11,
11,
11,
12,
12,
7,
12,
12,
11,
10,
7,
12,
13,
11,
11,
9,
11,
12,
12,
10,
10,
11,
12,
11,
14,
15,
9,
10,
9,
10,
13,
9,
9,
11,
7,
11,
11,
11,
10,
9,
11,
11,
10,
9,
11,
11,
11,
13,
11,
11,
11,
11,
13,
12,
10,
11,
11,
10,
12,
11,
12,
12,
11,
12,
11,
11,
11,
5,
11,
11,
11,
11,
11,
11,
11,
13,
11,
13,
11,
11,
12,
16,
11,
12,
11,
9,
11,
11,
11,
11,
12,
12,
11,
11,
10,
11,
9,
12,
11,
13,
9,
11,
12,
11,
11,
11,
11,
9,
13,
12,
10,
11,
12,
12,
9,
11,
12,
10,
10,
11,
11,
12,
11,
9,
12,
11,
11,
12,
11,
10,
11,
11,
16,
16,
12,
11,
12,
12,
11,
12,
11,
10,
11,
11,
10,
11,
13,
13,
13,
12,
11,
11,
5,
12,
11,
11,
3,
11,
11,
11,
13,
13,
12,
11,
11,
12,
11,
13,
11,
13,
12,
11,
11,
11,
11,
9,
11,
11,
11,
10,
9,
13,
11,
11,
9,
8,
11,
11,
12,
11,
10,
10,
12,
11,
12,
11,
12,
11,
12,
11,
11,
11,
12,
14,
11,
11,
11,
12,
9,
9,
11,
11,
11,
8,
9,
11,
11,
5,
12,
12,
9,
11,
12,
11,
10,
10,
12,
12,
12,
10,
13,
11,
10,
10,
12,
12,
11,
10,
11,
12,
9,
11,
11,
11,
9,
10,
12,
12,
11,
11,
11,
12,
13,
10,
11,
12,
12,
11,
12,
13,
10,
11,
11,
11,
12,
10,
11,
11,
10,
11,
12,
11,
11,
8,
11,
11,
11,
12,
11,
13,
19,
11,
12,
12,
11,
10,
12,
13,
7,
7,
11,
11,
11,
12,
11,
11,
11,
11,
13,
10,
11,
9,
12,
10,
12,
11,
11,
11,
16,
11,
12,
13,
12,
12,
11,
12,
11,
12,
10,
12,
12,
12,
15,
9,
11,
11,
11,
12,
11,
7,
11,
11,
11,
11,
11,
11,
9,
10,
12,
11,
10,
15,
13,
12,
11,
11,
11,
11,
11,
11,
11,
12,
9,
11,
11,
11,
11,
9,
11,
11,
10,
11,
11,
11,
11,
10,
11,
10,
11,
12,
12,
11,
12,
11,
11,
11,
11,
11,
11,
12,
9,
10,
10,
11,
10,
13,
11,
11,
11,
6,
6,
11,
11,
8,
11,
11,
12,
12,
9,
12,
11,
10,
11,
12,
11,
11,
12,
13,
11,
10,
11,
11,
13,
13,
11,
12,
11,
15,
11,
11,
11,
10,
11,
11,
11,
11,
11,
12,
12,
11,
11,
10,
10,
11,
11,
11,
11,
10,
10,
11,
12,
9,
11,
11,
11,
10,
10,
11,
11,
11,
17,
14,
11,
11,
11,
11,
11,
11,
11,
12,
12,
12,
12,
11,
11,
11,
10,
11,
11,
13,
8,
11,
11,
11,
12,
12,
11,
11,
11,
9,
11,
11,
12,
8,
11,
10,
12,
11,
11,
11,
11,
12,
11,
13,
11,
11,
11,
13,
11,
11,
10,
16,
10,
14,
9,
9,
9,
3,
12,
13,
11,
10,
11,
11,
11,
9,
13,
11,
11,
11,
11,
9,
11,
11,
12,
12,
11,
11,
11,
10,
8,
11,
11,
11,
11,
6,
11,
11,
7,
8,
14,
11,
13,
10,
9,
10,
13,
12,
12,
11,
13,
11,
11,
13,
13,
8,
11,
12,
11,
9,
12,
12,
9,
12,
10,
11,
12,
11,
10,
12,
11,
10,
11,
13,
10,
10,
13,
11,
11,
11,
11,
12,
9,
11,
12,
11,
12,
9,
11,
9,
9,
13,
10,
11,
11,
9,
13,
8,
13,
11,
12,
11,
11,
11,
13,
13,
8,
11,
11,
11,
12,
8,
11,
11,
11,
11,
11,
12,
12,
11,
12,
11,
10,
10,
6,
14,
13,
11,
12,
11,
9,
10,
10,
11,
12,
12,
11,
12,
12,
9,
10,
10,
10,
11,
12,
13,
10,
10,
12,
11,
12,
9,
13,
9,
11,
11,
10,
9,
11,
13,
11,
11,
12,
9,
15,
11,
11,
12,
11,
11,
13,
12,
12,
12,
12,
11,
11,
11,
11,
10,
11,
12,
13,
12,
11,
12,
11,
10,
10,
10,
13,
12,
13,
11,
11,
10,
12,
12,
10,
11,
12,
7,
12,
11,
10,
10,
12,
11,
11,
10,
11,
11,
12,
11,
10,
9,
10,
11,
11,
12,
12,
12,
10,
11,
10,
11,
10,
11,
11,
10,
11,
9,
12,
10,
10,
11,
13,
8,
11,
11,
10,
11,
11,
10,
11,
9,
11,
11,
9,
11,
10,
12,
10,
8,
11,
11,
12,
12,
11,
12,
11,
11,
11,
11,
11,
11,
12,
11,
8,
13,
9,
11,
9,
11,
11,
11,
11,
11,
11,
11,
11,
12,
11,
11,
11,
7,
7,
8,
7,
13,
11,
10,
11,
11,
10,
11,
12,
11,
11,
11,
13,
12,
12,
11,
11,
9,
9,
11,
11,
11,
10,
11,
11,
10,
11,
11,
11,
14,
11,
12,
12,
11,
11,
11,
10,
12,
11,
11,
11,
11,
11,
10,
12,
12,
12,
12,
10,
11,
12,
11,
9,
11,
10,
12,
8,
15,
12,
9,
21,
21,
18,
11,
10,
11,
12,
9,
11,
12,
12,
9,
12,
12,
13,
13,
13,
12,
11,
11,
11,
11,
11,
9,
11,
12,
11,
11,
13,
13,
10,
12,
13,
13,
12,
11,
9,
12,
8,
12,
11,
11,
10,
12,
11,
11,
11,
13,
11,
10,
12,
12,
12,
12,
11,
11,
10,
12,
15,
11,
11,
10,
12,
11,
11,
9,
12,
12,
11,
12,
11,
13,
10,
10,
11,
10,
15,
11,
12,
10,
9,
11,
11,
10,
11,
11,
10,
10,
11,
11,
9,
11,
12,
12,
11,
5,
11,
11,
11,
9,
12,
12,
10,
11,
13,
9,
12,
11,
12,
13,
9,
11,
11,
12,
11,
11,
12,
11,
9,
8,
11,
11,
11,
10,
12,
11,
11,
11,
9,
12,
12,
11,
12,
9,
11,
11,
11,
11,
12,
12,
11,
12,
12,
12,
11,
12,
10,
16,
11,
13,
11,
11,
6,
12,
11,
12,
12,
11,
12,
12,
12,
11,
11,
11,
11,
11,
9,
11,
11,
12,
13,
11,
12,
11,
11,
9,
12,
11,
12,
10,
12,
12,
12,
11,
11,
15,
9,
11,
12,
12,
8,
11,
13,
10,
11,
10,
11,
11,
10,
13,
11,
11,
11,
12,
13,
12,
11,
12,
11,
12,
11,
12,
10,
11,
11,
11,
11,
11,
8,
11,
11,
19,
9,
13,
11,
11,
14,
9,
11,
12,
12,
11,
12,
11,
11,
12,
11,
8,
11,
11,
10,
13,
5,
11,
10,
9,
9,
11,
11,
11,
12,
13,
12,
11,
12,
11,
15,
12,
9,
17,
23,
23,
12,
11,
8,
11,
11,
12,
9,
13,
12,
12,
11,
11,
8,
8,
12,
12,
11,
10,
8,
13,
12,
11,
11,
12,
12,
9,
11,
11,
12,
11,
11,
12,
11,
12,
11,
12,
12,
12,
14,
12,
12,
15,
15,
14,
16,
17,
16,
16,
19,
17,
19,
24,
20,
21,
21,
23,
23,
24,
25,
27,
27,
26,
27,
27,
29,
31,
32,
31,
32,
32,
31,
33,
33,
36,
33,
37,
36,
34,
35,
37,
39,
40,
40,
40,
43,
43,
43,
44,
42,
37,
44,
46,
45,
49,
47,
48,
48,
51,
49,
49,
53,
55,
56,
55,
56,
58,
58,
59,
61,
63,
61,
60,
66,
66,
65,
63,
68,
70,
68,
71,
71,
71,
67,
72,
72,
72,
72,
73,
73,
75,
75,
73,
74,
75,
74,
72,
75,
74,
76,
78,
77,
77,
77,
79,
75,
78,
78,
79,
78,
81,
80,
80,
80,
79,
81,
79,
79,
79,
82,
80,
74,
76,
81,
82,
81,
80,
81,
80,
80,
80,
80,
81,
80,
81,
79,
79,
79,
80,
80,
80,
81,
79,
78,
80,
80,
79,
80,
79,
77,
76,
80,
79,
78,
75,
77,
76,
77,
74,
77,
77,
77,
77,
77,
77,
77,
76,
76,
77,
77,
74,
76,
75,
78,
78,
73,
72,
61,
70,
73,
73,
75,
72,
73,
72,
111,
68,
68,
70,
71,
70,
71,
73,
69,
69,
71,
70,
70,
71,
71,
69,
69,
69,
70,
67,
67,
66,
69,
67,
67,
65,
57,
65,
65,
65,
64,
64,
65,
61,
65,
65,
63,
64,
65,
64,
62,
64,
64,
63,
63,
65,
63,
64,
60,
61,
63,
63,
60,
63,
63,
61,
60,
61,
63,
63,
57,
61,
60,
59,
57,
60,
59,
57,
59,
60,
60,
57,
60,
60,
60,
57,
59,
58,
55,
56,
57,
60,
56,
61,
56,
54,
54,
53,
56,
55,
53,
55,
54,
55,
53,
54,
53,
49,
52,
52,
52,
52,
50,
53,
52,
53,
53,
53,
53,
53,
53,
51,
51,
51,
52,
52,
50,
52,
52,
51,
51,
45,
48,
49,
49,
48,
49,
49,
49,
49,
48,
48,
49,
49,
47,
48,
48,
47,
47,
47,
43,
47,
47,
49,
49,
47,
48,
48,
48,
47,
48,
44,
48,
47,
47,
47,
46,
45,
45,
47,
45,
47,
45,
45,
46,
45,
45,
46,
44,
45,
43,
43,
43,
45,
43,
44,
45,
44,
48,
45,
44,
41,
43,
45,
45,
44,
44,
45,
44,
41,
45,
49,
41,
45,
43,
44,
43,
40,
44,
44,
44,
44,
43,
43,
41,
43,
44,
44,
41,
40,
43,
45,
39,
39,
35,
39,
41,
42,
41,
41,
43,
41,
41,
42,
41,
43,
41,
40,
40,
40,
41,
42,
40,
41,
42,
37,
41,
41,
41,
42,
39,
41,
41,
40,
40,
40,
41,
41,
40,
40,
40,
39,
39,
39,
39,
39,
39,
38,
39,
32,
39,
39,
36,
36,
36,
38,
36,
37,
37,
37,
37,
36,
38,
36,
37,
36,
36,
36,
36,
36,
39,
36,
37,
37,
37,
37,
36,
37,
37,
37,
35,
36,
36,
37,
36,
39,
37,
33,
37,
37,
31,
36,
37,
38,
37,
35,
35,
37,
35,
37,
33,
33,
35,
35,
32,
36,
37,
33,
34,
34,
35,
33,
32,
34,
33,
32,
32,
32,
33,
33,
33,
34,
33,
31,
35,
32,
33,
33,
33,
33,
33,
35,
32,
32,
33,
33,
33,
34,
33,
34,
32,
35,
35,
33,
31,
31,
35,
33,
28,
37,
31,
32,
30,
31,
32,
33,
32,
30,
32,
31,
31,
33,
33,
30,
32,
31,
32,
31,
31,
45,
33,
31,
32,
33,
33,
32,
32,
31,
30,
31,
30,
31,
30,
31,
30,
30,
28,
28,
31,
30,
31,
31,
35,
31,
33,
30,
30,
30,
31,
29,
32,
32,
33,
29,
31,
33,
33,
33,
29,
31,
31,
29,
31,
31,
31,
30,
30,
32,
30,
31,
27,
32,
29,
29,
29,
30,
29,
32,
31,
27,
27,
29,
28,
30,
29,
30,
28,
29,
29,
29,
30,
28,
29,
28,
28,
28,
27,
28,
29,
28,
29,
29,
27,
28,
28,
29,
27,
28,
28,
27,
21,
28,
27,
29,
27,
27,
27,
27,
23,
25,
29,
27,
29,
29,
27,
27,
25,
25,
24,
28,
27,
27,
26,
27,
27,
25,
29,
29,
25,
25,
26,
27,
25,
25,
26,
26,
25,
27,
27,
25,
25,
24,
25,
25,
25,
26,
25,
26,
25,
25,
25,
28,
25,
24,
24,
23,
25,
24,
24,
24,
26,
23,
23,
24,
23,
24,
24,
23,
23,
23,
23,
22,
23,
22,
23,
21,
23,
21,
23,
24,
21,
23,
22,
22,
21,
23,
22,
23,
21,
23,
22,
23,
23,
23,
22,
22,
21,
21,
21,
21,
21,
21,
23,
23,
29,
21,
20,
21,
21,
21,
21,
21,
22,
22,
21,
21,
21,
23,
20,
21,
21,
22,
22,
23,
23,
21,
21,
23,
21,
21,
22,
21,
20,
21,
17,
21,
19,
20,
20,
21,
21,
19,
21,
21,
20,
21,
22,
22,
21,
20,
22,
23,
21,
21,
21,
20,
21,
20,
20,
21,
21,
19,
20,
20,
20,
23,
19,
19,
20,
20,
20,
20,
19,
19,
17,
21,
19,
19,
19,
20,
20,
20,
19,
20,
17,
21,
19,
18,
19,
21,
18,
17,
17,
19,
17,
17,
19,
17,
19,
16,
17,
18,
17,
17,
17,
17,
18,
16,
19,
18,
18,
17,
18,
14,
17,
17,
17,
14,
19,
18,
16,
17,
17,
17,
17,
16,
17,
16,
17,
16,
16,
17,
15,
17,
16,
16,
19,
19,
16,
20,
16,
14,
13,
15,
14,
16,
16,
15,
16,
17,
15,
15,
18,
16,
16,
16,
16,
15,
16,
16,
14,
17,
16,
15,
18,
18,
15,
17,
15,
15,
20,
21,
17,
16,
15,
14,
16,
16,
15,
15,
15,
13,
15,
16,
15,
15,
16,
16,
16,
16,
15,
16,
16,
20,
20,
16,
16,
15,
16,
16,
15,
15,
15,
15,
16,
16,
16,
18,
18,
17,
16,
16,
16,
21,
18,
16,
16,
16,
15,
16,
17,
15,
15,
15,
13,
16,
13,
15,
15,
15,
16,
15,
16,
12,
14,
16,
16,
11,
15,
15,
16,
15,
17,
17,
16,
15,
16,
15,
15,
16,
16,
12,
16,
15,
16,
15,
18,
15,
16,
13,
19,
16,
15,
16,
16,
14,
16,
15,
15,
16,
15,
16,
15,
13,
14,
15,
13,
15,
16,
13,
13,
13,
15,
13,
13,
13,
13,
13,
15,
15,
14,
14,
13,
11,
11,
15,
13,
13,
13,
16,
12,
15,
13,
14,
13,
13,
13,
14,
14,
14,
13,
13,
13,
15,
15,
13,
12,
13,
11,
12,
12,
15,
12,
12,
13,
13,
13,
9,
13,
13,
13,
13,
16,
17,
13,
13,
12,
12,
12,
12,
12,
12,
12,
12,
12,
12,
15,
13,
12,
13,
13,
12,
10,
12,
12,
12,
17,
11,
12,
12,
12,
13,
13,
14,
14,
10,
12,
13,
12,
12,
13,
12,
13,
12,
11,
10,
12,
12,
12,
13,
13,
12,
12,
11,
11,
8,
13,
12,
12,
12,
12,
12,
12,
11,
11,
11,
11,
11,
12,
12,
11,
11,
13,
12,
13,
12,
12,
11,
9,
9,
12,
10,
13,
10,
11,
13,
13,
10,
12,
9,
12,
11,
10,
10,
12,
12,
19,
8,
15,
12,
11,
12,
10,
11,
12,
10,
11,
11,
11,
11,
11,
10,
11,
12,
12,
12,
12,
11,
11,
11,
12,
12,
11,
11,
11,
11,
10,
9,
10,
10,
8,
13,
13,
11,
10,
10,
8,
12,
13,
11,
9,
9,
11,
11,
12,
12,
10,
10,
10,
11,
11,
11,
11,
12,
13,
15,
10,
11,
13,
11,
9,
10,
11,
11,
10,
12,
12,
12,
10,
11,
11,
11,
9,
11,
10,
10,
10,
11,
6,
10,
10,
11,
8,
11,
11,
12,
12,
10,
11,
11,
11,
9,
10,
11,
11,
9,
13,
13,
15,
10,
11,
11,
11,
11,
12,
11,
10,
10,
10,
10,
11,
9,
9,
11,
11,
11,
11,
11,
9,
11,
12,
12,
9,
11,
11,
10,
9,
11,
11,
11,
13,
11,
11,
10,
12,
11,
11,
12,
11,
12,
8,
7,
11,
12,
11,
13,
11,
11,
11,
11,
11,
12,
11,
10,
12,
12,
12,
11,
10,
11,
11,
11,
9,
9,
11,
14,
9,
9,
12,
10,
8,
10,
13,
12,
12,
12,
11,
11,
11,
11,
11,
11,
12,
10,
13,
10,
11,
10,
11,
8,
11,
11,
12,
13,
13,
11,
11,
11,
11,
12,
12,
11,
11,
11,
11,
11,
10,
12,
10,
10,
13,
10,
11,
13,
11,
11,
11,
13,
11,
11,
12,
11,
11,
11,
12,
10,
10,
11,
10,
12,
7,
13,
14,
12,
10,
11,
9,
9,
10,
11,
10,
11,
11,
13,
13,
10,
12,
11,
9,
11,
11,
9,
11,
11,
11,
11,
13,
11,
12,
12,
11,
12,
11,
9,
12,
11,
11,
11,
11,
11,
9,
9,
12,
12,
12,
12,
13,
11,
11,
13,
11,
15,
15,
4,
15,
12,
14,
11,
11,
12,
6,
12,
13,
13,
12,
11,
11,
11,
11,
9,
12,
11,
7,
11,
13,
12,
12,
11,
10,
10,
9,
13,
12,
11,
15,
13,
11,
9,
10,
15,
11,
10,
9,
9,
9,
11,
10,
11,
10,
13,
11,
11,
10,
10,
9,
10,
10,
7,
7,
9,
10,
10,
8,
7,
9,
10,
9,
10,
12,
9,
11,
10,
10,
9,
11,
10,
10,
9,
11,
10,
10,
10,
15,
11,
10,
11,
11,
12,
10,
10,
9,
10,
11,
11,
10,
9,
12,
11,
9,
11,
12,
13,
13,
11,
12,
12,
12,
11,
11,
11,
12,
10,
11,
10,
12,
9,
10,
10,
10,
11,
15,
13,
11,
11,
9,
7,
11,
11,
11,
11,
11,
11,
10,
11,
9,
10,
11,
10,
9,
16,
11,
9,
10,
11,
9,
9,
9,
11,
8,
8,
9,
11,
9,
14,
4,
11,
11,
8,
8,
11,
11,
10,
9,
9,
10,
10,
11,
9,
11,
9,
11,
11,
8,
9,
9,
9,
11,
9,
9,
9,
10,
8,
9,
14,
11,
9,
13,
11,
12,
11,
11,
9,
9,
10,
10,
9,
11,
12,
9,
9,
12,
9,
9,
9,
10,
9,
11,
11,
11,
9,
11,
9,
9,
9,
9,
9,
10,
10,
10,
9,
8,
9,
12,
9,
10,
10,
9,
10,
9,
9,
8,
8,
8,
11,
10,
9,
12,
12,
7,
10,
9,
11,
10,
11,
10,
9,
9,
10,
9,
9,
9,
10,
11,
9,
10,
9,
10,
11,
11,
11,
11,
9,
10,
11,
9,
11,
10,
11,
9,
8,
11,
9,
9,
9,
12,
9,
9,
9,
9,
7,
8,
9,
11,
16,
10,
8,
9,
16,
11,
13,
13,
10,
8,
9,
9,
10,
9,
9,
10,
9,
10,
9,
10,
9,
9,
9,
10,
11,
6,
11,
10,
10,
9,
11,
9,
11,
9,
10,
10,
10,
10,
9,
11,
11,
9,
10,
11,
11,
10,
10,
9,
9,
7,
7,
9,
9,
8,
9,
9,
10,
10,
12,
9,
10,
9,
9,
9,
10,
10,
9,
9,
11,
8,
10,
9,
10,
10,
9,
10,
8,
8,
10,
10,
9,
10,
11,
9,
9,
9,
11,
13,
9,
8,
10,
11,
11,
10,
10,
10,
9,
9,
9,
7,
9,
9,
9,
11,
10,
10,
10,
12,
9,
9,
9,
11,
10,
10,
10,
10,
7,
12,
9,
11,
8,
15,
9,
9,
10,
10,
0,
9,
9,
9,
8,
9,
9,
9,
9,
9,
9,
9,
9,
9,
7,
9,
9,
8,
11,
12,
11,
9,
9,
17,
17,
9,
8,
12,
11,
10,
10,
11,
9,
9,
10,
11,
9,
9,
9,
9,
10,
9,
9,
9,
11,
10,
9,
11,
7,
8,
9,
9,
7,
7,
9,
9,
9,
9,
9,
9,
10,
9,
8,
9,
9,
10,
11,
11,
11,
11,
10,
9,
11,
9,
10,
11,
10,
9,
8,
9,
11,
9,
7,
7,
9,
9,
12,
7,
9,
9,
10,
5,
10,
9,
9,
8,
9,
8,
8,
9,
10,
11,
10,
10,
11,
8,
10,
9,
9,
9,
11,
11,
9,
9,
11,
9,
8,
11,
9,
8,
9,
8,
8,
9,
10,
10,
9,
11,
10,
12,
13,
10,
10,
11,
5,
9,
12,
13,
11,
11,
11,
11,
10,
12,
11,
12,
11,
10,
11,
12,
13,
11,
9,
9,
17,
13,
9,
13,
1,
9,
8,
15,
11,
14,
11,
9,
12,
12,
12,
11,
10,
8,
13,
11,
9,
9,
9,
7,
9,
9,
9,
10,
3,
9,
9,
9,
9,
11,
10,
8,
11,
11,
9,
11,
11,
10,
12,
17,
17,
10,
11,
11,
7,
11,
9,
11,
8,
11,
9,
11,
9,
9,
9,
10,
9,
11,
11,
12,
9,
9,
8,
6,
9,
9,
8,
13,
9,
9,
9,
9,
4,
9,
9,
10,
8,
9,
8,
9,
9,
9,
9,
9,
8,
9,
8,
9,
10,
9,
9,
9,
10,
8,
8,
10,
10,
9,
9,
9,
9,
8,
10,
9,
9,
8,
9,
9,
9,
9,
9,
5,
8,
8,
9,
10,
9,
9,
9,
9,
8,
10,
9,
9,
9,
9,
9,
9,
9,
8,
8,
8,
9,
8,
8,
12,
8,
9,
9,
11,
9,
9,
8,
9,
8,
9,
9,
9,
10,
10,
9,
8,
9,
9,
11,
11,
9,
9,
9,
14,
9,
8,
8,
9,
8,
9,
11,
11,
8,
8,
9,
9,
9,
9,
9,
8,
9,
9,
9,
8,
10,
9,
9,
9,
9,
9,
10,
9,
10,
9,
7,
9,
8,
9,
9,
11,
10,
10,
9,
10,
9,
11,
7,
12,
9,
9,
9,
11,
9,
11,
10,
10,
9,
11,
8,
9,
9,
11,
9,
9,
9,
7,
11,
8,
10,
9,
12,
7,
7,
9,
10,
9,
9,
10,
9,
11,
10,
11,
8,
9,
10,
10,
8,
9,
9,
5,
9,
10,
11,
8,
9,
10,
9,
9,
9,
9,
8,
9,
9,
10,
11,
10,
8,
9,
10,
9,
8,
7,
8,
8,
8,
8,
9,
10,
9,
10,
8,
10,
8,
9,
21,
5,
17,
9,
9,
12,
11,
6,
12,
10,
4,
8,
11,
10,
9,
9,
