Datos experimentales/DATOS 26-3-24/ALL0010/A0010CH1.CSV

Memory Length,4000,
Trigger Level,0.000E+00,
Source,CH1,
Vertical Units,V,
Vertical Scale,2.000E-02,
Vertical Position,-1.200E-02,
Horizontal Units,s,
Horizontal Scale,1.000E+00,
Horizontal Position,0.000E+00,
Horizontal Mode,Roll Mode,
Sampling Period,4.000E-03,
Firmware, V1.21,
Waveform Data,
9,
8,
9,
8,
8,
8,
9,
9,
8,
9,
8,
8,
14,
9,
9,
9,
8,
13,
11,
9,
8,
9,
10,
5,
8,
8,
7,
9,
9,
8,
9,
9,
9,
9,
8,
7,
9,
10,
10,
9,
9,
7,
8,
8,
9,
7,
10,
9,
8,
9,
7,
8,
9,
9,
7,
7,
10,
8,
9,
8,
13,
8,
8,
8,
10,
8,
8,
8,
8,
11,
9,
9,
9,
9,
9,
10,
8,
9,
6,
9,
9,
9,
9,
5,
11,
9,
9,
7,
8,
8,
5,
9,
7,
9,
9,
9,
6,
11,
9,
8,
9,
9,
8,
8,
9,
8,
8,
9,
8,
8,
9,
10,
8,
8,
8,
8,
8,
8,
9,
8,
6,
9,
9,
9,
7,
9,
9,
8,
9,
9,
9,
8,
9,
9,
8,
8,
8,
9,
8,
8,
10,
9,
8,
7,
8,
8,
9,
7,
9,
9,
7,
8,
8,
9,
8,
9,
10,
7,
8,
8,
8,
8,
9,
11,
9,
7,
7,
9,
8,
8,
8,
8,
9,
7,
8,
9,
9,
9,
9,
4,
4,
13,
10,
11,
9,
7,
9,
9,
7,
10,
8,
8,
11,
11,
9,
9,
8,
9,
8,
7,
8,
8,
8,
8,
9,
8,
9,
9,
8,
9,
8,
9,
8,
9,
9,
9,
9,
8,
9,
8,
9,
9,
7,
9,
9,
8,
9,
9,
8,
8,
9,
10,
8,
8,
8,
9,
9,
9,
8,
8,
9,
8,
8,
13,
9,
9,
8,
9,
9,
7,
7,
7,
8,
10,
9,
7,
8,
8,
9,
9,
9,
9,
10,
8,
8,
7,
8,
8,
9,
9,
8,
8,
8,
8,
8,
9,
9,
9,
9,
7,
9,
8,
11,
9,
9,
10,
9,
8,
8,
8,
8,
8,
8,
8,
9,
8,
4,
10,
8,
8,
8,
9,
8,
8,
8,
8,
7,
8,
9,
8,
9,
11,
9,
9,
7,
9,
3,
8,
7,
7,
9,
8,
10,
6,
10,
9,
8,
8,
13,
8,
9,
8,
8,
7,
6,
9,
10,
8,
8,
9,
7,
7,
8,
9,
8,
9,
6,
8,
9,
9,
8,
9,
9,
8,
9,
9,
11,
8,
8,
7,
9,
9,
7,
7,
8,
3,
10,
8,
7,
8,
9,
8,
9,
8,
9,
8,
8,
7,
10,
8,
9,
8,
9,
11,
9,
7,
9,
8,
9,
8,
8,
8,
9,
8,
9,
8,
8,
8,
9,
8,
7,
7,
7,
9,
9,
8,
8,
8,
9,
9,
9,
7,
8,
9,
8,
8,
9,
9,
9,
11,
9,
9,
8,
8,
9,
10,
8,
9,
9,
9,
8,
8,
8,
9,
7,
8,
9,
8,
9,
11,
9,
8,
9,
9,
6,
7,
9,
8,
8,
9,
7,
8,
8,
13,
9,
8,
7,
9,
8,
8,
8,
8,
11,
8,
13,
13,
7,
4,
8,
10,
9,
8,
8,
8,
8,
8,
11,
8,
8,
9,
11,
7,
9,
9,
8,
8,
9,
9,
9,
9,
9,
8,
9,
8,
9,
7,
9,
8,
8,
8,
5,
7,
7,
8,
8,
9,
13,
8,
9,
8,
10,
9,
11,
7,
8,
9,
9,
13,
9,
10,
8,
9,
8,
9,
8,
9,
9,
9,
8,
8,
8,
8,
8,
9,
8,
7,
9,
9,
5,
9,
9,
8,
9,
10,
9,
8,
8,
12,
9,
8,
11,
11,
7,
11,
11,
9,
9,
8,
8,
7,
7,
9,
9,
8,
8,
8,
10,
9,
8,
9,
7,
10,
10,
8,
8,
8,
8,
9,
9,
9,
9,
9,
7,
9,
11,
10,
9,
8,
8,
8,
4,
9,
9,
7,
8,
8,
8,
8,
8,
9,
9,
9,
11,
7,
8,
9,
9,
8,
9,
9,
8,
8,
9,
9,
9,
9,
8,
9,
8,
8,
7,
8,
10,
9,
9,
9,
9,
1,
9,
9,
8,
8,
6,
7,
8,
9,
9,
8,
7,
11,
9,
9,
9,
9,
8,
8,
8,
9,
8,
9,
9,
8,
8,
9,
8,
8,
9,
10,
9,
9,
9,
8,
8,
7,
9,
9,
9,
8,
9,
8,
9,
14,
8,
8,
9,
8,
4,
8,
8,
9,
8,
9,
9,
8,
9,
8,
9,
9,
8,
9,
9,
9,
8,
10,
11,
10,
9,
8,
8,
8,
8,
8,
9,
9,
9,
8,
10,
7,
9,
9,
8,
9,
9,
9,
9,
9,
8,
8,
8,
8,
8,
5,
8,
9,
7,
10,
8,
9,
8,
8,
9,
13,
9,
8,
9,
8,
8,
11,
8,
9,
9,
8,
9,
9,
8,
9,
9,
9,
9,
3,
9,
10,
11,
7,
11,
7,
9,
9,
8,
8,
8,
10,
8,
13,
10,
9,
7,
9,
8,
9,
8,
9,
12,
12,
9,
8,
9,
9,
9,
7,
9,
12,
8,
9,
9,
9,
5,
5,
9,
8,
9,
8,
9,
8,
8,
9,
7,
8,
11,
10,
9,
9,
8,
9,
5,
9,
11,
8,
9,
9,
8,
9,
8,
9,
9,
9,
9,
9,
8,
9,
9,
8,
8,
9,
8,
9,
8,
9,
7,
7,
8,
8,
8,
7,
8,
7,
11,
9,
11,
9,
9,
9,
9,
9,
7,
9,
8,
6,
10,
8,
9,
9,
8,
5,
8,
9,
7,
7,
11,
9,
9,
8,
8,
9,
8,
9,
8,
8,
8,
9,
7,
7,
6,
8,
9,
9,
11,
8,
10,
8,
9,
8,
9,
10,
8,
8,
8,
8,
8,
9,
8,
10,
8,
8,
8,
8,
5,
8,
8,
9,
8,
9,
6,
8,
8,
8,
8,
9,
8,
11,
7,
9,
9,
8,
8,
9,
9,
9,
9,
7,
7,
8,
10,
8,
11,
7,
7,
7,
4,
8,
8,
9,
9,
3,
10,
9,
8,
10,
6,
11,
11,
9,
8,
7,
8,
10,
8,
7,
9,
8,
9,
7,
10,
9,
9,
8,
2,
2,
8,
9,
9,
9,
8,
10,
9,
8,
10,
9,
8,
9,
9,
6,
8,
7,
8,
8,
6,
9,
8,
9,
9,
9,
13,
8,
8,
10,
8,
8,
10,
8,
9,
8,
9,
8,
8,
9,
8,
9,
9,
9,
7,
9,
9,
9,
6,
9,
9,
8,
9,
8,
8,
7,
7,
9,
8,
8,
8,
9,
9,
8,
8,
8,
9,
7,
9,
8,
8,
9,
8,
8,
9,
8,
10,
11,
9,
4,
8,
8,
10,
8,
8,
9,
9,
8,
9,
8,
9,
9,
9,
7,
8,
7,
9,
9,
9,
10,
10,
8,
9,
9,
9,
7,
10,
8,
9,
7,
9,
8,
9,
7,
7,
9,
8,
8,
15,
7,
8,
8,
9,
11,
6,
8,
8,
7,
7,
8,
13,
8,
7,
8,
8,
8,
8,
9,
9,
8,
8,
9,
9,
8,
9,
9,
9,
11,
8,
9,
9,
9,
9,
10,
8,
8,
9,
9,
7,
9,
9,
9,
8,
9,
9,
9,
9,
8,
9,
9,
9,
9,
7,
9,
7,
9,
9,
9,
8,
10,
6,
9,
8,
8,
8,
9,
11,
8,
9,
7,
9,
9,
8,
8,
7,
8,
8,
8,
8,
9,
9,
8,
9,
8,
9,
9,
9,
9,
8,
9,
9,
8,
8,
8,
9,
9,
9,
9,
8,
9,
8,
7,
7,
10,
8,
8,
8,
7,
9,
8,
9,
8,
9,
9,
11,
8,
8,
9,
9,
7,
7,
9,
9,
9,
8,
8,
8,
9,
9,
9,
8,
8,
9,
9,
7,
10,
9,
9,
9,
8,
9,
9,
9,
9,
8,
7,
8,
8,
9,
7,
9,
2,
7,
9,
11,
8,
8,
7,
7,
7,
9,
9,
9,
5,
8,
9,
8,
9,
9,
8,
9,
8,
8,
11,
8,
7,
9,
9,
8,
8,
9,
7,
8,
9,
9,
9,
8,
9,
9,
8,
10,
10,
7,
8,
7,
8,
8,
9,
9,
8,
7,
8,
8,
9,
9,
9,
10,
7,
8,
9,
9,
5,
9,
8,
9,
8,
9,
9,
7,
7,
9,
9,
9,
8,
9,
8,
9,
9,
8,
9,
10,
7,
9,
9,
8,
9,
7,
8,
7,
12,
3,
-1,
9,
15,
5,
7,
7,
8,
9,
11,
8,
8,
8,
11,
6,
13,
11,
10,
9,
8,
9,
9,
9,
8,
8,
9,
9,
7,
9,
8,
9,
7,
8,
8,
8,
9,
8,
9,
8,
9,
9,
10,
8,
10,
8,
9,
7,
8,
8,
9,
8,
8,
7,
8,
9,
8,
8,
9,
8,
9,
9,
8,
8,
8,
7,
7,
9,
8,
9,
9,
8,
8,
9,
8,
8,
9,
7,
8,
9,
9,
10,
9,
9,
8,
8,
9,
7,
9,
7,
9,
8,
10,
11,
11,
9,
9,
8,
7,
8,
9,
9,
12,
9,
9,
9,
9,
9,
8,
8,
9,
9,
9,
7,
8,
10,
8,
10,
8,
8,
9,
9,
7,
8,
9,
8,
6,
9,
8,
9,
8,
8,
10,
8,
8,
8,
9,
9,
8,
9,
8,
9,
8,
9,
8,
6,
5,
8,
9,
8,
8,
9,
9,
7,
9,
8,
9,
11,
8,
8,
12,
8,
8,
8,
8,
8,
9,
8,
9,
7,
9,
9,
8,
8,
9,
8,
9,
9,
6,
6,
8,
8,
9,
8,
9,
8,
9,
9,
2,
8,
8,
8,
8,
8,
5,
8,
10,
8,
10,
9,
11,
8,
8,
3,
9,
7,
8,
8,
9,
8,
8,
9,
13,
9,
8,
8,
9,
7,
10,
8,
8,
9,
13,
8,
8,
9,
10,
8,
8,
9,
9,
8,
8,
9,
8,
8,
9,
9,
9,
8,
8,
7,
9,
5,
9,
8,
9,
9,
9,
8,
9,
9,
8,
9,
10,
12,
8,
8,
8,
9,
9,
9,
5,
8,
8,
11,
10,
10,
11,
13,
13,
11,
13,
13,
14,
19,
15,
15,
16,
16,
16,
13,
19,
16,
20,
19,
19,
20,
22,
23,
23,
24,
24,
26,
26,
26,
25,
31,
31,
27,
29,
29,
30,
31,
32,
33,
33,
34,
34,
33,
36,
39,
38,
37,
40,
41,
40,
41,
44,
44,
42,
44,
47,
47,
48,
47,
49,
49,
50,
51,
52,
53,
53,
55,
56,
57,
57,
56,
56,
60,
60,
61,
63,
64,
63,
65,
67,
71,
67,
65,
65,
69,
69,
72,
71,
71,
71,
70,
72,
77,
74,
73,
75,
75,
75,
72,
78,
77,
76,
75,
75,
77,
75,
76,
77,
77,
77,
77,
77,
77,
75,
77,
78,
77,
77,
77,
77,
77,
76,
76,
79,
79,
77,
77,
79,
76,
76,
77,
77,
76,
77,
77,
77,
77,
76,
76,
77,
77,
78,
75,
75,
75,
78,
76,
74,
76,
75,
75,
75,
75,
72,
73,
74,
74,
75,
74,
75,
74,
73,
71,
75,
75,
71,
71,
72,
73,
71,
69,
71,
67,
72,
71,
71,
67,
70,
70,
70,
70,
69,
64,
71,
72,
70,
68,
69,
68,
67,
66,
69,
67,
67,
67,
68,
67,
66,
64,
65,
65,
65,
64,
63,
64,
65,
65,
63,
63,
63,
64,
65,
65,
63,
64,
63,
64,
64,
61,
63,
63,
62,
62,
61,
62,
61,
61,
54,
64,
61,
62,
59,
61,
61,
57,
57,
59,
60,
60,
62,
59,
60,
60,
59,
57,
56,
59,
59,
58,
58,
58,
56,
59,
57,
57,
55,
57,
58,
57,
56,
56,
55,
55,
55,
53,
55,
56,
55,
57,
55,
55,
55,
56,
55,
55,
53,
49,
55,
55,
54,
54,
53,
52,
55,
53,
53,
54,
53,
51,
53,
49,
49,
51,
51,
55,
53,
49,
50,
51,
51,
44,
51,
50,
51,
46,
46,
49,
49,
47,
51,
51,
51,
49,
51,
51,
45,
50,
50,
51,
51,
49,
49,
51,
49,
49,
48,
49,
48,
50,
48,
49,
45,
49,
49,
47,
47,
47,
49,
47,
47,
44,
48,
45,
47,
48,
47,
47,
47,
48,
47,
46,
49,
48,
48,
47,
48,
48,
47,
47,
47,
46,
46,
52,
46,
46,
45,
47,
45,
46,
45,
47,
45,
44,
45,
45,
45,
45,
43,
44,
45,
43,
43,
44,
43,
43,
45,
47,
45,
45,
45,
41,
44,
43,
44,
44,
43,
44,
44,
43,
44,
41,
43,
39,
39,
44,
41,
42,
43,
41,
40,
42,
41,
41,
41,
41,
41,
40,
40,
39,
39,
40,
39,
40,
44,
40,
39,
38,
40,
38,
39,
39,
40,
40,
37,
38,
37,
38,
38,
38,
39,
39,
38,
41,
38,
38,
39,
39,
39,
37,
39,
39,
38,
39,
36,
39,
38,
37,
38,
38,
39,
39,
42,
37,
37,
36,
37,
40,
35,
36,
35,
36,
35,
34,
34,
36,
31,
33,
35,
32,
33,
35,
35,
35,
35,
37,
35,
35,
33,
36,
34,
36,
34,
34,
33,
34,
34,
32,
28,
35,
33,
33,
33,
34,
42,
33,
33,
34,
33,
33,
36,
32,
34,
35,
34,
34,
32,
36,
31,
33,
33,
33,
32,
32,
31,
33,
32,
31,
31,
31,
32,
31,
30,
31,
32,
31,
31,
32,
31,
30,
31,
33,
31,
31,
31,
32,
28,
31,
33,
31,
29,
29,
31,
33,
32,
32,
31,
31,
31,
31,
34,
29,
31,
32,
32,
32,
30,
31,
32,
32,
31,
31,
31,
32,
28,
31,
31,
31,
31,
31,
30,
29,
27,
27,
27,
36,
31,
29,
30,
25,
31,
29,
29,
29,
29,
29,
29,
27,
29,
29,
29,
29,
31,
29,
28,
29,
28,
29,
29,
28,
28,
27,
29,
29,
25,
27,
28,
28,
28,
29,
29,
27,
29,
28,
28,
27,
32,
32,
28,
27,
27,
29,
28,
28,
28,
27,
28,
27,
28,
28,
28,
28,
27,
27,
24,
27,
29,
26,
27,
25,
27,
26,
25,
28,
28,
27,
27,
29,
29,
27,
27,
27,
26,
27,
26,
25,
25,
25,
25,
26,
26,
25,
27,
24,
24,
23,
23,
25,
24,
25,
25,
25,
26,
25,
25,
25,
21,
23,
21,
24,
24,
25,
25,
25,
25,
23,
24,
24,
23,
24,
26,
24,
23,
23,
24,
24,
24,
23,
23,
23,
22,
22,
23,
23,
21,
23,
23,
22,
23,
27,
21,
23,
23,
21,
22,
24,
24,
21,
21,
23,
24,
23,
23,
21,
23,
24,
23,
25,
23,
21,
21,
25,
21,
21,
23,
22,
23,
23,
21,
23,
23,
21,
22,
21,
23,
20,
24,
24,
23,
21,
21,
24,
21,
21,
21,
21,
21,
21,
18,
19,
19,
21,
21,
21,
21,
21,
23,
22,
21,
21,
20,
18,
20,
18,
19,
19,
21,
17,
20,
19,
20,
19,
19,
17,
19,
19,
20,
21,
20,
20,
19,
18,
20,
18,
19,
16,
19,
20,
19,
20,
19,
17,
17,
19,
18,
19,
18,
19,
20,
18,
17,
19,
18,
17,
27,
18,
18,
18,
18,
19,
23,
17,
17,
18,
19,
16,
19,
20,
17,
15,
15,
16,
17,
17,
18,
18,
15,
18,
18,
19,
19,
17,
17,
21,
15,
15,
17,
18,
18,
19,
17,
16,
18,
17,
17,
16,
17,
15,
12,
17,
17,
17,
16,
16,
17,
18,
17,
17,
17,
15,
17,
17,
17,
17,
17,
17,
18,
17,
19,
17,
17,
18,
19,
17,
17,
15,
19,
17,
16,
16,
17,
17,
17,
17,
17,
17,
17,
17,
17,
20,
13,
17,
13,
13,
17,
17,
20,
16,
16,
15,
15,
14,
9,
16,
17,
16,
0,
9,
9,
16,
17,
16,
15,
15,
16,
11,
16,
17,
19,
16,
19,
19,
12,
16,
16,
15,
15,
14,
15,
16,
16,
15,
15,
16,
16,
15,
15,
15,
15,
15,
15,
15,
14,
15,
15,
13,
17,
7,
15,
15,
13,
14,
14,
13,
13,
15,
15,
14,
16,
14,
14,
13,
13,
13,
13,
12,
12,
13,
13,
15,
14,
13,
14,
15,
15,
13,
17,
14,
15,
11,
11,
13,
12,
12,
14,
13,
14,
13,
15,
11,
13,
13,
14,
13,
13,
9,
15,
12,
14,
13,
13,
17,
13,
13,
15,
13,
11,
13,
13,
14,
13,
14,
13,
12,
11,
13,
14,
13,
15,
13,
14,
14,
14,
14,
14,
17,
12,
15,
13,
13,
13,
15,
17,
13,
13,
14,
13,
13,
16,
11,
13,
15,
15,
13,
12,
14,
13,
13,
11,
15,
15,
13,
13,
13,
14,
12,
13,
15,
11,
13,
13,
13,
13,
9,
13,
14,
13,
13,
13,
14,
13,
12,
13,
13,
13,
13,
12,
13,
12,
13,
13,
13,
13,
13,
12,
12,
13,
13,
7,
13,
12,
12,
13,
11,
16,
13,
13,
12,
14,
12,
13,
12,
13,
15,
10,
12,
11,
12,
12,
12,
12,
13,
13,
13,
13,
13,
11,
12,
13,
12,
12,
13,
13,
13,
11,
12,
14,
12,
13,
13,
12,
10,
13,
11,
11,
12,
13,
13,
9,
13,
13,
12,
11,
11,
13,
11,
12,
11,
12,
12,
13,
11,
12,
12,
14,
14,
13,
13,
11,
12,
12,
8,
11,
8,
12,
11,
11,
13,
11,
11,
12,
12,
12,
12,
10,
15,
13,
12,
12,
13,
13,
12,
12,
11,
15,
11,
10,
14,
13,
8,
11,
10,
12,
10,
11,
11,
11,
11,
12,
9,
11,
11,
11,
11,
13,
13,
11,
12,
12,
8,
8,
11,
10,
13,
11,
11,
12,
12,
11,
11,
3,
10,
11,
9,
12,
12,
11,
12,
12,
12,
9,
10,
12,
11,
11,
12,
13,
11,
12,
11,
12,
12,
10,
12,
10,
11,
12,
12,
11,
12,
12,
11,
11,
11,
14,
14,
10,
9,
12,
10,
11,
12,
13,
11,
12,
11,
11,
11,
11,
11,
12,
11,
12,
12,
11,
14,
11,
11,
13,
13,
10,
12,
12,
11,
11,
11,
9,
12,
12,
11,
11,
11,
11,
9,
10,
11,
8,
8,
11,
14,
11,
12,
11,
11,
11,
10,
11,
11,
9,
10,
9,
9,
11,
10,
11,
9,
14,
13,
11,
10,
10,
10,
11,
8,
11,
11,
9,
9,
9,
12,
8,
11,
9,
10,
9,
9,
9,
9,
11,
11,
10,
10,
9,
10,
11,
10,
10,
9,
11,
7,
8,
9,
11,
9,
10,
9,
9,
10,
9,
9,
9,
10,
10,
15,
9,
11,
10,
10,
11,
9,
9,
10,
12,
9,
9,
10,
10,
9,
10,
9,
9,
9,
10,
9,
9,
9,
7,
9,
9,
9,
9,
8,
14,
11,
9,
9,
11,
11,
9,
9,
9,
9,
9,
10,
11,
9,
9,
8,
11,
9,
9,
9,
9,
9,
9,
10,
11,
8,
8,
10,
9,
9,
9,
9,
9,
9,
9,
8,
9,
8,
8,
9,
7,
7,
9,
14,
9,
8,
9,
8,
8,
8,
8,
9,
9,
9,
11,
8,
9,
8,
9,
9,
12,
8,
10,
9,
9,
9,
9,
9,
7,
8,
8,
11,
9,
9,
9,
9,
9,
9,
9,
5,
11,
9,
9,
8,
9,
8,
7,
4,
6,
12,
8,
9,
8,
8,
9,
7,
9,
9,
8,
9,
10,
10,
10,
16,
11,
9,
9,
10,
10,
9,
9,
9,
8,
11,
9,
9,
8,
9,
7,
11,
11,
7,
9,
9,
8,
9,
9,
9,
9,
9,
10,
8,
10,
9,
9,
9,
11,
8,
9,
9,
4,
8,
9,
8,
7,
9,
9,
9,
8,
8,
9,
9,
8,
11,
11,
7,
8,
10,
9,
9,
10,
7,
9,
8,
9,
9,
9,
9,
12,
9,
8,
9,
9,
4,
1,
5,
9,
9,
9,
9,
11,
11,
8,
9,
9,
9,
11,
10,
10,
10,
9,
9,
9,
9,
9,
10,
8,
9,
8,
9,
8,
12,
9,
9,
8,
9,
9,
8,
9,
9,
8,
4,
10,
9,
8,
9,
9,
13,
7,
9,
9,
9,
8,
8,
9,
9,
9,
9,
10,
9,
9,
9,
9,
8,
10,
10,
5,
11,
9,
9,
9,
8,
12,
10,
11,
9,
10,
9,
7,
8,
9,
8,
8,
9,
8,
12,
8,
7,
9,
9,
9,
9,
13,
9,
9,
9,
9,
8,
7,
9,
9,
9,
9,
9,
9,
10,
6,
8,
10,
10,
9,
8,
8,
9,
9,
10,
11,
10,
9,
9,
9,
10,
11,
9,
9,
8,
9,
9,
9,
11,
8,
8,
9,
9,
9,
8,
9,
9,
9,
8,
8,
12,
9,
9,
8,
9,
9,
7,
11,
8,
8,
8,
9,
9,
9,
9,
8,
8,
8,
7,
8,
11,
8,
8,
10,
10,
13,
8,
8,
9,
10,
9,
11,
10,
9,
10,
13,
10,
8,
9,
9,
9,
10,
10,
11,
9,
9,
9,
9,
8,
11,
10,
9,
8,
9,
9,
9,
13,
-1,
6,
5,
7,
8,
7,
10,
9,
10,
8,
9,
8,
8,
8,
8,
9,
9,
9,
9,
11,
8,
10,
11,
10,
11,
10,
10,
9,
9,
9,
10,
12,
9,
9,
10,
10,
8,
10,
8,
9,
9,
8,
9,
11,
10,
8,
10,
10,
11,
8,
9,
9,
8,
9,
16,
16,
8,
12,
9,
8,
8,
6,
10,
9,
9,
9,
10,
11,
11,
11,
9,
9,
9,
10,
5,
11,
9,
9,
8,
9,
11,
9,
9,
9,
8,
8,
7,
9,
12,
10,
7,
8,
10,
8,
9,
9,
9,
9,
11,
11,
7,
9,
10,
7,
12,
9,
7,
8,
9,
8,
8,
8,
10,
10,
9,
10,
10,
11,
5,
9,
9,
9,
9,
10,
5,
8,
9,
9,
9,
10,
12,
11,
9,
9,
9,
7,
9,
11,
9,
8,
9,
9,
8,
8,
9,
9,
7,
8,
9,
9,
9,
8,
8,
9,
7,
7,
8,
9,
9,
8,
9,
7,
8,
9,
8,
8,
8,
7,
7,
9,
9,
9,
8,
7,
8,
8,
8,
8,
9,
9,
8,
11,
11,
9,
9,
9,
9,
9,
9,
9,
9,
10,
11,
10,
8,
9,
8,
7,
7,
9,
9,
9,
9,
9,
7,
7,
9,
9,
8,
10,
8,
9,
9,
9,
9,
9,
10,
9,
7,
9,
9,
8,
7,
13,
11,
8,
8,
8,
9,
11,
9,
9,
9,
9,
7,
7,
9,
9,
9,
8,
8,
8,
9,
11,
9,
9,
9,
10,
11,
9,
9,
9,
9,
9,
10,
10,
10,
10,
9,
9,
9,
9,
7,
10,
9,
9,
9,
9,
9,
9,
9,
9,
8,
7,
9,
9,
7,
9,
9,
10,
7,
9,
9,
8,
7,
11,
17,
8,
8,
9,
11,
9,
9,
9,
9,
9,
9,
8,
8,
8,
9,
9,
8,
8,
5,
8,
8,
9,
7,
9,
9,
9,
8,
9,
9,
9,
8,
9,
12,
10,
9,
9,
9,
11,
8,
9,
8,
9,
9,
8,
9,
7,
10,
9,
8,
9,
3,
11,
10,
11,
9,
9,
8,
11,
10,
8,
13,
9,
10,
10,
9,
9,
9,
9,
8,
8,
9,
9,
9,
8,
9,
9,
9,
8,
9,
9,
8,
11,
11,
11,
9,
8,
8,
6,
9,
9,
8,
7,
7,
7,
8,
8,
11,
11,
9,
9,
8,
9,
9,
9,
8,
6,
10,
8,
9,
8,
10,
8,
8,
9,
9,
9,
7,
7,
9,
8,
9,
10,
8,
7,
8,
9,
9,
9,
8,
10,
9,
9,
8,
8,
8,
9,
7,
7,
6,
6,
8,
8,
9,
8,
9,
8,
8,
9,
8,
8,
8,
9,
8,
9,
9,
8,
11,
9,
8,
9,
9,
11,
9,
8,
9,
11,
9,
9,
9,
9,
9,
9,
13,
9,
7,
8,
9,
8,
9,
9,
7,
8,
8,
8,
9,
9,
3,
8,
9,
9,
9,
9,
9,
9,
7,
7,
8,
8,
9,
14,
8,
9,
8,
9,
8,
9,
9,
8,
7,
9,
9,
7,
8,
9,
3,
9,
9,
9,
8,
9,
8,
9,
10,
10,
9,
9,
10,
9,
8,
9,
8,
8,
9,
9,
9,
8,
8,
9,
8,
8,
8,
9,
8,
7,
9,
9,
8,
9,
9,
8,
8,
8,
8,
8,
10,
12,
11,
9,
8,
9,
10,
9,
16,
9,
8,
10,
10,
8,
11,
9,
9,
9,
10,
9,
8,
9,
9,
9,
9,
11,
18,
18,
4,
9,
21,
9,
8,
14,
7,
12,
7,
9,
9,
7,
7,
8,
9,
9,
9,
5,
8,
9,
7,
9,
9,
8,
8,
9,
9,
8,
9,
9,
9,
8,
9,
9,
9,
7,
8,
9,
9,
8,
9,
9,
7,
7,
9,
9,
9,
8,
9,
9,
8,
9,
8,
9,
8,
10,
7,
7,
9,
9,
9,
9,
9,
8,
9,
8,
8,
9,
9,
9,
9,
