Datos experimentales/DATOS 26-3-24/ALL0005/A0005CH1.CSV

Memory Length,4000,
Trigger Level,0.000E+00,
Source,CH1,
Vertical Units,V,
Vertical Scale,2.000E-02,
Vertical Position,-1.200E-02,
Horizontal Units,s,
Horizontal Scale,1.000E+00,
Horizontal Position,0.000E+00,
Horizontal Mode,Roll Mode,
Sampling Period,4.000E-03,
Firmware, V1.21,
Waveform Data,
-34,
-34,
-35,
-34,
-34,
-34,
-35,
-35,
-34,
-34,
-33,
-34,
-34,
-33,
-34,
-33,
-33,
-34,
-34,
-33,
-33,
-35,
-35,
-35,
-34,
-34,
-34,
-35,
-34,
-34,
-34,
-35,
-34,
-34,
-34,
-34,
-34,
-34,
-34,
-33,
-35,
-35,
-34,
-34,
-34,
-33,
-34,
-35,
-34,
-34,
-34,
-35,
-34,
-34,
-34,
-35,
-33,
-34,
-34,
-34,
-35,
-34,
-33,
-34,
-34,
-34,
-34,
-34,
-35,
-34,
-35,
-35,
-35,
-34,
-35,
-35,
-35,
-34,
-34,
-34,
-33,
-34,
-34,
-35,
-33,
-34,
-34,
-35,
-34,
-34,
-33,
-33,
-34,
-35,
-34,
-34,
-34,
-35,
-33,
-34,
-35,
-35,
-34,
-34,
-35,
-35,
-35,
-35,
-34,
-34,
-35,
-35,
-34,
-34,
-34,
-34,
-34,
-34,
-35,
-34,
-34,
-34,
-34,
-34,
-34,
-34,
-35,
-35,
-34,
-34,
-34,
-34,
-34,
-34,
-34,
-34,
-34,
-34,
-34,
-34,
-34,
-34,
-35,
-35,
-34,
-34,
-34,
-33,
-34,
-34,
-34,
-34,
-34,
-34,
-34,
-35,
-34,
-34,
-34,
-35,
-34,
-34,
-35,
-36,
-34,
-33,
-33,
-34,
-34,
-35,
-35,
-34,
-34,
-34,
-34,
-34,
-34,
-35,
-33,
-35,
-35,
-34,
-35,
-34,
-35,
-34,
-34,
-35,
-34,
-35,
-34,
-33,
-34,
-35,
-35,
-33,
-34,
-35,
-35,
-34,
-34,
-34,
-35,
-33,
-34,
-34,
-35,
-33,
-33,
-35,
-34,
-35,
-33,
-34,
-33,
-33,
-34,
-34,
-34,
-34,
-33,
-34,
-34,
-35,
-34,
-34,
-34,
-34,
-34,
-35,
-33,
-34,
-34,
-33,
-34,
-34,
-34,
-34,
-34,
-33,
-35,
-33,
-34,
-34,
-34,
-33,
-35,
-34,
-33,
-33,
-33,
-34,
-34,
-33,
-33,
-34,
-34,
-33,
-33,
-34,
-34,
-33,
-33,
-34,
-34,
-34,
-34,
-35,
-34,
-34,
-34,
-33,
-34,
-33,
-34,
-34,
-34,
-34,
-34,
-34,
-33,
-33,
-34,
-34,
-34,
-34,
-33,
-34,
-33,
-34,
-34,
-33,
-34,
-33,
-33,
-34,
-34,
-33,
-34,
-33,
-34,
-34,
-34,
-34,
-33,
-35,
-34,
-34,
-34,
-34,
-33,
-33,
-34,
-34,
-34,
-33,
-34,
-34,
-34,
-33,
-33,
-34,
-34,
-33,
-34,
-35,
-35,
-34,
-34,
-34,
-34,
-34,
-34,
-34,
-34,
-35,
-35,
-35,
-35,
-33,
-34,
-34,
-35,
-35,
-33,
-34,
-35,
-35,
-34,
-35,
-35,
-35,
-34,
-34,
-34,
-35,
-35,
-34,
-34,
-35,
-34,
-34,
-34,
-34,
-34,
-34,
-34,
-34,
-35,
-34,
-33,
-35,
-33,
-34,
-34,
-34,
-34,
-34,
-33,
-35,
-33,
-33,
-34,
-35,
-33,
-33,
-34,
-34,
-35,
-34,
-34,
-34,
-35,
-34,
-34,
-34,
-33,
-35,
-34,
-33,
-33,
-35,
-35,
-34,
-35,
-34,
-35,
-34,
-34,
-34,
-34,
-34,
-35,
-35,
-35,
-34,
-34,
-34,
-34,
-34,
-34,
-34,
-35,
-35,
-35,
-34,
-34,
-34,
-34,
-34,
-34,
-34,
-34,
-34,
-33,
-34,
-34,
-34,
-33,
-34,
-33,
-35,
-35,
-34,
-34,
-35,
-35,
-34,
-34,
-33,
-34,
-34,
-34,
-34,
-34,
-34,
-34,
-34,
-34,
-34,
-34,
-34,
-33,
-33,
-35,
-33,
-33,
-34,
-33,
-33,
-35,
-34,
-34,
-33,
-35,
-35,
-35,
-33,
-35,
-35,
-34,
-34,
-34,
-33,
-34,
-35,
-34,
-33,
-34,
-34,
-34,
-35,
-34,
-35,
-33,
-34,
-34,
-34,
-33,
-34,
-34,
-34,
-34,
-35,
-35,
-34,
-34,
-34,
-33,
-34,
-34,
-33,
-35,
-34,
-34,
-35,
-34,
-34,
-34,
-35,
-34,
-34,
-35,
-35,
-34,
-34,
-34,
-35,
-34,
-35,
-34,
-34,
-33,
-35,
-35,
-33,
-33,
-34,
-33,
-33,
-34,
-34,
-33,
-35,
-34,
-33,
-34,
-35,
-35,
-34,
-35,
-35,
-35,
-34,
-35,
-34,
-34,
-34,
-34,
-34,
-34,
-35,
-34,
-35,
-34,
-34,
-33,
-35,
-35,
-35,
-35,
-34,
-34,
-34,
-34,
-34,
-33,
-34,
-33,
-34,
-34,
-33,
-33,
-34,
-34,
-34,
-33,
-34,
-35,
-34,
-35,
-34,
-34,
-34,
-34,
-35,
-34,
-35,
-35,
-34,
-35,
-34,
-35,
-34,
-34,
-34,
-33,
-33,
-34,
-34,
-33,
-34,
-34,
-34,
-34,
-35,
-33,
-33,
-34,
-35,
-34,
-33,
-34,
-34,
-34,
-34,
-35,
-33,
-34,
-35,
-34,
-34,
-33,
-35,
-34,
-34,
-35,
-35,
-34,
-34,
-34,
-34,
-34,
-34,
-33,
-33,
-34,
-33,
-35,
-35,
-35,
-34,
-34,
-35,
-34,
-34,
-34,
-35,
-35,
-35,
-34,
-33,
-34,
-35,
-35,
-33,
-34,
-34,
-34,
-34,
-34,
-34,
-34,
-34,
-35,
-34,
-34,
-35,
-35,
-34,
-34,
-33,
-33,
-34,
-34,
-33,
-34,
-33,
-33,
-33,
-35,
-34,
-34,
-33,
-35,
-34,
-34,
-34,
-34,
-33,
-34,
-35,
-35,
-34,
-34,
-35,
-34,
-34,
-34,
-34,
-34,
-35,
-34,
-34,
-33,
-34,
-34,
-33,
-34,
-34,
-33,
-34,
-35,
-35,
-34,
-34,
-34,
-35,
-34,
-35,
-34,
-33,
-34,
-34,
-34,
-33,
-34,
-34,
-34,
-34,
-34,
-34,
-35,
-35,
-33,
-34,
-34,
-34,
-34,
-35,
11,
11,
9,
9,
11,
11,
11,
9,
11,
11,
12,
11,
11,
11,
11,
9,
13,
11,
9,
13,
11,
11,
11,
13,
13,
12,
11,
13,
12,
10,
10,
11,
11,
12,
11,
10,
9,
11,
10,
10,
11,
11,
10,
10,
17,
11,
10,
10,
11,
11,
11,
11,
8,
9,
11,
11,
11,
11,
11,
10,
11,
11,
10,
11,
12,
9,
10,
12,
10,
9,
9,
11,
10,
11,
11,
10,
11,
12,
11,
12,
11,
8,
10,
10,
11,
9,
10,
10,
11,
11,
12,
11,
11,
12,
9,
11,
11,
10,
11,
10,
11,
11,
14,
11,
13,
12,
15,
11,
9,
9,
9,
10,
11,
11,
11,
11,
11,
11,
10,
11,
11,
11,
10,
10,
12,
11,
10,
12,
11,
11,
11,
9,
11,
10,
12,
13,
11,
9,
10,
10,
11,
10,
11,
14,
11,
12,
10,
11,
11,
11,
11,
11,
9,
9,
12,
11,
11,
11,
12,
12,
8,
11,
12,
11,
11,
11,
11,
11,
13,
9,
11,
11,
11,
9,
10,
11,
9,
9,
11,
11,
10,
9,
12,
11,
11,
11,
9,
9,
11,
14,
11,
11,
13,
13,
11,
11,
11,
12,
11,
10,
12,
10,
12,
11,
11,
10,
10,
11,
11,
11,
11,
12,
11,
12,
7,
11,
9,
12,
13,
11,
10,
8,
8,
12,
11,
12,
8,
11,
12,
12,
13,
12,
11,
11,
9,
9,
11,
11,
12,
11,
10,
10,
11,
12,
11,
11,
11,
8,
10,
10,
10,
9,
9,
11,
12,
12,
10,
10,
11,
9,
15,
11,
11,
11,
9,
11,
10,
9,
11,
11,
7,
12,
9,
12,
11,
11,
8,
10,
11,
11,
11,
11,
11,
9,
12,
10,
11,
11,
12,
12,
11,
11,
11,
12,
10,
11,
10,
6,
13,
13,
12,
12,
12,
9,
16,
11,
11,
11,
10,
12,
12,
11,
11,
10,
11,
11,
11,
10,
9,
10,
10,
10,
10,
11,
11,
11,
11,
9,
13,
12,
10,
9,
9,
10,
9,
9,
12,
11,
10,
9,
12,
11,
11,
10,
10,
10,
9,
9,
10,
10,
12,
11,
10,
11,
10,
11,
11,
12,
23,
23,
11,
11,
11,
11,
12,
11,
11,
13,
15,
11,
11,
11,
11,
11,
11,
11,
11,
11,
12,
9,
12,
12,
11,
11,
10,
10,
11,
12,
10,
11,
11,
10,
13,
11,
11,
11,
8,
11,
11,
11,
10,
11,
10,
9,
11,
11,
11,
10,
10,
11,
9,
13,
10,
10,
9,
9,
14,
6,
10,
11,
9,
7,
15,
11,
11,
13,
11,
0,
5,
5,
15,
11,
21,
10,
13,
11,
12,
9,
10,
10,
11,
13,
13,
11,
10,
11,
13,
11,
11,
11,
9,
12,
11,
10,
11,
11,
11,
11,
10,
11,
11,
11,
11,
11,
10,
10,
11,
11,
11,
11,
10,
11,
11,
10,
11,
13,
9,
11,
11,
8,
11,
11,
11,
11,
12,
11,
11,
10,
8,
11,
11,
11,
9,
11,
11,
8,
8,
11,
9,
13,
10,
11,
10,
11,
9,
9,
11,
11,
11,
11,
12,
8,
8,
11,
11,
11,
12,
9,
12,
10,
9,
11,
12,
10,
17,
17,
11,
11,
10,
13,
11,
10,
11,
11,
11,
11,
11,
9,
11,
11,
10,
11,
11,
15,
10,
11,
10,
9,
11,
12,
11,
11,
11,
11,
15,
11,
11,
10,
8,
13,
11,
12,
12,
11,
10,
9,
9,
11,
11,
11,
11,
10,
12,
10,
11,
11,
10,
8,
13,
13,
11,
12,
9,
9,
12,
12,
12,
11,
9,
10,
11,
10,
11,
11,
11,
11,
11,
11,
11,
11,
11,
11,
11,
11,
13,
11,
11,
11,
10,
10,
12,
12,
13,
10,
12,
11,
12,
12,
11,
11,
11,
10,
11,
11,
11,
11,
10,
12,
11,
9,
9,
11,
10,
11,
10,
9,
9,
9,
11,
11,
8,
11,
11,
10,
9,
9,
11,
11,
11,
11,
11,
11,
10,
11,
11,
10,
11,
11,
10,
11,
11,
11,
10,
9,
9,
9,
12,
10,
12,
8,
9,
11,
11,
11,
10,
11,
11,
11,
11,
10,
11,
10,
11,
5,
11,
11,
11,
13,
11,
11,
9,
9,
12,
9,
11,
11,
10,
11,
12,
8,
11,
11,
10,
9,
10,
11,
11,
11,
11,
11,
11,
11,
21,
15,
15,
9,
11,
11,
10,
11,
11,
11,
11,
10,
9,
11,
10,
11,
12,
10,
10,
12,
9,
12,
12,
11,
13,
9,
11,
11,
12,
11,
13,
10,
11,
10,
11,
10,
10,
11,
10,
13,
11,
8,
11,
11,
11,
10,
10,
11,
9,
9,
4,
11,
11,
10,
8,
12,
9,
11,
12,
14,
11,
11,
10,
10,
12,
11,
9,
10,
9,
11,
12,
11,
11,
11,
10,
10,
10,
11,
9,
7,
11,
11,
11,
12,
14,
13,
12,
11,
9,
11,
9,
9,
10,
10,
11,
11,
11,
12,
12,
10,
12,
11,
12,
13,
14,
10,
10,
11,
11,
11,
11,
10,
13,
11,
9,
11,
10,
11,
9,
12,
12,
12,
9,
11,
11,
10,
10,
12,
11,
11,
11,
9,
12,
12,
10,
11,
10,
8,
12,
11,
11,
11,
10,
11,
10,
10,
10,
10,
11,
11,
11,
12,
11,
11,
8,
10,
11,
11,
11,
12,
12,
11,
9,
11,
10,
11,
12,
11,
10,
11,
9,
11,
11,
11,
11,
11,
10,
11,
11,
10,
11,
11,
11,
10,
11,
12,
11,
9,
9,
12,
11,
11,
9,
10,
11,
9,
11,
11,
11,
11,
12,
11,
12,
5,
5,
13,
11,
11,
16,
11,
11,
11,
12,
13,
13,
13,
14,
14,
14,
14,
16,
15,
16,
17,
17,
17,
19,
17,
19,
25,
20,
21,
21,
20,
21,
23,
24,
25,
27,
25,
25,
28,
27,
28,
28,
28,
33,
28,
32,
31,
32,
33,
34,
33,
39,
36,
37,
36,
40,
40,
35,
41,
43,
43,
43,
40,
45,
49,
45,
47,
48,
49,
49,
50,
49,
50,
52,
52,
56,
55,
55,
55,
56,
56,
57,
60,
59,
67,
63,
63,
66,
65,
65,
67,
65,
71,
71,
71,
71,
84,
71,
72,
72,
72,
71,
75,
72,
74,
73,
76,
76,
76,
76,
75,
77,
76,
76,
76,
77,
76,
78,
79,
75,
77,
77,
79,
73,
77,
77,
79,
79,
78,
78,
77,
79,
78,
77,
74,
77,
77,
77,
76,
74,
77,
77,
76,
76,
76,
76,
75,
76,
74,
74,
77,
76,
77,
76,
76,
76,
76,
74,
75,
76,
76,
76,
75,
75,
74,
80,
75,
74,
74,
71,
71,
75,
73,
75,
74,
73,
74,
72,
73,
73,
73,
75,
75,
72,
71,
73,
75,
73,
71,
69,
71,
71,
72,
72,
73,
72,
72,
72,
71,
72,
71,
71,
71,
67,
69,
70,
69,
72,
69,
69,
69,
66,
69,
68,
68,
68,
68,
68,
69,
65,
67,
68,
67,
65,
65,
65,
68,
67,
63,
65,
64,
65,
68,
65,
64,
65,
64,
64,
64,
64,
64,
64,
63,
61,
64,
68,
63,
64,
63,
62,
63,
63,
64,
62,
63,
63,
63,
63,
63,
63,
61,
62,
59,
63,
63,
62,
57,
60,
61,
57,
61,
59,
60,
60,
57,
59,
60,
58,
58,
60,
59,
59,
58,
60,
57,
58,
57,
59,
57,
58,
56,
55,
54,
54,
59,
57,
56,
53,
53,
52,
55,
55,
53,
51,
49,
55,
55,
53,
53,
53,
53,
53,
53,
52,
53,
52,
53,
53,
52,
52,
52,
51,
52,
53,
53,
55,
51,
51,
51,
51,
49,
50,
51,
51,
51,
49,
49,
49,
50,
48,
49,
49,
48,
48,
49,
49,
49,
49,
49,
49,
49,
49,
48,
53,
47,
48,
47,
49,
46,
43,
47,
47,
44,
45,
47,
47,
47,
45,
45,
48,
47,
45,
47,
45,
44,
44,
43,
48,
45,
47,
42,
46,
44,
44,
43,
45,
44,
44,
44,
44,
44,
44,
44,
43,
43,
43,
48,
45,
43,
43,
45,
46,
44,
44,
43,
43,
43,
43,
43,
43,
41,
43,
43,
41,
43,
41,
42,
42,
43,
42,
43,
41,
39,
41,
40,
43,
39,
39,
41,
39,
39,
39,
40,
40,
40,
37,
39,
39,
39,
39,
39,
39,
39,
39,
39,
40,
40,
39,
39,
39,
43,
40,
39,
40,
40,
39,
38,
39,
39,
39,
37,
41,
40,
41,
35,
39,
38,
39,
39,
36,
38,
37,
37,
36,
38,
37,
37,
39,
36,
36,
36,
37,
35,
36,
36,
36,
36,
35,
34,
35,
35,
34,
34,
37,
29,
35,
35,
33,
33,
35,
35,
33,
36,
33,
34,
36,
34,
36,
35,
34,
33,
35,
35,
35,
35,
39,
34,
35,
36,
36,
35,
34,
36,
36,
33,
36,
37,
29,
29,
35,
35,
35,
39,
35,
33,
33,
29,
36,
33,
33,
33,
32,
32,
33,
32,
33,
33,
32,
31,
34,
31,
30,
32,
39,
31,
32,
32,
31,
34,
32,
30,
36,
33,
32,
33,
32,
29,
33,
32,
35,
35,
33,
31,
33,
34,
33,
31,
33,
32,
32,
34,
32,
32,
33,
33,
32,
35,
33,
33,
35,
31,
37,
33,
24,
32,
33,
33,
33,
33,
33,
31,
32,
33,
32,
33,
29,
31,
32,
32,
32,
32,
32,
29,
32,
31,
31,
33,
31,
32,
33,
32,
30,
31,
30,
32,
32,
31,
31,
31,
31,
32,
31,
32,
33,
31,
31,
31,
33,
33,
33,
29,
29,
30,
31,
31,
29,
32,
31,
29,
30,
31,
32,
32,
32,
31,
31,
30,
32,
26,
29,
31,
29,
32,
31,
30,
29,
30,
30,
30,
31,
25,
29,
31,
30,
30,
35,
30,
29,
29,
28,
29,
29,
31,
26,
28,
28,
28,
29,
28,
27,
28,
26,
23,
28,
28,
28,
24,
29,
27,
26,
27,
27,
27,
28,
25,
29,
27,
28,
34,
34,
27,
27,
26,
29,
26,
27,
27,
24,
26,
28,
25,
26,
26,
26,
27,
25,
21,
26,
25,
24,
29,
29,
27,
26,
28,
27,
27,
25,
24,
28,
26,
25,
27,
27,
25,
25,
25,
27,
25,
25,
25,
25,
25,
25,
25,
24,
24,
25,
25,
24,
27,
25,
25,
24,
35,
35,
26,
26,
21,
25,
25,
24,
26,
24,
24,
23,
24,
24,
24,
24,
21,
23,
24,
23,
24,
23,
23,
23,
24,
21,
24,
21,
21,
25,
23,
23,
24,
21,
22,
24,
23,
21,
22,
21,
21,
21,
21,
23,
23,
21,
20,
21,
21,
24,
18,
20,
22,
22,
20,
22,
22,
23,
21,
21,
23,
21,
20,
16,
21,
20,
20,
24,
20,
20,
20,
23,
24,
21,
23,
20,
22,
22,
21,
21,
21,
19,
21,
21,
17,
21,
20,
20,
21,
17,
21,
21,
21,
22,
21,
21,
21,
20,
20,
19,
21,
21,
22,
21,
21,
19,
19,
21,
19,
24,
20,
20,
20,
20,
19,
22,
21,
23,
14,
20,
19,
21,
20,
20,
20,
20,
18,
19,
21,
20,
21,
20,
19,
21,
21,
19,
20,
20,
25,
25,
21,
20,
20,
20,
20,
20,
19,
19,
21,
20,
20,
19,
19,
19,
19,
19,
19,
21,
17,
19,
21,
19,
19,
20,
21,
19,
17,
17,
20,
17,
18,
17,
17,
17,
14,
18,
19,
17,
17,
18,
15,
15,
19,
17,
17,
18,
19,
16,
19,
16,
16,
19,
15,
16,
16,
16,
16,
17,
17,
17,
17,
17,
17,
17,
15,
16,
15,
15,
17,
16,
15,
15,
15,
17,
17,
13,
16,
17,
16,
16,
16,
15,
15,
14,
16,
16,
15,
16,
16,
17,
16,
17,
15,
16,
16,
15,
17,
17,
16,
16,
16,
15,
16,
15,
15,
16,
16,
16,
15,
9,
17,
13,
15,
15,
15,
17,
16,
17,
13,
16,
16,
19,
16,
16,
16,
15,
15,
15,
16,
15,
13,
15,
15,
16,
19,
16,
16,
15,
17,
15,
15,
15,
16,
16,
16,
16,
16,
15,
16,
15,
17,
19,
16,
15,
13,
15,
16,
16,
16,
15,
15,
15,
16,
16,
14,
15,
15,
16,
17,
15,
16,
16,
16,
14,
17,
17,
15,
13,
15,
16,
15,
15,
15,
15,
16,
16,
15,
16,
15,
17,
15,
15,
13,
13,
17,
16,
15,
15,
15,
12,
11,
15,
15,
17,
16,
15,
21,
15,
14,
19,
14,
15,
15,
13,
17,
14,
14,
15,
15,
15,
15,
15,
14,
15,
14,
15,
15,
16,
13,
15,
13,
11,
13,
16,
15,
16,
13,
14,
15,
13,
13,
15,
15,
17,
14,
14,
13,
13,
15,
15,
15,
13,
13,
14,
14,
15,
14,
15,
15,
14,
13,
14,
13,
13,
14,
11,
15,
15,
14,
13,
13,
13,
15,
13,
12,
13,
15,
14,
13,
14,
14,
16,
17,
15,
15,
15,
14,
19,
14,
13,
15,
14,
14,
15,
15,
13,
14,
15,
15,
12,
15,
16,
13,
11,
13,
15,
13,
14,
13,
14,
16,
13,
13,
13,
13,
13,
14,
15,
13,
13,
12,
12,
13,
13,
10,
10,
10,
13,
12,
14,
13,
12,
13,
13,
13,
13,
13,
14,
12,
12,
13,
12,
13,
13,
12,
13,
14,
13,
13,
13,
13,
13,
13,
13,
13,
13,
13,
14,
16,
15,
15,
13,
12,
14,
13,
13,
14,
12,
13,
15,
15,
14,
13,
13,
14,
13,
13,
12,
13,
15,
12,
13,
13,
11,
11,
12,
11,
15,
12,
13,
13,
13,
12,
13,
13,
13,
13,
13,
13,
12,
16,
16,
13,
13,
14,
12,
13,
13,
10,
15,
12,
12,
11,
5,
11,
13,
11,
10,
12,
14,
13,
14,
11,
13,
13,
13,
12,
11,
13,
12,
7,
12,
12,
12,
10,
11,
13,
13,
13,
13,
12,
13,
12,
11,
14,
13,
12,
12,
12,
13,
12,
13,
13,
11,
12,
10,
10,
15,
11,
12,
13,
13,
13,
15,
13,
12,
12,
12,
12,
12,
11,
11,
12,
11,
12,
13,
12,
12,
12,
13,
13,
12,
12,
12,
11,
12,
13,
12,
12,
13,
13,
11,
15,
13,
12,
12,
14,
14,
13,
12,
12,
15,
15,
13,
11,
11,
11,
11,
12,
12,
13,
13,
12,
12,
13,
13,
11,
12,
12,
12,
12,
12,
13,
13,
12,
12,
12,
10,
13,
13,
12,
11,
13,
11,
12,
13,
9,
11,
11,
12,
14,
10,
12,
11,
13,
12,
13,
11,
12,
11,
12,
12,
13,
14,
13,
13,
11,
13,
10,
12,
11,
13,
10,
11,
13,
11,
12,
11,
11,
11,
11,
12,
11,
11,
11,
13,
11,
10,
16,
13,
12,
13,
12,
12,
12,
13,
12,
11,
12,
11,
7,
9,
13,
11,
11,
12,
12,
10,
12,
11,
12,
12,
12,
13,
11,
12,
11,
11,
13,
13,
13,
10,
11,
8,
11,
12,
11,
11,
13,
8,
9,
12,
11,
12,
12,
8,
12,
11,
11,
9,
13,
12,
11,
13,
11,
11,
10,
13,
13,
12,
12,
12,
10,
13,
11,
12,
9,
12,
13,
13,
11,
11,
12,
9,
11,
11,
12,
11,
11,
10,
11,
12,
11,
14,
12,
11,
9,
11,
11,
12,
11,
9,
13,
11,
12,
12,
13,
13,
13,
12,
16,
11,
11,
12,
14,
10,
11,
12,
12,
10,
11,
10,
10,
10,
12,
13,
13,
10,
12,
11,
9,
11,
10,
11,
12,
11,
13,
13,
11,
11,
11,
11,
14,
11,
10,
13,
11,
14,
13,
13,
12,
13,
13,
12,
12,
12,
13,
9,
11,
13,
11,
12,
13,
11,
12,
11,
11,
11,
11,
11,
12,
11,
11,
11,
15,
12,
10,
10,
13,
12,
11,
12,
12,
11,
11,
9,
13,
5,
11,
11,
11,
9,
11,
11,
11,
12,
5,
12,
12,
11,
12,
12,
13,
11,
13,
12,
11,
11,
14,
13,
12,
12,
12,
11,
11,
12,
12,
11,
11,
12,
9,
7,
11,
11,
13,
11,
11,
12,
11,
13,
13,
10,
11,
9,
12,
11,
11,
11,
12,
12,
11,
11,
16,
11,
9,
9,
10,
11,
11,
11,
11,
11,
12,
12,
12,
11,
11,
11,
9,
5,
15,
11,
9,
7,
11,
11,
11,
11,
11,
13,
12,
13,
10,
11,
12,
12,
12,
11,
11,
13,
11,
11,
11,
11,
14,
13,
12,
12,
11,
11,
12,
10,
11,
15,
11,
11,
11,
17,
10,
11,
11,
7,
17,
11,
10,
11,
11,
10,
12,
10,
10,
11,
9,
11,
16,
11,
11,
11,
9,
11,
12,
8,
12,
12,
11,
10,
10,
11,
10,
10,
12,
10,
11,
11,
11,
11,
12,
12,
12,
11,
13,
11,
12,
11,
6,
11,
12,
12,
11,
10,
10,
10,
14,
11,
11,
13,
13,
11,
11,
12,
11,
13,
12,
11,
11,
11,
11,
11,
11,
10,
11,
11,
11,
11,
11,
9,
12,
12,
10,
10,
11,
11,
12,
13,
10,
11,
11,
10,
11,
12,
9,
6,
11,
10,
11,
11,
9,
11,
11,
12,
9,
11,
12,
12,
12,
11,
13,
12,
13,
13,
12,
13,
12,
11,
13,
12,
10,
12,
13,
12,
13,
11,
12,
12,
11,
12,
11,
11,
10,
5,
12,
11,
11,
12,
12,
11,
11,
12,
11,
11,
11,
10,
12,
11,
11,
11,
11,
10,
15,
13,
13,
13,
12,
13,
11,
11,
13,
11,
11,
11,
11,
13,
11,
12,
12,
12,
9,
7,
12,
11,
9,
13,
11,
11,
12,
13,
11,
9,
11,
10,
10,
10,
10,
11,
11,
11,
11,
11,
13,
12,
11,
13,
11,
11,
11,
11,
11,
12,
11,
11,
12,
9,
11,
10,
11,
9,
12,
12,
10,
10,
10,
13,
11,
10,
11,
10,
8,
11,
11,
9,
11,
11,
11,
11,
11,
11,
10,
9,
12,
11,
10,
12,
11,
11,
11,
11,
11,
11,
11,
14,
13,
12,
12,
11,
12,
12,
12,
6,
10,
9,
9,
10,
8,
12,
13,
11,
13,
16,
11,
11,
12,
11,
11,
11,
13,
11,
11,
11,
12,
9,
11,
11,
10,
10,
11,
11,
11,
10,
10,
12,
11,
11,
11,
9,
11,
11,
8,
9,
9,
7,
11,
12,
11,
11,
11,
12,
11,
11,
12,
11,
10,
12,
13,
11,
13,
12,
17,
17,
12,
11,
11,
11,
11,
14,
12,
13,
13,
12,
10,
13,
13,
11,
12,
9,
11,
9,
11,
12,
9,
11,
11,
12,
11,
12,
12,
12,
11,
14,
11,
12,
12,
13,
10,
11,
13,
11,
12,
10,
11,
11,
11,
11,
12,
12,
11,
11,
9,
11,
13,
11,
11,
13,
13,
11,
11,
11,
11,
8,
11,
11,
11,
11,
10,
10,
11,
9,
9,
10,
11,
12,
12,
11,
12,
9,
11,
10,
11,
11,
11,
11,
11,
11,
15,
11,
10,
12,
13,
11,
11,
11,
9,
14,
11,
12,
11,
10,
10,
10,
12,
12,
11,
12,
12,
13,
14,
12,
12,
11,
12,
12,
11,
11,
13,
12,
12,
12,
10,
11,
12,
9,
13,
13,
10,
10,
10,
12,
10,
11,
11,
12,
11,
10,
11,
13,
9,
11,
10,
10,
12,
12,
12,
12,
12,
11,
11,
12,
11,
11,
13,
9,
11,
11,
11,
11,
9,
8,
12,
10,
11,
11,
12,
11,
9,
11,
12,
11,
11,
11,
11,
11,
10,
12,
12,
11,
11,
11,
10,
10,
12,
9,
9,
9,
9,
8,
9,
16,
9,
10,
7,
12,
11,
11,
11,
10,
11,
11,
11,
11,
11,
11,
11,
10,
12,
11,
11,
11,
11,
12,
11,
11,
11,
12,
12,
13,
13,
13,
11,
10,
11,
13,
11,
13,
11,
11,
11,
12,
13,
13,
12,
11,
12,
8,
14,
12,
9,
11,
12,
11,
11,
13,
17,
13,
10,
11,
17,
11,
12,
11,
11,
9,
12,
