Datos experimentales/DATOS 26-3-24/ALL0050/A0050CH1.CSV

Memory Length,4000,
Trigger Level,1.600E-03,
Source,CH1,
Vertical Units,V,
Vertical Scale,2.000E-02,
Vertical Position,-1.200E-02,
Horizontal Units,s,
Horizontal Scale,1.000E+00,
Horizontal Position,0.000E+00,
Horizontal Mode,Roll Mode,
Waveform Last Dot Address,3890,
Sampling Period,4.000E-03,
Firmware, V1.21,
Waveform Data,
11,
11,
11,
12,
11,
11,
12,
12,
12,
14,
11,
12,
10,
12,
12,
12,
8,
12,
12,
13,
13,
10,
13,
13,
13,
15,
14,
11,
13,
11,
9,
9,
12,
12,
11,
12,
12,
13,
13,
13,
13,
12,
13,
11,
11,
12,
12,
14,
12,
11,
12,
12,
13,
12,
9,
11,
12,
12,
12,
13,
15,
7,
14,
13,
12,
14,
12,
13,
13,
11,
11,
12,
13,
12,
12,
11,
13,
13,
12,
12,
11,
13,
12,
12,
11,
13,
13,
13,
9,
13,
17,
13,
12,
11,
12,
12,
12,
13,
12,
11,
12,
12,
11,
13,
12,
13,
13,
12,
13,
13,
12,
13,
12,
13,
12,
12,
12,
11,
15,
12,
9,
12,
12,
12,
12,
12,
11,
10,
11,
12,
11,
12,
12,
13,
12,
12,
12,
13,
13,
12,
11,
11,
11,
12,
12,
13,
10,
13,
13,
12,
12,
11,
12,
12,
13,
12,
12,
13,
13,
12,
11,
11,
13,
12,
12,
13,
11,
12,
15,
13,
11,
12,
10,
11,
11,
11,
13,
12,
13,
15,
13,
12,
12,
11,
12,
11,
12,
12,
11,
12,
13,
13,
12,
11,
12,
13,
12,
11,
11,
13,
13,
16,
13,
8,
13,
11,
13,
13,
13,
13,
12,
11,
13,
13,
15,
12,
12,
11,
13,
12,
11,
11,
12,
12,
12,
9,
9,
14,
12,
11,
15,
16,
11,
13,
10,
13,
11,
13,
11,
11,
11,
13,
13,
12,
12,
11,
12,
13,
11,
11,
10,
13,
13,
11,
12,
12,
9,
12,
13,
11,
11,
17,
12,
13,
13,
13,
8,
13,
12,
12,
12,
11,
12,
12,
11,
10,
11,
13,
13,
12,
11,
13,
12,
12,
12,
14,
13,
12,
11,
12,
13,
13,
9,
12,
12,
13,
12,
13,
13,
13,
12,
11,
13,
11,
11,
12,
11,
12,
13,
12,
12,
11,
12,
13,
12,
11,
10,
10,
12,
9,
17,
15,
13,
13,
11,
10,
13,
12,
12,
12,
12,
12,
12,
12,
11,
13,
12,
12,
12,
12,
12,
12,
12,
12,
12,
13,
11,
13,
11,
11,
16,
12,
12,
11,
12,
12,
12,
13,
11,
14,
12,
12,
13,
12,
13,
12,
13,
11,
12,
12,
16,
13,
12,
15,
11,
13,
11,
11,
13,
9,
12,
12,
12,
12,
13,
11,
12,
13,
13,
12,
13,
13,
11,
12,
12,
12,
13,
12,
12,
12,
14,
11,
13,
11,
14,
17,
12,
13,
13,
13,
13,
11,
12,
12,
12,
10,
11,
12,
12,
12,
13,
13,
12,
11,
12,
12,
13,
12,
11,
12,
12,
11,
12,
13,
13,
12,
10,
12,
13,
12,
12,
12,
12,
11,
12,
13,
13,
12,
12,
11,
11,
12,
12,
11,
12,
11,
13,
10,
11,
12,
12,
12,
12,
15,
11,
12,
12,
12,
12,
13,
12,
12,
12,
12,
12,
11,
12,
13,
13,
12,
11,
12,
12,
12,
11,
12,
12,
8,
9,
12,
11,
13,
11,
12,
11,
12,
12,
12,
11,
13,
13,
11,
12,
12,
12,
13,
11,
11,
12,
13,
12,
11,
13,
13,
11,
11,
10,
12,
10,
15,
11,
5,
15,
11,
11,
11,
11,
12,
11,
13,
12,
12,
12,
12,
12,
12,
13,
12,
12,
12,
12,
11,
12,
11,
12,
12,
12,
12,
11,
11,
12,
13,
13,
10,
11,
13,
12,
12,
15,
12,
12,
12,
12,
12,
11,
11,
12,
11,
11,
13,
12,
12,
12,
13,
12,
13,
11,
14,
15,
15,
12,
7,
12,
13,
10,
13,
11,
13,
12,
11,
11,
12,
13,
13,
11,
11,
11,
12,
12,
11,
11,
12,
11,
12,
13,
13,
11,
10,
12,
12,
12,
11,
11,
11,
13,
13,
11,
15,
12,
12,
12,
12,
13,
11,
13,
11,
13,
12,
12,
12,
13,
12,
12,
12,
15,
12,
13,
12,
6,
14,
10,
12,
12,
13,
14,
14,
12,
11,
11,
12,
12,
12,
12,
11,
12,
13,
11,
11,
11,
12,
11,
12,
13,
11,
13,
13,
12,
13,
9,
13,
12,
12,
11,
12,
12,
12,
13,
12,
11,
13,
12,
12,
12,
13,
13,
12,
12,
11,
12,
12,
15,
12,
13,
11,
9,
13,
11,
11,
11,
12,
12,
14,
11,
12,
11,
12,
12,
13,
11,
11,
15,
15,
12,
12,
11,
13,
13,
11,
13,
12,
13,
12,
12,
12,
9,
9,
13,
12,
12,
12,
12,
12,
8,
12,
12,
12,
12,
11,
11,
11,
13,
13,
12,
12,
12,
12,
13,
12,
12,
12,
12,
12,
9,
8,
11,
10,
13,
10,
13,
13,
13,
13,
11,
13,
13,
12,
11,
16,
12,
12,
12,
12,
12,
12,
8,
12,
13,
13,
15,
11,
13,
12,
13,
9,
12,
13,
11,
11,
11,
13,
13,
11,
11,
12,
13,
12,
11,
12,
13,
12,
13,
11,
12,
11,
11,
12,
12,
11,
11,
11,
9,
13,
9,
13,
11,
12,
12,
12,
12,
12,
14,
12,
12,
11,
12,
13,
13,
12,
11,
13,
13,
12,
11,
12,
12,
13,
9,
13,
10,
13,
13,
11,
13,
13,
11,
11,
12,
13,
12,
13,
11,
12,
12,
13,
12,
11,
11,
15,
11,
12,
12,
12,
12,
12,
12,
12,
12,
14,
11,
13,
13,
6,
13,
9,
14,
13,
12,
10,
12,
13,
12,
13,
13,
13,
12,
11,
11,
13,
11,
12,
12,
11,
13,
13,
12,
10,
10,
12,
13,
13,
8,
13,
9,
13,
10,
11,
12,
13,
12,
11,
11,
12,
13,
11,
12,
13,
13,
12,
11,
13,
12,
12,
12,
12,
15,
11,
12,
11,
12,
10,
13,
10,
12,
11,
13,
11,
11,
12,
12,
11,
8,
12,
13,
12,
13,
11,
14,
12,
12,
13,
13,
12,
11,
17,
12,
13,
13,
12,
11,
8,
12,
11,
12,
12,
10,
12,
13,
12,
12,
11,
13,
15,
13,
12,
13,
13,
13,
12,
13,
12,
11,
13,
13,
12,
11,
15,
11,
11,
9,
9,
9,
10,
13,
14,
12,
12,
12,
12,
13,
11,
12,
12,
11,
11,
12,
11,
11,
12,
12,
12,
12,
12,
12,
12,
13,
8,
8,
11,
12,
12,
13,
10,
13,
11,
13,
12,
13,
11,
12,
12,
12,
12,
12,
13,
12,
11,
12,
11,
11,
12,
14,
12,
12,
12,
12,
13,
13,
11,
11,
13,
12,
17,
17,
15,
12,
12,
12,
13,
11,
13,
12,
12,
11,
11,
13,
13,
12,
12,
12,
12,
12,
9,
11,
12,
12,
13,
11,
13,
16,
11,
13,
8,
8,
10,
13,
14,
11,
11,
13,
12,
12,
11,
11,
11,
11,
13,
13,
12,
11,
11,
13,
13,
9,
10,
12,
12,
13,
11,
12,
12,
12,
12,
13,
16,
10,
11,
12,
12,
12,
12,
13,
12,
12,
12,
13,
13,
13,
13,
11,
12,
13,
12,
12,
14,
13,
13,
13,
13,
11,
13,
11,
13,
14,
15,
10,
13,
12,
13,
11,
11,
15,
12,
12,
12,
12,
11,
12,
13,
12,
11,
12,
11,
12,
12,
13,
11,
12,
10,
13,
12,
12,
10,
15,
11,
11,
12,
12,
12,
13,
12,
11,
13,
13,
12,
12,
11,
12,
13,
11,
11,
12,
13,
12,
12,
12,
9,
10,
12,
11,
13,
13,
13,
11,
11,
11,
13,
12,
12,
13,
11,
12,
13,
12,
12,
11,
12,
13,
13,
12,
12,
11,
11,
12,
12,
11,
13,
16,
13,
12,
9,
9,
16,
9,
13,
11,
12,
11,
13,
11,
14,
12,
12,
13,
12,
12,
12,
11,
13,
11,
12,
11,
12,
12,
12,
11,
11,
16,
16,
11,
12,
13,
14,
13,
11,
12,
11,
12,
9,
11,
13,
13,
12,
12,
13,
11,
12,
12,
11,
12,
11,
12,
11,
13,
13,
14,
13,
13,
13,
12,
15,
15,
15,
15,
15,
16,
14,
17,
17,
17,
19,
19,
23,
17,
19,
19,
20,
20,
19,
19,
21,
19,
19,
25,
20,
20,
20,
20,
23,
21,
20,
21,
20,
20,
21,
21,
20,
21,
21,
21,
22,
22,
23,
23,
26,
21,
20,
23,
23,
21,
21,
23,
22,
23,
17,
21,
24,
17,
23,
23,
31,
27,
27,
20,
19,
21,
23,
23,
22,
21,
24,
23,
23,
24,
20,
20,
21,
23,
17,
24,
23,
23,
23,
21,
23,
22,
21,
23,
24,
24,
23,
23,
23,
24,
18,
27,
21,
21,
23,
21,
21,
24,
21,
21,
21,
24,
23,
23,
21,
21,
22,
23,
26,
23,
21,
21,
21,
23,
21,
21,
23,
23,
23,
23,
21,
23,
23,
28,
23,
23,
23,
24,
22,
23,
23,
22,
19,
23,
24,
23,
23,
24,
24,
24,
21,
24,
25,
27,
27,
27,
28,
28,
29,
30,
31,
31,
31,
29,
31,
33,
32,
36,
33,
33,
35,
36,
35,
36,
37,
39,
39,
37,
39,
40,
39,
35,
41,
40,
44,
44,
41,
43,
45,
45,
45,
46,
46,
50,
45,
50,
49,
53,
52,
55,
56,
53,
55,
55,
56,
57,
59,
60,
60,
62,
59,
62,
64,
62,
65,
65,
69,
69,
69,
67,
71,
72,
72,
73,
75,
75,
77,
73,
79,
81,
81,
80,
80,
86,
83,
82,
82,
84,
84,
85,
85,
87,
85,
85,
87,
87,
84,
90,
87,
87,
88,
88,
91,
88,
90,
89,
89,
89,
91,
132,
90,
93,
91,
89,
91,
92,
91,
91,
95,
91,
91,
92,
91,
91,
92,
93,
132,
89,
92,
89,
92,
92,
95,
90,
90,
92,
91,
90,
92,
92,
91,
90,
92,
91,
91,
91,
87,
87,
89,
89,
88,
89,
93,
89,
88,
89,
87,
91,
89,
88,
89,
85,
85,
91,
85,
88,
89,
90,
88,
85,
84,
88,
87,
87,
86,
86,
87,
80,
87,
87,
88,
91,
87,
85,
85,
86,
86,
83,
85,
85,
84,
83,
83,
87,
81,
80,
84,
82,
88,
79,
84,
79,
79,
81,
80,
79,
79,
81,
80,
79,
82,
80,
77,
79,
77,
78,
78,
83,
78,
77,
77,
77,
75,
74,
75,
75,
75,
74,
75,
75,
76,
72,
72,
73,
76,
75,
75,
75,
75,
75,
74,
73,
73,
74,
76,
71,
73,
70,
72,
73,
72,
69,
72,
72,
71,
71,
69,
69,
71,
71,
69,
72,
69,
70,
74,
69,
70,
70,
72,
68,
68,
68,
68,
69,
64,
69,
67,
68,
61,
66,
67,
65,
64,
65,
65,
68,
65,
66,
61,
64,
60,
65,
66,
64,
63,
61,
66,
66,
65,
64,
63,
64,
60,
61,
63,
61,
63,
61,
62,
56,
61,
61,
60,
59,
59,
61,
59,
61,
61,
60,
60,
61,
61,
60,
60,
61,
65,
59,
59,
61,
64,
60,
60,
61,
60,
57,
59,
59,
57,
57,
58,
56,
56,
58,
55,
56,
54,
55,
51,
55,
56,
56,
56,
55,
55,
57,
56,
55,
56,
55,
57,
56,
48,
56,
57,
55,
55,
53,
55,
56,
56,
60,
56,
51,
56,
55,
53,
52,
55,
55,
55,
51,
53,
51,
53,
53,
53,
51,
53,
51,
52,
53,
52,
52,
52,
50,
49,
51,
53,
53,
50,
48,
51,
52,
50,
53,
53,
51,
49,
49,
49,
47,
48,
49,
52,
50,
49,
49,
49,
47,
47,
48,
49,
47,
47,
48,
47,
48,
47,
48,
47,
48,
47,
48,
48,
46,
48,
47,
47,
47,
47,
45,
44,
47,
51,
45,
45,
48,
48,
46,
45,
46,
48,
47,
45,
44,
45,
44,
41,
44,
41,
41,
44,
44,
43,
42,
45,
44,
43,
44,
41,
43,
42,
42,
43,
43,
38,
37,
43,
43,
42,
41,
42,
40,
43,
43,
41,
43,
43,
43,
42,
41,
42,
40,
43,
43,
43,
41,
40,
44,
41,
43,
43,
44,
43,
42,
42,
43,
43,
45,
41,
40,
40,
41,
40,
39,
39,
41,
40,
40,
39,
39,
41,
40,
40,
37,
37,
37,
39,
37,
37,
41,
37,
37,
39,
37,
39,
37,
34,
36,
43,
41,
32,
39,
39,
31,
36,
37,
40,
35,
38,
37,
39,
37,
39,
35,
39,
39,
35,
39,
39,
40,
38,
39,
39,
36,
38,
39,
37,
38,
38,
39,
30,
35,
37,
36,
37,
37,
38,
36,
27,
37,
35,
36,
36,
35,
35,
36,
33,
29,
32,
32,
35,
37,
34,
34,
34,
34,
34,
35,
35,
34,
33,
33,
35,
33,
31,
35,
32,
35,
34,
34,
36,
33,
33,
34,
36,
34,
34,
33,
33,
33,
34,
40,
35,
34,
34,
33,
34,
34,
35,
33,
33,
35,
33,
33,
33,
34,
34,
35,
35,
32,
33,
35,
33,
33,
33,
36,
33,
34,
33,
34,
30,
30,
31,
32,
35,
37,
33,
32,
31,
32,
32,
32,
37,
33,
33,
33,
32,
32,
33,
33,
37,
29,
32,
32,
32,
30,
33,
32,
32,
38,
32,
33,
35,
32,
32,
31,
32,
33,
32,
35,
32,
32,
32,
31,
31,
32,
31,
31,
30,
29,
34,
33,
32,
30,
29,
28,
28,
30,
30,
31,
31,
29,
30,
29,
29,
28,
31,
28,
30,
29,
29,
31,
31,
31,
29,
28,
28,
28,
29,
27,
28,
27,
28,
27,
27,
27,
25,
27,
26,
29,
27,
28,
27,
28,
27,
27,
24,
24,
27,
26,
25,
27,
27,
28,
26,
27,
27,
25,
27,
28,
27,
27,
27,
28,
27,
26,
25,
27,
27,
31,
25,
25,
28,
27,
27,
27,
26,
27,
27,
27,
27,
28,
26,
28,
27,
28,
25,
27,
28,
28,
27,
29,
27,
27,
28,
27,
35,
28,
28,
27,
24,
31,
31,
29,
28,
30,
27,
26,
26,
27,
27,
27,
26,
27,
26,
27,
27,
26,
20,
26,
24,
27,
27,
27,
24,
25,
27,
25,
23,
24,
25,
25,
23,
25,
19,
25,
26,
24,
23,
21,
22,
22,
23,
22,
22,
23,
19,
22,
25,
22,
23,
26,
23,
19,
21,
21,
21,
21,
21,
23,
21,
21,
21,
21,
21,
21,
20,
27,
20,
20,
20,
20,
21,
22,
20,
21,
21,
21,
19,
21,
24,
20,
20,
25,
20,
20,
20,
21,
19,
20,
21,
20,
20,
19,
20,
21,
21,
19,
20,
20,
16,
21,
21,
21,
20,
21,
20,
20,
20,
21,
20,
24,
21,
22,
16,
16,
24,
20,
21,
20,
21,
19,
23,
19,
23,
21,
21,
21,
20,
20,
21,
20,
23,
23,
20,
19,
21,
20,
23,
20,
21,
23,
20,
20,
21,
20,
21,
21,
26,
20,
20,
20,
24,
21,
21,
21,
20,
20,
19,
21,
21,
21,
20,
21,
19,
20,
20,
20,
21,
19,
19,
19,
23,
21,
20,
21,
21,
22,
20,
21,
19,
21,
21,
21,
21,
20,
23,
20,
21,
21,
20,
21,
20,
18,
23,
21,
25,
21,
21,
19,
22,
21,
20,
21,
19,
20,
21,
19,
21,
20,
21,
20,
17,
20,
20,
19,
17,
21,
23,
20,
20,
19,
20,
19,
20,
19,
19,
17,
20,
20,
21,
19,
19,
19,
22,
20,
19,
20,
16,
20,
20,
20,
20,
20,
13,
21,
21,
20,
19,
17,
19,
19,
23,
19,
18,
22,
22,
23,
18,
15,
25,
16,
16,
17,
19,
20,
17,
18,
19,
17,
17,
15,
17,
16,
15,
16,
16,
17,
16,
16,
15,
16,
16,
16,
14,
17,
16,
16,
16,
15,
16,
15,
16,
17,
16,
15,
16,
15,
15,
15,
15,
13,
13,
15,
15,
15,
11,
15,
15,
14,
13,
15,
13,
13,
13,
12,
15,
12,
15,
14,
15,
15,
13,
16,
13,
17,
14,
13,
13,
13,
14,
14,
13,
13,
14,
13,
13,
13,
13,
15,
15,
15,
15,
13,
13,
14,
14,
15,
12,
12,
15,
13,
13,
15,
15,
15,
15,
16,
14,
15,
13,
15,
14,
13,
13,
13,
15,
13,
13,
13,
11,
15,
12,
12,
15,
15,
13,
13,
13,
18,
13,
13,
14,
14,
14,
13,
14,
15,
15,
15,
15,
14,
15,
13,
13,
15,
13,
13,
13,
13,
14,
13,
11,
11,
13,
13,
16,
13,
13,
13,
13,
13,
13,
13,
15,
14,
15,
11,
15,
15,
12,
17,
12,
14,
12,
14,
14,
14,
13,
13,
14,
14,
14,
15,
17,
15,
15,
11,
12,
13,
16,
16,
13,
13,
13,
13,
14,
14,
15,
14,
13,
13,
14,
17,
13,
13,
13,
15,
13,
13,
14,
15,
14,
15,
14,
15,
14,
16,
16,
15,
13,
13,
14,
15,
13,
15,
13,
13,
13,
13,
13,
15,
15,
13,
13,
14,
16,
13,
12,
14,
14,
14,
14,
13,
23,
14,
14,
13,
7,
14,
21,
15,
13,
15,
14,
12,
14,
14,
13,
14,
14,
13,
13,
12,
12,
13,
10,
11,
13,
14,
16,
13,
13,
13,
13,
13,
9,
9,
13,
14,
13,
13,
19,
13,
12,
11,
14,
13,
14,
12,
12,
14,
12,
13,
13,
12,
14,
13,
19,
16,
13,
11,
13,
14,
13,
13,
13,
13,
6,
15,
13,
14,
13,
13,
17,
15,
15,
14,
14,
13,
15,
13,
14,
14,
14,
15,
14,
15,
13,
13,
16,
12,
12,
13,
16,
14,
15,
14,
15,
16,
15,
13,
15,
17,
13,
16,
16,
15,
13,
15,
15,
14,
12,
15,
14,
14,
13,
15,
14,
14,
14,
15,
15,
14,
12,
13,
15,
13,
14,
13,
13,
14,
13,
13,
13,
15,
15,
13,
11,
13,
15,
12,
15,
13,
13,
13,
13,
13,
13,
12,
12,
13,
12,
13,
8,
13,
12,
11,
13,
13,
15,
15,
13,
13,
13,
14,
14,
13,
13,
13,
16,
15,
14,
15,
14,
14,
13,
13,
13,
15,
14,
17,
15,
16,
15,
13,
14,
11,
12,
13,
16,
15,
15,
15,
13,
9,
13,
15,
14,
16,
13,
15,
16,
15,
15,
15,
15,
15,
15,
15,
15,
15,
17,
13,
14,
17,
14,
13,
11,
16,
12,
15,
15,
15,
15,
13,
15,
15,
15,
12,
14,
12,
16,
14,
15,
15,
13,
14,
14,
13,
14,
13,
13,
11,
13,
14,
14,
15,
14,
14,
15,
15,
14,
15,
13,
15,
13,
13,
13,
13,
14,
15,
15,
15,
15,
15,
17,
16,
14,
15,
13,
15,
14,
13,
14,
13,
12,
12,
12,
15,
15,
9,
17,
15,
14,
14,
13,
14,
16,
14,
14,
13,
14,
14,
14,
14,
14,
13,
21,
12,
14,
14,
16,
13,
13,
14,
13,
14,
15,
13,
13,
12,
15,
13,
9,
10,
13,
13,
13,
13,
14,
14,
9,
15,
15,
14,
15,
13,
16,
14,
12,
14,
13,
12,
14,
14,
15,
15,
15,
13,
14,
15,
16,
14,
13,
21,
11,
15,
13,
13,
14,
15,
13,
17,
16,
15,
16,
16,
14,
14,
15,
13,
13,
15,
14,
15,
15,
15,
15,
13,
15,
13,
15,
15,
16,
15,
15,
13,
15,
13,
15,
13,
13,
13,
13,
10,
13,
15,
13,
11,
11,
15,
15,
17,
15,
15,
15,
13,
14,
15,
15,
14,
13,
15,
15,
14,
14,
14,
17,
9,
16,
14,
13,
13,
13,
13,
13,
13,
16,
13,
15,
15,
15,
13,
22,
17,
15,
15,
13,
14,
13,
15,
13,
13,
13,
13,
14,
13,
14,
13,
13,
16,
13,
13,
13,
15,
13,
13,
13,
13,
13,
14,
16,
14,
13,
15,
15,
16,
16,
13,
14,
14,
14,
13,
13,
12,
15,
13,
14,
13,
13,
14,
13,
16,
15,
16,
16,
15,
13,
14,
13,
13,
13,
14,
14,
14,
12,
13,
14,
15,
15,
13,
13,
13,
14,
13,
12,
13,
13,
13,
11,
13,
15,
15,
15,
13,
14,
13,
13,
14,
15,
15,
13,
12,
13,
14,
13,
9,
16,
19,
19,
11,
13,
13,
14,
13,
14,
13,
13,
13,
15,
13,
14,
15,
15,
15,
15,
17,
12,
15,
13,
15,
14,
14,
12,
13,
13,
13,
13,
12,
13,
9,
13,
12,
13,
12,
15,
14,
15,
15,
15,
14,
14,
15,
11,
16,
14,
18,
12,
13,
13,
13,
13,
15,
14,
11,
11,
13,
13,
13,
9,
15,
12,
13,
12,
13,
15,
13,
14,
15,
15,
14,
13,
11,
13,
13,
13,
13,
13,
12,
13,
11,
13,
13,
13,
12,
15,
13,
14,
13,
10,
15,
14,
15,
13,
12,
13,
11,
13,
15,
15,
13,
14,
14,
15,
13,
13,
11,
15,
14,
15,
15,
15,
15,
12,
13,
13,
14,
13,
15,
13,
11,
13,
12,
13,
14,
14,
15,
15,
15,
14,
15,
13,
14,
14,
14,
14,
13,
13,
14,
15,
15,
16,
12,
14,
15,
14,
15,
14,
13,
13,
13,
11,
15,
19,
19,
13,
13,
14,
17,
14,
12,
13,
13,
14,
13,
13,
14,
13,
13,
14,
15,
16,
13,
14,
13,
13,
15,
13,
13,
13,
13,
13,
13,
13,
13,
15,
15,
14,
13,
12,
15,
13,
14,
14,
13,
14,
14,
14,
13,
15,
14,
14,
12,
13,
8,
13,
13,
15,
15,
15,
15,
13,
14,
9,
13,
13,
13,
13,
12,
14,
16,
13,
13,
15,
15,
13,
13,
13,
13,
13,
14,
13,
13,
15,
15,
13,
13,
13,
13,
13,
13,
13,
14,
12,
13,
13,
12,
13,
14,
16,
14,
14,
14,
13,
14,
13,
14,
12,
13,
14,
13,
13,
12,
14,
12,
13,
13,
13,
13,
15,
14,
12,
13,
13,
13,
13,
12,
13,
13,
13,
19,
13,
13,
12,
15,
13,
13,
13,
14,
15,
13,
13,
14,
14,
13,
16,
13,
14,
14,
15,
15,
13,
16,
14,
13,
13,
13,
15,
13,
15,
15,
13,
11,
15,
15,
13,
14,
15,
14,
13,
13,
15,
14,
13,
13,
13,
13,
15,
13,
13,
11,
11,
13,
15,
14,
13,
15,
15,
15,
15,
14,
15,
14,
16,
12,
13,
13,
15,
13,
15,
13,
13,
14,
13,
13,
13,
10,
10,
15,
13,
15,
17,
12,
13,
14,
14,
17,
13,
13,
13,
15,
10,
15,
15,
16,
13,
13,
13,
13,
13,
13,
17,
12,
13,
13,
13,
15,
13,
13,
15,
15,
15,
15,
15,
15,
15,
14,
13,
12,
13,
15,
13,
15,
14,
13,
15,
15,
13,
11,
8,
14,
13,
13,
13,
14,
11,
13,
13,
13,
13,
14,
14,
16,
13,
12,
13,
13,
13,
16,
13,
13,
12,
13,
13,
12,
12,
11,
12,
15,
15,
13,
12,
13,
13,
14,
14,
14,
14,
14,
15,
14,
13,
13,
13,
14,
13,
11,
15,
13,
13,
14,
13,
13,
13,
13,
13,
13,
14,
13,
13,
13,
13,
11,
12,
14,
15,
15,
12,
13,
13,
12,
12,
13,
14,
14,
15,
15,
11,
12,
14,
14,
14,
13,
13,
13,
15,
13,
15,
13,
13,
12,
15,
13,
16,
16,
13,
12,
15,
13,
13,
13,
19,
14,
13,
13,
13,
12,
14,
10,
10,
14,
12,
12,
13,
14,
13,
13,
14,
13,
15,
15,
11,
14,
14,
15,
16,
12,
14,
13,
13,
13,
12,
15,
13,
14,
14,
14,
13,
13,
13,
17,
15,
12,
12,
13,
14,
13,
13,
13,
13,
13,
13,
12,
14,
13,
6,
15,
13,
13,
13,
13,
13,
13,
14,
14,
13,
13,
13,
13,
13,
12,
7,
15,
16,
15,
14,
13,
14,
14,
13,
13,
14,
13,
13,
7,
15,
13,
11,
12,
12,
14,
14,
12,
13,
12,
13,
13,
13,
13,
13,
15,
16,
13,
16,
13,
12,
13,
12,
12,
13,
13,
11,
13,
13,
11,
13,
10,
11,
12,
15,
15,
13,
13,
13,
13,
13,
13,
13,
14,
13,
14,
14,
11,
13,
Null,
Null,
Null,
Null,
Null,
Null,
Null,
Null,
Null,
Null,
Null,
Null,
Null,
Null,
Null,
Null,
Null,
Null,
Null,
Null,
Null,
Null,
Null,
Null,
Null,
Null,
Null,
Null,
Null,
Null,
Null,
Null,
Null,
Null,
Null,
Null,
Null,
Null,
Null,
Null,
Null,
Null,
Null,
Null,
Null,
Null,
Null,
Null,
Null,
Null,
Null,
Null,
Null,
Null,
Null,
Null,
Null,
Null,
Null,
Null,
Null,
Null,
Null,
Null,
Null,
Null,
Null,
Null,
Null,
Null,
Null,
Null,
Null,
Null,
Null,
Null,
Null,
Null,
Null,
Null,
Null,
Null,
Null,
Null,
Null,
Null,
Null,
Null,
Null,
Null,
Null,
Null,
Null,
Null,
Null,
Null,
Null,
Null,
Null,
Null,
Null,
Null,
Null,
Null,
Null,
Null,
Null,
Null,
Null,
Null,
