Datos experimentales/DATOS 26-3-24/ALL0013/A0013CH1.CSV

Memory Length,4000,
Trigger Level,0.000E+00,
Source,CH1,
Vertical Units,V,
Vertical Scale,2.000E-02,
Vertical Position,-1.200E-02,
Horizontal Units,s,
Horizontal Scale,1.000E+00,
Horizontal Position,-5.200E-01,
Horizontal Mode,Roll Mode,
Waveform Last Dot Address,3920,
Sampling Period,4.000E-03,
Firmware, V1.21,
Waveform Data,
7,
7,
7,
6,
9,
9,
9,
10,
9,
9,
8,
8,
8,
9,
9,
9,
9,
8,
9,
9,
9,
8,
9,
3,
5,
9,
9,
9,
9,
8,
8,
7,
7,
9,
9,
8,
2,
9,
9,
9,
9,
9,
8,
9,
10,
10,
9,
8,
8,
10,
9,
8,
9,
10,
8,
9,
9,
9,
9,
8,
9,
9,
8,
9,
10,
8,
8,
9,
9,
9,
9,
9,
10,
8,
8,
9,
3,
12,
8,
9,
9,
9,
8,
8,
8,
8,
9,
9,
9,
10,
9,
8,
8,
9,
9,
8,
15,
15,
9,
8,
13,
9,
7,
9,
9,
8,
10,
8,
7,
10,
10,
8,
8,
9,
10,
8,
9,
9,
9,
8,
8,
9,
8,
8,
9,
8,
9,
8,
8,
15,
6,
7,
9,
9,
9,
9,
9,
8,
9,
8,
9,
7,
11,
8,
8,
8,
7,
8,
7,
7,
5,
9,
9,
9,
10,
7,
9,
9,
9,
7,
8,
8,
8,
8,
8,
8,
8,
9,
8,
3,
8,
8,
9,
9,
10,
10,
9,
9,
7,
8,
9,
8,
7,
9,
9,
8,
7,
10,
10,
10,
7,
9,
10,
9,
9,
8,
4,
10,
8,
9,
9,
9,
10,
8,
8,
7,
9,
8,
9,
8,
12,
9,
9,
9,
9,
9,
7,
9,
11,
7,
9,
9,
9,
7,
11,
8,
9,
9,
9,
11,
9,
9,
9,
8,
8,
8,
8,
8,
8,
9,
9,
8,
8,
9,
8,
9,
8,
9,
9,
8,
9,
9,
9,
9,
8,
8,
8,
10,
8,
9,
8,
9,
9,
8,
9,
9,
9,
8,
9,
9,
8,
8,
9,
8,
9,
9,
6,
9,
8,
8,
9,
9,
9,
7,
11,
9,
8,
10,
10,
9,
9,
10,
10,
9,
8,
8,
9,
9,
9,
9,
8,
8,
8,
11,
8,
8,
8,
9,
9,
9,
8,
8,
9,
9,
9,
9,
10,
9,
9,
10,
8,
9,
8,
10,
10,
9,
8,
8,
9,
8,
9,
9,
7,
7,
8,
9,
8,
7,
9,
9,
10,
10,
8,
8,
8,
8,
9,
8,
8,
8,
8,
9,
9,
9,
9,
9,
9,
9,
10,
9,
8,
8,
9,
8,
9,
8,
8,
8,
8,
8,
8,
8,
9,
8,
5,
8,
9,
9,
10,
9,
10,
10,
13,
13,
9,
9,
8,
8,
8,
9,
11,
8,
9,
8,
7,
9,
9,
7,
8,
9,
9,
7,
10,
8,
9,
8,
9,
9,
8,
8,
9,
9,
8,
9,
8,
9,
7,
9,
9,
10,
9,
8,
8,
8,
10,
9,
8,
8,
9,
9,
9,
8,
8,
9,
8,
9,
9,
8,
9,
9,
9,
9,
11,
7,
7,
9,
9,
9,
10,
10,
8,
12,
9,
8,
8,
9,
8,
10,
8,
9,
8,
9,
9,
9,
10,
8,
9,
9,
8,
8,
7,
7,
8,
9,
10,
10,
10,
8,
9,
8,
8,
9,
8,
8,
9,
9,
10,
8,
8,
9,
13,
8,
11,
9,
9,
8,
8,
9,
7,
8,
9,
9,
7,
9,
9,
8,
8,
8,
9,
9,
8,
9,
9,
8,
9,
9,
9,
8,
12,
9,
9,
8,
9,
7,
10,
8,
8,
9,
9,
8,
7,
8,
9,
9,
9,
8,
9,
8,
8,
8,
8,
8,
8,
6,
9,
9,
10,
9,
9,
7,
8,
10,
9,
9,
9,
9,
11,
9,
9,
7,
8,
8,
9,
11,
7,
9,
9,
9,
9,
8,
3,
14,
9,
12,
9,
10,
7,
8,
9,
9,
9,
7,
9,
7,
11,
9,
9,
9,
8,
9,
11,
8,
9,
9,
8,
9,
7,
9,
8,
9,
10,
9,
8,
7,
13,
8,
8,
8,
9,
9,
8,
9,
9,
9,
9,
9,
7,
8,
7,
9,
9,
11,
8,
9,
9,
8,
9,
7,
9,
8,
9,
10,
8,
8,
8,
9,
13,
8,
8,
9,
8,
8,
8,
8,
7,
6,
9,
9,
9,
8,
9,
9,
8,
8,
10,
9,
10,
9,
8,
8,
8,
9,
10,
12,
12,
9,
10,
9,
8,
10,
8,
8,
8,
8,
9,
9,
8,
10,
9,
8,
10,
8,
9,
7,
7,
9,
9,
8,
9,
7,
5,
9,
9,
9,
9,
9,
8,
8,
9,
8,
8,
8,
8,
9,
9,
9,
8,
8,
7,
9,
10,
8,
9,
9,
9,
9,
9,
10,
6,
9,
9,
9,
8,
8,
8,
8,
8,
9,
9,
9,
8,
9,
8,
9,
9,
9,
8,
9,
9,
9,
9,
9,
9,
9,
13,
8,
9,
9,
8,
8,
8,
13,
13,
8,
9,
8,
9,
11,
8,
9,
8,
8,
12,
8,
9,
9,
8,
9,
9,
9,
10,
7,
9,
9,
9,
9,
8,
7,
4,
4,
9,
8,
9,
9,
9,
8,
9,
8,
8,
7,
9,
8,
8,
9,
9,
9,
8,
8,
6,
12,
7,
9,
9,
10,
8,
9,
9,
9,
9,
8,
8,
7,
9,
9,
8,
9,
8,
9,
9,
9,
9,
9,
8,
8,
7,
10,
7,
9,
9,
9,
8,
9,
9,
9,
7,
8,
8,
8,
11,
9,
9,
8,
8,
9,
9,
9,
7,
12,
13,
9,
9,
9,
9,
8,
9,
9,
8,
9,
9,
8,
9,
8,
7,
8,
10,
12,
7,
8,
9,
9,
8,
8,
7,
8,
9,
8,
9,
9,
11,
9,
8,
9,
8,
8,
7,
7,
10,
9,
8,
9,
9,
8,
11,
10,
9,
8,
9,
7,
7,
4,
8,
8,
9,
9,
9,
8,
9,
12,
8,
8,
9,
8,
8,
9,
10,
8,
9,
8,
9,
12,
9,
9,
9,
8,
9,
9,
9,
7,
9,
10,
9,
8,
8,
9,
7,
8,
10,
8,
8,
7,
9,
10,
8,
8,
9,
10,
8,
8,
8,
9,
9,
9,
10,
9,
8,
8,
9,
9,
9,
9,
9,
11,
9,
7,
8,
8,
8,
8,
9,
10,
8,
9,
9,
9,
8,
8,
9,
9,
9,
9,
7,
9,
9,
11,
9,
9,
8,
9,
9,
10,
9,
9,
8,
10,
10,
7,
8,
9,
9,
9,
7,
12,
9,
9,
8,
8,
9,
9,
10,
9,
10,
8,
9,
8,
9,
9,
8,
7,
7,
9,
10,
9,
8,
8,
11,
13,
9,
9,
8,
8,
8,
11,
11,
5,
-7,
8,
8,
8,
11,
11,
8,
9,
8,
13,
8,
8,
9,
7,
8,
10,
10,
8,
7,
8,
8,
9,
9,
8,
8,
9,
9,
10,
8,
7,
8,
11,
9,
8,
9,
7,
9,
9,
8,
9,
9,
9,
9,
9,
9,
7,
9,
9,
8,
9,
8,
8,
7,
8,
12,
9,
8,
8,
8,
9,
5,
8,
15,
9,
9,
9,
8,
7,
11,
9,
11,
8,
8,
9,
8,
8,
6,
13,
13,
8,
9,
8,
8,
9,
7,
8,
8,
9,
9,
8,
9,
9,
7,
7,
7,
8,
9,
9,
9,
5,
8,
8,
8,
8,
9,
9,
9,
8,
11,
9,
9,
8,
8,
8,
10,
8,
9,
9,
9,
9,
9,
8,
8,
10,
8,
6,
9,
8,
9,
9,
7,
7,
9,
9,
9,
9,
10,
9,
9,
8,
9,
9,
9,
8,
8,
8,
9,
4,
9,
7,
9,
9,
9,
8,
10,
13,
9,
8,
8,
9,
9,
9,
9,
15,
8,
9,
9,
8,
8,
9,
7,
11,
11,
9,
9,
9,
8,
10,
8,
5,
9,
9,
8,
9,
9,
9,
9,
8,
8,
8,
8,
9,
9,
8,
7,
10,
9,
9,
9,
9,
8,
10,
9,
9,
9,
8,
8,
9,
9,
9,
11,
9,
9,
9,
9,
9,
11,
8,
11,
9,
8,
9,
9,
9,
7,
7,
10,
8,
9,
9,
9,
8,
10,
9,
5,
9,
10,
8,
9,
9,
8,
10,
7,
9,
9,
9,
9,
8,
8,
7,
9,
9,
9,
9,
8,
8,
9,
8,
8,
10,
9,
8,
8,
9,
9,
9,
8,
9,
8,
9,
9,
9,
9,
10,
8,
8,
9,
9,
8,
8,
8,
9,
9,
9,
9,
7,
8,
9,
10,
6,
7,
9,
9,
9,
8,
8,
9,
8,
9,
9,
9,
9,
13,
8,
6,
9,
8,
8,
9,
9,
8,
5,
5,
8,
9,
9,
9,
9,
9,
18,
18,
10,
0,
8,
7,
8,
8,
8,
9,
9,
8,
9,
8,
8,
9,
8,
7,
9,
7,
9,
9,
8,
10,
8,
15,
9,
9,
9,
9,
7,
8,
10,
3,
9,
9,
8,
9,
10,
8,
8,
8,
8,
8,
8,
9,
11,
9,
8,
8,
14,
9,
9,
8,
8,
11,
11,
9,
10,
8,
7,
9,
9,
9,
9,
9,
8,
8,
9,
9,
8,
8,
13,
11,
8,
9,
9,
11,
7,
9,
9,
8,
8,
9,
9,
8,
9,
9,
10,
8,
9,
8,
9,
8,
9,
13,
13,
9,
8,
9,
9,
9,
9,
10,
3,
11,
9,
9,
8,
8,
8,
9,
9,
10,
9,
8,
9,
9,
9,
8,
9,
7,
7,
12,
9,
9,
8,
8,
9,
8,
8,
11,
7,
9,
9,
9,
9,
9,
8,
9,
8,
7,
9,
13,
10,
8,
8,
9,
10,
10,
8,
5,
9,
9,
9,
9,
8,
8,
8,
8,
9,
9,
9,
8,
8,
8,
9,
8,
13,
9,
9,
8,
9,
9,
9,
8,
8,
7,
9,
9,
9,
9,
6,
9,
8,
11,
11,
9,
9,
8,
12,
8,
8,
9,
8,
9,
8,
7,
7,
9,
9,
8,
10,
9,
9,
10,
10,
11,
11,
11,
12,
12,
13,
9,
14,
15,
15,
14,
16,
16,
9,
15,
18,
19,
19,
17,
19,
20,
21,
20,
25,
24,
25,
25,
25,
26,
27,
27,
27,
28,
29,
27,
29,
28,
33,
31,
31,
31,
33,
35,
36,
36,
33,
37,
34,
38,
40,
40,
40,
51,
51,
44,
44,
42,
46,
47,
87,
49,
51,
51,
52,
52,
51,
53,
55,
53,
53,
57,
58,
60,
59,
61,
61,
64,
65,
64,
67,
67,
67,
67,
72,
67,
69,
70,
71,
72,
69,
72,
70,
73,
72,
73,
73,
73,
75,
75,
76,
76,
76,
77,
77,
76,
76,
77,
79,
76,
76,
76,
77,
76,
76,
77,
76,
78,
77,
73,
77,
77,
79,
76,
76,
78,
77,
77,
77,
76,
77,
77,
75,
80,
77,
77,
75,
73,
73,
76,
77,
85,
77,
77,
77,
76,
76,
73,
79,
75,
76,
76,
75,
77,
76,
76,
76,
74,
71,
73,
75,
76,
74,
74,
71,
77,
77,
72,
75,
73,
73,
74,
71,
73,
73,
72,
73,
72,
69,
69,
75,
73,
71,
71,
71,
71,
71,
71,
70,
71,
69,
69,
69,
71,
71,
69,
68,
71,
68,
69,
68,
69,
68,
65,
61,
67,
67,
69,
67,
66,
65,
66,
65,
65,
67,
65,
65,
63,
66,
66,
66,
66,
66,
66,
65,
65,
63,
67,
65,
64,
65,
64,
63,
63,
63,
62,
61,
61,
62,
63,
64,
62,
61,
63,
61,
63,
63,
60,
63,
61,
61,
56,
60,
60,
61,
61,
60,
60,
60,
57,
61,
61,
60,
59,
59,
57,
57,
59,
59,
59,
60,
57,
59,
56,
56,
60,
59,
59,
59,
58,
57,
59,
59,
57,
57,
57,
57,
56,
56,
57,
58,
55,
55,
55,
55,
55,
55,
55,
56,
56,
53,
53,
53,
53,
53,
53,
52,
53,
53,
54,
54,
53,
55,
52,
53,
53,
53,
53,
52,
52,
52,
55,
52,
51,
49,
47,
51,
51,
46,
46,
52,
49,
49,
48,
48,
49,
47,
48,
49,
46,
47,
47,
48,
48,
46,
48,
43,
45,
48,
47,
48,
44,
47,
48,
47,
47,
48,
48,
46,
47,
45,
45,
47,
43,
44,
44,
44,
45,
45,
44,
44,
45,
45,
45,
45,
44,
45,
43,
44,
44,
44,
45,
44,
43,
43,
40,
43,
41,
44,
43,
43,
43,
44,
45,
43,
42,
44,
44,
43,
41,
43,
40,
43,
41,
44,
42,
40,
42,
42,
40,
40,
40,
40,
39,
40,
40,
40,
41,
39,
38,
39,
39,
39,
39,
40,
40,
38,
39,
39,
38,
38,
40,
40,
39,
36,
39,
37,
39,
36,
36,
37,
30,
38,
38,
39,
40,
38,
37,
39,
38,
36,
38,
37,
37,
38,
36,
39,
37,
39,
37,
37,
36,
35,
33,
34,
37,
37,
33,
29,
35,
33,
37,
35,
36,
39,
33,
36,
32,
33,
31,
31,
33,
39,
32,
33,
33,
35,
33,
29,
33,
33,
32,
32,
32,
32,
32,
31,
33,
33,
33,
33,
33,
34,
32,
32,
32,
32,
32,
33,
33,
33,
33,
31,
33,
34,
32,
33,
34,
34,
32,
33,
33,
32,
31,
33,
32,
32,
31,
29,
30,
33,
31,
31,
31,
32,
32,
28,
31,
29,
30,
29,
29,
30,
29,
31,
31,
29,
29,
31,
31,
29,
29,
32,
31,
29,
29,
31,
29,
31,
31,
28,
29,
33,
33,
30,
31,
28,
31,
31,
30,
31,
29,
29,
31,
31,
21,
21,
29,
31,
31,
31,
30,
30,
29,
31,
31,
24,
29,
31,
31,
31,
32,
30,
29,
31,
30,
29,
30,
31,
27,
30,
29,
30,
30,
33,
29,
29,
29,
28,
29,
29,
29,
29,
29,
29,
26,
29,
29,
28,
28,
28,
30,
27,
28,
29,
28,
28,
32,
29,
28,
28,
24,
28,
28,
27,
29,
29,
28,
29,
29,
28,
26,
28,
29,
25,
25,
27,
29,
27,
28,
29,
28,
28,
27,
24,
29,
30,
27,
27,
27,
28,
26,
30,
29,
28,
27,
27,
28,
23,
26,
27,
25,
25,
25,
27,
27,
27,
28,
25,
26,
25,
26,
26,
27,
25,
23,
23,
27,
25,
25,
24,
27,
24,
26,
24,
25,
24,
23,
25,
24,
24,
25,
29,
27,
23,
25,
24,
25,
24,
21,
29,
23,
31,
31,
24,
25,
23,
26,
25,
25,
24,
24,
24,
24,
23,
23,
24,
25,
25,
23,
23,
23,
23,
23,
23,
24,
23,
24,
23,
24,
23,
23,
23,
23,
24,
24,
23,
24,
24,
27,
21,
25,
24,
25,
24,
24,
23,
23,
24,
24,
25,
23,
24,
25,
23,
27,
23,
23,
23,
23,
21,
23,
22,
19,
23,
23,
24,
20,
23,
24,
22,
24,
22,
22,
22,
22,
21,
23,
19,
25,
21,
22,
21,
21,
21,
23,
23,
21,
21,
23,
19,
21,
20,
20,
20,
21,
23,
19,
20,
19,
19,
19,
19,
19,
16,
17,
19,
19,
19,
19,
18,
20,
19,
21,
19,
19,
18,
20,
18,
19,
29,
17,
21,
18,
17,
18,
20,
14,
14,
17,
19,
20,
19,
19,
21,
19,
20,
20,
19,
19,
17,
16,
16,
19,
15,
26,
19,
19,
19,
19,
19,
19,
17,
20,
19,
19,
17,
20,
19,
16,
19,
19,
20,
17,
19,
20,
17,
16,
18,
17,
17,
17,
19,
18,
20,
16,
19,
17,
18,
19,
17,
19,
17,
17,
17,
17,
20,
16,
17,
17,
13,
17,
18,
17,
16,
17,
17,
17,
18,
17,
17,
16,
16,
16,
17,
17,
14,
17,
16,
17,
16,
16,
17,
17,
16,
15,
17,
18,
18,
15,
17,
17,
17,
18,
16,
16,
16,
16,
16,
16,
16,
16,
16,
15,
15,
16,
16,
15,
15,
15,
16,
18,
15,
15,
15,
17,
16,
15,
15,
15,
15,
15,
16,
16,
14,
14,
15,
16,
15,
13,
15,
16,
15,
15,
15,
14,
15,
15,
14,
15,
12,
13,
14,
15,
15,
14,
14,
15,
14,
14,
14,
15,
14,
14,
13,
13,
15,
15,
14,
15,
13,
16,
14,
13,
13,
12,
15,
15,
15,
13,
15,
15,
13,
15,
13,
13,
13,
13,
14,
14,
13,
13,
13,
13,
9,
14,
14,
12,
15,
15,
15,
14,
17,
17,
15,
11,
15,
14,
15,
14,
14,
14,
12,
17,
13,
13,
13,
15,
13,
13,
14,
11,
14,
12,
13,
13,
15,
13,
13,
13,
13,
13,
14,
14,
13,
9,
14,
15,
14,
13,
13,
13,
13,
10,
10,
16,
13,
13,
13,
13,
12,
13,
11,
12,
11,
12,
12,
13,
13,
13,
13,
12,
13,
12,
12,
12,
13,
12,
12,
12,
16,
16,
14,
13,
12,
12,
13,
13,
13,
13,
18,
15,
11,
12,
13,
13,
15,
11,
11,
13,
13,
13,
10,
15,
12,
13,
13,
13,
12,
13,
12,
16,
16,
15,
12,
13,
9,
13,
14,
9,
13,
11,
14,
12,
12,
16,
16,
16,
12,
12,
14,
10,
13,
13,
13,
13,
13,
15,
13,
13,
13,
13,
13,
12,
13,
13,
13,
11,
13,
13,
11,
13,
13,
13,
12,
11,
13,
12,
13,
13,
13,
12,
11,
16,
12,
12,
12,
12,
12,
12,
12,
15,
13,
13,
11,
16,
9,
11,
11,
12,
13,
13,
12,
12,
13,
11,
12,
13,
10,
11,
9,
12,
13,
12,
12,
13,
12,
12,
12,
10,
9,
11,
13,
11,
7,
13,
13,
12,
12,
11,
11,
11,
12,
15,
9,
12,
12,
13,
11,
12,
12,
11,
10,
11,
12,
12,
10,
11,
12,
12,
11,
11,
11,
11,
12,
11,
13,
13,
12,
12,
11,
11,
12,
11,
12,
11,
14,
12,
11,
12,
12,
11,
11,
11,
12,
11,
12,
13,
12,
12,
12,
11,
9,
10,
9,
11,
11,
12,
12,
12,
8,
12,
10,
11,
12,
11,
13,
11,
12,
12,
12,
11,
12,
12,
12,
12,
7,
11,
11,
10,
11,
13,
11,
13,
13,
11,
12,
12,
11,
9,
11,
10,
10,
10,
14,
12,
11,
13,
11,
10,
11,
11,
11,
12,
11,
11,
9,
11,
11,
11,
9,
9,
13,
10,
9,
9,
9,
10,
11,
11,
10,
11,
11,
12,
9,
11,
11,
10,
10,
11,
11,
9,
7,
10,
9,
9,
9,
9,
9,
8,
11,
11,
11,
9,
11,
10,
10,
9,
9,
11,
9,
11,
9,
9,
11,
12,
12,
9,
9,
9,
9,
10,
12,
9,
9,
8,
9,
10,
10,
8,
8,
8,
8,
9,
10,
8,
9,
9,
9,
9,
5,
9,
9,
8,
9,
9,
9,
8,
8,
10,
10,
9,
9,
9,
8,
8,
11,
8,
7,
9,
9,
8,
9,
11,
9,
13,
8,
9,
8,
8,
9,
9,
7,
9,
9,
7,
9,
9,
9,
9,
9,
10,
9,
9,
8,
10,
7,
7,
7,
11,
9,
9,
8,
10,
9,
8,
10,
9,
8,
10,
5,
9,
9,
10,
11,
12,
10,
10,
11,
9,
5,
9,
10,
7,
9,
9,
9,
10,
8,
9,
10,
10,
8,
9,
7,
10,
11,
10,
8,
8,
9,
9,
9,
9,
10,
8,
6,
10,
10,
9,
9,
9,
9,
9,
12,
12,
9,
9,
9,
8,
9,
9,
8,
13,
8,
10,
9,
9,
9,
8,
8,
11,
11,
9,
9,
9,
11,
11,
10,
11,
9,
9,
9,
9,
9,
10,
8,
5,
8,
9,
8,
9,
9,
8,
11,
5,
9,
9,
9,
9,
8,
9,
10,
8,
7,
12,
9,
9,
9,
8,
8,
8,
8,
9,
9,
8,
9,
10,
10,
7,
8,
8,
10,
9,
8,
8,
8,
8,
9,
7,
8,
9,
9,
9,
7,
8,
9,
7,
9,
9,
9,
9,
8,
11,
9,
7,
10,
9,
9,
9,
7,
9,
9,
8,
9,
9,
8,
9,
9,
9,
9,
7,
9,
8,
11,
9,
9,
8,
8,
8,
8,
9,
9,
7,
8,
9,
7,
9,
8,
9,
8,
9,
8,
8,
5,
8,
9,
9,
10,
9,
9,
11,
10,
9,
10,
11,
9,
9,
10,
9,
6,
9,
9,
9,
8,
6,
9,
9,
13,
10,
10,
9,
9,
10,
7,
8,
12,
9,
10,
9,
9,
9,
10,
9,
7,
7,
9,
8,
9,
9,
9,
8,
14,
8,
9,
9,
10,
9,
9,
9,
7,
9,
8,
9,
8,
8,
7,
10,
9,
10,
12,
11,
11,
11,
7,
7,
9,
10,
9,
11,
10,
11,
10,
10,
8,
8,
9,
10,
10,
10,
11,
10,
7,
7,
8,
11,
11,
9,
11,
9,
7,
9,
9,
9,
8,
9,
9,
9,
9,
9,
9,
11,
11,
9,
10,
16,
16,
12,
10,
10,
9,
9,
9,
10,
3,
10,
9,
10,
10,
9,
9,
9,
8,
9,
7,
9,
9,
8,
10,
9,
8,
7,
10,
8,
8,
8,
8,
8,
8,
9,
9,
9,
8,
9,
9,
9,
8,
9,
9,
9,
9,
10,
9,
7,
9,
11,
6,
8,
8,
9,
9,
11,
11,
9,
9,
9,
9,
9,
9,
11,
7,
9,
9,
9,
12,
8,
10,
8,
8,
9,
9,
9,
8,
10,
9,
9,
7,
10,
13,
9,
9,
9,
9,
8,
11,
10,
8,
9,
9,
9,
10,
7,
9,
9,
9,
11,
11,
8,
8,
9,
12,
9,
8,
9,
8,
12,
8,
10,
8,
8,
8,
9,
9,
8,
9,
10,
7,
8,
9,
9,
9,
8,
9,
9,
7,
7,
5,
9,
8,
9,
8,
7,
7,
9,
9,
9,
8,
8,
9,
8,
9,
8,
7,
8,
9,
9,
4,
8,
10,
9,
11,
10,
9,
11,
11,
12,
11,
9,
10,
10,
9,
9,
9,
9,
11,
11,
9,
9,
9,
9,
9,
9,
8,
9,
9,
9,
9,
8,
8,
10,
8,
8,
9,
9,
9,
9,
9,
8,
8,
12,
8,
10,
9,
9,
11,
11,
9,
9,
7,
9,
7,
8,
9,
9,
10,
1,
7,
10,
9,
9,
6,
5,
7,
8,
10,
9,
9,
9,
9,
9,
10,
1,
11,
11,
8,
9,
9,
8,
10,
8,
8,
10,
7,
9,
8,
7,
9,
9,
7,
9,
10,
9,
9,
8,
9,
8,
9,
8,
9,
8,
9,
9,
8,
8,
10,
7,
8,
9,
9,
9,
15,
10,
11,
9,
10,
10,
10,
10,
11,
11,
12,
9,
9,
9,
10,
9,
15,
9,
12,
8,
11,
11,
8,
8,
9,
5,
8,
9,
9,
9,
9,
9,
12,
7,
11,
11,
11,
9,
9,
10,
9,
10,
7,
10,
9,
11,
9,
8,
7,
7,
9,
9,
9,
9,
9,
9,
10,
12,
9,
8,
8,
9,
9,
7,
10,
5,
9,
8,
11,
9,
8,
9,
8,
7,
8,
9,
9,
9,
8,
9,
8,
9,
9,
8,
9,
9,
8,
9,
10,
5,
5,
5,
9,
9,
10,
9,
10,
11,
9,
9,
12,
9,
9,
9,
9,
9,
15,
9,
8,
10,
8,
9,
9,
8,
8,
9,
8,
9,
8,
8,
8,
10,
8,
10,
8,
8,
9,
9,
9,
9,
9,
7,
7,
8,
9,
9,
9,
8,
8,
8,
10,
11,
9,
9,
8,
7,
7,
10,
8,
9,
9,
9,
9,
8,
9,
9,
9,
9,
8,
9,
9,
9,
7,
9,
4,
9,
9,
8,
9,
8,
9,
11,
12,
10,
10,
10,
10,
9,
7,
10,
11,
9,
9,
11,
9,
8,
10,
9,
9,
9,
9,
10,
8,
9,
7,
8,
13,
9,
9,
9,
8,
10,
8,
9,
9,
9,
9,
9,
9,
11,
8,
8,
9,
9,
8,
9,
9,
8,
8,
9,
13,
9,
8,
9,
8,
10,
9,
9,
11,
8,
8,
8,
8,
6,
11,
10,
9,
9,
9,
9,
9,
8,
8,
10,
8,
10,
10,
10,
9,
11,
11,
9,
9,
9,
10,
11,
9,
10,
9,
9,
9,
9,
9,
9,
10,
10,
11,
9,
11,
9,
8,
9,
10,
10,
11,
10,
9,
8,
7,
9,
9,
9,
8,
9,
9,
8,
8,
8,
8,
11,
9,
9,
9,
8,
9,
10,
8,
8,
7,
9,
8,
7,
9,
11,
11,
9,
12,
9,
7,
10,
8,
8,
8,
9,
9,
9,
9,
9,
7,
13,
8,
9,
8,
13,
8,
7,
9,
8,
7,
8,
9,
9,
8,
8,
8,
8,
8,
8,
9,
10,
9,
Null,
Null,
Null,
Null,
Null,
Null,
Null,
Null,
Null,
Null,
Null,
Null,
Null,
Null,
Null,
Null,
Null,
Null,
Null,
Null,
Null,
Null,
Null,
Null,
Null,
Null,
Null,
Null,
Null,
Null,
Null,
Null,
Null,
Null,
Null,
Null,
Null,
Null,
Null,
Null,
Null,
Null,
Null,
Null,
Null,
Null,
Null,
Null,
Null,
Null,
Null,
Null,
Null,
Null,
Null,
Null,
Null,
Null,
Null,
Null,
Null,
Null,
Null,
Null,
Null,
Null,
Null,
Null,
Null,
Null,
Null,
Null,
Null,
Null,
Null,
Null,
Null,
Null,
Null,
Null,
