Datos experimentales/DATOS 26-3-24/ALL0030/A0030CH1.CSV

Memory Length,4000,
Trigger Level,0.000E+00,
Source,CH1,
Vertical Units,V,
Vertical Scale,2.000E-02,
Vertical Position,-1.200E-02,
Horizontal Units,s,
Horizontal Scale,1.000E+00,
Horizontal Position,0.000E+00,
Horizontal Mode,Roll Mode,
Waveform Last Dot Address,3670,
Sampling Period,4.000E-03,
Firmware, V1.21,
Waveform Data,
9,
9,
9,
8,
10,
10,
8,
9,
9,
9,
12,
10,
9,
9,
8,
9,
8,
7,
8,
8,
8,
8,
9,
9,
8,
9,
9,
8,
8,
9,
9,
9,
9,
8,
9,
9,
9,
8,
9,
9,
8,
8,
9,
9,
6,
6,
9,
10,
10,
10,
8,
9,
9,
9,
8,
9,
8,
8,
8,
8,
8,
8,
8,
8,
7,
8,
9,
9,
9,
8,
9,
9,
9,
7,
9,
9,
11,
9,
9,
8,
9,
8,
8,
9,
9,
7,
9,
9,
9,
8,
9,
10,
9,
8,
8,
8,
8,
8,
9,
9,
8,
7,
8,
11,
9,
8,
10,
7,
11,
9,
9,
8,
9,
7,
6,
8,
10,
10,
12,
9,
11,
12,
12,
7,
14,
4,
9,
9,
5,
5,
2,
8,
9,
8,
9,
9,
8,
8,
8,
9,
8,
7,
9,
8,
9,
9,
9,
8,
8,
8,
9,
9,
9,
11,
9,
11,
7,
8,
11,
8,
2,
2,
7,
9,
9,
9,
8,
8,
8,
8,
9,
9,
11,
9,
9,
11,
11,
9,
8,
6,
15,
7,
9,
13,
13,
13,
7,
7,
4,
8,
10,
10,
9,
8,
8,
9,
9,
8,
9,
9,
8,
8,
9,
9,
9,
8,
8,
8,
8,
8,
8,
8,
9,
9,
9,
7,
9,
9,
11,
9,
9,
8,
8,
9,
9,
8,
8,
9,
9,
8,
8,
9,
9,
8,
8,
9,
9,
9,
9,
9,
8,
9,
11,
8,
9,
9,
7,
8,
9,
8,
9,
8,
8,
7,
8,
9,
9,
9,
8,
9,
8,
8,
8,
8,
5,
5,
8,
8,
8,
3,
9,
9,
10,
8,
8,
10,
8,
8,
8,
9,
9,
8,
8,
9,
10,
8,
9,
9,
9,
9,
9,
9,
11,
9,
9,
8,
8,
8,
9,
9,
8,
7,
9,
8,
9,
9,
8,
8,
8,
7,
10,
7,
9,
8,
9,
11,
8,
10,
10,
12,
9,
9,
9,
9,
9,
8,
9,
8,
9,
9,
8,
8,
9,
9,
9,
9,
8,
8,
7,
8,
8,
8,
8,
8,
8,
8,
8,
9,
9,
7,
9,
9,
9,
7,
8,
9,
9,
9,
8,
9,
8,
5,
9,
8,
9,
8,
9,
9,
9,
9,
9,
9,
8,
8,
8,
8,
8,
8,
8,
9,
8,
11,
11,
10,
9,
8,
7,
8,
11,
9,
9,
9,
11,
10,
11,
7,
7,
11,
10,
5,
8,
5,
7,
8,
6,
6,
11,
6,
7,
7,
7,
10,
9,
8,
8,
7,
8,
8,
9,
8,
8,
8,
8,
9,
10,
9,
9,
9,
9,
9,
9,
10,
11,
9,
10,
7,
7,
7,
11,
8,
9,
6,
7,
9,
9,
5,
7,
8,
9,
9,
11,
9,
10,
10,
9,
12,
11,
13,
13,
8,
9,
8,
8,
9,
10,
11,
8,
9,
8,
9,
8,
9,
9,
9,
9,
9,
9,
9,
9,
9,
8,
9,
8,
9,
8,
9,
9,
6,
6,
10,
8,
9,
11,
9,
9,
9,
9,
8,
8,
9,
7,
7,
8,
8,
9,
9,
8,
8,
8,
9,
9,
8,
8,
10,
10,
11,
8,
9,
8,
7,
9,
8,
7,
9,
8,
8,
9,
8,
8,
8,
8,
9,
8,
9,
9,
8,
9,
9,
11,
8,
9,
9,
9,
8,
8,
9,
10,
9,
8,
8,
7,
8,
9,
9,
9,
8,
9,
8,
9,
7,
9,
9,
8,
8,
9,
10,
9,
9,
9,
9,
8,
9,
8,
12,
9,
8,
8,
3,
9,
9,
9,
8,
9,
9,
8,
9,
8,
9,
8,
9,
9,
8,
8,
9,
9,
8,
8,
8,
8,
8,
5,
9,
9,
8,
10,
8,
10,
10,
8,
9,
9,
9,
8,
8,
9,
10,
8,
8,
9,
9,
9,
8,
9,
8,
9,
9,
7,
7,
8,
9,
7,
9,
9,
9,
11,
12,
8,
11,
9,
8,
8,
7,
9,
8,
7,
10,
10,
9,
9,
11,
5,
11,
9,
12,
15,
8,
9,
5,
6,
6,
5,
9,
14,
5,
7,
4,
5,
9,
5,
9,
9,
8,
8,
9,
9,
8,
9,
9,
9,
7,
8,
8,
9,
9,
10,
9,
9,
9,
9,
10,
9,
10,
9,
9,
9,
9,
11,
13,
9,
6,
6,
8,
8,
8,
8,
10,
9,
9,
6,
7,
7,
10,
10,
10,
9,
12,
8,
12,
7,
8,
8,
8,
8,
9,
8,
8,
8,
8,
8,
9,
8,
9,
9,
8,
7,
8,
8,
8,
8,
8,
9,
10,
9,
9,
8,
9,
8,
9,
9,
9,
9,
9,
9,
9,
9,
9,
9,
10,
8,
8,
8,
9,
9,
9,
9,
9,
11,
9,
9,
8,
8,
8,
9,
8,
8,
8,
8,
9,
9,
9,
9,
8,
9,
9,
9,
9,
9,
8,
9,
9,
9,
9,
10,
12,
8,
9,
10,
8,
8,
8,
8,
9,
8,
8,
9,
9,
8,
8,
8,
9,
9,
8,
8,
9,
9,
9,
9,
8,
8,
8,
9,
9,
9,
7,
11,
9,
9,
8,
4,
9,
9,
9,
8,
9,
9,
8,
9,
9,
9,
8,
8,
8,
9,
8,
8,
9,
9,
9,
8,
9,
8,
10,
8,
8,
8,
4,
8,
9,
9,
9,
8,
9,
9,
8,
9,
8,
8,
8,
8,
10,
8,
8,
8,
9,
9,
9,
9,
8,
8,
8,
7,
7,
8,
10,
10,
8,
9,
9,
9,
11,
7,
8,
8,
8,
10,
5,
7,
7,
7,
9,
8,
11,
13,
12,
8,
8,
8,
11,
9,
9,
8,
8,
9,
9,
9,
9,
7,
8,
8,
9,
7,
8,
9,
9,
9,
8,
8,
8,
11,
7,
9,
9,
8,
8,
9,
9,
9,
9,
11,
9,
9,
8,
9,
9,
10,
9,
7,
8,
9,
8,
5,
5,
6,
5,
6,
5,
11,
7,
8,
10,
8,
10,
6,
9,
9,
9,
8,
9,
8,
9,
7,
9,
9,
9,
8,
8,
10,
10,
9,
8,
9,
9,
8,
8,
9,
9,
9,
8,
8,
9,
9,
10,
9,
9,
8,
8,
8,
10,
9,
8,
7,
9,
8,
8,
8,
8,
8,
8,
7,
9,
8,
9,
9,
9,
9,
9,
8,
8,
9,
8,
7,
9,
8,
9,
9,
8,
8,
8,
8,
9,
11,
11,
9,
8,
8,
9,
9,
9,
8,
8,
9,
8,
9,
9,
9,
9,
8,
9,
9,
8,
8,
8,
8,
8,
8,
9,
9,
9,
8,
9,
9,
9,
9,
9,
9,
10,
10,
9,
9,
12,
12,
9,
8,
9,
9,
8,
8,
9,
8,
8,
8,
9,
9,
8,
8,
9,
9,
9,
8,
9,
9,
9,
7,
8,
9,
9,
8,
8,
9,
9,
8,
10,
9,
8,
8,
9,
8,
8,
11,
8,
9,
9,
9,
7,
8,
9,
9,
8,
9,
3,
4,
9,
7,
7,
7,
8,
11,
9,
9,
9,
9,
9,
9,
8,
9,
9,
8,
9,
9,
9,
8,
8,
8,
10,
9,
7,
8,
8,
9,
9,
9,
9,
9,
9,
9,
9,
9,
9,
9,
9,
9,
9,
13,
8,
8,
9,
8,
8,
8,
11,
14,
8,
8,
6,
8,
9,
9,
7,
7,
8,
9,
10,
7,
8,
10,
9,
8,
9,
8,
9,
9,
9,
8,
3,
9,
9,
9,
8,
9,
9,
8,
9,
8,
9,
10,
9,
8,
8,
9,
8,
9,
10,
14,
8,
9,
11,
10,
10,
12,
5,
14,
14,
13,
15,
14,
14,
13,
16,
17,
17,
18,
18,
18,
19,
19,
20,
21,
22,
19,
23,
23,
24,
24,
25,
26,
27,
27,
27,
27,
29,
27,
25,
30,
31,
32,
35,
35,
34,
30,
34,
38,
38,
37,
37,
37,
42,
37,
39,
45,
43,
43,
44,
48,
45,
45,
48,
49,
48,
51,
52,
54,
53,
53,
55,
53,
57,
57,
57,
59,
59,
60,
59,
61,
64,
65,
65,
64,
67,
67,
70,
66,
72,
72,
72,
68,
75,
75,
73,
79,
78,
76,
77,
77,
77,
81,
79,
81,
81,
80,
81,
82,
83,
81,
84,
84,
85,
84,
83,
84,
84,
84,
85,
87,
87,
87,
86,
85,
87,
86,
87,
87,
87,
87,
87,
87,
87,
87,
101,
82,
87,
93,
85,
84,
90,
88,
93,
87,
87,
89,
91,
88,
89,
88,
91,
87,
86,
86,
87,
87,
85,
85,
87,
85,
85,
83,
85,
83,
85,
83,
83,
84,
83,
82,
82,
82,
80,
79,
80,
81,
80,
80,
73,
76,
81,
79,
77,
80,
80,
77,
76,
66,
77,
77,
76,
70,
75,
76,
77,
75,
75,
76,
76,
75,
75,
76,
75,
72,
75,
75,
75,
74,
75,
75,
73,
73,
73,
75,
73,
73,
74,
73,
72,
74,
75,
79,
75,
72,
73,
73,
73,
73,
72,
75,
72,
73,
73,
76,
72,
72,
73,
72,
72,
73,
72,
71,
71,
73,
72,
71,
73,
71,
72,
72,
72,
73,
73,
75,
73,
73,
69,
72,
72,
65,
75,
73,
71,
111,
72,
72,
72,
72,
68,
73,
89,
72,
72,
72,
73,
72,
69,
71,
71,
71,
67,
68,
65,
67,
65,
66,
64,
64,
64,
63,
63,
63,
63,
61,
62,
59,
59,
60,
60,
60,
58,
53,
53,
56,
58,
55,
55,
55,
57,
56,
54,
55,
56,
53,
53,
53,
52,
53,
52,
52,
52,
50,
49,
51,
51,
48,
49,
49,
49,
49,
49,
49,
49,
49,
48,
53,
47,
47,
49,
48,
47,
48,
44,
44,
52,
45,
45,
51,
51,
48,
48,
49,
51,
48,
46,
45,
48,
47,
48,
48,
47,
47,
46,
47,
47,
45,
47,
45,
45,
46,
47,
47,
44,
44,
46,
48,
45,
47,
45,
48,
47,
45,
48,
57,
43,
48,
46,
46,
47,
47,
45,
47,
47,
46,
43,
45,
47,
47,
45,
45,
45,
40,
46,
45,
40,
45,
45,
45,
47,
45,
45,
45,
45,
45,
45,
46,
47,
45,
46,
45,
47,
45,
46,
47,
47,
47,
45,
45,
44,
47,
44,
47,
45,
47,
46,
46,
43,
45,
45,
46,
45,
45,
45,
47,
49,
44,
44,
44,
46,
45,
53,
44,
45,
44,
44,
45,
47,
45,
46,
45,
44,
47,
45,
45,
44,
43,
47,
44,
44,
46,
48,
45,
47,
45,
45,
47,
45,
45,
45,
43,
44,
43,
43,
44,
45,
43,
44,
42,
43,
41,
39,
41,
40,
39,
40,
40,
41,
40,
38,
34,
37,
35,
38,
37,
39,
39,
35,
38,
33,
33,
36,
37,
35,
33,
33,
33,
33,
36,
33,
35,
21,
32,
32,
32,
33,
31,
33,
31,
30,
32,
33,
31,
31,
31,
31,
30,
30,
29,
30,
30,
27,
31,
29,
31,
32,
30,
28,
29,
31,
35,
35,
28,
28,
25,
27,
29,
29,
28,
28,
28,
28,
28,
27,
27,
29,
28,
26,
27,
29,
27,
28,
27,
28,
29,
29,
24,
26,
26,
29,
28,
29,
31,
29,
29,
29,
30,
32,
29,
28,
30,
29,
29,
26,
27,
27,
29,
28,
29,
27,
29,
28,
29,
29,
28,
28,
29,
28,
29,
27,
27,
28,
28,
26,
27,
29,
28,
27,
27,
27,
27,
27,
27,
28,
28,
29,
24,
27,
27,
30,
27,
27,
27,
27,
32,
31,
30,
27,
26,
28,
27,
29,
27,
26,
26,
28,
28,
26,
26,
28,
29,
26,
25,
29,
27,
29,
33,
29,
28,
28,
28,
27,
28,
29,
28,
28,
27,
28,
28,
27,
29,
27,
29,
30,
30,
28,
23,
32,
27,
26,
28,
29,
28,
29,
26,
27,
28,
28,
28,
28,
30,
27,
27,
28,
30,
28,
27,
27,
27,
28,
29,
29,
26,
27,
27,
30,
22,
27,
28,
27,
25,
26,
25,
28,
28,
25,
27,
28,
27,
29,
27,
27,
28,
25,
26,
27,
27,
27,
27,
27,
28,
28,
27,
27,
28,
27,
27,
27,
28,
27,
27,
28,
28,
27,
29,
28,
28,
28,
27,
29,
28,
27,
33,
29,
26,
26,
28,
27,
27,
24,
26,
26,
25,
28,
28,
26,
33,
27,
28,
28,
27,
28,
25,
26,
29,
28,
28,
28,
27,
27,
28,
27,
28,
28,
27,
25,
23,
26,
27,
26,
25,
27,
27,
27,
27,
27,
27,
27,
28,
26,
27,
22,
27,
29,
27,
25,
28,
27,
23,
28,
28,
27,
29,
28,
29,
26,
28,
27,
29,
28,
29,
28,
29,
29,
29,
28,
28,
29,
29,
29,
27,
28,
26,
29,
28,
27,
29,
29,
27,
28,
28,
28,
28,
29,
26,
29,
27,
25,
28,
27,
29,
29,
28,
27,
28,
29,
27,
26,
29,
27,
29,
29,
27,
28,
28,
27,
27,
27,
28,
30,
28,
28,
28,
28,
27,
29,
28,
27,
27,
27,
28,
29,
28,
28,
29,
26,
27,
29,
25,
27,
29,
27,
27,
27,
28,
27,
27,
27,
27,
25,
26,
25,
26,
25,
24,
25,
24,
24,
23,
22,
23,
20,
21,
24,
21,
21,
21,
20,
18,
25,
25,
18,
17,
20,
17,
17,
17,
8,
17,
13,
13,
15,
15,
13,
13,
15,
13,
13,
13,
12,
15,
15,
13,
15,
13,
14,
13,
13,
13,
12,
14,
12,
11,
13,
12,
12,
12,
12,
12,
12,
11,
11,
16,
13,
12,
11,
9,
10,
11,
11,
18,
8,
11,
7,
9,
10,
10,
9,
11,
11,
9,
10,
10,
10,
9,
9,
9,
8,
11,
11,
10,
9,
10,
9,
9,
9,
9,
9,
10,
9,
9,
9,
9,
9,
7,
9,
9,
10,
8,
5,
11,
8,
11,
10,
9,
10,
9,
9,
7,
12,
9,
8,
11,
9,
8,
8,
10,
7,
9,
9,
8,
8,
9,
9,
9,
8,
8,
9,
8,
9,
9,
8,
9,
9,
9,
9,
8,
9,
9,
8,
9,
8,
9,
8,
9,
9,
9,
9,
9,
9,
9,
9,
8,
9,
13,
13,
11,
11,
7,
11,
11,
10,
10,
10,
8,
8,
10,
12,
8,
9,
9,
10,
8,
8,
8,
9,
8,
8,
8,
8,
8,
9,
9,
9,
8,
9,
9,
9,
9,
8,
10,
9,
9,
9,
11,
8,
8,
9,
8,
8,
10,
0,
15,
11,
5,
5,
8,
11,
9,
8,
10,
10,
8,
8,
9,
9,
8,
9,
9,
9,
9,
5,
9,
9,
9,
8,
9,
9,
9,
9,
9,
8,
8,
8,
9,
8,
9,
9,
9,
8,
9,
9,
9,
9,
9,
8,
9,
9,
9,
8,
8,
9,
10,
7,
11,
9,
8,
9,
9,
8,
9,
7,
9,
9,
8,
9,
9,
9,
9,
9,
11,
8,
9,
9,
9,
9,
11,
11,
9,
6,
9,
9,
9,
9,
9,
8,
8,
9,
6,
9,
10,
10,
9,
7,
8,
8,
12,
9,
11,
8,
7,
8,
8,
7,
7,
7,
9,
9,
9,
7,
9,
9,
8,
7,
9,
8,
10,
9,
9,
9,
9,
9,
9,
8,
9,
8,
8,
9,
10,
8,
9,
9,
9,
10,
7,
8,
11,
8,
8,
8,
9,
19,
5,
7,
6,
11,
11,
7,
8,
9,
9,
8,
8,
9,
9,
9,
8,
8,
8,
7,
9,
9,
9,
9,
8,
9,
8,
9,
9,
8,
10,
8,
8,
8,
9,
9,
9,
9,
9,
9,
8,
8,
7,
8,
9,
7,
9,
8,
8,
8,
8,
10,
9,
8,
8,
9,
9,
7,
8,
9,
8,
9,
8,
9,
9,
6,
9,
8,
9,
10,
8,
9,
9,
9,
8,
9,
8,
8,
8,
9,
7,
8,
8,
9,
8,
8,
8,
8,
6,
8,
9,
10,
10,
9,
12,
13,
11,
9,
10,
10,
8,
7,
9,
8,
9,
9,
9,
9,
9,
8,
7,
7,
9,
9,
9,
9,
9,
8,
8,
5,
9,
9,
9,
8,
9,
8,
7,
8,
9,
10,
9,
8,
7,
8,
9,
8,
8,
9,
9,
9,
5,
4,
8,
8,
9,
11,
6,
7,
8,
9,
9,
8,
8,
9,
8,
9,
10,
9,
9,
8,
9,
9,
9,
8,
8,
9,
9,
9,
9,
9,
8,
8,
7,
3,
9,
9,
9,
9,
9,
7,
9,
9,
8,
8,
9,
9,
6,
12,
9,
10,
9,
9,
11,
8,
8,
9,
9,
8,
9,
9,
5,
8,
9,
8,
9,
9,
8,
8,
8,
10,
8,
9,
9,
9,
9,
9,
8,
8,
8,
7,
7,
7,
7,
9,
9,
9,
4,
3,
8,
9,
9,
9,
9,
10,
10,
10,
9,
7,
9,
10,
11,
8,
9,
9,
8,
9,
9,
9,
9,
9,
9,
8,
9,
8,
9,
9,
8,
9,
9,
9,
8,
8,
9,
9,
8,
7,
9,
8,
8,
8,
9,
9,
8,
7,
11,
9,
9,
9,
8,
9,
8,
7,
9,
11,
10,
8,
11,
9,
7,
7,
9,
9,
8,
8,
9,
6,
5,
9,
8,
7,
9,
9,
9,
11,
8,
8,
9,
9,
10,
9,
9,
9,
8,
8,
9,
9,
8,
9,
9,
8,
11,
11,
9,
11,
9,
8,
8,
9,
15,
11,
8,
6,
8,
9,
9,
9,
7,
10,
8,
8,
8,
9,
9,
9,
8,
9,
10,
8,
7,
7,
12,
9,
9,
8,
6,
9,
8,
8,
8,
9,
8,
9,
9,
9,
9,
9,
13,
9,
10,
10,
8,
8,
9,
9,
4,
11,
11,
7,
8,
11,
8,
5,
9,
9,
9,
8,
9,
9,
8,
8,
8,
9,
11,
8,
8,
10,
8,
8,
8,
9,
10,
8,
9,
7,
7,
8,
8,
8,
9,
8,
9,
9,
12,
9,
9,
8,
9,
9,
9,
3,
9,
9,
9,
8,
9,
8,
7,
9,
9,
1,
9,
9,
3,
8,
8,
8,
8,
8,
7,
8,
8,
9,
7,
2,
9,
8,
9,
8,
8,
9,
8,
9,
8,
8,
9,
9,
8,
9,
9,
10,
8,
8,
8,
8,
8,
8,
7,
3,
8,
5,
5,
8,
11,
9,
8,
11,
11,
9,
8,
8,
9,
8,
8,
8,
8,
9,
9,
9,
9,
9,
9,
8,
8,
9,
8,
8,
7,
7,
9,
9,
9,
9,
9,
11,
11,
9,
8,
11,
10,
9,
8,
9,
9,
9,
4,
9,
7,
7,
7,
11,
11,
8,
8,
7,
5,
9,
9,
9,
8,
9,
9,
9,
9,
8,
8,
8,
8,
9,
8,
9,
8,
9,
8,
8,
9,
8,
9,
8,
8,
9,
8,
7,
11,
9,
11,
8,
9,
8,
9,
16,
5,
8,
8,
7,
9,
7,
7,
9,
9,
7,
5,
9,
9,
9,
8,
9,
9,
8,
9,
9,
9,
9,
7,
8,
9,
9,
8,
9,
8,
8,
8,
9,
8,
7,
8,
8,
8,
7,
9,
7,
10,
9,
8,
9,
9,
9,
2,
13,
12,
11,
9,
10,
9,
8,
8,
9,
8,
8,
9,
8,
8,
8,
9,
9,
11,
9,
9,
8,
8,
9,
8,
7,
9,
8,
8,
9,
8,
8,
8,
8,
9,
9,
9,
8,
8,
9,
9,
9,
9,
8,
9,
8,
12,
5,
10,
9,
7,
8,
8,
5,
9,
10,
10,
9,
9,
11,
8,
8,
8,
8,
10,
8,
8,
9,
9,
9,
9,
8,
8,
8,
8,
9,
9,
8,
9,
9,
11,
8,
9,
9,
10,
9,
9,
7,
8,
8,
8,
9,
7,
11,
6,
8,
9,
9,
8,
9,
9,
9,
7,
8,
15,
11,
7,
9,
9,
7,
7,
8,
8,
8,
9,
11,
9,
8,
9,
7,
8,
8,
8,
9,
8,
8,
8,
9,
9,
8,
6,
10,
9,
9,
8,
8,
8,
8,
7,
6,
9,
9,
8,
8,
9,
8,
9,
9,
9,
7,
8,
9,
8,
9,
8,
8,
8,
9,
8,
9,
8,
9,
8,
9,
8,
9,
8,
9,
8,
8,
7,
9,
9,
10,
8,
8,
8,
7,
9,
8,
9,
7,
8,
8,
3,
4,
6,
8,
9,
9,
8,
7,
9,
9,
8,
8,
8,
9,
9,
9,
9,
9,
8,
9,
6,
9,
9,
9,
9,
9,
8,
7,
8,
8,
8,
8,
9,
8,
8,
8,
8,
9,
8,
9,
7,
8,
8,
8,
8,
10,
3,
8,
9,
12,
8,
9,
9,
9,
8,
10,
10,
8,
9,
9,
9,
8,
8,
8,
9,
9,
9,
9,
9,
9,
8,
8,
9,
8,
9,
8,
9,
9,
8,
9,
8,
8,
7,
9,
9,
3,
5,
9,
8,
8,
8,
8,
7,
6,
11,
9,
9,
9,
9,
8,
7,
9,
8,
8,
9,
8,
9,
8,
8,
9,
8,
8,
8,
9,
9,
7,
7,
9,
7,
8,
3,
9,
8,
9,
8,
9,
9,
9,
9,
9,
10,
10,
9,
9,
8,
9,
9,
7,
7,
10,
10,
7,
7,
11,
8,
8,
8,
2,
9,
9,
9,
8,
8,
9,
9,
9,
9,
8,
10,
8,
8,
8,
9,
9,
8,
9,
7,
7,
9,
8,
8,
8,
9,
11,
12,
8,
9,
7,
8,
10,
8,
9,
9,
9,
13,
12,
7,
7,
10,
8,
8,
8,
8,
9,
8,
8,
8,
8,
8,
8,
9,
9,
9,
8,
9,
7,
8,
5,
10,
11,
9,
9,
7,
9,
8,
8,
8,
10,
9,
9,
9,
8,
7,
7,
8,
9,
8,
9,
9,
4,
11,
11,
12,
9,
9,
9,
8,
9,
9,
7,
9,
9,
9,
8,
10,
8,
8,
9,
9,
8,
8,
9,
9,
8,
8,
8,
8,
8,
8,
8,
8,
8,
8,
9,
8,
8,
9,
10,
10,
10,
7,
9,
9,
8,
7,
7,
8,
6,
13,
9,
12,
8,
10,
10,
9,
8,
8,
8,
9,
10,
7,
8,
8,
8,
8,
8,
9,
9,
9,
9,
8,
9,
9,
9,
9,
8,
10,
8,
8,
8,
9,
9,
9,
8,
8,
9,
9,
9,
8,
8,
9,
7,
8,
9,
7,
7,
11,
11,
11,
8,
10,
9,
7,
9,
10,
8,
9,
9,
9,
8,
8,
8,
8,
8,
9,
9,
9,
9,
9,
8,
8,
9,
9,
9,
8,
8,
8,
9,
8,
9,
8,
8,
9,
13,
11,
4,
8,
9,
8,
8,
9,
9,
1,
7,
12,
5,
7,
11,
9,
9,
9,
8,
8,
9,
9,
9,
8,
8,
9,
8,
9,
9,
8,
8,
8,
9,
9,
9,
11,
9,
9,
9,
8,
9,
9,
8,
9,
9,
8,
8,
8,
9,
9,
8,
9,
8,
9,
9,
Null,
Null,
Null,
Null,
Null,
Null,
Null,
Null,
Null,
Null,
Null,
Null,
Null,
Null,
Null,
Null,
Null,
Null,
Null,
Null,
Null,
Null,
Null,
Null,
Null,
Null,
Null,
Null,
Null,
Null,
Null,
Null,
Null,
Null,
Null,
Null,
Null,
Null,
Null,
Null,
Null,
Null,
Null,
Null,
Null,
Null,
Null,
Null,
Null,
Null,
Null,
Null,
Null,
Null,
Null,
Null,
Null,
Null,
Null,
Null,
Null,
Null,
Null,
Null,
Null,
Null,
Null,
Null,
Null,
Null,
Null,
Null,
Null,
Null,
Null,
Null,
Null,
Null,
Null,
Null,
Null,
Null,
Null,
Null,
Null,
Null,
Null,
Null,
Null,
Null,
Null,
Null,
Null,
Null,
Null,
Null,
Null,
Null,
Null,
Null,
Null,
Null,
Null,
Null,
Null,
Null,
Null,
Null,
Null,
Null,
Null,
Null,
Null,
Null,
Null,
Null,
Null,
Null,
Null,
Null,
Null,
Null,
Null,
Null,
Null,
Null,
Null,
Null,
Null,
Null,
Null,
Null,
Null,
Null,
Null,
Null,
Null,
Null,
Null,
Null,
Null,
Null,
Null,
Null,
Null,
Null,
Null,
Null,
Null,
Null,
Null,
Null,
Null,
Null,
Null,
Null,
Null,
Null,
Null,
Null,
Null,
Null,
Null,
Null,
Null,
Null,
Null,
Null,
Null,
Null,
Null,
Null,
Null,
Null,
Null,
Null,
Null,
Null,
Null,
Null,
Null,
Null,
Null,
Null,
Null,
Null,
Null,
Null,
Null,
Null,
Null,
Null,
Null,
Null,
Null,
Null,
Null,
Null,
Null,
Null,
Null,
Null,
Null,
Null,
Null,
Null,
Null,
Null,
Null,
Null,
Null,
Null,
Null,
Null,
Null,
Null,
Null,
Null,
Null,
Null,
Null,
Null,
Null,
Null,
Null,
Null,
Null,
Null,
Null,
Null,
Null,
Null,
Null,
Null,
Null,
Null,
Null,
Null,
Null,
Null,
Null,
Null,
Null,
Null,
Null,
Null,
Null,
Null,
Null,
Null,
Null,
Null,
Null,
Null,
Null,
Null,
Null,
Null,
Null,
Null,
Null,
Null,
Null,
Null,
Null,
Null,
Null,
Null,
Null,
Null,
Null,
Null,
Null,
Null,
Null,
Null,
Null,
Null,
Null,
Null,
Null,
Null,
Null,
Null,
Null,
Null,
Null,
Null,
Null,
Null,
Null,
Null,
Null,
Null,
Null,
Null,
Null,
Null,
Null,
Null,
Null,
Null,
Null,
Null,
Null,
Null,
Null,
Null,
Null,
Null,
Null,
Null,
Null,
Null,
Null,
Null,
Null,
Null,
Null,
Null,
Null,
Null,
Null,
Null,
Null,
Null,
Null,
Null,
Null,
Null,
