Datos experimentales/DATOS 26-3-24/ALL0014/A0014CH1.CSV

Memory Length,4000,
Trigger Level,0.000E+00,
Source,CH1,
Vertical Units,V,
Vertical Scale,2.000E-02,
Vertical Position,-1.200E-02,
Horizontal Units,s,
Horizontal Scale,1.000E+00,
Horizontal Position,0.000E+00,
Horizontal Mode,Roll Mode,
Sampling Period,4.000E-03,
Firmware, V1.21,
Waveform Data,
-113,
-113,
-113,
-113,
-113,
-113,
-113,
-113,
-113,
-113,
-113,
-113,
-113,
-113,
-113,
-113,
-113,
-113,
-113,
-113,
-113,
-113,
-113,
-113,
-113,
-113,
-113,
-113,
-113,
-113,
-113,
-113,
-113,
-113,
-113,
-113,
-113,
-113,
-113,
-113,
-113,
-113,
-113,
-113,
-113,
-113,
-113,
-113,
-113,
-113,
-113,
-113,
-113,
-113,
-113,
-113,
-113,
-113,
-113,
-113,
-113,
-113,
-113,
-113,
-113,
-113,
-113,
-113,
-113,
-113,
-113,
-113,
-113,
-113,
-113,
-113,
-113,
-113,
-113,
-113,
-35,
-35,
-34,
-35,
-34,
-34,
-35,
-33,
-34,
-35,
-33,
-34,
-35,
-34,
-35,
-34,
-35,
-34,
-35,
-35,
-34,
-34,
-34,
-33,
-34,
-34,
-34,
-34,
-33,
-34,
-34,
-34,
-34,
-35,
-34,
-33,
-35,
-34,
-34,
-35,
-33,
-35,
-34,
-33,
-34,
-34,
-34,
-34,
-34,
-33,
-33,
-34,
-35,
-34,
-33,
-34,
-33,
-33,
-33,
-34,
-34,
-33,
-34,
-35,
-35,
-34,
-35,
-34,
-33,
-34,
-35,
-35,
-34,
-33,
-35,
-34,
-33,
-35,
-35,
-34,
-33,
-34,
-33,
-33,
-34,
-35,
-33,
-34,
-33,
-34,
-35,
-33,
-34,
-34,
-34,
-34,
-34,
-34,
-33,
-34,
-34,
-33,
-34,
-33,
-34,
-35,
-33,
-35,
-34,
-34,
-34,
-34,
-34,
-34,
-35,
-34,
-33,
-35,
-34,
-34,
-34,
-34,
-35,
-35,
-33,
-34,
-35,
-34,
-33,
-34,
-34,
-34,
-35,
-33,
-34,
-33,
-33,
-34,
-33,
-34,
-35,
-34,
-33,
-34,
-34,
-35,
-34,
-34,
-33,
-33,
-34,
-34,
-35,
-35,
-34,
-35,
-33,
-33,
-34,
-34,
-34,
-35,
-35,
-35,
-34,
-33,
-35,
-33,
-35,
-34,
-33,
-35,
-34,
-35,
-33,
-33,
-34,
-34,
-35,
-34,
-34,
-34,
-33,
-34,
-34,
-34,
-34,
-34,
-34,
-34,
-34,
-35,
-34,
-35,
-33,
-34,
-34,
-33,
-35,
-35,
-35,
-34,
-34,
-34,
-34,
-34,
-33,
-35,
-33,
-33,
-35,
-33,
-35,
-34,
-34,
-34,
-34,
-35,
-34,
-33,
-34,
-34,
-35,
-33,
-33,
-35,
-35,
-35,
-33,
-34,
-35,
-34,
-35,
-34,
-34,
-34,
-34,
-33,
-34,
-34,
-34,
-35,
-34,
-34,
-34,
-34,
-34,
-34,
-34,
-34,
-34,
-34,
-35,
-35,
-34,
-35,
-34,
-34,
-34,
-33,
-34,
-34,
-34,
-33,
-34,
-34,
-34,
-34,
-34,
-33,
-34,
-34,
-34,
-34,
-34,
-34,
-34,
-34,
-33,
-33,
-35,
-34,
-35,
-34,
-35,
-34,
-34,
-34,
-35,
-34,
-34,
-34,
-34,
-33,
-34,
-34,
-35,
-34,
-34,
-34,
-34,
-33,
-34,
-36,
-35,
-35,
-34,
-34,
-34,
-34,
-34,
-33,
-34,
-34,
-34,
-34,
-34,
-34,
-34,
-35,
-34,
-35,
-34,
-35,
-35,
-35,
-35,
-34,
-35,
-34,
-33,
-33,
-35,
-33,
-35,
-33,
-34,
-34,
-34,
-34,
-35,
-34,
-35,
-33,
-33,
-33,
-34,
-33,
-34,
-33,
-33,
-34,
-35,
-34,
-35,
-33,
-33,
-33,
-35,
-34,
-34,
-34,
-34,
-34,
-33,
-34,
-33,
-34,
-34,
-34,
-34,
-35,
-34,
-35,
-34,
-34,
-33,
-35,
-33,
-35,
-33,
-35,
-34,
-34,
-34,
-34,
-33,
-33,
-35,
-33,
-34,
-33,
-34,
-34,
-33,
-33,
-33,
-34,
-33,
-35,
-34,
-35,
-33,
-35,
-33,
-34,
-34,
-34,
-34,
-34,
-35,
-34,
-34,
-35,
-34,
-34,
-33,
-33,
-34,
-35,
-33,
-35,
-34,
-34,
-35,
-34,
-34,
-34,
-34,
-34,
-33,
-34,
-33,
-34,
-35,
-33,
-33,
-34,
-35,
-34,
-35,
-33,
-34,
-35,
-34,
-35,
-33,
-34,
-34,
-34,
-34,
-34,
-34,
-34,
-34,
-35,
-34,
-33,
-34,
-34,
-34,
-34,
-34,
-33,
-34,
-34,
-33,
-34,
-34,
-34,
-35,
-34,
-34,
-34,
-34,
-34,
-34,
-34,
-34,
-34,
-35,
-33,
-35,
-34,
-33,
-35,
-34,
-33,
-33,
-34,
-33,
-35,
-34,
-34,
-35,
-33,
-35,
-35,
-34,
-34,
-35,
-35,
-34,
-34,
-34,
-34,
-34,
-34,
-34,
-34,
-34,
-34,
-34,
-35,
-34,
-34,
-34,
-34,
-35,
-34,
-35,
-33,
-34,
-34,
-34,
-34,
-34,
-33,
-33,
-34,
-33,
-34,
-35,
-34,
-34,
-34,
-34,
-34,
-34,
-35,
-34,
-34,
-35,
-35,
-34,
-34,
-34,
-34,
-35,
-34,
-33,
-35,
-34,
-34,
-34,
-35,
-35,
-34,
-34,
-34,
-34,
-34,
-35,
-33,
-34,
-34,
-33,
-33,
-34,
-35,
-33,
-35,
-34,
-34,
-35,
-33,
-33,
-35,
-33,
-34,
-34,
-34,
-34,
-34,
-34,
-34,
-35,
-34,
-34,
-34,
-34,
-34,
-33,
-33,
-35,
-34,
-35,
-35,
-34,
-34,
-34,
-34,
-34,
-34,
-35,
-34,
-34,
-34,
-34,
-34,
-34,
-33,
-35,
-34,
-34,
-35,
-34,
-34,
-34,
-34,
-34,
-34,
-34,
-34,
-34,
-35,
-34,
-34,
-34,
-33,
-35,
-34,
-35,
-35,
-34,
-34,
-34,
-34,
-34,
-34,
-35,
-34,
-34,
-34,
-33,
-34,
-33,
-33,
-34,
-35,
-33,
-34,
-35,
-34,
-34,
-34,
-35,
-33,
-33,
-34,
-34,
-35,
-34,
-34,
-34,
-34,
-34,
-35,
-35,
-34,
9,
9,
8,
7,
8,
8,
7,
8,
9,
7,
8,
9,
9,
8,
9,
9,
11,
8,
8,
8,
8,
8,
8,
8,
7,
7,
8,
8,
9,
9,
9,
9,
9,
9,
8,
9,
9,
9,
8,
8,
8,
11,
11,
9,
7,
7,
7,
8,
7,
8,
10,
7,
8,
8,
8,
8,
9,
9,
9,
9,
7,
9,
8,
8,
8,
8,
9,
10,
9,
9,
9,
8,
8,
5,
10,
9,
11,
8,
8,
8,
7,
7,
8,
9,
8,
8,
8,
5,
8,
9,
9,
8,
7,
9,
10,
8,
9,
8,
8,
8,
9,
11,
8,
9,
7,
9,
8,
8,
8,
9,
8,
8,
8,
8,
7,
7,
8,
7,
8,
13,
8,
9,
9,
7,
9,
9,
9,
8,
9,
8,
7,
11,
9,
9,
8,
8,
9,
9,
7,
9,
9,
7,
7,
9,
11,
7,
8,
9,
8,
8,
9,
7,
10,
10,
9,
9,
9,
7,
8,
9,
8,
7,
8,
9,
8,
8,
8,
8,
9,
7,
7,
9,
7,
5,
7,
8,
9,
9,
9,
8,
7,
8,
9,
9,
8,
9,
10,
11,
9,
9,
8,
9,
8,
8,
7,
8,
9,
9,
8,
8,
9,
8,
8,
9,
11,
8,
8,
9,
9,
9,
8,
9,
9,
8,
8,
8,
12,
3,
9,
9,
7,
8,
8,
9,
8,
9,
9,
8,
8,
8,
8,
9,
8,
8,
6,
7,
7,
8,
9,
9,
7,
9,
8,
8,
7,
8,
9,
11,
9,
9,
8,
8,
9,
8,
8,
8,
8,
10,
8,
9,
9,
8,
8,
8,
8,
10,
9,
9,
9,
9,
9,
9,
9,
6,
11,
8,
9,
8,
8,
7,
14,
9,
9,
9,
9,
8,
5,
11,
8,
7,
9,
9,
7,
8,
9,
8,
8,
8,
8,
6,
8,
9,
7,
9,
8,
9,
9,
8,
11,
9,
9,
8,
6,
8,
9,
9,
8,
8,
8,
8,
8,
8,
9,
9,
9,
7,
7,
9,
9,
8,
7,
8,
8,
9,
8,
7,
10,
8,
8,
8,
9,
9,
8,
9,
9,
4,
9,
9,
9,
8,
9,
4,
7,
7,
9,
8,
7,
9,
10,
7,
8,
8,
7,
9,
5,
9,
9,
9,
8,
9,
8,
8,
9,
9,
9,
8,
10,
13,
9,
9,
9,
5,
8,
9,
9,
8,
8,
5,
8,
10,
11,
9,
9,
9,
7,
7,
9,
9,
7,
9,
9,
8,
11,
9,
9,
8,
9,
9,
8,
8,
8,
8,
9,
9,
8,
11,
9,
5,
8,
8,
9,
9,
8,
8,
5,
8,
9,
9,
8,
9,
13,
7,
7,
8,
9,
8,
8,
11,
7,
8,
9,
8,
7,
8,
8,
8,
5,
8,
9,
9,
9,
9,
8,
7,
9,
4,
7,
8,
8,
0,
9,
9,
9,
10,
8,
8,
8,
9,
8,
8,
8,
7,
-1,
9,
10,
7,
8,
9,
8,
8,
12,
8,
9,
8,
8,
9,
9,
8,
10,
3,
9,
9,
7,
7,
8,
8,
8,
8,
7,
8,
8,
10,
10,
9,
9,
8,
11,
11,
8,
9,
8,
9,
9,
8,
7,
10,
9,
7,
9,
8,
9,
8,
8,
8,
7,
8,
8,
9,
11,
9,
8,
9,
9,
8,
8,
9,
9,
9,
10,
8,
10,
13,
8,
9,
10,
8,
8,
6,
9,
9,
9,
8,
8,
10,
13,
8,
8,
8,
8,
8,
9,
8,
8,
8,
8,
7,
9,
8,
7,
8,
8,
11,
7,
7,
9,
8,
8,
9,
9,
8,
8,
8,
8,
7,
9,
9,
8,
8,
8,
8,
10,
9,
8,
8,
8,
10,
8,
9,
5,
8,
8,
8,
8,
8,
8,
9,
9,
9,
9,
9,
8,
9,
8,
9,
7,
7,
8,
5,
8,
8,
8,
8,
8,
8,
9,
9,
10,
11,
8,
9,
9,
9,
10,
8,
8,
8,
8,
8,
8,
9,
11,
2,
8,
9,
9,
8,
8,
8,
9,
8,
8,
9,
9,
8,
8,
9,
9,
11,
3,
9,
8,
8,
9,
9,
9,
9,
11,
9,
9,
8,
9,
9,
8,
8,
9,
9,
9,
8,
12,
12,
9,
8,
9,
7,
8,
9,
8,
8,
8,
8,
8,
8,
8,
8,
8,
8,
11,
9,
9,
8,
8,
9,
7,
9,
9,
8,
8,
8,
10,
13,
7,
8,
8,
8,
9,
8,
9,
9,
8,
9,
8,
8,
7,
8,
8,
9,
7,
8,
9,
8,
9,
9,
9,
9,
8,
8,
8,
8,
8,
8,
8,
8,
8,
9,
2,
9,
9,
9,
8,
10,
17,
17,
8,
9,
7,
9,
9,
9,
8,
11,
7,
8,
9,
8,
7,
7,
8,
7,
9,
8,
8,
9,
8,
8,
8,
9,
7,
9,
9,
9,
9,
8,
7,
8,
7,
12,
8,
8,
8,
9,
10,
9,
8,
9,
9,
7,
8,
9,
8,
8,
8,
8,
9,
9,
7,
9,
9,
9,
8,
9,
8,
8,
9,
9,
8,
7,
10,
10,
7,
8,
8,
8,
7,
7,
7,
8,
9,
7,
9,
8,
9,
9,
8,
8,
9,
9,
5,
7,
8,
9,
8,
8,
8,
8,
9,
5,
8,
11,
8,
8,
8,
9,
9,
4,
8,
8,
8,
8,
9,
8,
11,
10,
6,
9,
9,
8,
8,
9,
8,
9,
8,
9,
6,
8,
9,
8,
8,
10,
8,
9,
9,
8,
8,
9,
9,
8,
7,
13,
12,
11,
13,
12,
13,
13,
13,
11,
13,
16,
15,
19,
18,
17,
19,
21,
21,
20,
21,
21,
21,
22,
23,
24,
23,
25,
28,
27,
25,
28,
28,
28,
29,
28,
27,
27,
31,
32,
33,
32,
33,
33,
35,
36,
35,
37,
40,
40,
40,
42,
42,
41,
43,
44,
43,
46,
48,
48,
48,
49,
49,
55,
51,
51,
55,
55,
55,
57,
56,
59,
57,
56,
60,
61,
61,
63,
63,
64,
67,
67,
67,
67,
64,
68,
68,
69,
69,
69,
70,
72,
71,
71,
71,
71,
72,
73,
69,
73,
69,
73,
71,
74,
75,
77,
75,
81,
75,
75,
74,
77,
75,
76,
75,
76,
69,
77,
76,
75,
77,
77,
77,
77,
76,
80,
76,
77,
75,
76,
77,
77,
77,
72,
75,
76,
76,
76,
73,
76,
77,
76,
79,
75,
77,
76,
77,
75,
75,
75,
75,
73,
76,
75,
74,
74,
74,
73,
73,
75,
71,
71,
73,
73,
73,
73,
72,
74,
68,
72,
71,
72,
73,
69,
71,
71,
71,
72,
75,
75,
69,
72,
69,
69,
72,
40,
68,
69,
68,
69,
70,
72,
69,
69,
74,
63,
67,
69,
67,
69,
69,
68,
68,
68,
67,
67,
67,
67,
67,
67,
65,
61,
65,
66,
64,
66,
66,
66,
66,
69,
72,
64,
64,
65,
65,
65,
64,
63,
64,
66,
64,
64,
64,
61,
63,
63,
61,
61,
63,
62,
61,
60,
61,
62,
62,
61,
61,
60,
61,
61,
61,
61,
61,
60,
60,
59,
58,
59,
54,
58,
57,
57,
57,
57,
57,
56,
58,
59,
57,
56,
57,
56,
57,
56,
56,
55,
55,
55,
56,
57,
57,
55,
56,
53,
55,
53,
55,
55,
55,
53,
45,
60,
60,
52,
53,
52,
51,
49,
51,
51,
53,
47,
52,
51,
49,
52,
52,
51,
52,
51,
52,
49,
51,
51,
49,
51,
50,
51,
53,
47,
47,
49,
51,
48,
49,
50,
50,
53,
48,
48,
47,
46,
48,
47,
47,
47,
44,
48,
46,
47,
45,
47,
46,
47,
47,
47,
47,
47,
47,
47,
47,
46,
47,
46,
47,
45,
48,
50,
46,
46,
48,
45,
46,
46,
46,
43,
46,
45,
44,
43,
46,
43,
43,
43,
44,
43,
43,
43,
43,
42,
40,
43,
41,
44,
42,
41,
41,
42,
41,
41,
41,
43,
43,
42,
43,
41,
40,
41,
41,
42,
41,
43,
42,
43,
43,
41,
43,
41,
33,
41,
39,
40,
40,
40,
41,
40,
39,
38,
39,
39,
38,
37,
33,
37,
41,
36,
36,
37,
38,
37,
39,
35,
35,
35,
35,
38,
36,
36,
37,
36,
37,
39,
32,
35,
37,
36,
36,
35,
40,
37,
37,
29,
37,
39,
37,
37,
38,
36,
38,
33,
31,
31,
35,
37,
36,
35,
34,
36,
32,
35,
33,
34,
37,
33,
33,
34,
33,
36,
33,
33,
33,
33,
33,
33,
33,
32,
31,
34,
33,
33,
33,
31,
33,
32,
33,
29,
34,
33,
31,
33,
33,
33,
33,
33,
34,
31,
33,
33,
33,
33,
34,
33,
32,
33,
33,
33,
33,
33,
33,
33,
35,
33,
31,
38,
33,
34,
31,
32,
33,
31,
32,
32,
31,
33,
29,
29,
29,
31,
32,
28,
30,
31,
31,
30,
30,
30,
30,
29,
30,
30,
30,
29,
31,
32,
29,
29,
33,
31,
32,
30,
30,
29,
31,
31,
31,
28,
29,
32,
31,
31,
30,
31,
32,
36,
36,
32,
31,
31,
29,
31,
31,
32,
32,
31,
31,
31,
31,
30,
30,
29,
31,
31,
29,
30,
29,
29,
29,
31,
31,
28,
28,
28,
29,
29,
29,
29,
29,
29,
27,
33,
29,
28,
27,
28,
28,
28,
28,
30,
29,
28,
29,
27,
28,
29,
29,
27,
29,
26,
27,
29,
29,
28,
28,
29,
26,
29,
27,
28,
27,
29,
29,
27,
28,
29,
29,
26,
27,
27,
27,
29,
26,
28,
27,
28,
30,
28,
33,
27,
27,
27,
25,
28,
25,
27,
28,
27,
26,
27,
27,
25,
26,
23,
23,
25,
24,
25,
25,
27,
24,
26,
27,
24,
24,
26,
25,
25,
26,
26,
24,
25,
25,
24,
25,
25,
23,
25,
25,
25,
20,
23,
23,
24,
23,
24,
23,
22,
23,
21,
19,
23,
24,
24,
24,
24,
24,
23,
25,
24,
29,
24,
21,
21,
23,
23,
23,
25,
24,
23,
23,
24,
23,
23,
23,
24,
16,
25,
23,
23,
25,
23,
24,
23,
20,
20,
21,
25,
21,
20,
21,
23,
23,
24,
29,
24,
23,
22,
22,
23,
24,
23,
24,
17,
23,
23,
23,
22,
22,
22,
21,
20,
21,
21,
21,
18,
19,
21,
22,
23,
20,
21,
23,
20,
19,
20,
20,
19,
18,
19,
20,
17,
21,
19,
20,
19,
20,
20,
19,
21,
21,
19,
20,
19,
19,
21,
19,
18,
19,
19,
19,
19,
19,
17,
17,
17,
17,
17,
19,
18,
20,
19,
18,
19,
20,
17,
18,
16,
19,
19,
19,
19,
19,
20,
18,
21,
19,
18,
19,
17,
20,
21,
17,
17,
17,
19,
17,
17,
19,
18,
17,
19,
17,
17,
19,
17,
19,
19,
17,
17,
21,
17,
19,
19,
18,
16,
19,
17,
19,
18,
20,
17,
17,
17,
17,
17,
18,
16,
19,
21,
17,
16,
19,
19,
17,
18,
18,
19,
17,
17,
17,
16,
19,
17,
16,
20,
15,
19,
18,
17,
17,
17,
18,
17,
19,
14,
16,
17,
17,
16,
17,
17,
16,
17,
17,
16,
16,
17,
17,
16,
16,
16,
17,
16,
16,
18,
16,
16,
16,
14,
15,
13,
16,
15,
15,
16,
16,
16,
15,
14,
17,
17,
17,
14,
16,
16,
15,
16,
16,
21,
15,
15,
14,
15,
15,
14,
14,
16,
11,
14,
17,
16,
15,
15,
11,
11,
16,
13,
11,
15,
15,
16,
15,
16,
11,
15,
10,
15,
15,
13,
13,
14,
15,
15,
15,
8,
14,
13,
15,
14,
15,
13,
13,
14,
9,
11,
13,
15,
15,
16,
12,
13,
15,
15,
14,
14,
13,
13,
14,
14,
14,
11,
14,
14,
13,
15,
14,
13,
13,
13,
19,
13,
13,
13,
13,
15,
13,
13,
15,
8,
13,
13,
14,
13,
13,
14,
13,
11,
14,
12,
12,
13,
13,
13,
12,
13,
11,
11,
12,
13,
13,
13,
14,
13,
14,
12,
11,
11,
12,
11,
12,
11,
11,
13,
14,
19,
11,
11,
13,
14,
13,
12,
12,
11,
12,
12,
13,
13,
16,
13,
14,
13,
13,
13,
13,
13,
11,
12,
13,
13,
13,
12,
12,
13,
12,
15,
12,
12,
12,
12,
11,
12,
13,
13,
12,
12,
12,
12,
9,
15,
13,
13,
11,
11,
12,
12,
11,
13,
9,
13,
11,
12,
13,
12,
12,
14,
13,
13,
13,
9,
13,
13,
12,
12,
11,
12,
12,
12,
15,
13,
12,
12,
12,
13,
9,
12,
13,
13,
12,
12,
11,
11,
12,
9,
11,
12,
12,
12,
12,
12,
11,
13,
10,
12,
13,
12,
13,
12,
12,
11,
9,
12,
12,
10,
12,
12,
11,
11,
12,
12,
10,
13,
13,
12,
12,
9,
9,
12,
11,
13,
11,
13,
12,
12,
13,
11,
11,
12,
12,
13,
12,
12,
12,
11,
12,
12,
12,
13,
13,
11,
12,
10,
12,
12,
10,
10,
10,
9,
11,
12,
12,
12,
11,
12,
11,
11,
9,
12,
12,
12,
10,
11,
11,
13,
9,
13,
13,
11,
13,
11,
12,
10,
10,
10,
13,
13,
15,
7,
11,
9,
11,
11,
11,
9,
10,
13,
13,
10,
9,
9,
9,
11,
10,
9,
8,
13,
11,
12,
11,
21,
9,
11,
10,
11,
11,
11,
9,
11,
13,
9,
13,
13,
11,
11,
11,
11,
11,
11,
20,
13,
9,
12,
12,
12,
11,
11,
6,
10,
8,
10,
11,
11,
10,
8,
12,
11,
11,
12,
11,
11,
12,
9,
10,
11,
13,
13,
7,
11,
10,
9,
11,
9,
11,
9,
8,
8,
15,
9,
9,
9,
9,
10,
12,
12,
10,
10,
10,
11,
11,
9,
11,
8,
9,
9,
11,
10,
9,
9,
9,
8,
10,
10,
9,
7,
10,
9,
10,
8,
9,
11,
11,
8,
9,
10,
8,
9,
9,
9,
7,
15,
9,
8,
9,
11,
11,
8,
11,
9,
13,
9,
9,
10,
9,
9,
10,
9,
9,
9,
9,
9,
8,
9,
9,
8,
9,
9,
8,
8,
9,
9,
9,
9,
13,
13,
9,
3,
11,
10,
8,
9,
9,
8,
9,
12,
10,
8,
8,
9,
10,
9,
9,
9,
9,
9,
10,
9,
9,
9,
10,
9,
9,
9,
10,
7,
8,
9,
9,
8,
10,
9,
11,
9,
9,
9,
8,
9,
9,
8,
7,
10,
8,
9,
9,
10,
11,
11,
9,
8,
8,
8,
9,
9,
9,
8,
10,
9,
9,
9,
12,
9,
9,
9,
13,
8,
11,
11,
7,
10,
9,
8,
9,
8,
8,
9,
9,
12,
5,
8,
8,
8,
9,
8,
8,
8,
8,
8,
9,
8,
9,
8,
7,
8,
9,
9,
8,
9,
11,
10,
9,
8,
9,
7,
8,
11,
4,
8,
8,
8,
8,
8,
8,
8,
9,
10,
12,
9,
9,
9,
9,
21,
15,
9,
9,
9,
9,
9,
8,
9,
9,
9,
5,
1,
11,
10,
9,
9,
9,
9,
8,
9,
12,
9,
9,
8,
8,
9,
8,
8,
10,
7,
10,
8,
8,
7,
9,
8,
8,
9,
5,
7,
9,
9,
8,
9,
8,
8,
7,
8,
9,
8,
9,
9,
9,
8,
9,
7,
9,
9,
9,
8,
8,
8,
6,
11,
5,
7,
8,
6,
9,
9,
8,
8,
9,
9,
9,
8,
8,
8,
9,
9,
8,
10,
9,
7,
8,
11,
11,
9,
9,
9,
7,
10,
7,
8,
8,
9,
8,
10,
11,
9,
7,
8,
8,
7,
9,
8,
8,
8,
9,
9,
9,
11,
10,
8,
9,
9,
7,
8,
8,
13,
9,
9,
8,
8,
8,
7,
9,
7,
7,
8,
8,
8,
9,
7,
7,
9,
7,
9,
9,
5,
8,
10,
8,
9,
9,
9,
11,
11,
11,
9,
9,
8,
8,
8,
9,
9,
7,
9,
9,
9,
8,
8,
9,
11,
8,
9,
8,
9,
8,
13,
9,
9,
8,
9,
9,
8,
8,
8,
8,
8,
7,
10,
13,
8,
10,
9,
9,
9,
9,
9,
7,
7,
7,
9,
11,
8,
9,
9,
9,
7,
7,
8,
9,
9,
8,
8,
9,
8,
8,
8,
9,
9,
9,
8,
9,
9,
9,
9,
12,
8,
8,
8,
9,
8,
10,
9,
8,
11,
9,
8,
9,
9,
10,
10,
9,
9,
9,
9,
11,
9,
9,
9,
9,
9,
9,
8,
9,
9,
9,
9,
10,
8,
8,
8,
11,
8,
9,
8,
8,
10,
9,
7,
7,
11,
8,
9,
9,
9,
8,
9,
9,
7,
7,
13,
9,
9,
9,
9,
9,
9,
9,
8,
9,
9,
9,
9,
9,
10,
9,
9,
9,
9,
7,
9,
9,
8,
9,
8,
8,
9,
3,
7,
7,
7,
8,
9,
8,
10,
9,
10,
9,
8,
8,
9,
9,
7,
4,
12,
12,
8,
8,
9,
8,
9,
9,
9,
6,
9,
9,
11,
10,
10,
9,
8,
9,
10,
9,
11,
13,
9,
9,
7,
5,
9,
9,
7,
8,
8,
8,
8,
8,
9,
9,
8,
8,
9,
11,
9,
9,
9,
10,
8,
8,
3,
8,
8,
7,
8,
9,
8,
9,
10,
5,
9,
9,
6,
6,
7,
9,
8,
9,
11,
9,
9,
9,
8,
9,
8,
7,
7,
8,
8,
14,
8,
9,
8,
9,
10,
8,
12,
11,
9,
9,
9,
9,
9,
9,
8,
8,
9,
9,
9,
9,
8,
8,
9,
9,
9,
9,
9,
8,
8,
9,
8,
7,
10,
14,
8,
9,
10,
10,
9,
9,
9,
9,
11,
9,
7,
9,
9,
8,
9,
9,
8,
16,
9,
9,
8,
8,
7,
7,
9,
8,
9,
7,
13,
9,
9,
8,
9,
9,
9,
5,
5,
8,
9,
8,
8,
9,
7,
9,
8,
9,
8,
8,
8,
8,
8,
9,
9,
7,
9,
9,
8,
8,
9,
10,
9,
9,
9,
10,
10,
10,
10,
10,
9,
9,
8,
9,
9,
9,
8,
8,
9,
9,
9,
9,
8,
9,
9,
8,
8,
9,
8,
9,
6,
8,
9,
11,
11,
9,
9,
9,
10,
8,
9,
8,
12,
8,
10,
9,
9,
9,
9,
9,
7,
9,
8,
9,
7,
9,
13,
9,
9,
11,
8,
6,
9,
9,
9,
9,
9,
8,
9,
9,
9,
8,
9,
10,
7,
10,
8,
9,
9,
8,
8,
8,
5,
15,
11,
4,
4,
9,
16,
8,
9,
9,
10,
10,
9,
15,
9,
11,
9,
10,
9,
10,
9,
9,
13,
9,
10,
10,
13,
9,
9,
9,
8,
8,
8,
9,
9,
9,
9,
8,
10,
10,
13,
9,
9,
9,
8,
9,
7,
9,
8,
7,
8,
10,
9,
9,
9,
8,
7,
9,
1,
9,
9,
8,
9,
9,
9,
10,
10,
8,
7,
8,
8,
8,
9,
9,
8,
9,
13,
11,
9,
11,
8,
9,
8,
8,
7,
7,
8,
9,
8,
8,
10,
11,
8,
9,
13,
10,
11,
7,
7,
8,
8,
8,
8,
3,
9,
9,
9,
8,
9,
9,
9,
7,
7,
9,
9,
8,
9,
8,
8,
8,
10,
10,
7,
9,
8,
8,
8,
8,
9,
9,
9,
9,
9,
7,
9,
8,
8,
9,
11,
8,
8,
9,
8,
9,
9,
8,
7,
9,
9,
8,
8,
9,
9,
8,
8,
9,
8,
12,
8,
8,
9,
8,
8,
8,
9,
7,
13,
8,
10,
8,
8,
8,
7,
8,
7,
7,
8,
9,
8,
8,
7,
9,
8,
8,
8,
8,
8,
8,
9,
9,
8,
8,
8,
7,
8,
9,
8,
8,
8,
8,
9,
7,
12,
10,
9,
7,
8,
8,
9,
8,
7,
8,
8,
8,
8,
9,
9,
8,
8,
9,
13,
9,
9,
9,
7,
8,
8,
7,
8,
12,
8,
9,
9,
8,
8,
8,
9,
7,
8,
9,
9,
9,
8,
9,
9,
7,
7,
7,
10,
6,
9,
8,
9,
8,
8,
11,
7,
10,
9,
11,
7,
8,
9,
7,
8,
9,
9,
8,
8,
